Cantaniño cuenta un cuento
 
{{Infobox film
| name           = Cantaniño cuenta un cuento
| image          =
| caption        =
| director       =
| producer       =
| writer         =
| starring       =
| music          =
| cinematography =
| editor         =
| distributor    =
| released       =  
| runtime        =
| country        = Argentina
| language       = Spanish
| budget         =
}}
Cantaniño cuenta un cuento is a 1979 Argentine film.

==External links==
*  

 
 
 
 


 