La Aventura de los paraguas asesinos
{{Infobox film
| name           =La Aventura de los paraguas asesinos
| image          =La Aventura de los paraguas asesinos.jpg
| image_size     =
| caption        =
| director       =Carlos Galettini
| producer       =
| writer         =
| narrator       =
| starring       =
| music          =
| cinematography =
| editor       =
| distributor    =
| released       = 1979
| runtime        =
| country        = Argentina Spanish
| budget         =
}}
 1979 Argentina|Argentine comedy film directed by Carlos Galettini.

==Cast==
* Ricardo Bauleo as Tiburón
* Víctor Bó as Delfín
* Julio De Grazia as Mojarrita
* Graciela Alfano as Agente Serena
* Gianni Lunadei

==External links==
*  

 
 
 
 
 

 