Las Locuras del profesor
{{Infobox film
| name           =Las Locuras del profesor
| image          =
| image_size     =
| caption        =
| director       =
| producer       =
| writer         =
| narrator       =
| starring       =
| music          =
| cinematography =
| editor       =
| distributor    =
| released       = 1979
| runtime        =
| country        = Argentina Spanish
| budget         =
}}
 1979 Argentina|Argentine comedy film directed by Palito Ortega.

==Cast==

*Carlos Balá - Profesor Socrates Perez
*Javier Portales - Señor De Ulloa
*Raúl Rossi - Director
*Nené Malbrán - Profesora Susana
*Tino Pascali - Profesor Química
*Palito Ortega - Mozo

==External links==
*  

 
 
 
 

 