Daijōbu, My Friend
{{Infobox film
| name           = Daijōbu, My Friend
| image          = 
| image size     = 
| border         = 
| alt            = 
| caption        = 
| director       = Ryū Murakami
| producer       = 
| writer         = 
| screenplay     = Ryū Murakami
| story          = 
| based on       =  
| narrator       = 
| starring       = Peter Fonda
| music          = 
| cinematography = 
| editing        = 
| studio         = 
| distributor    = 
| released       =  
| runtime        = 
| country        = Japan
| language       = Japanese
| budget         = 
| gross          = 
}} 1983 Japanese film starring Peter Fonda as a superhero called Gonzy Traumerai.  The film, written and directed by Ryu Murakami, based on his own novel, is a parody of such films as Superman (1978 film)|Superman, E.T. the Extra-Terrestrial, and Attack of the Killer Tomatoes.

==External links==
*   on IMDb

 

 
 
 
 
 


 
 