Rosa de lejos
{{Infobox film
| name           =Rosa de lejos
| image          =
| image_size     =
| caption        =
| director       =
| producer       =
| writer         =
| narrator       =
| starring       =
| music          =
| cinematography =
| editor       =
| distributor    =
| released       = 1980
| runtime        =
| country        = Argentina Spanish
| budget         =
}}
 1980 Argentina|Argentine film.

==Cast==
 

== External links ==
*  

 
 
 

 