Imagine the Sound
{{Infobox Film
| name           = Imagine the Sound
| image          = Imagine_the_Sound.jpg
| image_size     = 
| caption        = 
| director       = Ron Mann Bill Smith
| writer         = 
| narrator       = 
| starring       = Paul Bley   Bill Dixon   Archie Shepp   Cecil Taylor
| music          = 
| cinematography = Robert Fresco
| editing        = Sonya Polonsky
| distributor    = 
| released       = 1981/2007
| runtime        = 90 min.
| country        = Canada English
| budget         = 
| gross          = 
| preceded_by    = 
| followed_by    = 
}}
 Canadian documentary SXSW festival in Austin, Texas.

== References ==
 

== External links ==
*  
*  

 
 
 
 
 
 
 

 
 