Thicker than Water (2006 film)
{{Infobox film
| name           = Thicker than Water 
| image          = Thicker than water xlg.jpg
| image_size     = 
| caption        = 
| director       = Árni Ásgeirsson
| producer       = Snorri Þórisson
| writer         = Árni Ásgeirsson  Denijal Hasanovic  Jón Atli Jónason
| narrator       = 
| starring       = Hilmar Jonsson  Margrét Vilhjálmsdóttir  Laufey Elísasdóttir  Aaron Brink  Elma Lisa Gunnarsdottir
| music          = 
| cinematography = 
| editing        = Elísabet Ronaldsdóttir
| distributor    = 
| released       = Iceland 24 February 2006 
| runtime        = 
| country        = 
| language       = Icelandic
| budget         = 
| gross          = 
| preceded_by    = 
| followed_by    = 
}}
 2006 Icelandic film.

== External links ==
*  
*  

 
 
 
 


 
 