Der neue Schreibtisch
 
{{Infobox film
| name           = The New Desk
| image          = 
| caption        = 
| director       = Karl Valentin
| producer       = Peter Ostermeier	
| writer         = 
| starring       = Karl Valentin
| music          = 
| cinematography = 
| editing        = 
| distributor    = 
| released       = 1913
| runtime        = 13 minutes
| country        = German Empire German intertitles
| budget         = 
}}
Der Neue Schreibtisch ( ) is a short German comedy film made in 1913. In the plot a busy businessman tries to get comfortable at his new desk, so he starts cutting off parts of the legs, but eventually shortens the legs off entirely.

== External links ==
* 
*  

 
 
 
 
 


 
 