Raja Jani
 
 
{{Infobox film
| name           = Raja Jani
| image          = 
| image_size     = 
| caption        = 
| director       = Mohan Segal
| producer       = Madan Mohla
| writer         = 
| narrator       = 
| starring       = Dharmendra Hema Malini Premnath Prem Chopra  music          = Laxmikant Pyarelal
| cinematography = Madan Sinha
| editing        = Lachchmandas
| distributor    = 
| released       = 1972
| runtime        = 
| country        = India
| language       = Hindi
| budget         = 
}}
 Johnny Walker, Bindu and Helen Jairag Richardson|Helen. The music is by Laxmikant Pyarelal.

==Soundtrack==
{| border="4" cellpadding="7" cellspacing="0" style="margin: 1em 1em 1em 0; background: #f9f9f9; border: 1px #aaa solid; border-collapse: collapse; font-size: 95%;"
|- bgcolor="#CCCCCC" align="center"
! # !! Title !! Singer(s)
|-
| 1
| "Aa Aa Kuchh Kehna"
| Lata Mangeshkar
|-
| 2
| "A. B. C. Chhodo"
| Lata Mangeshkar
|-
| 3
| "Duniya Ka Mela Mele Mein Ladki"
| Lata Mangeshkar
|-
| 4
| "Jani O Jaani"
| Kishore Kumar
|-
| 5
| "Kitna Maza Aa Raha Hai"
| Lata Mangeshkar
|-
| 6
| "Mubarak Ho Tujhe Ae Dil"
| Lata Mangeshkar
|}

== External links ==
*  

 
 
 
 


 