Gaai Aur Gori
{{Infobox Film
| name           = Gaai Aur Gori
| image          = Gaai Aur Gori 1973 film poster.jpg
| image_size     = 
| caption        = Film poster
| director       = M.A. Thirumugham
| producer       = Sandow M.M.A. Chinnappa Devar
| writer         = Inder Raj Anand
| narrator       =  Bindu
| music          = Laxmikant-Pyarelal
| cinematography = 
| editing        = 
| studio         = 
| distributor    = 
| released       = 
| runtime        = 
| country        = India
| language       = Hindi
| budget         = 
| gross          = 
| preceded_by    = 
| followed_by    = 
}} Indian film directed by M. A. Thirumugham.

== External links ==
*  

 
 
 
 


 