Ek Bechara
{{Infobox Film
| name           = Ek Bechara
| image          = 
| image_size     = 
| caption        = 
| director       = S. M. Abbas
| producer       = B. N. Ghosh
| writer         = 
| narrator       =  Pran
| music          = Laxmikant Pyarelal
| cinematography = 
| editing        = 
| distributor    = 
| released       = 1972
| runtime        = 
| country        =   India
| language       = Hindi 
| budget         = 
| preceded_by    = 
| followed_by    = 
}}

Ek Bechara is a 1972 Hindi film produced by B.N. Ghosh and directed by S. M. Abbas. The film stars Jeetendra, Rekha, Vinod Khanna, Pran (actor)|Pran, Johnny Walker (actor)| Johnny Walker and Bindu (actress)| Bindu. The music is by Laxmikant Pyarelal.

==Cast==
*Jeetendra 		
*Rekha		
*Vinod Khanna 		
*Pran (actor)| Pran 	
*Kalpana 		 Johnny Walker 		
*Bindu 		
*Anwar Hussain 

== External links ==
*  

 
 
 
 
 