Dulhan
 
{{Infobox film
| name           = Dulhan
| image          = 
| caption        = 
| director       = C. V. Rajendran
| producer       = B Anandwali
| writer         = 
| starring       = Hema Malini Jeetendra Ashok Kumar Nazir Hussain
| music          = Laxmikant Pyarelal
| cinematography = 
| editing        = 
| distributor    = 
| released       = 1975
| runtime        = 
| country        = India
| language       = Hindi 
| budget         = 
}}
 Mehmood and Paintal (comedian)|Paintal.
The films music is by Laxmikant Pyarelal

Dulhan & Dulha also refer to the Hindi/Urdu words for "bride" and "groom" 

==References==
 

== External links ==
*  

 

 
 
 
 


 