The Final Option (1994 film)
 
 
{{Infobox film
| name           = The Final Option
| image          = 
| caption        = 
| director       = Gordon Chan
| producer       = 
| writer         = Chan Hing-Kai
| narrator       =  Michael Wong
| music          = 
| cinematography = 
| editing        = 
| distributor    = 
| released       = 1994
| runtime        = 103 mins
| country        = Hong Kong
| language       = Cantonese
| budget         = 
}}
The Final Option is a 1994 Hong Kong film.

==External links==
* 

 

 
 
 
 
 
 
 


 
 