Ondu Premada Kathe
{{Infobox film
| name           = Ondu Premada Kathe
| image          = 
| image_size     = 
| border         = 
| alt            = 
| caption        = 
| film name      = Ondu Premada Kathe
| director       = S. M. Joe Simon
| producer       = H. Ramesh T. B. R. Shivaram T. Ravi
| writer         = 
| screenplay     = 
| story          = B. R. Lakshman Rao
| based on       =  
| narrator       =  Sharada
| music          = T. G. Lingappa
| cinematography = Z. A. Khan
| editing        = P. U. S. Maniyam
| studio         = 
| distributor    = R. S. R. Combines
| released       =  
| runtime        = 
| country        = India
| language       = Kannada
| budget         = 
| gross          = 
}}
 Sharada in the lead roles.

==Cast==
* Rajinikanth Sharada
* Prema Karanth Ashok

==References==
 

==External links==
*  

 
 
 
 
 


 