Do Thug
{{Infobox Film
| name           = Do Thug
| image          = Do Thug 1975 film poster.jpg
| image_size     = 
| caption        = Film poster
| director       = S. D. Narang
| producer       = 
| writer         = 
| narrator       = 
| starring       = Hema Malini Shatrughan Sinha Keshto Mukherjee
| music          = 
| cinematography = 
| editing        = 
| distributor    = 
| released       = 
| runtime        = 
| country        = India
| language       = Hindi
| budget         = 
| gross          = 
| preceded_by    = 
| followed_by    = 
}}
 Indian film directed by S. D. Narang.

== External links ==
*  

 
 
 

 