Vaanampadi
 {{Infobox film
| name           = Vaanampadi
| image          =
| image_size     =
| caption        =
| director       =
| producer       =Kaviyarasu Kannadhasan
| writer         =
| narrator       =
| starring       =S.S.Rajendran Nagesh Devika Kamal Haasan Sheela
| music          = K. V. Mahadevan 
| cinematography =
| editing        =
| distributor    =
| released       = 9 March 1963
| runtime        =
| country        = India Tamil
| budget         =
| gross          =
| preceded_by    =
| followed_by    =
| website        =
}}

Vaanampadi is a Tamil language film released in 1963. It stars S.S.Rajendran, R. Muthuraman and devika in the lead  roles, T. R. Ramachandran, R. S. Manohar, Pushpalatha and Sheela are in supporting roles. The film also has Kamal Hassan as an 8 year old Son of T. R. Ramachandran & Pushpalatha.

==References==
 

 
 
 
 
 
 


 