Sattam En Kaiyil
{{Infobox film
| name           = Sattam En Kaiyil
| image          = sattam1978.jpg
| image_size     =
| caption        = LP Vinyl Records Cover
| director       = T.N.Baalu
| producer       =
| writer         =
| narrator       =
| starring       = Kamal Haasan Sripriya Satyaraj Elizabeth Suruli Rajan
| music          = Ilayaraaja
| cinematography = N.K.Viswanathan
| editing        =
| distributor    =
| released       = 1978
| runtime        =
| country        = India Tamil
| budget         =
| gross          =
| preceded_by    =
| followed_by    =
| website        =
}}
 1978 Cinema Indian feature directed by T.N.Baalu, starring Kamal Haasan in the lead role of the protagonist. 

==Cast==

*Kamal Haasan
*Sripriya Srikanth
*S. A. Ashokan
*Thengai Srinivasan
*Suruli Rajan
*V.Gopalakrishnan
*Pushpalatha
*Gandhimathi
*Satyaraj - (Introducing)
*Miss.Elizabeth - (Guest)

==References==
 

==External links==
*  

 
 
 
 
 


 