Pattikkaattu Raja
{{Infobox film
| name           = Pattikkaattu Raja
| image          = 
| image_size     = 
| caption        = 
| director       = K.Shanmugam
| producer       = Ravi Combines
| writer         = 
| narrator       = 
| starring       = Sivakumar Kamal Haasan Jayasudha Sri Priya Pandari Bai
| music          = Sankar Ganesh
| cinematography = 
| editing        = M.S.Mani - Gemini Labs
| distributor    = 
| released       = 7 December 1975
| runtime        = 3979 Meters
| country        = India Tamil
| budget         = 
| gross          = 
| preceded_by    = 
| followed_by    = 
| website        = 
}}

Pattikkaattu Raja ( ) is a Tamil language film starring Sivakumar in the  title role.  Jayasudha and Sri Priya also portray important roles.Kamal Haasan plays a very small supporting role with negative touch. 

==References==
 

==External links==
*  

 
 
 
 
 


 