Andagaadu
 {{Infobox film
| name           = Andagaadu
| image          =
| image_size     =
| caption        =
| director       =
| producer       =
| writer         =
| narrator       =
| starring       = Kamal Haasan Sridevi
| music          = Ilayaraaja
| cinematography =
| editing        =
| distributor    =
| released       =
| runtime        =
| country        = India Telugu
| budget         =
| gross          =
| preceded_by    =
| followed_by    =
| website        =
}}

Andagaadu (translation: Handsome) is a 1982 Telugu  film starring Kamal Haasan and Sridevi in the lead roles.

==Cast==
*Kamal Haasan as R. Damaodaram/RDM Rum/Shankar Lal/Mohan (Dual role)
*Sridevi as Hema
*Rao Gopal Rao
*Allu Rama Lingaiah as Hemas father

==External links==
 

 
 
 


 