Mangala Vaathiyam
 {{Infobox film
| name           = Mangala Vaathiyam
| image          =
| image_size     =
| caption        =
| director       = K. Shankar
| producer       =
| writer         = P. Kalaimani
| narrator       =
| starring       = Kamal Haasan Sripriya
| music          = M. S. Viswanathan
| cinematography =
| editing        =
| distributor    =
| released       = 21 September 1979
| runtime        =
| country        = India Tamil
| budget         =
| gross          =
| preceded_by    =
| followed_by    =
| website        =
}}

Mangala Vaathiyam is a Tamil language film starring Kamal Haasan in the lead role of the protagonist.

 
 
 
 
 