Lalitha (film)
 
{{Infobox film
| name           = Lalitha (film)
| image          =
| image_size     =
| caption        =
| director       = Valampuri Somanathan
| producer       =
| writer         =
| narrator       =
| starring       =  
| music          = M. S. Viswanathan
| cinematography =
| editing        =
| distributor    =
| released       = 1976
| runtime        =
| country        = India Tamil
| budget         =
| gross          =
| preceded_by    =
| followed_by    =
| website        =
}}
 Sujatha in eponymous role, Sumithra playing other pivotal roles.

==Cast==
* Gemini Ganesan Sujatha as Lalitha
* Kamal Haasan
* Pandari Bai Sumithra
* N. Viswanathan as Sujathas father Thangavelu as Sumithras father
* Thengai Srinivasan

 
 
 
 
 
 


 