Thaayillamal Naan Illai
 {{Infobox film
| name           = Thaayillamal Naan Illai
| image          =
| image_size     =
| caption        =
| director       = R. Thyagarajan
| producer       = Thevar films
| writer         = Chinnapa Thevar
| narrator       =
| starring       = Kamal Haasan Sridevi  Rajnikanth
| music          = Shankar-Ganesh
| cinematography =
| editing        =
| distributor    =
| released       = 14 April 1979
| runtime        =
| country        = India Tamil
| budget         =
| gross          =
| preceded_by    =
| followed_by    =
| website        =
}}

Thaayillamal Naan Illai ( ;  ) is a Tamil language film starring Kamal Haasan in the lead role of the protagonist. The movie was a Superhit at the box office.

 
 
 
 
 


 