Neela Malargal
 {{Infobox film
| name           = Neela Malargal
| image          =
| image_size     =
| caption        =
| director       = Krishnan-Panju
| producer       =
| writer         =
| narrator       =
| starring       = Kamal Haasan Sridevi  Major Sundarrajan  K.R.Vijaya
| music          = M. S. Viswanathan
| cinematography =
| editing        =
| distributor    =
| released       = 19 October 1979
| runtime        =
| country        = India Tamil
| budget         =
| gross          =
| preceded_by    =
| followed_by    =
| website        =
}}
 Anuraag starring Vinod Mehra, Moushumi Chatterjee, Rajesh Khanna, Nutan, Ashok Kumar with the same roles in Tamil being done by Kamal Hasan, Sridevi, Nagesh, K.R.Vijaya, Major Sundarrajan respectively.

-

 
 
 
 
 
 


 