Vacation of Petrov and Vasechkin, Usual and Incredible
 
{{Infobox Film
| name           = Vacation of Petrov and Vasechkin, Usual and Incredible (Каникулы Петрова и Васечкина, обыкновенные и невероятные)
| image          = 
| image_size     = 
| caption        = 
| director       = Vladimir Alenikov
| producer       = 
| writer         = 
| narrator       = 
| starring       = 
| music          = 
| cinematography = 
| editing        = 
| studio         = Odessa Film Studio
| distributor    = 
| released       = 1984
| runtime        = 135 minutes
| country        = Soviet Union Russian
| budget         = 
| gross          = 
| preceded_by    = 
| followed_by    = 
}} Soviet film.

 .

==External links==
* 
* 

 
 
 
 


 