Video Collection (1984–1992)
{{Infobox film
| name           = Skinny Puppy: Video Collection 1984-1992
| image          = SP Video Collection.jpg
| caption        =
| director       = Dean English, Nivek Ogre, Dermot Shane, Jim Van Bebber
| starring       =
| music          = Skinny Puppy
| cinematography =
| editing        =
| studio         =
| distributor    =
| released       =  
| runtime        =
| country        = United States
| language       = English
| budget         =
| gross          =
}}
 William Morrison and Jim Van Bebber.

==Track listing==
{{tracklist
| all_writing     = 
| lyrics_credits  = no
| collapsed       = no
| headline        =
| total_length    =  Dig It
| length1         = 
| title2          = Stairs and Flowers
| length2         =  Far Too Frail
| length3         =  Smothered Hope
| length4         =  Deep Down Trauma Hounds
| length5         = 
| title6          = Testure
| length6         =  Spasmolytic
| length7         =  Killing Game
| length8         = 
}}

==External links==
*  
*  

 

 
 
 
 
 
 
 
 


 