Vardaan
{{Infobox Film
| name           =Vardaan
| image          = 
| image_size     = 
| caption        = 
| director       =
| producer       = 
| writer         = 
| narrator       = 
| starring       = Vinod Mehra Reena Roy
| music          = 
| cinematography = 
| editing        = 
| distributor    = 
| released       = 1975| runtime        = 
| country        =   India
| language       = Hindi 
| budget         = 
| preceded_by    = 
| followed_by    = 
}}

Vardaan is 1975 Hindi movie. The film stars Vinod Mehra, Reena Roy and Mehmood Ali|Mehmood.
==Awards== Mehmood

== External links ==
*  

 
 
 
 