Shabnam (1949 film)
{{Infobox Film
| name           =Shabnam
| image          = 
| image_size     = 
| caption        = 
| director       = Bibhuti Mitra
| producer       = Filmistan
| writer         = 
| narrator       = 
| starring       =Dilip Kumar Kamini Kaushal 
| music          =S. D. Burman
| cinematography = 
| editing        = 
| distributor    = 
| released       = 1949
| runtime        = 
| country        =   India
| language       = Hindi 
| budget         = 
| preceded_by    = 
| followed_by    = 
}}

Shabnam is a 1949 Hindi movie produced by Filmistan and  directed by Bibhuti Mitra. The film stars Dilip Kumar, Kamini Kaushal, Jeevan and  Shyama. The films music is by S. D. Burman

== External links ==
*  

 
 
 
 
 