Sangdil
{{Infobox Film
| name           =Sangdil
| image          = Sangdil1952.jpg
| image_size     = 
| caption        = 
| director       = R C Talwar
| producer       = 
| writer         = 
| narrator       = 
| starring       =Dilip Kumar Madhubala  Sajjad Hussain
| cinematography = 
| editing        = 
| distributor    = 
| released       = 1952
| runtime        = 
| country        =   India
| language       = Hindi 
| budget         = 
| preceded_by    = 
| followed_by    = 
}}
 Sajjad Hussain.

== Cast ==
*Dilip Kumar as Shankar
*Madhubala as Kamala
*Shammi as Mohini
*Leela Chitnis as Dhaayi Maa
*Pratima Devi
*Dara Singh

== External links ==
*  

 
 

 
 
 
 
 
 
 