Ruslan and Ludmila (film)
{{Infobox Film
| name           = Ruslan and Ludmila
| image          = Ruslan i Lyudmila 1972 film poster.jpg
| image_size     = 
| caption        = Film poster
| director       = Aleksandr Ptushko
| producer       = 
| writer         = Aleksandr Ptushko Alexander Pushkin (poem)
| narrator       = 
| starring       = Valeri Kozinets Natalya Petrova Andrei Abrikosov
| music          = Tikhon Khrennikov
| cinematography = 
| editing        = 
| distributor    = Mosfilm
| released       = 1972
| runtime        = 85 min.
| country        = Soviet Union
| language       = Russian
| budget         = 
| gross          = 
| preceded_by    = 
| followed_by    = 
}}
 the poem of the same name written by Alexander Pushkin in 1820.

== External links ==
* 
* 
*  at Cinema Strikes Back

 
 
 
 
 
 
 
 
 
 

 
 