Fíaskó
{{Infobox film
| name           =Fíaskó 
| image          =Fiasko.jpg 
| image_size     = 
| border         = 
| alt            = 
| caption        =Video cover 
| director       =Ragnar Bragason 
| producer       =Friðrik Þór Friðriksson Skúli Friðrik Malmquist Þórir Snær Sigurjónsson 
| writer         = 
| screenplay     =Ragnar Bragason 
| story          =Ragnar Bragason 
| based on       =  
| narrator       = 
| starring       = Róbert Arnfinnsson Kristbjörg Kjeld
| music          = Barði Jóhannsson	
| cinematography = August Jakobsson
| editing        = Sigvaldi J. Kárason	 
| studio         = 
| distributor    = 
| released       =  
| runtime        = 87 minutes
| country        = Iceland  Icelandic
| budget         = 
| gross          = 
}}
Fíaskó (English title: Fiasco) is an Icelandic film written and directed by Ragnar Bragason.

== Cast==

* Margrét Ákadóttir
* Róbert Arnfinnsson
* Eggert Þorleifsson
* Björn Jörundur Friðbjörnsson
* Silja Hauksdóttir
* Kristbjörg Kjeld
* Ólafur Darri Ólafsson

== External links ==
*   
* http://www.zikzak.is/films/fiasko/
*  

 
 
 
 
 
 


 
 