Madame Irma
{{Infobox film
| name           = Madame Irma
| image          = Madame_irma_film_poster.jpg
| caption        =
| director       = Didier Bourdon   Yves Fajnberge
| producer       =
| writer         =
| starring       = Didier Bourdon, Pascal Légitimus, Arly Jover, Catherine Mouchet, Yoann Denaive, Julie Ferrier
| music          =
| cinematography =
| editing        =
| distributor    =
| released       =  
| runtime        = 90 minutes
| country        = France
| language       = French
| budget         = $9,300,000
| gross          = $4,514,055  
}}
Madame Irma is a 2006 comedy French film directed by Didier Bourdon and Yves Fajnberge and starring Didier Bourdon and Pascal Légitimus.

==Plot==
Francis, a recently laid-off CEO, takes up dressing up as a woman Romanian fortune-teller to earn money. 

==References==
 

==External links==
*  

 
 


 

 