Mysterious Castles of Clay
{{Infobox film
| name           = Mysterious Castles of Clay
| image          = 
| image_size     = 
| caption        = 
| director       = Joan Root Alan Root
| producer       = Joan Root Alan Root
| writer         = 
| narrator       = Orson Welles
| starring       = 
| music          = 
| cinematography = 
| editing        = 
| distributor    = 
| released       = 1978
| runtime        = 
| country        = United States 
| language       = English
| budget         = 
| preceded_by    = 
| followed_by    = 
}} 1978 film Joan and Best Documentary Feature.    

==See also==
* Orson Welles filmography
* Survival (TV series)|Survival

==References==
 

==External links==
* 

 
 
 
 
 
 
 
 