Nothing Is Impossible
 
 
{{Infobox film
| name           = Nothing Is Impossible
| image          = 
| caption        = 
| director       = Lam Wah-Chuen
| producer       = 
| writer         = 
| starring       = Dayo Wong Cherrie Ying Andy On
| music          = 
| cinematography = 
| editing        = 
| distributor    = 
| released       =  
| runtime        = 
| country        = Hong Kong
| language       = Cantonese
| budget         = 
}}
Nothing Is Impossible is a 2006 Hong Kong film directed by Lam Wah-Chuen.

==Cast==
* Dayo Wong
* Cherrie Ying
* Andy On
* Joe Cheung

==External links==
*  
*  
*  

 
 
 


 