The Champion (1973 film)
 
  1973 Hong Kong film directed by Yeung Jing Chan.

==Cast==
* Shih Szu Chin Han
* Cheng Fu Hung 	
* Shut Chung Tin	
* Yee Yuen

==See also==
* List of Shaw Brothers films
* Hong Kong films of 1973

==External links==
*  
*  

 
 
 


 