The Oil Gush in Balakhany
{{Infobox film
| name           = The Oil Gush in Balakhany
| image          = Azerbaijani film 1898.jpg
| image_size     =
| caption        =
| director       = Alexandre Michon
| producer       = Alexandre Michon
| writer         = Alexandre Michon
| narrator       =
| starring       =
| music          = none
| cinematography =
| editing        =
| distributor    =
| released       = August 6, 1898
| runtime        = 30 seconds
| country        = Azerbaijan
| language       =
| budget         =
| gross          =
| preceded_by    =
| followed_by    =
| website        =
}}
 cinema in Azerbaijan, Alexandre Michon, it was filmed on August 4, 1898 in Baku and presented at the International Paris Exhibition.  The film was shot using a 35mm film on a Lumière cinematograph.

==See also==
* 

==References==
 

 
 
 
 
 


 
 