The Crime of Bordadores Street
{{Infobox Film
| name           = The Crime of Bordadores Street
| image          =
| image_size     =
| caption        =
| director       = Edgar Neville
| producer       =
| writer         = Edgar Neville
| narrator       =
| starring       = Manuel Luna Mary Delgado
| music          = José Muñoz Molleda
| cinematography = Henri Barreyre (as Enrique Barreyre)
| editing        = Bienvenida Sanz
| distributor    =
| released       = 21 October 1946
| runtime        = 92 minutes
| country        =   Spanish
| budget         =
}} 1946 Spain|Spanish crime film written and  directed by Edgar Neville. 

==Plot summary==
 

==Cast==
*Manuel Luna	 ... 	Miguel Campos
*Mary Delgado	... 	Lola, "la billetera"
*Antonia Plana		... Petra
*Julia Lajos		... doña Mariana
*Rafael Calvo
*José Prada		... abogado
*José Franco

==References==
 

==Bibliography==
* Mira, Alberto. The A to Z of Spanish Cinema. Rowman & Littlefield, 2010.

==External links==
*  

 

 
 
 
 
 
 
 
 
 


 
 