Capture of Boer Battery by British
{{Infobox film
| name           = Capture of Boer Battery by British
| image          = Capture of Boer Battery by British 1900 James H White Thomas Edison.webm
| image_size     =
| caption        =
| director       =
| producer       = James H. White
| writer         =
| narrator       =
| starring       =
| cinematography =
| editing        = Edison Manufacturing Company
| released       =  
| runtime        = 1 minute
| country        = United States English intertitles
| budget         =
| gross          =
}} Edison Manufacturing Boer War. West Orange, New Jersey USA and released January 14, 1900.

==See also==
* List of American films of 1900
*Thomas Edison Boer War
*Silent film

==External links==
* 
*  
* 
* 

 
 
 
 
 
 


 