Julia Has Two Lovers
{{Infobox film
| name           = Julia Has Two Lovers
| image          = Julia2loversposter.jpg
| image_size     =
| caption        = Theatrical release poster
| director       = Bashar Shbib
| producer       = Bashar Shbib
| writer         = Daphna Kastner Bashar Shbib
| narrator       = David Charles Tim Ray Clare Bancroft
| music          = Emilio Kauderer
| cinematography = Stephen Reizes
| editing        = Dan Foegelle Bashar Shbib
| distributor    = Southgate Entertainment
| released       = March 22, 1991
| runtime        = 86 min
| country        = United States Canada
| language       = English
| budget         =
| gross          =
| preceded_by    =
| followed_by    =
}}
 David Charles.

== External links ==
*  
*  

 

 
 
 
 
 
 
 
 
 
 


 
 