A Strange Place to Meet
{{Infobox film
| name           = A Strange Place to Meet
| image          = 
| image_size     = 
| caption        = 
| director       = François Dupeyron
| producer       = Catherine Deneuve
| writer         = Gérard Depardieu Dominique Faysse 
| narrator       = 
| starring       = Catherine Deneuve Gérard Depardieu Nathalie Cardone 
André Wilms
| music          = Nicola Piovani    
| cinematography = Charles Van Damme    
| editing        = Françoise Collin
| distributor    = Union Generale Cinematographique
| released       = October 5, 1988
| runtime        = 100 minutes
| country        = France
| language       = French
| budget         = 
| gross          = $2,365,734 
| preceded_by    = 
| followed_by    = 
}}
 1988 French film directed by François Dupeyron, and starring Catherine Deneuve and Gérard Depardieu.

== Cast ==
* Catherine Deneuve : France 
* Gérard Depardieu : Charles
* Nathalie Cardone : Sylvie
* André Wilms : Georges
* Jean-Pierre Sentier : Pierrot

== References ==
 

==External links==
*  
* 
* 
* 

 
 
 
 
 


 
 