Farewell Ceremony for His Majesty Emir of Bukhara on "Velikiy Kniaz Alexei" Steamboat
 
{{Infobox film
| name           = Əlahəzrət Buxara Əmirinin "Veliki Knyaz Aleksey" Paroxodunda Yolasalma Mərasimi
| image          =
| image_size     =
| caption        =
| director       = Aleksandr Mişon
| producer       = Aleksandr Mişon
| writer         = Aleksandr Mişon
| narrator       =
| starring       =
| music          =
| cinematography =
| editing        =
| distributor    =
| released       =  1898
| runtime        = 1 minute
| country        = Azerbaijan
| language       =
| budget         =
| gross          =
| preceded_by    =
| followed_by    =
| website        =
}}

Farewell Ceremony for His Majesty Emir of Bukhara on Velikiy Kniaz Alexei Steamboat or   directed by Azeri cinema pioneer Aleksandr Mişon. It was released in 1898.

The film was shot on 35mm.

==See also==
* 

 
 
 
 
 


 
 