The Life of Bakuvians and Their Movement Along the Velikokniaz Avenue
{{Infobox film
| name           = Bakı camaatının həyatı və Velikoknyaz Prospekti ilə hərəkəti
| image          = 
| image_size     = 
| caption        = 
| director       = Q. Matye
| producer       = Q. Matye
| writer         = Q. Matye
| narrator       = 
| starring       = 
| music          = 
| cinematography = 
| editing        = 
| distributor    = 
| released       = November 19, 1900
| runtime        = 
| country        = Azerbaijan
| language       = 
| budget         = 
| gross          = 
}} Azerbaijani film directed by Q. Matye. It was filmed on November 12, 1900 the very day Matye shot Bakuvians Walk in the City Park. The film was released on November 19, 1900 in Baku. The film was shot on 35mm.

==See also==
* 

 
 
 
 
 

 