The Folk Dance of Caucasus
 
{{Infobox film
| name           = Qafqaz Rəqsi
| image          =
| image_size     =
| caption        =
| director       = Aleksandr Mişon
| producer       = Aleksandr Mişon
| writer         = Aleksandr Mişon
| narrator       =
| starring       =
| music          =
| cinematography =
| editing        =
| distributor    =
| released       = August 2, 1898
| runtime        =
| country        = Azerbaijan
| language       =
| budget         =
| gross          =
| preceded_by    =
| followed_by    =
| website        =
}}
 Azerbaijani cinema, Alexander Mishon. It was released on August 2, 1898.

The film was shot on 35mm.

==See also==
* 

 
 
 
 
 


 
 