Transportation of Coal
 
{{Infobox film
| name           = Daş Kömür Daşınması
| image          =
| image_size     =
| caption        =
| director       = Vasili Amaşukeli
| producer       = Vasili Amaşukeli
| writer         = Vasili Amaşukeli
| narrator       =
| starring       =
| music          =
| cinematography =
| editing        =
| distributor    =
| released       = 1907
| runtime        =
| country        = Azerbaijan
| language       =
| budget         =
| gross          =
| preceded_by    =
| followed_by    =
| website        =
}}
 1907 Cinema Azerbaijani film directed by Vasili Amaşukeli.

The film was shot on 35mm.

==See also==
* 

 
 
 
 
 


 