Ayyam al-tawila, al-
{{Infobox film
| name           = Al-ayyam al-tawila (الأيام الطويلة)
| image          = 
| caption        =  Terence Young
| producer       = 
| writer         = Saddam Hussein Tewfik Saleh
| screenplay     = 
| story          = 
| based on       =  
| starring       = Saddam Kamel Nada Siham Mohsin al-Azzawi Ibrahim Jalai
| music          = Solhi El-Wadi
| cinematography = Nuhad Ali
| editing        = Irina al-Adadh
| studio         = 
| distributor    = 
| released       =  
| runtime        = 150 minutes
| country        = Iraq
| language       = Arabic
| budget         = 
| gross          = 
}}
 1980 and Terence Young, who also directed three James Bond films.  Video footage in the West has been limited to brief clips on news reports and documentaries.

The film starred Husseins cousin Saddam Kamal as Saddam and was directed by Tewfik Saleh.

==External links==
* 

 

 
 
 
 
 
 
 


 