Blood Is Not Fresh Water
 
{{Infobox film
| name           = Blood Is Not Fresh Water
| image          = Blood Is Not Fresh Water.jpg
| image size     = 
| alt            = 
| caption        = 
| director       = Theo Eshetu
| producer       = Eve Silvester
| writer         = 
| narrator       = 
| starring       = 
| music          = 
| cinematography = Walter Fasano
| editing        = 
| studio         = 
| distributor    = 
| released       = 1997
| runtime        = 57 mins.
| country        = Ethiopia
| language       = 
| budget         = 
| gross          = 
| preceded by    = 
| followed by    = 
}}

Blood is Not Fresh Water is an Ethiopian film, made in 1997 and directed by Theo Eshetu.

==External links==
* 

 
 


 