Sabas, ang barbaro
{{Infobox film
| name           = Sabas, ang barbaro
| image          = 
| image_size     = 
| caption        = 
| director       = Eddie Romero
| producer       = 
| writer         = Eddie Romero
| narrator       = 
| starring       = 
| music          = 
| cinematography = 
| editing        = 
| distributor    = Sampaguita Pictures
| released       = 1952
| runtime        =
| country        = Philippines
| language       = Tagalog
| budget         = 
}} 1952 Philippines|Filipino drama film directed by Eddie Romero and Enrique Moreno and written by Francisco Coching. 

==Cast==
*Tita Duran   
*Pancho Magalona   
*Tessie Martinez   

==External links==
*  
 

 

 
 
 
 
 
 
 
 