Worms Will Turn
{{Infobox film
| name           = Worms Will Turn
| image          =
| image size     =
| caption        = Frank Griffin
| producer       = Arthur Hotaling
| writer         = E. W. Sargent	
| starring       = Raymond McKee
| music          =
| cinematography =
| editing        =
| distributor    =
| released       = July 21, 1914
| runtime        =
| country        = United States
| language       = Silent film English intertitles
| budget         =
}}
 1914 silent silent comedy film featuring Oliver Hardy.

==Cast==
* Raymond McKee as Bill Raggles
* Ed Lawrence as Police Chief
* Julia Calhoun as Matilda
* Oliver Hardy as A Policeman (as Babe Hardy)

==See also==
* List of American films of 1914
* Oliver Hardy filmography

==External links==
* 

 
 
 
 
 
 
 
 

 