The Rise of the Johnsons
 
{{Infobox film
| name           = The Rise of the Johnsons
| image          =
| caption        =
| director       = John A. Murphy
| producer       = Arthur Hotaling
| writer         = John A. Murphy
| starring       = John Edwards
| cinematography =
| editing        =
| distributor    =
| released       =  
| runtime        =
| country        = United States
| language       = Silent film English intertitles
| budget         =
}}
 silent comedy film featuring Oliver Hardy.

==Cast==
* John Edwards - Mr. Johnson
* Mattie Edwards - Mrs. Johnson
* Oliver Hardy - The Grocery Man

==See also==
* List of American films of 1914
* Oliver Hardy filmography

==External links==
* 

 
 
 
 
 
 
 
 

 