For Two Pins
 
{{Infobox film
| name           = For Two Pins 
| image          = 
| caption        = 
| director       = Arthur Hotaling
| producer       = Arthur Hotaling
| writer         = Arthur Hotaling	
| starring       = James Hodges
| music          = 
| cinematography = 
| editing        = 
| distributor    = 
| released       =  
| runtime        = 
| country        = United States 
| language       = Silent film English intertitles
| budget         = 
}}
 silent comedy film featuring Oliver Hardy.

==Cast==
* James Hodges - John Dunn
* Marguerite Ne Moyer - Martha Dunn 
* James Hevener - The Drunk
* Raymond McKee - The Chief of Police
* Oliver Hardy - A Policeman (as Babe Hardy)

==See also==
* List of American films of 1914
* Oliver Hardy filmography

==External links==
* 

 
 
 
 
 
 
 
 
 