A Tango Tragedy
 
{{Infobox film
| name           = A Tango Tragedy
| image          =
| image size     =
| caption        =
| director       =
| producer       = Arthur Hotaling
| writer         = E. W. Sargent	
| narrator       =
| starring       = Billy Bowers
| music          =
| cinematography =
| editing        =
| distributor    =
| released       =  
| runtime        =
| country        = United States English intertitles
| budget         =
}}
 silent comedy film featuring Oliver Hardy.

==Cast==
* Billy Bowers - Pat Muldune
* Frances Ne Moyer - Nora Muldune
* James Hodges - Dick Kelly
* Raymond McKee - Bill Ryan
* Julia Calhoun - The Widow
* Oliver Hardy - (as Babe Hardy)

==See also==
* List of American films of 1914
* Oliver Hardy filmography

==External links==
* 

 
 
 
 
 
 
 
 
 