He Wanted His Pants
 
{{Infobox film
| name           = He Wanted His Pants 
| image          = 
| image_size     = 
| caption        = 
| director       = 
| producer       = Arthur Hotaling
| writer         = E. W. Sargent	
| narrator       = 
| starring       = Raymond McKee Oliver Hardy
| music          = 
| cinematography = 
| editing        = 
| distributor    = 
| released       =  
| runtime        = 
| country        = United States 
| language       = Silent film English intertitles
| budget         = 
}}

He Wanted His Pants is a 1914 American silent comedy film featuring Oliver Hardy.

==Cast==
* Raymond McKee - James Jimson
* Oliver Hardy - A Cop (as Babe Hardy)

==See also==
* List of American films of 1914
* Oliver Hardy filmography

==External links==
* 

 
 
 
 
 
 
 
 
 