She Married for Love
 
{{Infobox film
| name           = She Married for Love 
| image          = 
| image size     = 
| caption        = 
| director       = 
| producer       = Arthur Hotaling
| writer         = E. W. Sargent	
| narrator       = 
| starring       = Pasqualina DeVoe
| music          = 
| cinematography = 
| editing        = 
| distributor    = 
| released       =  
| runtime        = 
| country        = United States  English intertitles
| budget         = 
}}
 silent comedy film featuring Oliver Hardy.

==Cast==
* Pasqualina DeVoe - Mrs. Muggs
* Eva Bell - Rose Muggs
* Raymond McKee - Harry Bounce
* Harry Lorraine - The Deacon
* Mae Sheppard - The Old Maid
* Oliver Hardy - An Onlooker (as Babe Hardy)

==See also==
* List of American films of 1914
* Oliver Hardy filmography

==External links==
* 

 
 
 
 
 
 
 
 

 