The Green Alarm
 
{{Infobox film
| name           = The Green Alarm
| image          =
| caption        = Frank Griffin
| producer       = Arthur Hotaling
| writer         = Frank Griffin
| starring       = Billy Bowers
| cinematography =
| editing        =
| distributor    =
| released       =  
| runtime        =
| country        = United States English intertitles
| budget         =
}}
 silent comedy film featuring Oliver Hardy.

==Cast==
* Billy Bowers as Old Man Hokus
* Oliver Hardy as Mike (as O.N. Hardy)
* Raymond McKee as Jake Frank Griffin as Police Chief (as Frank C. Griffin)

==See also==
* List of American films of 1914
* Oliver Hardy filmography

==External links==
* 

 
 
 
 
 
 
 
 
 

 