Cleaning Time
 
{{Infobox film
| name           = Cleaning Time
| image          =
| caption        =
| director       = Will Louis
| producer       = Arthur Hotaling
| writer         = Will Louis
| starring       = Oliver Hardy
| cinematography =
| editing        =
| distributor    =
| released       =  
| runtime        =
| country        = United States English intertitles
| budget         =
}}
 silent comedy film featuring Oliver Hardy.

==Cast==
* Oliver Hardy as John Herringbone (as Babe Hardy)
* Eva Bell as Mrs. Herringbone

==See also==
* List of American films of 1915
* Oliver Hardy filmography

==External links==
* 

 
 
 
 
 
 
 

 