Mixed Flats
 
{{Infobox film
| name           = Mixed Flats 
| image          = 
| image size     = 
| caption        = 
| director       = Will Louis (aka:Willard Louis)
| producer       = Arthur Hotaling
| writer         = Will Louis	
| narrator       = 
| starring       = Ben Walker
| music          = 
| cinematography = 
| editing        = 
| distributor    = 
| released       =  
| runtime        = 
| country        = United States  English intertitles
| budget         = 
}}
 silent comedy film featuring Oliver Hardy.

==Cast==
* Ben Walker - Jack Robbins
* Oliver Hardy - Bob White
* Frances Ne Moyer - Mrs. Robbins
* Mabel Paige - Slavey
* Nellie Farron - Mrs. Blake
* Ed Lawrence - Minister Blake
* William H. Hopkins - A Janitor

==See also==
* List of American films of 1915
* Oliver Hardy filmography

==External links==
* 

 
 
 
 
 
 
 

 