A Special Delivery
 
{{Infobox film
| name           = A Special Delivery
| image          =
| image size     =
| caption        =
| director       = Will Louis
| producer       = Louis Burstein
| writer         =
| narrator       =
| starring       = Oliver Hardy
| music          =
| cinematography =
| editing        =
| distributor    =
| released       =  
| runtime        =
| country        = United States English intertitles
| budget         =
}}
 silent comedy film starring Oliver Hardy.

==Cast==
* Oliver Hardy - Plump (as Babe Hardy)
* Billy Ruge - Runt

==See also==
* List of American films of 1916
* Oliver Hardy filmography

==External links==
* 

 
 
 
 
 
 
 
 

 