The Midnight Prowlers
 
{{Infobox film
| name           = The Midnight Prowlers 
| image          = 
| caption        = 
| director       = Bobby Burns Walter Stull
| producer       = Louis Burstein
| writer         = 
| starring       = Bobby Burns
| music          = 
| cinematography = 
| editing        = 
| distributor    = 
| released       =  
| runtime        = 
| country        = United States  English intertitles
| budget         = 
}}
 silent comedy film produced by the Vim Comedy Company featuring Oliver Hardy.

==Cast==
* Bobby Burns - Pokes
* Walter Stull - Jabbs
* Ethel Marie Burton - Female Detective (as Ethel Burton)
* Edna Reynolds - Mrs. Jabbs
* Oliver Hardy - (as Babe Hardy)
* Frank Hanson
* Billy Ruge	

==See also==
* List of American films of 1915
* Oliver Hardy filmography

==External links==
* 

 
 
 
 
 
 
 
 

 