The Battle Royal
 
{{Infobox film
| name           = The Battle Royal
| image          = The Battle Royal 1916 OLIVER BABE HARDY Plump and Runt Willard Louis.webm
| caption        = Full film
| director       = Will Louis
| producer       = Louis Burstein
| writer         = 
| starring       = Oliver Hardy
| music          = 
| cinematography = 
| editing        = 
| distributor    = 
| released       =  
| runtime        = 
| country        = United States  English intertitles
| budget         = 
}}
 silent comedy film featuring Oliver Hardy.

==Cast==
* Oliver Hardy - Plump (as Babe Hardy)
* Billy Ruge - Runt
* Elsie MacLeod - Runts sister
* Billy Bletcher - Grandpa Runt
* Will Louis - Revenue Officer

==See also==
* List of American films of 1916
* Oliver Hardy filmography

==External links==
* 

 
 
 
 
 
 
 
 
 



 