The Schemers (film)
 
{{Infobox film
| name           = The Schemers
| image          =
| caption        =
| director       = Will Louis
| producer       = Louis Burstein
| writer         =
| starring       = Oliver Hardy
| cinematography =
| editing        =
| distributor    =
| released       =  
| runtime        =
| country        = United States English intertitles
| budget         =
}}
 silent comedy film featuring Oliver Hardy.

==Cast==
* Oliver Hardy - Plump (as Babe Hardy)
* Billy Ruge - Runt
* Elsie MacLeod - Elsie
* Florence McLaughlin - Stenographer (as Florence McLoughlin)

==See also==
* List of American films of 1916
* Oliver Hardy filmography

==External links==
* 

 
 
 
 
 
 
 
 

 