Baby Doll (1916 film)
 
{{Infobox film
| name           = Baby Doll
| image          =
| caption        =
| director       = Will Louis
| producer       = Louis Burstein
| writer         =
| starring       = Oliver Hardy
| music          =
| cinematography =
| editing        =
| distributor    =
| released       =  
| runtime        =
| country        = United States
| language       = Silent film English intertitles
| budget         =
}}
 silent comedy film featuring Oliver Hardy.

==Cast==
* Oliver Hardy - Plump (as Babe Hardy)
* Billy Ruge - Runt
* Elsie MacLeod

==See also==
* List of American films of 1916
* Oliver Hardy filmography

==External links==
* 

 
 
 
 
 
 
 
 
 