Their Honeymoon
 
{{Infobox film
| name           = Their Honeymoon
| image          =
| caption        =
| director       = Will Louis
| producer       = Louis Burstein
| writer         =
| starring       = Oliver Hardy
| cinematography =
| editing        =
| distributor    =
| released       =  
| runtime        =
| country        = United States English intertitles
| budget         =
}}
 silent comedy film starring Oliver Hardy.

==Cast==
* Oliver Hardy - Plump (as Babe Hardy)
* Billy Ruge - Runt
* Edna Reynolds - Mother-in-law
* Ray Godfrey - Mrs. Plump
* Frank Hanson - A Tramp

==See also==
* List of American films of 1916
* Oliver Hardy filmography

==External links==
* 

 
 
 
 
 
 
 

 