Human Hounds
 
{{Infobox film
| name           = Human Hounds
| image          = 
| image size     = 
| caption        = 
| director       = Will Louis
| producer       = Louis Burstein
| writer         = 
| narrator       = 
| starring       = Oliver Hardy
| music          = 
| cinematography = 
| editing        = 
| distributor    = 
| released       =  
| runtime        = 
| country        = United States  English intertitles
| budget         = 
}}
 silent comedy film starring Oliver Hardy.

==Cast==
* Oliver Hardy - Plump (as Babe Hardy)
* Billy Ruge - Runt
* Bert Tracy - General Debility
* Ray Godfrey - Mrs. Debility
* Joe Cohen - Count de Lummox
* Madge Cohen - Countess de Lummox

==See also==
* List of American films of 1916
* Oliver Hardy filmography

==External links==
* 

 
 
 
 
 
 
 

 