Aunt Bill
 
{{Infobox film
| name           = Aunt Bill
| image          =
| image size     =
| caption        =
| director       = Will Louis
| producer       = Louis Burstein
| writer         =
| narrator       =
| starring       = Oliver Hardy
| music          =
| cinematography =
| editing        =
| distributor    =
| released       =  
| runtime        =
| country        = United States English intertitles
| budget         =
}}
 silent comedy film featuring Oliver Hardy.

==Cast==
* Oliver Hardy - Plump (as Babe Hardy)
* Billy Ruge - Runt
* Ray Godfrey - Mrs. Runt
* Florence McLaughlin - Mrs. Plump (as Florence McLoughlin)
* Bert Tracy - Aunt
* Billy Bletcher - Bogus Aunt

==See also==
* List of American films of 1916
* Oliver Hardy filmography

==External links==
* 

 
 
 
 
 
 
 
 