Sidetracked (film)
 
{{Infobox film
| name           = Sidetracked
| image          = 
| image_size     = 
| caption        = 
| director       = Will Louis
| producer       = Louis Burstein
| writer         = 
| narrator       = 
| starring       = Oliver Hardy
| music          = 
| cinematography = 
| editing        = 
| distributor    = 
| released       =  
| runtime        = 
| country        = United States 
| language       = Silent film English intertitles
| budget         = 
}}
 silent comedy film featuring Oliver Hardy.

==Cast==
* Oliver Hardy - Plump (as Babe Hardy)
* Billy Ruge - Runt
* Robin Williamson - Porter
* Melba Andrews - Mrs. Runt

==See also==
* List of American films of 1916
* Oliver Hardy filmography

==External links==
* 

 
 
 
 
 
 
 

 