Prize Winners
 
{{Infobox film
| name           = Prize Winners
| image          = 
| image size     = 
| caption        = 
| director       = 
| producer       = Louis Burstein
| writer         = 
| narrator       = 
| starring       = Oliver Hardy
| music          = 
| cinematography = 
| editing        = 
| distributor    = 
| released       =  
| runtime        = 
| country        = United States 
| language       = Silent film English intertitles
| budget         = 
}}
 silent comedy film featuring Oliver Hardy.

==Cast==
* Oliver Hardy - Babe (as Babe Hardy) Kate Price - Lady Kate
* Billy Ruge - Billy

==See also==
* List of American films of 1916
* Oliver Hardy filmography

==External links==
* 

 
 
 
 
 
 
 

 