The Pest (1917 film)
 
{{Infobox film
| name           = The Pest
| image          = 
| caption        = 
| director       = Arvid E. Gillstrom
| producer       = Louis Burstein
| writer         =  Billy West Oliver Hardy
| music          = 
| cinematography = 
| editing        = 
| distributor    = 
| released       =  
| runtime        = 
| country        = United States 
| language       = Silent English intertitles
| budget         = 
}}
 silent comedy film featuring Oliver Hardy.   

==Cast== Billy West as The Pest
* Oliver Hardy (as Babe Hardy)
* Ethelyn Gibson
* Bud Ross as The Bellboy (as Budd Ross)
* Leo White as The Count

==See also==
* List of American films of 1917
* Oliver Hardy filmography

==References==
 

==External links==
* 

 
 
 
 
 
 
 
 
 

 