The Hobo
 
{{Infobox film
| name           = The Hobo
| image          = The Hobo 1917 OLIVER BABE HARDY BILLY WEST Arvid E Gillstrom.webm
| caption        = Full movie
| director       = Arvid E. Gillstrom
| producer       = Louis Burstein
| writer         =  Billy West Oliver Hardy
| cinematography = 
| editing        = 
| distributor    = 
| released       =  
| runtime        = 15 minutes
| country        = United States 
| language       = Silent film English intertitles
| budget         = 
}}
 silent comedy film featuring Oliver Hardy.   

==Cast== Billy West - The Hobo
* Oliver Hardy - Harold (as Babe Hardy)
* Leo White - Mr. Fox
* Bud Ross
* Virginia Clark - Dolly

==See also==
* List of American films of 1917
* Oliver Hardy filmography

==References==
 

==External links==
* 

 
 
 
 
 
 
 
 
 
 



 