The Other Girl
 
{{Infobox film
| name           = The Other Girl
| image          = 
| image_size     = 
| caption        = 
| director       = Oliver Hardy
| producer       = Louis Burstein
| writer         = 
| narrator       = 
| starring       = Oliver Hardy
| music          = 
| cinematography = 
| editing        = 
| distributor    = 
| released       =  
| runtime        = 
| country        = United States  English intertitles
| budget         = 
}}

The Other Girl is a 1917 American comedy film directed by and starring Oliver Hardy.   

==Cast==
* Oliver Hardy - Babe (as Babe Hardy)
* Ethel Marie Burton - Ethel (as Ethel Burton)
* Florence McLaughlin - Florence (as Florence McLoughlin)

==See also==
* List of American films of 1917
* Oliver Hardy filmography

==References==
 

==External links==
* 

 
 
 
 
 
 
 
 
 

 