La calle sin sol
{{Infobox Film
| name           = La calle sin sol
| image          = La calle sin sol.JPG
| image_size     = 
| caption        = Spanish film poster
| director       = Rafael Gil
| writer       = Rafael Gil Miguel Mihura
| narrator       = 
| starring       = Antonio Vilar Amparo Rivelles Manolo Morán Ángel de Andrés Mary Delgado    
| music          = Manuel Parada 
| cinematography = Alfredo Fraile       
| editing        = Juan Serra  
| distributor    = 
| released       = 22 November 1948 Spain
| runtime        = 95 minutes
| country        =   Spanish
| budget         = 
}}
 1948 Spain|Spanish drama film written by Miguel Mihura and directed by Rafael Gil.

==External links==
*  

 
 
 
 
 
 
 
 
 


 