La Fête espagnole
{{Infobox film
| name           = La Fête espagnole
| image          = Lafete1920.jpg
| image_size     =
| caption        =
| director       = Germaine Dulac
| producer       =
| writer         = Louis Delluc
| starring       =
| cinematography =
| editing        =
| distributor    =
| released       =  
| runtime        =
| country        = France
| language       = Silent film
| budget         =
}} 1920 France|French silent film directed by Germaine Dulac.
The screenplay was one of three screenplays published under the title Drames du Cinema in 1923. 
==Cast==
*Ève Francis 
*Gabriel Gabrio  
*Anna Gay  
*Gaston Modot   
*Jean Toulout ...  Miguélan

== References ==
 

== External links ==
* 

 
 
 
 
 
 

 
 