Business Before Honesty
 
{{Infobox film
| name           = Business Before Honesty
| image          =
| image size     =
| caption        =
| director       = Charley Chase Julius Stern
| writer         =
| narrator       =
| starring       = Oliver Hardy
| music          =
| cinematography =
| editing        =
| distributor    =
| released       =  
| runtime        =
| country        = United States English intertitles
| budget         =
}}
 silent comedy film featuring Oliver Hardy.

==Cast==
* Harry Gribbon - Willie Steal
* Oliver Hardy - The Blind Man (as Babe Hardy) Eddie Barry - Nellie
* May Emory - The Woman (as Mae Emory)
* Helen Lynch - Her Daughter

==See also==
* List of American films of 1918
* Oliver Hardy filmography

==External links==
* 

 
 
 
 
 
 
 

 