Painless Love
 
{{Infobox film
| name           = Painless Love
| image          = 
| image size     = 
| caption        = 
| director       = Charley Chase Julius Stern
| writer         = 
| narrator       = 
| starring       = Oliver Hardy
| music          = 
| cinematography = 
| editing        = 
| distributor    = 
| released       =  
| runtime        = 
| country        = United States  English intertitles
| budget         = 
}}
 silent comedy film featuring Oliver Hardy.

==Cast==
* Oliver Hardy - Dr. Hurts (as Babe Hardy)
* Billy Armstrong - His assistant
* Charles Inslee - The building owner
* Peggy Prevost - Swimming pool manager

==See also==
* List of American films of 1918
* Oliver Hardy filmography

==External links==
* 

 
 
 
 
 
 
 

 