Hearts in Hock
 
{{Infobox film
| name           = Hearts in Hock
| image          = 
| image size     = 
| caption        = 
| director       = Charley Chase Julius Stern
| writer         = 
| narrator       = 
| starring       = Oliver Hardy
| music          = 
| cinematography = 
| editing        = 
| distributor    = 
| released       =  
| runtime        = 
| country        = United States  English intertitles
| budget         = 
}}
 silent comedy film featuring Oliver Hardy.

==Cast==
* Oliver Hardy - (as Babe Hardy)
* Peggy Prevost Jack Henderson
* Bartine Burkett
* Billy Armstrong

==See also==
* List of American films of 1919
* Oliver Hardy filmography

==External links==
* 

 
 
 
 
 
 
 

 