Lions and Ladies
 
{{Infobox film
| name           = Lions and Ladies
| image          =
| image size     =
| caption        = Frank Griffin Julius Stern
| writer         =
| narrator       =
| starring       = Oliver Hardy
| music          =
| cinematography =
| editing        =
| distributor    =
| released       =  
| runtime        =
| country        = United States
| language       = Silent film English intertitles
| budget         =
}}

Lions and Ladies is a 1919 American comedy film featuring Oliver Hardy.

==Cast==
* Oliver Hardy - (as Babe Hardy)
* Harry Mann
* Rosa Gore
* Bobby Dunn

==See also==
* List of American films of 1919
* Oliver Hardy filmography

==External links==
* 

 

 
 
 
 
 
 
 
 
 