Trekkies 2
{{Infobox film
| name           = Trekkies 2
| caption        =
| image	     = Trekkies 2 FilmPoster.jpeg
| director       = Roger Nygard
| producer       =
| writer         =
| starring       = Denise Crosby
| music          =
| cinematography =
| editing        =
| distributor    =
| released       =  
| runtime        = 93 minutes
| country        = United States
| language       = English
| budget         =
}}

Trekkies 2 is the 2004 sequel to the 1997 documentary film Trekkies (film)|Trekkies.
 Barbara Adams punk bands from Sacramento, California most notably the "No Kill I" franchise.  This includes "No Kill I", "No Kill I: The Next Generation" and "No Kill I: Deep Space Nine".

== References ==
 

==External links==
*  
*  
*  
*  

 

 
 
 
 


 
 

 