Flips and Flops
 
{{Infobox film
| name           = Flips and Flops
| image          =
| caption        =
| director       = Gilbert Pratt
| producer       = Albert E. Smith
| writer         = Gilbert Pratt
| starring       = Oliver Hardy
| music          =
| cinematography =
| editing        =
| distributor    =
| released       =  
| runtime        =
| country        = United States
| language       = Silent film English intertitles
| budget         =
}}
 silent comedy film featuring Oliver Hardy.

==Cast==
* Jimmy Aubrey - Jimmy
* Oliver Hardy - Mr. Jipper (as Babe Hardy) Richard Smith

==See also==
* List of American films of 1919
* Oliver Hardy filmography

==External links==
* 

 
 
 
 
 
 
 
 
 