Maids and Muslin
{{Infobox film
| name           = Maids and Muslin
| image          =
| caption        =
| director       = Noel M. Smith
| producer       = Albert E. Smith
| writer         = Anthony Coldeway
| starring       = Oliver Hardy
| music          =
| cinematography =
| editing        =
| distributor    =
| released       =  
| runtime        =
| country        = United States
| language       = Silent film English intertitles
| budget         =
}}
 silent comedy film featuring Oliver Hardy.

==Cast==
* Jimmy Aubrey - Mr. Bolts
* Oliver Hardy - Mr. Yards (as Babe Hardy)

==See also==
* List of American films of 1920
* Oliver Hardy filmography

==External links==
* 

 
 
 
 
 
 
 
 
 
 
 