Squeaks and Squawks
 
{{Infobox film
| name           = Squeaks and Squawks
| image          =
| caption        =
| director       = Noel M. Smith
| producer       = Albert E. Smith
| writer         = Anthony Coldeway
| starring       = Oliver Hardy
| cinematography =
| editing        =
| distributor    =
| released       =  
| runtime        =
| country        = United States
| language       = Silent film English intertitles
| budget         =
}}
 silent comedy film featuring Oliver Hardy.

==Cast==
* Jimmy Aubrey - The Repairman
* Dixie Lamont - The Blacksmiths Daughter
* Oliver Hardy - The Landlord (as Babe Hardy)
* Dick Dickinson - The Blacksmith

==See also==
* List of American films of 1920
* Oliver Hardy filmography

==External links==
* 

 
 
 
 
 
 
 
 
 
 