Horseshoes (film)
 
{{Infobox film
| name           = Horseshoes
| image          =
| caption        =
| director       = James D. Davis Larry Semon
| producer       = James D. Davis Larry Semon
| writer         = Larry Semon
| starring       = Oliver Hardy
| cinematography =
| editing        =
| distributor    =
| released       =  
| runtime        =
| country        = United States
| language       = Silent with English intertitles
| budget         =
}}
 silent comedy film featuring Oliver Hardy.

==Cast==
* Larry Semon as Larry
* Kathleen Myers as The Grocers Daughter
* Oliver Hardy as Dynamite Duffy (as Babe Hardy)
* James Donnelly
* Spencer Bell

==See also==
* List of American films of 1923
* Oliver Hardy filmography

==External links==
* 

 
 
 
 
 
 
 
 
 
 