The Tourist (1921 film)
 
{{Infobox film
| name           = The Tourist
| image          =
| caption        =
| director       = Jess Robbins
| producer       = Albert E. Smith
| writer         = Jess Robbins
| starring       = Oliver Hardy
| cinematography =
| editing        =
| distributor    =
| released       =  
| runtime        =
| country        = United States English intertitles
| budget         =
}}
 silent comedy film featuring Oliver Hardy.

==Cast==
* Jimmy Aubrey - The tourist
* Oliver Hardy - Leader of the outlaws (as Babe Hardy)
* Zella Ingraham

==See also==
* List of American films of 1921
* Oliver Hardy filmography

==External links==
* 

 
 
 
 
 
 
 
 
 
 
 