Hey, Taxi!
 
{{Infobox film
| name           = Hey, Taxi!
| image          = 
| caption        = 
| director       = Ted Burnsten Billy West
| writer         = 
| starring       = Oliver Hardy
| music          = 
| cinematography = 
| editing        = 
| distributor    = 
| released       =  
| runtime        = 
| country        = United States 
| language       = Silent film English intertitles
| budget         = 
}}
 silent comedy film featuring Oliver Hardy.

==Cast==
* Bobby Ray as Taxi driver
* Oliver Hardy as A rival taxi driver (as Babe Hardy)

==See also==
* List of American films of 1925
* Oliver Hardy filmography

==External links==
* 

 
 
 
 
 
 
 
 
 
 