Stick Around (film)
 
{{Infobox film
| name           = Stick Around
| image          =
| caption        =
| director       = Ward Hayes Billy West
| writer         = Ward Hayes
| starring       = Oliver Hardy
| cinematography = Harry M. Fowler
| editing        =
| distributor    =
| released       =  
| runtime        = 24 minutes
| country        = United States
| language       = Silent film English intertitles
| budget         =
}}
 silent comedy film featuring Oliver Hardy.

==Cast==
* Bobby Ray - Paperhangers Helper
* Oliver Hardy - Paperhanger (as Babe Hardy)
* Hazel Newman - Nurse Zenia Zane
* Harry McCoy - Dr. Brown

==See also==
* List of American films of 1925
* Oliver Hardy filmography

==External links==
* 

 
 
 
 
 
 
 
 
 