Le Secret du Lone Star
{{Infobox film
| name           = Le Secret du Lone Star
| image          =
| caption        =
| director       = Jacques de Baroncelli
| producer       =
| writer         =
| starring       =
| cinematography =
| editing        =
| distributor    =
| released       =  
| runtime        =
| country        = France
| language       = Silent film
| budget         =
}} 1920 France|French silent film directed by Jacques de Baroncelli.

==Cast==
*Fannie Ward   
*Gabriel Signoret   
*Henri Gouget   
*Henri Janvier   
*Rex McDougall

== External links ==
* 

 
 
 
 
 
 


 