They All Fall
{{Infobox film
| name           = They All Fall
| image          =
| caption        =
| director       = Ralph Ceder Billy West
| writer         = Ralph Ceder
| starring       = Oliver Hardy
| cinematography =
| editing        =
| distributor    =
| released       =  
| runtime        =
| country        = United States  English intertitles
| budget         =
}}

They All Fall is a 1925 American comedy film featuring Oliver Hardy.   

==Cast==
* Bobby Ray - The assistant janitor
* Oliver Hardy - The boss (as Babe Hardy)

==See also==
* List of American films of 1925
* Oliver Hardy filmography

==References==
 

==External links==
* 

 
 
 
 
 
 
 
 
 
 