Hickory Hiram
 
{{Infobox film
| name           = Hickory Hiram
| image          = 
| caption        = 
| director       = Edwin Frazee
| producer       = Carl Laemmle
| writer         = Edwin Frazee
| starring       = Stan Laurel
| music          = 
| cinematography = 
| editing        = 
| distributor    = 
| released       =  
| runtime        = 
| country        = United States 
| language       = Silent film English intertitles
| budget         = 
}}
 silent comedy film featuring Stan Laurel.

==Cast==
* Stan Laurel - Hiram Teddy Sampson - Trixie
* Neal Burns - Neal
* Bartine Burkett

==See also==
* List of American films of 1918
* Stan Laurel filmography

==External links==
* 

 
 
 
 
 
 
 


 