The Snow Hawk
 
{{Infobox film
| name           = The Snow Hawk
| image          = 
| caption        = 
| director       = Scott Pembroke Joe Rock
| producer       = Joe Rock
| writer         = Tay Garnett
| starring       = Stan Laurel
| music          = 
| cinematography = Edgar Lyons
| editing        = 
| distributor    = 
| released       =  
| runtime        = 20 minutes
| country        = United States 
| language       = Silent film English intertitles
| budget         = 
}}
 1925 film starring Stan Laurel.   

==Cast==
* Stan Laurel - Mountie
* Glen Cavender - Midnight Mike
* Julie Leonard - Storekeepers daughter

==See also==
* List of American films of 1925
* Stan Laurel filmography

==References==
 

==External links==
* 

 
 
 
 
 
 
 
 
 
 


 