Bill Sharkey's Last Game
{{Infobox film
| name           = Bill Sharkeys Last Game
| image          = 
| image_size     = 
| caption        = 
| director       = D. W. Griffith
| producer       = 
| writer         = 	
| narrator       =  Harry Carey
| music          = 
| cinematography = 
| editing        = 
| distributor    = 
| released       =  
| runtime        = 
| country        = United States  Silent English intertitles
| budget         = 
}}
 Harry Carey in his debut film.

==Cast== Harry Carey

==See also==
* List of American films of 1909
* Harry Carey filmography
* D. W. Griffith filmography
* 1909 in film

==External links==
* 

 
 
 
 
 
 
 
 

 