Black and White (1913 film)
 
{{Infobox film
| name           = Black and White
| image          =
| caption        =
| director       = Dell Henderson
| producer       =
| writer         = William Beaudine Harry Carey
| cinematography =
| editing        =
| distributor    =
| released       =  
| runtime        =
| country        = United States Silent English intertitles
| budget         =
}} silent comedy Harry Carey.

==Cast== Harry Carey
* Donald Crisp
* Grace Henderson Dave Morris as The Tramp
* Clarence Barr as The Gardener (as Clarence L. Barr)

==See also==
* List of American films of 1913
* Harry Carey filmography

==External links==
* 

 
 
 
 
 
 
 
 


 