When Love Forgives
{{Infobox film
| name           = When Love Forgives
| image          =
| caption        =
| director       = Anthony OSullivan
| producer       =
| writer         = Lula Vollmer Charles West
| music          =
| cinematography =
| editing        =
| distributor    =
| released       = August 2, 1913
| runtime        =
| country        = United States
| language       = Silent with English intertitles
| budget         =
}}
 1913 short short drama Harry Carey.

==Cast== Charles West - The Man
* George Beranger - The Bartender Charles Gorman - First Criminal Harry Carey - Second Criminal
* Charles Hill Mailes - The Employer

==See also==
* Harry Carey filmography

==External links==
* 

 
 
 
 
 
 
 
 

 