The Stolen Loaf
 
{{Infobox film
| name           = The Stolen Loaf
| image          =
| caption        =
| director       = D. W. Griffith
| producer       =
| writer         = Grace Barton
| starring       = Henry B. Walthall
| cinematography = G. W. Bitzer
| editing        =
| distributor    =
| released       =  
| runtime        =
| country        = United States
| language       = Silent with English intertitles
| budget         =
}}

The Stolen Loaf is a 1913 American drama film directed by  D. W. Griffith.

==Cast==
* Henry B. Walthall as The poor man
* Kate Bruce as The poor mans wife
* Claire McDowell as The Rich Woman Harry Carey as The Butler
* William A. Carroll as At Dinner
* Charles Hill Mailes as At Dinner

==See also==
* Harry Carey filmography
* D. W. Griffith filmography

==External links==
* 

 
 
 
 
 
 
 
 
 

 