A Gamble with Death
 
{{Infobox film
| name           = A Gamble with Death
| image          = 
| alt            =  
| caption        = 
| director       = Anthony OSullivan
| producer       = 
| writer         = F. W. Randolph Walter Miller
| music          = 
| cinematography = 
| editing        = 
| studio         = 
| distributor    = 
| released       =  
| runtime        = 
| country        = United States
| language       = Silent with English intertitles
| budget         = 
| gross          = 
}}
 Harry Carey.

==Cast== Walter Miller - Reed
* Claire McDowell - Kate Charles West - The Gambler (as Charles H. West)
* Lionel Barrymore - Jim Benton, the Bartender Harry Carey - The Cowpuncher

==See also==
* Harry Carey filmography

==External links==
* 

 
 
 
 
 
 
 
 
 

 