The Van Nostrand Tiara
 
{{Infobox film
| name           = The Van Nostrand Tiara
| image          =
| caption        =
| director       = Anthony OSullivan
| producer       =
| writer         = Clarence A. Frambers
| starring       = Reggie Morris
| cinematography =
| editing        =
| distributor    =
| released       =  
| runtime        =
| country        = United States
| language       = Silent with English intertitles
| budget         =
}}
 Harry Carey.

==Cast==
* Reggie Morris - Raffles
* Claire McDowell - Kate Harry Carey - Society Detective

==See also==
* Harry Carey filmography

==External links==
* 

 
 
 
 
 
 
 
 