Her Father's Silent Partner
 
{{Infobox film
| name           = Her Fathers Silent Partner
| image          = 
| caption        = 
| director       = Donald Crisp
| producer       = Biograph Company
| writer         = Belle Taylor Harry Carey
| music          = 
| cinematography = 
| editing        = 
| distributor    = General Film Company
| released       = February 23, 1914
| runtime        = 10 minutes
| country        = United States 
| language       = Silent with English intertitles
| budget         = 
}}
 Harry Carey.

==Cast== Harry Carey
* Claire McDowell
* Dorothy Gish
* Lionel Barrymore

==See also==
* Harry Carey filmography
* Lionel Barrymore filmography

==External links==
* 

 

 
 
 
 
 
 
 
 

 