Truth Stranger Than Fiction
 
{{Infobox film
| name           = Truth Stranger Than Fiction
| image          =
| caption        =
| director       =
| producer       =
| writer         = Harry Carey
| cinematography =
| editing        =
| distributor    =
| released       =  
| runtime        =
| country        = United States
| language       = Silent with English intertitles
| budget         =
}}
 Harry Carey.

==Cast==
* Helen Bray Harry Carey
* Barney Furey
* Claire McDowell Charles West (as Charles H. West)

==See also==
* Harry Carey filmography

==External links==
* 

 
 
 
 
 
 
 

 