Old Offenders
 
{{Infobox film
| name           = Old Offenders
| image          =
| caption        =
| director       = Anthony OSullivan
| producer       =
| writer         = Harry Carey
| cinematography =
| editing        =
| distributor    =
| released       =  
| runtime        =
| country        = United States
| language       = Silent with English intertitles
| budget         =
}}
 Harry Carey.

==Cast== Harry Carey
* Claire McDowell
* Anthony OSullivan Charles West - (as Charles H. West)

==See also==
* Harry Carey filmography

==External links==
* 

 
 
 
 
 
 
 
 

 