The Miser's Legacy
 
{{Infobox film
| name           = The Misers Legacy
| image          =
| caption        =
| director       =
| producer       =
| writer         = Harry Carey
| cinematography =
| editing        =
| distributor    =
| released       =  
| runtime        =
| country        = United States
| language       = Silent with English intertitles
| budget         =
}}
 Harry Carey.

==Cast==
* Gertrude Bambrick Harry Carey
* Claire McDowell Charles West (as Charles H. West)

==See also==
* Harry Carey filmography

==External links==
* 

 
 
 
 
 
 
 
 



 