A Double Winning
 
{{Infobox film
| name           = A Double Winning
| image          = 
| alt            =  
| caption        = 
| director       = 
| producer       = 
| writer         =  Harry Carey
| music          = 
| cinematography = 
| editing        = 
| studio         = 
| distributor    = 
| released       =  
| runtime        = 
| country        = United States
| language       = Silent with English intertitles
| budget         = 
| gross          = 
}}
 Harry Carey.

==Cast==
* Helen Bray Harry Carey Charles West - (as Charles H. West)

==See also==
* List of American films of 1915
* Harry Carey filmography

==External links==
* 

 
 
 
 
 
 
 
 

 