The Jackals of a Great City
 
{{Infobox film
| name           = The Jackals of a Great City
| image          =
| caption        =
| director       = Edward LeSaint
| producer       = Universals "Gold Seal" unit
| writer         = Harvey Gates Harry Carey
| cinematography =
| editing        =
| distributor    = Universal Pictures
| released       =  
| runtime        = 2 reels
| country        = United States
| language       = Silent with English intertitles
| budget         =
}}
 silent drama Harry Carey.

==Cast== Harry Carey
* Stella LeSaint (as Stella Razeto)
* Jean Hathaway
* Hayward Mack

==See also==
* Harry Carey filmography

==External links==
* 

 
 
 
 
 
 
 
 
 

 