Guilty (1916 film)
{{Infobox film
| name           = Guilty
| image          =
| caption        =
| director       = Henry MacRae
| producer       = Universals "IMP Production" unit
| writer         = Bennett Cohen William Parker Harry Carey
| cinematography =
| editing        =
| distributor    = Universal Pictures
| released       =  
| runtime        = 2 reels
| country        = United States 
| language       = Silent with English intertitles
| budget         =
}}
 silent drama Harry Carey.

==Cast== Harry Carey
* Edith Johnson
* Lee Shumway (as Leon C. Shumway)
* Peggy Coudray Lee Hill
* Mark Fenton
* Edwin Wallock (as E.N. Wallack)
* Hector Sarno (as Hector V. Sarno)

==See also==
* Harry Carey filmography

==External links==
* 

 
 
 
 
 
 
 
 

 