For the Love of a Girl
 
{{Infobox film
| name           = For the Love of a Girl
| image          =
| caption        = Harry Carey
| producer       = Bison Motion Pictures
| writer         = Harvey Gates
| starring       = Harry Carey
| cinematography =
| editing        =
| distributor    = Universal Pictures
| released       =  
| runtime        = 2 reels
| country        = United States Silent English intertitles
| budget         =
}}
 silent film Harry Carey.

==Cast== Harry Carey
* Bessie Arnold
* Joe Rickson
* Olive Carey - (as Olive Fuller Golden)
* Neal Hart

==See also==
* List of American films of 1916
* Harry Carey filmography

==External links==
* 

 
 
 
 
 
 
 
 
 