The Bad Man of Cheyenne
{{Infobox film
| name           = The Bad Man of Cheyenne
| image          = 
| caption        = 
| director       = Fred Kelsey
| producer       =  Harry Carey Fred Kelsey
| starring       = Harry Carey
| music          = 
| cinematography = 
| editing        = 
| distributor    = 
| released       =  
| runtime        = 
| country        = United States Silent English intertitles
| budget         = 
}} silent Western Western film Harry Carey.

==Cast==
* Mike Rinaldi Harry Carey
* Priscilla Dean
* Elizabeth Janes
* Vester Pegg Jack Richardson William Steele - (as William Gittenger)

==See also==
* List of American films of 1917
* Harry Carey filmography

==References==
 

==External links==
* 

 
 
 
 
 
 
 
 
 
 