Bad Golf My Way
 
{{Infobox film
|  name           = Bad Golf My Way |
  image          =Bad_Golf_My_Way_cover.jpg|
  producer       = Peter Hayman|
  director       = Rick Friedberg| David Fisher|
  starring       = Leslie Nielsen Bob Donner Brian Banowetz|
  music          = |
  cinematography = |
  editing        = Dean Balser|
  distributor    = PolyGram Home Video|
  released       = 1994|
  runtime        = 50 minutes|
  country        =  |
  language       = English |
  budget         = |
}}

Bad Golf My Way is a short movie by actor Leslie Nielsen. It is the sequel to his first golf video Bad Golf Made Easier.

==External links==
*  
*  
*  

 
 
 


 
 