La Guêpe (film)
{{Infobox Film
| name           =  La Guêpe
| image          =  
| image_size     = 
| caption        =  
| director       = Gilles Carle
| producer       = François Floquet   
| writer         = Gilles Carle Camille Coudari 
| narrator       =   
| starring       =   
| music          =   
| cinematography =  Guy Dufaux 
| editing        =   
| studio         =   
| distributor    =   
| released       =   1986
| runtime        =   87 minutes
| country        =  
| language       =   
| budget         =   
| gross          = 
| preceded_by    = 
| followed_by    = 
}} thriller film directed by Gilles Carle.

==Plot==

A young pilot witnesses the unintentional murder of her two sons (by a rich, drunken couple driving carelessly) and, following a courts decision not to press criminal charges, she decides to get her revenge.

==Cast==

*Chloé Sainte-Marie -Chloé Richard
*Warren Peace -Steven Cook Donald Pilon -Delphis Martin
*Ethne Grimes -Stéphanie
*Claude Gauthier -Louis Richard
*Gilbert Turp -Marc
*Paul Buissonneau -Joseph Lambert
*Alain Villeneuve -Le ministre

==External links==
* 

 
 
 
 
 


 
 