The Bad Lands
 
 
{{Infobox film
| name           = The Bad Lands
| image          = 
| image_size     = 
| caption        = 
| director       = Dell Henderson
| producer       = 
| writer         = Kate Corbaley Harvey Gates
| narrator       =  Harry Carey
| music          = 
| cinematography = Georges Benoît Sol Polito
| editing        = 
| distributor    = 
| released       =  
| runtime        = 
| country        = United States
| language       = Silent with English intertitles
| budget         = 
}}
 Western film Harry Carey.   

==Cast== Harry Carey - Patrick Angus OToole
* Wilfred Lucas - Col. Owen
* Lee Shumway - Capt. Blake
* Gaston Glass - Hal Owen
* Joe Rickson - Charlie Squirrel
* Trilby Clark - Mary Owen
* Buck Black - Freckles

==References==
 

==External links==
* 

 
 
 
 
 
 
 


 
 