Making It Pleasant for Him
{{Infobox film
| name           = Making It Pleasant for Him
| image          =
| caption        =
| director       = William Nicholas Selig
| writer         = Fatty Arbuckle
| music          =
| cinematography =
| editing        =
| distributor    =
| released       =  
| runtime        =
| country        = United States
| language       = Silent with English intertitles
| budget         =
}}
 short comedy Fatty Arbuckle. It was Arbuckles third onscreen appearance.

==Cast== Roscoe Fatty Arbuckle - (as Roscoe Arbuckle)

==See also==
* List of American films of 1909
* Fatty Arbuckle filmography

==External links==
* 

 
 
 
 
 
 
 
 
 