Mrs. Jones' Birthday
{{Infobox film
| name           = Mrs. Jones Birthday
| image          =
| caption        =
| director       = William Nicholas Selig
| writer         = Fatty Arbuckle
| cinematography =
| editing        =
| distributor    =
| released       =  
| runtime        =
| country        = United States
| language       = Silent with English intertitles
| budget         =
}}
 short American Fatty Arbuckle.    It was Arbuckles second onscreen performance.

==Cast== Roscoe Fatty Arbuckle (as Roscoe Arbuckle)

==See also==
* List of American films of 1909
* Fatty Arbuckle filmography

==References==
 

==External links==
* 

 
 
 
 
 
 
 
 