Budak Lapok
{{Infobox Film
| name           = Budak Lapok
| image          = 
| caption        = Budak Lapok
| director       = Anwardi Datuk Jamil
| producer       = Matahari Animation Sdn Bhd
| starring       = 
| music          = 
| distributor    = 
| released       = 13 October 2007
| runtime        = 
| country        = Malaysia
| awards         = 
| language       = Malay
| budget         = 
| followed_by    = 
| website        = 
}}
 2007 animated film in Malaysia. This film is based on the P. Ramlee film Bujang Lapok. The film premiered on 13 October 2007.

 

 
 
 
 


 
 