Peeping Pete
 
{{Infobox film
| name           = Peeping Pete
| image          = 
| caption        = 
| director       = Mack Sennett
| producer       = Mack Sennett
| writer         =  Fatty Arbuckle
| cinematography = 
| editing        = 
| distributor    = 
| released       =  
| runtime        = 7 minutes
| country        = United States  Silent English intertitles
| budget         = 
}}
 short comedy Fatty Arbuckle.

==Cast==
* Phyllis Allen Roscoe Fatty Arbuckle - Petes wife
* Charles Avery
* Viola Barry - (as Peggy Pearce)
* Nick Cogley - Sheriff
* Dot Farley
* Mack Sennett - Pete
* Ford Sterling - Neighbor

==See also==
* List of American films of 1913
* Fatty Arbuckle filmography

==External links==
* 
*   on YouTube

 
 
 
 
 
 
 
 

 