Love and Courage
 
{{Infobox film
| name           = Love and Courage
| image          =
| image size     =
| caption        =
| director       = Henry Lehrman
| producer       =
| writer         =
| narrator       = Fatty Arbuckle
| music          =
| cinematography =
| editing        =
| distributor    =
| released       =  
| runtime        =
| country        = United States Silent English English intertitles
| budget         =
}}
 short comedy Fatty Arbuckle.   

==Cast== Roscoe Fatty Arbuckle
* Mabel Normand
* Ford Sterling

==See also==
* Fatty Arbuckle filmography

==References==
 

==External links==
* 

 
 
 
 
 
 
 
 
 