For the Love of Mabel
 
{{Infobox film
| name           = For the Love of Mabel
| image          = 
| caption        = 
| director       = Henry Lehrman
| producer       = 
| writer         =  Fatty Arbuckle
| music          = 
| cinematography = 
| editing        = 
| distributor    = 
| released       =  
| runtime        = 
| country        = United States  Silent English intertitles
| budget         = 
}}
 short comedy Fatty Arbuckle.   

==Cast== Roscoe Fatty Arbuckle
* Mabel Normand
* Ford Sterling

==See also==
* List of American films of 1913
* Fatty Arbuckle filmography

==References==
 

==External links==
* 

 
 
 
 
 
 
 
 
 