Passions, He Had Three
 
{{Infobox film
| name           = Passions, He Had Three
| image          = 
| caption        = 
| director       = Henry Lehrman
| producer       = Mack Sennett
| writer         = 
| starring       = Roscoe Arbuckle Mabel Normand
| music          = 
| cinematography = 
| editing        = 
| distributor    = 
| released       =  
| runtime        = 
| country        = United States  Silent English intertitles
| budget         = 
}}
 short comedy film featuring Roscoe Arbuckle and Mabel Normand.   

==Cast== Roscoe Fatty Arbuckle
* Nick Cogley
* Alice Davenport
* Dot Farley
* Mabel Normand
* Betty Schade Al St. John

==See also==
* List of American films of 1913
* Fatty Arbuckle filmography

==References==
 

==External links==
* 

 
 
 
 
 
 
 
 
 

 