The Telltale Light
{{Infobox film
| name           = The Telltale Light
| image          =
| caption        =
| director       = Mack Sennett
| producer       =
| writer         = Fatty Arbuckle
| cinematography =
| editing        =
| distributor    =
| released       =  
| runtime        =
| country        = United States Silent English intertitles
| budget         =
}}
 short comedy Fatty Arbuckle.   

==Cast== Roscoe Fatty Arbuckle
* Charles Avery
* Alice Davenport
* Mabel Normand

==See also==
* List of American films of 1913
* Fatty Arbuckle filmography

==References==
 

==External links==
* 

 
 
 
 
 
 
 
 
 

 