Mother's Boy (1913 film)
 
{{Infobox film
| name           = Mothers Boy
| image          = 
| caption        = 
| director       = Henry Lehrman
| producer       = Mack Sennett
| writer         =  Fatty Arbuckle
| music          = 
| cinematography = 
| editing        = 
| distributor    = 
| released       =  
| runtime        = 
| country        = United States  Silent English intertitles
| budget         = 
}}
 short comedy Fatty Arbuckle.   

==Cast==
* Phyllis Allen Roscoe Fatty Arbuckle
* Nick Cogley
* Alice Davenport
* Billy Gilbert - (as Little Billy Gilbert)
* Edgar Kennedy

==See also==
* List of American films of 1913
* Fatty Arbuckle filmography

==References==
 

==External links==
* 

 
 
 
 
 
 
 
 

 