Fatty's Flirtation
 
{{Infobox film
| name           = Fattys Flirtation
| image          = 
| image size     = 
| caption        =  George Nichols
| producer       = 
| writer         = 
| narrator       = 
| starring       = Roscoe Arbuckle Mabel Normand
| music          = 
| cinematography = 
| editing        = 
| distributor    = 
| released       =  
| runtime        = 
| country        = United States  Silent English English intertitles
| budget         = 
}}
 short comedy Roscoe Fatty Arbuckle and Mabel Normand.   

==Cast==
* Roscoe Arbuckle as Fatty
* Mabel Normand as Mabel
* Minta Durfee as Minta
* William Hauber in unidentified role
* Hank Mann as Cop (uncredited)
* Ford Sterling as Cop (uncredited)

==See also==
* Fatty Arbuckle filmography

==References==
 

==External links==
* 

 
 
 
 
 
 
 
 
 