A Ride for a Bride
 
{{Infobox film
| name           = A Ride for a Bride
| image          =
| image size     =
| caption        = George Nichols
| producer       =
| writer         =
| narrator       = Fatty Arbuckle
| music          =
| cinematography =
| editing        =
| distributor    =
| released       =  
| runtime        =
| country        = United States Silent English English intertitles
| budget         =
}}
 short comedy Fatty Arbuckle.

==Cast== Roscoe Fatty Arbuckle
* Charles Avery
* Alice Davenport
* Edgar Kennedy
* Ford Sterling

==See also==
* List of American films of 1913
* Fatty Arbuckle filmography

==External links==
* 

 
 
 
 
 
 
 
 
 

 