The Alarm (film)
 
{{Infobox film
| name           = The Alarm
| image          = 
| caption        =  Fatty Arbuckle Edward Dillon
| producer       = 
| writer         = Fatty Arbuckle
| starring       = Fatty Arbuckle
| music          = 
| cinematography = 
| editing        = 
| distributor    = 
| released       =  
| runtime        = 
| country        = United States  Silent English intertitles
| budget         = 
}}
 short comedy Fatty Arbuckle.   
 The Keystone Mutual Film Corporation. It was released on May 28, 1914.

==Cast== Roscoe Fatty Arbuckle
* Minta Durfee
* Hank Mann
* Mabel Normand Al St. John

==See also==
* List of American films of 1914
* Fatty Arbuckle filmography

==References==
 

==External links==
* 

 
 
 
 
 
 
 
 
 
 