The Water Dog
{{Infobox film
| name           = The Water Dog
| image          = The Water Dog.jpg
| image size     = 250px
| caption        = Theatrical poster to The Water Dog Fatty Arbuckle
| producer       =
| writer         = Fatty Arbuckle
| cinematography =
| editing        =
| distributor    =
| released       =  
| runtime        =
| country        = United States Silent English English intertitles
| budget         =
}}
 short comedy Fatty Arbuckle.   

==Cast== Roscoe Fatty Arbuckle
* Minta Durfee

==See also==
* List of American films of 1914
* Fatty Arbuckle filmography

==References==
 

==External links==
* 

 
 
 
 
 
 
 
 
 
 

 