Where Hazel Met the Villain
{{Infobox film
| name           = Where Hazel Met the Villain
| image          =
| image size     =
| caption        = Fatty Arbuckle
| producer       =
| writer         =
| narrator       = Fatty Arbuckle
| music          =
| cinematography =
| editing        =
| distributor    =
| released       = April 23, 1914
| runtime        = United States Silent English English intertitles
| budget         =
| preceded by    =
| followed by    =
}}
 1914 Short short comedy Fatty Arbuckle.

==Cast== Roscoe Fatty Arbuckle
* Minta Durfee
* Mabel Normand

==See also==
* List of American films of 1914
* Fatty Arbuckle filmography

==External links==
* 

 
 
 
 
 
 
 
 
 

 