Fatty and the Heiress
 
{{Infobox film
| name           = Fatty and the Heiress
| image          = 
| caption        =  Fatty Arbuckle
| producer       = 
| writer         = Craig Hutchinson Fatty Arbuckle
| music          = 
| cinematography = 
| editing        = 
| studio         = Keystone Film Company
| distributor    = Mutual Film
| released       =  
| runtime        = 
| country        = United States  Silent English English intertitles
| budget         = 
}}
 short comedy Fatty Arbuckle. 

==Cast== Roscoe Fatty Arbuckle Edward Dillon - (as Eddie Dillon)
* Minta Durfee Al St. John
* Slim Summerville

==See also==
* List of American films of 1914
* Fatty Arbuckle filmography

==References==
 

==External links==
* 
* 

 
 
 
 
 
 
 
 

 