A Suspended Ordeal
 
{{Infobox film
| name           = A Suspended Ordeal
| image          =
| image size     =
| caption        = Fatty Arbuckle
| producer       =
| writer         =
| narrator       = Fatty Arbuckle
| music          =
| cinematography =
| editing        =
| distributor    =
| released       =  
| runtime        =
| country        = United States Silent English English intertitles
| budget         =
}}
 short comedy Fatty Arbuckle.

==Cast== Roscoe Fatty Arbuckle
* Minta Durfee

==See also==
* List of American films of 1914
* Fatty Arbuckle filmography

==External links==
* 

 
 
 
 
 
 
 
 
 

 