The Sky Pirate
__NOTOC__
{{Infobox film
| name           = The Sky Pirate
| image          =
| caption        = Fatty Arbuckle Edward Dillon
| producer       =
| writer         = Fatty Arbuckle
| cinematography =
| editing        =
| distributor    =
| released       =  
| runtime        =
| country        = United States Silent English English intertitles
| budget         =
}}
 short comedy Fatty Arbuckle.   

==Cast== Roscoe Fatty Arbuckle
* Minta Durfee
* Hank Mann
* Mabel Normand Al St. John

==See also==
* List of American films of 1914
* Fatty Arbuckle filmography

==References==
 

==External links==
* 

 
 
 
 
 
 
 
 
 
 

 