Fatty's Finish
 
{{Infobox film
| name           = Fattys Finish
| image          = 
| image_size     = 
| caption        =  Fatty Arbuckle
| producer       = 
| writer         = 
| narrator       =  Fatty Arbuckle
| music          = 
| cinematography = 
| editing        = 
| distributor    = Keystone Studios
| released       =  
| runtime        = 
| country        = United States  Silent English English intertitles
| budget         = 
}}
 short comedy Fatty Arbuckle.   

==Cast== Roscoe Fatty Arbuckle
* Minta Durfee
* Hank Mann Al St. John

==See also==
* List of American films of 1914
* Fatty Arbuckle filmography

==References==
 

==External links==
* 

 
 
 
 
 
 
 
 
 
 