Fatty Again
 
{{Infobox film
| name           = Fatty Again
| image          = 
| caption        =  Fatty Arbuckle
| producer       = 
| writer         = 
| starring       = Fatty Arbuckle
| music          = 
| cinematography = 
| editing        = 
| distributor    = Keystone Studios
| released       =  
| runtime        = 1 reel
| country        = United States  Silent English intertitles
| budget         = 
}}
 short comedy Fatty Arbuckle.

==Cast== Roscoe Fatty Arbuckle
* Minta Durfee Charles Murray
* Ricca Allen
* Jess Dandy - Carnival Boss (uncredited)

==See also==
* List of American films of 1914
* Fatty Arbuckle filmography

==External links==
* 

 
 
 
 
 
 
 
 
 

 