Mabel and Fatty's Simple Life
 
{{Infobox film
| name           = Mabel and Fattys Simple Life
| image          = FattyAndMabelsSimpl1915-01.jpg
| caption        = Fatty Arbuckle
| producer       = Mack Sennett
| writer         =
| starring       = Fatty Arbuckle
| cinematography =
| editing        =
| distributor    =
| released       =  
| runtime        = 24 minutes
| country        = United States Silent (English intertitles)
| budget         =
}}
  short comedy Fatty Arbuckle.   

==Cast== Roscoe Fatty Arbuckle - Roscoe
* Mabel Normand - Mabel Al St. John - The Squires son
* Josef Swickard - Mabels father
* Joe Bordeaux - Farm hand
* Ted Edwards - Minister (uncredited)

==See also==
* Fatty Arbuckle filmography

==References==
 

==External links==
*  
*  
*  

 
 
 
 
 
 
 
 
 
 

 