La vida por delante
{{Infobox Film
| name           = La vida por delante
| image          = 
| image_size     = 
| caption        = 
| director       = Fernando Fernán Gómez
| producer       = 
| writer         = Fernando Fernán Gómez Manuel Pilares
| narrator       = 
| starring       = Fernando Fernán Gómez Analía Gadé Manuel Alexandre Rafaela Aparicio José Isbert Gracita Morales
| music          = Rafael de Andrés Ricardo Torres
| editing        = Rosa G. Salgado
| distributor    = 
| released       = 5 September 1958
| runtime        = 90 minutes
| country        = Spain
| language       = Spanish
| budget         = 
}}
 1958 Spain|Spanish comedy film starring and written and directed by Fernando Fernán Gómez. The film enjoyed enough success to inspire a sequel, La vida alrededor, released in 1959 in film|1959.

==External links==
* 

 
 
 
 
 
 
 
 
 


 
 