Fatty's Jonah Day
 
{{Infobox film
| name           = Fattys Jonah Day
| image          = 
| image size     = 
| caption        =  Fatty Arbuckle
| producer       = Mack Sennett
| writer         = 
| narrator       =  Fatty Arbuckle
| music          = 
| cinematography = 
| editing        = 
| distributor    = 
| released       =  
| runtime        = 
| country        = United States  Silent English English intertitles
| budget         = 
}}
 short comedy Fatty Arbuckle.   

==Cast== Roscoe Fatty Arbuckle  Edward Dillon - (as Eddie Dillon) Frank Hayes
* Norma Nichols
* Ted Edwards - Cop (uncredited)

==See also==
* List of American films of 1914
* Fatty Arbuckle filmography

==References==
 

==External links==
* 

 
 
 
 
 
 
 
 

 