Kamakalawa
{{Infobox film
| name           = Kamakalawa
| image          = 
| image_size     = 
| caption        = 
| director       = Eddie Romero
| producer       = 
| writer         = Eddie Romero 
| narrator       = 
| starring       = Christopher De Leon and Tetchie Agbayani
| music          = 
| cinematography =       
| editing        =  
| distributor    =
| released       = 1981
| runtime        = 
| country        = Philippines Tagalog
| budget         = 
}} Filipino fantasy film directed by Eddie Romero and starred Christopher De Leon and Tetchie Agbayani. 

==Cast==
*Christopher De Leon
*Tetchie Agbayani    
*Raoul Aragonn   
*Apeng Daldal   
*Ruben Rustia   
*Jimmy Santos   
*Chat Silayan

==External links==
*  
 

 
 
 
 
 

 
 