That Minstrel Man
__NOTOC__
{{Infobox film
| name           = That Minstrel Man
| image          =
| caption        = Fatty Arbuckle
| producer       =
| writer         =
| starring       = Fatty Arbuckle
| cinematography =
| editing        =
| distributor    =
| released       =  
| runtime        =
| country        = United States Silent English intertitles
| budget         =
}}
 short comedy Fatty Arbuckle.   

==Cast== Roscoe Fatty Arbuckle
* Ford Sterling

==See also==
* List of American films of 1914
* Fatty Arbuckle filmography

==References==
 

==External links==
* 

 
 
 
 
 
 
 
 
 