Hari sa Hari, Lahi sa Lahi
{{Infobox film
| name           =  Hari sa Hari, Lahi sa Lahi
| image          = 
| image_size     = 
| caption        = 
| director       = Lili Chou, Eddie Romero
| producer       = 
| writer         = Eddie Romero 
| narrator       = 
| starring       = Vic Vargas and Gang Wang
| music          = 
| cinematography =  Manolo Abaya     
| editing        =  
| distributor    =
| released       = 1987
| runtime        = 150 minutes China
| Filipino
| budget         = 
}} Chinese film directed by Lili Chou and Eddie Romero and starred Vic Vargas and Gang Wang.

==Cast==
*Vic Vargas as  Pahala
*Gang Wang  (Wang Hsing Gang)
*Rosemarie Sonora
*Dan Alvaro
*Tanya Gomez
*Isabel Rivas

==External links==
*  
 

 
 
 
 
 
 
 


 
 