Killing Horace
 
{{Infobox film
| name           = Killing Horace
| image          = 
| image size     = 
| caption        = 
| director       = 
| producer       = 
| writer         = 
| narrator       =  Fatty Arbuckle
| music          = 
| cinematography = 
| editing        = 
| distributor    = 
| released       =  
| runtime        = 
| country        = United States  Silent English English intertitles
| budget         = 
}}
 short comedy Fatty Arbuckle.

==Cast== Roscoe Fatty Arbuckle Charles Murray

==See also==
* List of American films of 1914
* Fatty Arbuckle filmography

==External links==
* 

 
 
 
 
 
 
 

 