A Creampuff Romance
 
{{Infobox film
| name           = A Creampuff Romance
| image          = 
| alt            =  
| caption        =  Fatty Arbuckle
| producer       = 
| writer         = 
| starring       = Fatty Arbuckle
| music          = 
| cinematography = 
| editing        = 
| studio         = 
| distributor    = 
| released       =  
| runtime        = 
| country        = United States
| language       = Silent English intertitles
| budget         = 
| gross          = 
}}
 short comedy Fatty Arbuckle.   

==Cast== Roscoe Fatty Arbuckle
* Alice Lake Al St. John

==See also==
* List of American films of 1916
* Fatty Arbuckle filmography

==References==
 

==External links==
* 

 
 
 
 
 
 
 
 
 

 