The Sheriff
{{Infobox film
| name           = The Sheriff
| image          = 
| caption        =  Fatty Arbuckle
| producer       = 
| writer         = Fatty Arbuckle
| starring       = Fatty Arbuckle
| music          = 
| cinematography = 
| editing        = 
| distributor    = 
| released       =  
| runtime        = 18 minutes
| country        = United States  Silent English intertitles
| budget         = 
}}
 short comedy Fatty Arbuckle. The film is considered to be lost film|lost. 

==Cast== Roscoe Fatty Arbuckle - Cook
* Betty Compson - School teacher
* Monty Banks - (as Mario Bianchi)
* Glen Cavender

==See also==
* Fatty Arbuckle filmography

==References==
 

==External links==
* 

 
 
 
 
 
 
 
 
 

 