Empire of Ash
{{Infobox Film
| name           =  Empire of Ash
| image          =  
| image_size     = 
| caption        =  
| director       =  Michael Mazo Lloyd A. Simandl
| producer       =   John A. Curtis Michael Mazo Lloyd A. Simandl
| writer         =  story Lloyd A. Simandl Saul Urbonas
| narrator       =   
| starring       =   Melanie Kilgour Thom Schioler Frank Wilson
| music          =   Tom Lavin Bill Buckingham
| cinematography =   Nathaniel Massey	
| editing        =   Michael Mazo
| studio         =   
| distributor    =   
| released       =   
| runtime        =   
| country        =  Canada
| language       =  English
| budget         =   
| gross          = 
| preceded_by    = 
| followed_by    = 
}}
Empire of Ash (also known as Empire of Ash II) is a  .

==See also==
*List of apocalyptic and post-apocalyptic fiction

==References==
* 

 
 
 
 


 