My First Wedding (2006 film)
{{Infobox Film
| name           = My First Wedding
| image          = Myfirstwedding lg.jpg
| image_size     = 
| caption        = U.S. theatrical poster
| director       = Laurent Firode
| producer       = David Gordian Joan Carr-Wiggin Robert Sidaway
| writer         = Joan Carr-Wiggin
| narrator       =  Paul Hopkins Caroline Carver Valerie Mahaffey
| music          = Michel Cusson
| cinematography = Vernon Layton
| editing        = Richard Benwick Pamela Benwick
| distributor    = Cinema Libre Studio
| released       = August 18, 2006 (U.S.)
| runtime        = 94 mins
| country        = UK Canada
| language       = English
| budget         = 
| gross          =  $666,154 
| preceded_by    = 
| followed_by    = 
}}

My First Wedding is a 2006 romantic comedy film.

== Synopsis ==
A young lady ( ) who is not a priest. He agrees to help her, but falls in love with her along the way. Unfortunately she still thinks he is a priest.

==References==
 

== External links ==
*  
*  
*  

 
 
 
 


 