Mujhe Jeene Do (1999 film)
 
{{Infobox film
| name           = Mujhe Jeene Do
| image          = 
| image_size     = 
| caption        = 
| director       = Javed Sheikh 
| producer       = Mian Farzand Ali
| writer         = Pervez Kalim
| narrator       =  Meera Babar Ali Sana Javed Sheikh Nayyar Ejaz Ismail Tara
| music          = Amjad Bobby
| cinematography = 
| editing        = 
| distributor    = Arain Pictures 
| released       =  
| runtime        = 
| country        = Pakistan
| language       = Urdu 
| budget         = 
| preceded_by    = 
| followed_by    = 
}}
Mujhe Jeene Do is a 1999 Urdu film, produced in Pakistan and  directed by Javed Sheikh. The film stars Meera (actress)|Meera,  Babar Ali, Sana and Javed Sheikh. The films music is by Amjad Bobby.

 
 
 


 