Ernst, Bobbie, en de geslepen Onix
{{Infobox Film
| name           = Ernst, Bobbie, en de geslepen Onix
| image          = 
| image_size     = 
| caption        = 
| director       = Pieter Walther Boer
| producer       = 
| writer         = 
| narrator       = 
| starring       = 
| music          = 
| cinematography = 
| editing        = 
| distributor    = 
| released       = February 14, 2007
| runtime        = 
| country        = Netherlands Dutch
| budget         = 
| gross          = 
| preceded_by    = 
| followed_by    = 
}}

Ernst, Bobbie, en de geslepen Onix (  childrens film. The film received a Golden Film for 100,000 visitors.

==External links==
* 

 
 
 
 
 