Zoop in South America
{{Infobox film
| name           = Zoop in South America
| image size     =
| image	=	Zoop in South America FilmPoster.jpeg
| caption        =
| director       = Johan Nijenhuis
| producer       =
| writer         =
| narrator       =
| starring       =
| music          =
| cinematography =
| editing        =
| distributor    =
| released       =  
| runtime        =
| country        = Netherlands Dutch
| budget         =
| gross          =
}}

Zoop in South America ( ) is a 2007 Dutch youth film. The film received a Golden Film for 100,000 visitors.

==External links==
* 

 
 
 
 
 
 


 
 