Kamulah Satu-Satunya
{{Infobox film
| name           = Kamulah Satu-Satunya
| image          = Kamulah satu-satunya.jpg
| image_size     = 
| caption        = 
| director       = Hanung Bramantyo
| producer       = 
| writer         = Hanung Bramantyo , Raditya Bramantyo 
| narrator       = 
| starring       = Nirina Zubir
| music          = 
| cinematography =  
| editing        = 
| distributor    = Oreima Production & Kharisma Starvision Plus
| released       = July 12, 2007
| runtime        = 
| country        = Indonesia
| language       = Indonesian
| budget         = 
}} 2007 Indonesian comedy film directed by Hanung Bramantyo and starring Nirina Zubir and Didi Petet. The film premiered on July 12, 2007 in Jakarta.

==Cast==
*Nirina Zubir as Indah 
*Dennis Adhiswara
*Fanny Fadillah   
*Junior Liem as Bowo 
*Didi Petet   
*Ringgo Agus Rahman   
*Tarzan   
  
==External links==
*  

 

 
 
 
 
 
 
 
 