O Furto dos 500 Milhões de Réis
{{Infobox film
| name           = O Furto dos 500 Milhões de Réis
| image          =
| caption        =
| director       = Arturo Carrari
| producer       = Arturo Carrari
| writer         =
| starring       =
| cinematography = José Carrari
| editing        =
| distributor    = Escola de Artes Cinematográficas Azurra
| released       =  
| runtime        =
| country        = Brazil
| language       = Silent
| budget         =
}} 1922 Brazilian silent crime film directed by Arturo Carrari. 

The film premiered on December 18, 1922 in Rio de Janeiro.

==Cast==
*José Fontana
*Nicola Tartaglione

==External links==
*  

 
 
 
 
 
 
 

 
 
 