Convém Martelar
{{Infobox film
| name           = Convém Martelar
| image          =
| caption        =
| director       = Manuel F. Araujo, António Silva (actor)|António Silva
| producer       =
| writer         =
| starring       = Manuel F. Araujo
| cinematography = João Stamato
| editing        =
| distributor    = Amazônia Filme
| released       =  
| runtime        =
| country        = Brazil
| language       = Silent
| budget         =
}} 1920 Brazilian silent film directed by and starring Manuel F. Araujo.

The film premiered on January 28, 1920 in Rio de Janeiro.

==Cast==
*Manuel F. Araujo   
*Carlos Barbosa   
*Adhemar Gonzaga   
*António Silva (actor)|António Silva   
*Josefina Silva   
*Albino Vidal

==External links==
*  

 
 
 
 
 
 


 
 