Cavaleiro Negro
{{Infobox film
| name           = Cavaleiro Negro
| image          =
| caption        =
| director       = Luiz de Barros
| producer       = Luiz de Barros
| writer         = Luiz de Barros
| starring       = Augusto Aníbal, Manuel F. Araujo
| cinematography = Luiz de Barros
| editing        = Luiz de Barros
| distributor    = Guanabara Filmes
| released       =  
| runtime        =
| country        = Brazil
| language       = Silent
| budget         =
}} 1923 Brazilian silent adventure film directed by Luiz de Barros.  
The film premiered in Rio de Janeiro on January 15, 1923

==Cast==
*Augusto Aníbal   
*Manuel F. Araujo   
*Antônia Denegri   
*Alvaro Fonseca   
*Alfredo Marzullo   
*Francisco Pezzi

==External links==
*  

 

 
 
 
 
 
 


 
 