Der Schuß durchs Fenster
{{Infobox film
| name           =  Der Schuß durchs Fenster
| image          = 
| image_size     = 
| caption        = 
| director       = Siegfried Breuer  
| producer       = 
| writer         = Siegfried Breuer, Rolf Olsen 
| narrator       = 
| starring       = 
| music          = Willy Schmidt-Gentner 
| cinematography =Helmut Ashley    
| editing        =     
| distributor    = Alpen Film
| release        = 1950
| runtime        = 98 minutes
| country        = Austria
| language       = German
| budget         = 
}} 1950 Austrian  drama film directed, written by and starring Siegfried Breuer with Curd Jürgens .

==Cast==
*Curd Jürgens   
*Siegfried Breuer   
*Gunther Philipp   
*Fritz Eckhardt   
*Hans Putz   
*Leopold Rudolf   
*Eva Leiter   
*Edith Mill   
*Hans Dreßler   
*Hans Therwal   
*Franz Blauberger   
*Otto Lange   
*Franz Essel   
*Bertl Halovanic   
*Ilse Trenker   
*Elvira Hofer

==External links==
*  

 
 
 
 
 
 


 
 