Si Si Senor
 
 
{{Infobox film
| name           = Si Si Senor
| image          = 
| image size     = 
| caption        =  Fatty Arbuckle (as William Goodrich)
| producer       = 
| writer         = 
| narrator       = 
| starring       = Tom Patricola
| music          = 
| cinematography = 
| editing        = 
| distributor    = 
| released       =  
| runtime        = 19 minutes
| country        = United States 
| language       = English
| budget         = 
}}
 Fatty Arbuckle.

==Cast==
* Tom Patricola
* Joe Phillips
* Chaquita de Montes
* Carmel Guerrox

==See also==
* Fatty Arbuckle filmography

==External links==
* 

 
 
 
 
 
 
 
 


 