Cleaning Up (film)
 
{{Infobox film
| name           = Cleaning Up
| image          = 
| image size     = 
| caption        =  Fatty Arbuckle (as William Goodrich)
| producer       = 
| writer         = 
| narrator       = 
| starring       = Johnny Arthur
| music          = 
| cinematography = 
| editing        = 
| distributor    = 
| released       =  
| runtime        = 
| country        = United States  Silent English English intertitles
| budget         = 
}}
 Fatty Arbuckle.   

==Cast==
* Johnny Arthur George Davis

==See also==
* List of American films of 1925
* Fatty Arbuckle filmography

==References==
 

==External links==
* 

 
 
 
 
 
 
 
 


 