The Iron Mule
 
{{Infobox film
| name           = The Iron Mule
| image          = 
| caption        =  Fatty Arbuckle (as William Goodrich) Grover Jones
| producer       = 
| writer         = Grover Jones Al St. John
| music          = 
| cinematography = 
| editing        = 
| distributor    = 
| released       =  
| runtime        = 13 minutes
| country        = United States  Silent English intertitles
| budget         = 
}}
 Fatty Arbuckle.

==Cast== Al St. John George Davis
* Glen Cavender
* Doris Deane
* Buster Keaton - Indian (uncredited)

==See also==
* Fatty Arbuckle filmography

==External links==
* 

 
 
 
 
 
 
 
 
 
 


 