Home Cured
 
{{Infobox film
| name           = Home Cured
| image          =
| caption        = Fatty Arbuckle (as William Goodrich)
| producer       =
| writer         =
| narrator       =
| starring       = Johnny Arthur
| music          =
| cinematography =
| editing        =
| distributor    =
| released       =  
| runtime        =
| country        = United States
| language       = Silent with English intertitles
| budget         =
}}
 Fatty Arbuckle.

==Cast==
* Johnny Arthur
* Virginia Vance George Davis
* Glen Cavender

==See also==
* Fatty Arbuckle filmography

==External links==
* 

 
 
 
 
 
 
 
 


 