His Private Life
 
{{Infobox film
| name           = His Private Life
| image          =
| image size     =
| caption        = Fatty Arbuckle (as William Goodrich)
| producer       =
| writer         = Fatty Arbuckle (as William Goodrich)
| narrator       =
| starring       = Lupino Lane
| music          =
| cinematography = Byron Houck
| editing        =
| distributor    =
| released       =  
| runtime        =
| country        = United States Silent English English intertitles
| budget         =
}}
 Fatty Arbuckle.

==Cast==
* Lupino Lane George Davis
* Glen Cavender
* Wallace Lupino

==See also==
* Fatty Arbuckle filmography

==External links==
* 

 
 
 
 
 
 
 
 


 