Fool's Luck
{{Infobox film
| name           = Fools Luck
| image          =
| image size     =
| caption        = Fatty Arbuckle (as William Goodrich)
| producer       =
| writer         = Fatty Arbuckle (as William Goodrich)
| narrator       =
| starring       = Lupino Lane
| music          =
| cinematography = Bert Houck
| editing        =
| distributor    =
| released       =  
| runtime        = 15 minutes
| country        = United States Silent English English intertitles
| budget         =
}}
 silent comedy Fatty Arbuckle.   

==Cast==
* Lupino Lane - The Dude George Davis - His Valet
* Virginia Vance - The Girl
* Jack Lloyd - Her Father

==See also==
* Fatty Arbuckle filmography

==References==
 

==External links==
* 

 
 
 
 
 
 
 
 
 