Special Delivery (1922 film)
 
{{Infobox film
| name           = Special Delivery
| image          = 
| caption        =  Fatty Arbuckle (uncredited)
| producer       = 
| writer         =  Al St. John
| music          = 
| cinematography = 
| editing        = 
| distributor    = 
| released       =  
| runtime        = 
| country        = United States Silent English intertitles
| budget         = 
}} Fatty Arbuckle. It was Arbuckles first film as a director, albeit uncredited, since he was acquitted of the manslaughter of Virginia Rappe. A print of the film survives in the film archive of the Museum of Modern Art.   

==Cast==
* Al St. John
* Vernon Dent

==See also==
* Fatty Arbuckle filmography

==References==
 

==External links==
* 

 
 
 
 
 
 
 
 


 