The Fighting Dude
 
{{Infobox film
| name           = The Fighting Dude
| image          = 
| caption        =  Fatty Arbuckle (as William Goodrich)
| producer       = Lupino Lane
| writer         = Fatty Arbuckle (as William Goodrich)
| starring       = Lupino Lane
| music          = 
| cinematography = Byron Houck
| editing        = 
| distributor    = Educational Film Exchanges
| released       =  
| runtime        = 
| country        = United States  Silent English intertitles
| budget         = 
}}
 Fatty Arbuckle.

==Cast==
* Lupino Lane
* Virginia Vance
* Wallace Lupino
* Glen Cavender George Davis
* Dick Sutherland

==See also==
* List of American films of 1925
* Fatty Arbuckle filmography

==External links==
* 

 
 
 
 
 
 
 
 
 
 
 