Ex-Plumber
{{Infobox film
| name           = Ex-Plumber
| image          = 
| caption        =  Fatty Arbuckle
| producer       = 
| writer         = Fatty Arbuckle Walter F. Reed
| starring       = Lloyd Hamilton
| music          = 
| cinematography = 
| editing        = 
| distributor    = 
| released       =  
| runtime        = 21 minutes
| country        = United States 
| language       = English
| budget         = 
}} Fatty Arbuckle. 

==Cast==
* Lloyd Hamilton
* Addie McPhail
* Stanley Blystone
* Mitchell Lewis
* Amber Norman
* Polly Christy

==See also==
* List of American films of 1931
* Fatty Arbuckle filmography

==External links==
* 

 
 
 
 
 
 
 
 
 

 