Hollywood Lights
 {{Infobox Film
| name           = Hollywood Lights
| image          = 
| image size     = 
| caption        =  Fatty Arbuckle (as William Goodrich)
| producer       = 
| writer         = Ernest Pagano Jack Townley
| narrator       = 
| starring       = Rita Flynn
| music          = 
| cinematography = 
| editing        = 
| distributor    = 
| released       =  May 8, 1932
| runtime        = 20 minutes
| country        = United States 
| language       = English
| budget         = 
| preceded by    = 
| followed by    = 
}}
 Fatty Arbuckle.

==Cast==
* Rita Flynn
* Virginia Brooks
* Tut Mace
* Ted OShea
* Fern Emmett
* Lynton Brent
* Jack Shaw
* Bert Young
* Betty Grable - (as Frances Dean)

==See also==
* Fatty Arbuckle filmography

==External links==
* 

 
 
 
 
 
 
 
 
 
 