Up Pops the Duke
 
{{Infobox film
| name           = Up Pops the Duke
| image          = 
| image_size     = 
| caption        =  Fatty Arbuckle (as William Goodrich)
| producer       = Jack White
| writer         = Ernest Pagano Jack Townley
| narrator       = 
| starring       = George Chandler
| music          = 
| cinematography = 
| editing        = 
| distributor    = 
| released       =  
| runtime        = 20 minutes
| country        = United States 
| language       = English
| budget         = 
}}
 Fatty Arbuckle.

==Cast==
* George Chandler
* Pauline Wagner
* Helen Bolton

==See also==
* Fatty Arbuckle filmography

==External links==
* 

 
 
 
 
 
 
 
 
 


 