Hollywood Luck
 
{{Infobox film
| name           = Hollywood Luck
| image          = 
| image size     = 
| caption        =  Fatty Arbuckle (as William Goodrich)
| producer       = 
| writer         = Ernest Pagano Jack Townley
| narrator       = 
| starring       = Virginia Brooks
| music          = 
| cinematography = 
| editing        = 
| distributor    = 
| released       =  
| runtime        = 21 minutes
| country        = United States 
| language       = English
| budget         = 
}}
 Fatty Arbuckle.

==Cast==
* Virginia Brooks
* Rita Flynn
* Betty Grable - (as Frances Dean)
* Clarence Nordstrom
* Fern Emmett
* Addie McPhail
* Lynton Brent
* Dennis ODonnell

==See also==
* Fatty Arbuckle filmography

==External links==
* 

 
 
 
 
 
 
 
 
 


 