The Blair Bitch Project
{{Infobox Film |
  name           = The Blair Bitch Project starring Linda Blair |
  director       = Scott LaRose |
  writer         = Allan Murray |
  starring       = Linda Blair |
  released       = 1999 in film|1999|
  runtime        = 20 min.}}
 1999 film starring Linda Blair.  It is a parody of The Blair Witch Project.  Its full title is The Blair Bitch Project starring Linda Blair.

== References ==
*  

== External links ==
*    
*  

 
 
 
 

 