Low Life (film)
{{Infobox film name           = Low Life  image          = Low Life (film).jpg caption        = Poster to Low Life (2004) director       = Im Kwon-taek producer       = Lee Tae-won writer         = Im Kwon-taek starring  Kim Min-sun music          = Shin Jung-hyeon cinematography = Jung Il-sung editing        = Park Soon-duk distributor    =  released       =   runtime        = 105 minutes country        = South Korea language       = Korean budget         = 
| film name = {{Film name hangul         =   hanja          =   rr             = Haryu insaeng mr             = Haryu insaeng}}
}}
Low Life ( ; also known as Raging Years) is a 2004 South Korean film directed by Im Kwon-taek.

==Plot==
The life of gangster, Choi Tae-woong is followed through the tumultuous events of the second half of the 20th century in Korea.

==Cast==
* Jo Seung-woo as Choi Tae-woong Kim Min-sun as Park Hye-ok
* Kim Hak-jun as Oh Sang-pil
* Yoo Ha-jun as Park Seung-mun

==Film festivals== 2004 Toronto 2004 Venice Film Festival.

==Notes==
 

==Sources==
*  
*  
*  
*  
*  

==External links==
*  
*  

 

 
 
 
 
 
 
 
 
 
 
 


 
 