Tars and Stripes
{{Infobox film
| name           = Tars and Stripes
| image          =
| image size     =
| caption        =
| director       = Buster Keaton Charles Lamont
| producer       = E.H. Allen E. W. Hammons
| writer         =
| narrator       =
| starring       = Buster Keaton
| music          =
| cinematography = Dwight Warren
| editing        =
| studio         = Educational Pictures
| distributor    = Metro-Goldwyn-Mayer
| released       =  
| runtime        = 20 minutes
| country        = United States
| language       = English
| budget         =
}}
 short comedy film directed by and starring Buster Keaton.   

==Cast==
* Buster Keaton as Apprentice Seaman Elmer Doolittle
* Vernon Dent as Chief Gunners Mate Richard Mack
* Dorothea Kent as Macks Girlfriend
* Jack Shutta

==See also==
* Buster Keaton filmography

==References==
 

==External links==
* 

 

 
 
 
 
 
 
 
 
 
 
 