Hulda of Holland
 
{{Infobox film
| name           = Hulda of Holland
| image          =
| caption        =
| director       = J. Searle Dawley
| producer       =
| writer         = Charles Menges
| starring       = Ben F. Wilson
| music          =
| cinematography =
| editing        =
| distributor    =
| released       =  
| runtime        =
| country        = United States
| language       = Silent with English intertitles
| budget         =
}}
 short drama film. Harold Lloyd features in an uncredited role.   

==Cast==
* Ben F. Wilson - Heintz
* Laura Sawyer - Hulda
* Jessie McAllister
* Charles Sutton
* Harold Lloyd - Bit Role (uncredited)

==See also==
* Harold Lloyd filmography

==References==
 

==External links==
* 

 
 
 
 
 
 
 
 

 