Cupid in a Dental Parlor
 
{{Infobox film
| name           = Cupid in a Dental Parlor
| image          =
| caption        =
| director       = Henry Lehrman
| producer       = Mack Sennett
| writer         =
| narrator       =
| starring       = Fred Mace
| music          =
| cinematography =
| editing        =
| distributor    =
| released       =  
| runtime        =
| country        = United States Silent English English intertitles
| budget         =
}}
 short comedy film directed by Henry Lehrman.   Harold Lloyd is said to have appeared in this film, but this is unconfirmed.

==Cast==
* Fred Mace
* Ethel Parks
* Chester Conklin
* Josef Swickard
* Harold Lloyd - (unconfirmed)

==See also==
* List of American films of 1913
* Harold Lloyd filmography

==References==
 

==External links==
* 

 
 
 
 
 
 
 
 
 