Willie Runs the Park
 
{{Infobox film
| name           = Willie Runs the Park
| image          =
| image size     =
| caption        =
| director       = Hal Roach
| producer       = Hal Roach
| writer         =
| narrator       =
| starring       = Harold Lloyd
| music          = Kchaikovsky, Faure, Bach and Wagner
| cinematography = Walter Lundin
| editing        =
| distributor    =
| released       =  
| runtime        =
| country        = United States Silent English intertitles
| budget         =
}}
 short comedy film featuring Harold Lloyd.

==Cast==
* Harold Lloyd - Willie Work
* Jane Novak - The Pretty Girl Roy Stewart - Willies Rival

==See also==
* Harold Lloyd filmography

==External links==
* 

 
 
 
 
 
 
 
 
 


 