Adventure in Paradise
 
 
 
{{Infobox film
| name           = Adventure in Paradise
| image          =
| image size     =
| caption        =
| director       = Jingbo Chen
| producer       =
| writer         = Zhaozhang Lu
| narrator       =
| starring       =
| music          =
| cinematography =
| editing        =
| distributor    = Feng Huang Motion Pictures
| release        =  
| runtime        =
| country        = Hong Kong Mandarin
| budget         =
}}
Adventure in Paradise or Tian tang qi yu  is a 1970 Hong Kong adventure film directed by Jingbo Chen.

==Cast==
*Henry Fong
*Ming Jiang
*Shek Lui
*Hua Xiang

==External links==
*  

 
 
 
 

 
 