A Mixup for Mazie
 
{{Infobox film
| name           = A Mixup for Mazie
| image          =
| caption        =
| director       = Hal Roach
| producer       = Hal Roach
| writer         =
| starring       = Harold Lloyd
| music          =
| cinematography =
| editing        =
| distributor    =
| released       =  
| runtime        =
| country        = United States Silent English English intertitles
| budget         =
}}
 short comedy film featuring Harold Lloyd.   

==Cast==
* Harold Lloyd - Lonesome Luke
* Gene Marsh
* Jack Spinks

==See also==
* Harold Lloyd filmography

==References==
 

==External links==
* 

 
 
 
 
 
 
 
 
 
 


 