Luke, the Candy Cut-Up
{{Infobox film
| name           = Luke, the Candy Cut-Up
| image          =
| image size     =
| caption        =
| director       = Hal Roach
| producer       = Hal Roach
| writer         =
| narrator       =
| starring       = Harold Lloyd
| music          =
| cinematography =
| editing        =
| distributor    = Pathé|Pathé Exchange
| released       =  
| runtime        =
| country        = United States Silent English intertitles
| budget         =
| preceded by    =
| followed by    =
}}
 1916 short short comedy film starring Harold Lloyd. A print of the film survives in George Eastman House.   

==Cast==
* Harold Lloyd - Lonesome Luke
* Snub Pollard
* Gene Marsh
* Bebe Daniels
* Sammy Brooks
* Billy Fay
* Fred C. Newmeyer Charles Stevenson

==See also==
* Harold Lloyd filmography

==References==
 

==External links==
* 

 
 
 
 
 
 
 
 
 
 


 