A Foozle at the Tee Party
 
{{Infobox film
| name           = A Foozle at the Tee Party
| image          = 
| alt            =  
| caption        = 
| director       = Hal Roach
| producer       = Hal Roach
| writer         = Dolly Twist
| starring       = Harold Lloyd
| music          = 
| cinematography = 
| editing        = 
| studio         = 
| distributor    = 
| released       =  
| runtime        = 
| country        = United States
| language       = Silent English intertitles
| budget         = 
| gross          = 
}}
 short comedy film featuring Harold Lloyd.   

==Cast==
* Harold Lloyd - Lonesome Luke
* Snub Pollard - (as Harry Pollard)
* Earl Mohan
* Gene Marsh
* Bebe Daniels
* Arthur Harrison
* Clifford Silsby

==See also==
* List of American films of 1915
* Harold Lloyd filmography

==References==
 

==External links==
* 

 
 
 
 
 
 
 
 
 
 


 