Ruses, Rhymes and Roughnecks
 
{{Infobox film
| name           = Ruses, Rhymes and Roughnecks
| image          = 
| caption        = 
| director       = Hal Roach
| producer       = Hal Roach
| writer         = 
| starring       = Harold Lloyd
| music          = 
| cinematography = 
| editing        = 
| distributor    = 
| released       =  
| runtime        = 
| country        = United States  Silent English intertitles
| budget         = 
}}
 short comedy film featuring Harold Lloyd. 

==Cast==
* Harold Lloyd as Lonesome Luke
* Snub Pollard (as Harry Pollard)
* Gene Marsh 
* Bebe Daniels 
* Jack Spinks

==See also==
* Harold Lloyd filmography

==External links==
* 

 
 
 
 
 
 
 
 
 
 

 