Luke's Washful Waiting
 
{{Infobox film
| name           = Lukes Washful Waiting
| image          = Lukes Washful Waiting.jpg
| caption        = Theatrical poster to Lukes Washful Waiting
| director       = Hal Roach
| producer       = Hal Roach
| writer         =
| starring       = Harold Lloyd
| music          =
| cinematography =
| editing        =
| distributor    =
| released       =  
| runtime        =
| country        = United States Silent English intertitles
| budget         =
}}
 short comedy film starring Harold Lloyd.   

==Cast==
* Harold Lloyd - Lonesome Luke
* Bebe Daniels - The Girl
* Snub Pollard - (as Harry Pollard)

==See also==
* Harold Lloyd filmography

==References==
 

==External links==
* 

 
 
 
 
 
 
 
 
 


 