Luke Laughs Last
{{Infobox film
| name           = Luke Laughs Last
| image          = Luke Laughs Last.jpg
| caption        =
| director       = Hal Roach
| producer       = Hal Roach
| writer         =
| starring       = Harold Lloyd
| music          =
| cinematography =
| editing        =
| distributor    =
| released       =  
| runtime        =
| country        = United States
| language       = Silent film English intertitles
| budget         =
}} short comedy film starring Harold Lloyd.   

==Cast==
* Harold Lloyd - Lonesome Luke
* Snub Pollard
* Bebe Daniels
* Sammy Brooks
* Bud Jamison Charles Stevenson
* Harry Todd

==See also==
* Harold Lloyd filmography

==References==
 

==External links==
* 

 
 
 
 
 
 
 
 
 


 