Luke and the Bomb Throwers
{{Infobox film
| name           = Luke and the Bomb Throwers
| image          =
| image size     =
| caption        =
| director       = Hal Roach
| producer       = Hal Roach
| writer         =
| narrator       =
| starring       = Harold Lloyd
| music          =
| cinematography =
| editing        =
| distributor    =
| released       =  
| runtime        =
| country        = United States
| language       = Silent film English intertitles
| budget         =
| preceded by    =
| followed by    =
}}
 1916 short short comedy film starring Harold Lloyd.

==Cast==
* Harold Lloyd - Lonesome Luke
* Snub Pollard
* Bebe Daniels
* Billy Fay - Fat Terrorist (uncredited)

==See also==
* Harold Lloyd filmography

==External links==
* 

 
 
 
 
 
 
 
 
 
 


 