Hurricane in Galveston
{{Infobox film
| name           = Hurricane in Galveston
| image          = 
| image size     = 
| caption        = 
| director       = King Vidor
| producer       = 
| writer         = 
| starring       = 
| music          = 
| cinematography = 
| editing        = 
| distributor    = 
| released       =  
| runtime        = 
| country        = United States 
| language       = Silent with English intertitles
| budget         = 
}}
 short drama debut film as a director.

==External links==
* 

 

 
 
 
 
 
 
 
 
 
 
 
 

 