The Lost Lie
{{Infobox film
| name           = The Lost Lie
| image          =
| caption        =
| director       = King Vidor
| producer       = Judge Willis Brown
| writer         = Judge Willis Brown
| starring       = Ruth Hampton
| cinematography =
| editing        =
| distributor    =
| released       =  
| runtime        =
| country        = United States
| language       = Silent with English intertitles
| budget         =
}}
 short comedy film directed by King Vidor.   

==Cast==
* Ruth Hampton Mike ORourke William Vaughn

==References==
 

==External links==
* 

 

 
 
 
 
 
 
 
 
 


 