The Chocolate of the Gang
{{Infobox film
| name           = The Chocolate of the Gang
| image          = 
| caption        = 
| director       = King Vidor
| producer       = Judge Willis Brown
| writer         = Judge Willis Brown
| starring       = Thomas Bellamy
| music          = 
| cinematography = 
| editing        = 
| distributor    = 
| released       =  
| runtime        = 2 reels (approx. 20 minutes)
| country        = United States 
| language       = Silent with English intertitles
| budget         = 
}}
 short comedy film directed by King Vidor.

==Cast==
*Ruth Hampton		
*Thomas Bellamy - Black Boy
*Ernest Butterworth Jr. - White Boy
*Judge Willis Brown - Himself / Commentator

==See also==
*List of American films of 1918

==External links==
* 

 

 
 
 
 
 
 
 
 
 


 