The Accusing Toe
{{Infobox film
| name           = The Accusing Toe
| image          =
| caption        =
| director       = King Vidor
| producer       = Judge Willis Brown
| writer         = Judge Willis Brown
| starring       = Sadie Clayton
| music          =
| cinematography =
| editing        =
| distributor    =
| released       =  
| runtime        =
| country        = United States Silent English intertitles
| budget         =
}}
 short comedy film directed by King Vidor.   

==Cast==
* Sadie Clayton
* Dale Faith
* Wharton Jones

==References==
 

==External links==
* 

 

 
 
 
 
 
 
 
 
 


 