Tad's Swimming Hole
{{Infobox film
| name           = Tads Swimming Hole
| image          =
| caption        =
| director       = King Vidor
| producer       = Judge Willis Brown
| writer         = Judge Willis Brown
| starring       = Ernest Butterworth
| music          =
| cinematography =
| editing        =
| distributor    =
| released       =  
| runtime        =
| country        = United States Silent English intertitles
| budget         =
}}
 short comedy film directed by King Vidor.

==Cast==
* Ernest Butterworth
* Ruth Hampton
* Guy Hayman

==External links==
* 

 

 
 
 
 
 
 
 
 


 