Pinched
 
{{Infobox film
| name           = Pinched
| image          = 
| caption        = 
| director       = Harold Lloyd Gilbert Pratt
| producer       = Hal Roach
| writer         = 
| starring       = Harold Lloyd
| music          = 
| cinematography = Walter Lundin
| editing        = Della Mullady
| distributor    = 
| released       =  
| runtime        = 
| country        = United States  Silent English intertitles
| budget         = 
}}
 short comedy film starring Harold Lloyd.   

==Cast==
* Harold Lloyd - The Boy 
* Snub Pollard 
* Bebe Daniels 
* William Blaisdell
* Sammy Brooks
* Bud Jamison
* Margaret Joslin - (as Margaret Joslin Todd)
* Gus Leonard
* Fred C. Newmeyer Charles Stevenson
* Dorothea Wolbert

==See also==
* Harold Lloyd filmography

==References==
 

==External links==
* 

 
 
 
 
 
 
 
 
 


 