Lonesome Luke's Lovely Rifle
 
{{Infobox film
| name           = Lonesome Lukes Lovely Rifle
| image          =
| image size     =
| caption        =
| director       =
| producer       = Hal Roach
| writer         = H. M. Walker
| narrator       =
| starring       = Harold Lloyd
| music          =
| cinematography =
| editing        =
| distributor    =
| released       =  
| runtime        =
| country        = United States Silent English intertitles
| budget         =
}}
 short comedy film featuring Harold Lloyd.

==Cast==
* Harold Lloyd as Lonesome Luke
* Snub Pollard 
* Bebe Daniels

==See also==
* Harold Lloyd filmography

==External links==
* 

 
 
 
 
 
 
 
 
 
 


 