From Laramie to London
{{Infobox film
| name           = From Laramie to London
| image          = 
| image size     = 
| caption        = 
| director       = 
| producer       = Hal Roach
| writer         = H. M. Walker
| narrator       = 
| starring       = Harold Lloyd
| music          = 
| cinematography = 
| editing        = 
| distributor    = 
| released       =  
| runtime        = 
| country        = United States  Silent English intertitles
| budget         = 
}}
 1917 short short comedy film featuring Harold Lloyd.   

==Cast==
* Harold Lloyd - Lonesome Luke
* Snub Pollard 
* Bebe Daniels 
* W.L. Adams
* Billy Fay
* Bud Jamison
* Fred Jefferson
* Margaret Joslin
* Marie Mosquini
* Fred C. Newmeyer
* Gilbert Pratt Charles Stevenson
* Dorothea Wolbert

==See also==
* Harold Lloyd filmography

==References==
 

==External links==
* 

 
 
 
 
 
 
 
 


 