Swing Your Partners
 
{{Infobox film
| name           = Swing Your Partners
| image          =
| image size     =
| caption        =
| director       = Alfred J. Goulding
| producer       = Hal Roach
| writer         =
| narrator       =
| starring       = Harold Lloyd
| music          =
| cinematography =
| editing        =
| distributor    =
| released       =  
| runtime        =
| country        = United States Silent English intertitles
| budget         =
}}
 1918 short short comedy film featuring Harold Lloyd.

==Cast==
* Harold Lloyd
* Snub Pollard
* Bebe Daniels
* William Blaisdell
* Sammy Brooks
* Lige Conley - (as Lige Cromley)
* William Gillespie
* Bud Jamison

==See also==
* Harold Lloyd filmography

==External links==
* 

 
 
 
 
 
 
 
 


 