Sic 'Em, Towser
 
{{Infobox film
| name           = Sic Em, Towser
| image          = 
| caption        = 
| director       = Gilbert Pratt
| producer       = Hal Roach
| writer         = 
| starring       = Harold Lloyd
| music          = 
| cinematography = 
| editing        = 
| distributor    = 
| released       =  
| runtime        = 
| country        = United States 
| language       = Silent with English intertitles
| budget         = 
}}
 short comedy film featuring Harold Lloyd. It is believed to be Lost film|lost. 

==Cast==
* Harold Lloyd 
* Snub Pollard 
* Bebe Daniels 
* William Blaisdell
* Sammy Brooks
* Lige Conley - (as Lige Cromley)
* William Gillespie
* Helen Gilmore
* Gus Leonard
* James Parrott Charles Stevenson - (as Charles E. Stevenson)
* Dorothea Wolbert

==See also==
* Harold Lloyd filmography

==References==
 

==External links==
* 

 
 
 
 
 
 
 
 
 


 