Look Out Below
{{Infobox film
| name           = Look Out Below
| image	=	Look Out Below FilmPoster.jpeg
| caption        =
| director       = Hal Roach
| producer       = Hal Roach
| writer         =
| starring       = Harold Lloyd
| music          =
| cinematography =
| editing        =
| distributor    =
| released       =  
| runtime        =
| country        = United States
| language       = Silent film English intertitles
| budget         =
}} short comedy film starring Harold Lloyd.

==Cast==
* Harold Lloyd - The Boy
* Bebe Daniels - The Girl
* Snub Pollard - Snub
* Sammy Brooks
* Billy Fay
* Lew Harvey
* Bud Jamison
* Margaret Joslin
* Oscar Larson
* Marie Mosquini
* William Petterson
* Noah Young

==See also==
* Harold Lloyd filmography

==External links==
* 

 
 
 
 
 
 
 
 


 