Just Dropped In
 
 
{{Infobox film
| name           = Just Dropped In
| image          = Just Dropped In (1919) - 1.jpg
| caption        = Film still
| director       = Hal Roach
| producer       = Hal Roach
| writer         = 
| starring       = Harold Lloyd
| music          = 
| cinematography = 
| editing        = 
| distributor    = 
| released       =  
| runtime        = 
| country        = United States  Silent English intertitles
| budget         = 
}}
 short comedy film featuring Harold Lloyd.   

==Cast==
* Harold Lloyd as The Boy
* Snub Pollard 
* Bebe Daniels  
* Mildred Forbes
* Estelle Harrison
* Wallace Howe
* Margaret Joslin
* Belle Mitchell
* William Petterson
* Noah Young

==See also==
* List of American films of 1919
* Harold Lloyd filmography

==References==
 

==External links==
 
* 

 
 
 
 
 
 
 
 


 