Si, Senor
 
{{Infobox film
| name           = Si, Senor
| image          = 
| image_size     = 
| caption        = 
| director       = Alfred J. Goulding
| producer       = Hal Roach
| writer         = 
| narrator       = 
| starring       = Harold Lloyd
| music          = 
| cinematography = 
| editing        = 
| studio         = Rolin Film Company
| distributor    = Pathe Exchange
| released       =  
| runtime        = One reel
| country        = United States 
| language       = Silent with English intertitles
| budget         = 
}}
 short comedy film featuring Harold Lloyd. It is believed to be Lost film|lost. 

==Cast==
* Harold Lloyd 
* Snub Pollard 
* Bebe Daniels  
* Sammy Brooks
* Billy Fay
* Estelle Harrison
* Lew Harvey
* Wallace Howe
* Dee Lampton
* Marie Mosquini
* Fred C. Newmeyer
* James Parrott
* William Petterson
* Hazel Powell
* Emmy Wallace (as Emmylou Wallace)
* Dorothea Wolbert
* Noah Young

==See also==
* Harold Lloyd filmography
* List of lost films

==References==
 

==External links==
* 

 
 
 
 
 
 
 
 
 


 