Off the Trolley
 
{{Infobox film
| name           = Off the Trolley
| image          = 
| caption        = 
| director       = Alfred J. Goulding
| producer       = Hal Roach
| writer         = 
| starring       = Harold Lloyd
| music          = 
| cinematography = 
| editing        = 
| distributor    = 
| released       =  
| runtime        = 
| country        = United States 
| language       = Silent with English intertitles
| budget         = 
}}
 short comedy film featuring Harold Lloyd.

==Cast==
* Harold Lloyd 
* Snub Pollard 
* Bebe Daniels  
* Sammy Brooks
* Billy Fay
* Lew Harvey
* Wallace Howe
* Bud Jamison
* Gus Leonard
* Marie Mosquini
* Fred C. Newmeyer
* James Parrott
* Dorothea Wolbert
* Noah Young

==See also==
* Harold Lloyd filmography

==External links==
* 

 
 
 
 
 
 
 
 

 