The Rajah (film)
 
{{Infobox film
| name           = The Rajah
| image          =
| caption        =
| director       = Hal Roach
| producer       = Hal Roach
| writer         =
| starring       = Harold Lloyd
| cinematography =
| editing        =
| distributor    =
| released       =  
| runtime        =
| country        = United States Silent English intertitles
| budget         =
}}
 short comedy film directed by Hal Roach and starring Harold Lloyd.   

==Cast==
* Harold Lloyd 
* Snub Pollard 
* Bebe Daniels  
* Sammy Brooks
* Lige Conley
* Dee Lampton
* Marie Mosquini
* Fred C. Newmeyer
* Catherine Proudfit
* E.J. Ritter Charles Stevenson (as Charles E. Stevenson)
* Chase Thorne
* Noah Young

==See also==
* Harold Lloyd filmography

==References==
 

==External links==
* 

 
 
 
 
 
 
 
 
 
 