Lotte from Gadgetville
{{Infobox film
| name           = Lotte from Gadgetville
| image          = Lotte from Gadgetville cover.jpg
| image_size     = 
| caption        = DVD cover
| director       = Heiki Ernits Janno Põldma
| producer       = 
| writer         = Heiki Ernits Janno Põldma
| narrator       = 
| starring       = Evelin Pang Andero Ermel Argo Aadli
| music          = Sven Grünberg
| cinematography = 
| editing        = 
| distributor    = 
| released       = May 23, 2006
| runtime        = 78 min
| country        = Estonia Latvia Estonian and Latvian
| budget         = 
| gross          = 
| preceded_by    = 
| followed_by    = 
}}
Lotte from Gadgetville  (Leiutajateküla Lotte) is a 2006 Estonian/Latvian feature-length animated film directed by Heiki Ernits and Janno Põldma.

In 2007, the film was awarded the Latvian Film Prize for best animated feature film.

==References==
 

== External links ==
*  

 
 
 
 
 
 
 
 
 