Floris (film)
 
{{Infobox film
| name           = Floris
| image          = Film poster Floris.jpg
| caption        = Film poster Jean van de Velde
| producer       =
| writer         = Gerard Soeteman
| narrator       =
| starring       = Michiel Huisman Birgit Schuurman
| music          =
| cinematography =
| editing        =
| distributor    =
| released       =  
| runtime        =
| country        = Netherlands
| language       = Dutch
| budget         =
}}
 Dutch film, Jean van 1969 TV series. The new side-kick is "Pi", played by popstar Birgit Schuurman. In the film some of the 1969 footage with Rutger Hauer and Bergman is included. Originally Hauer was asked to play the father of young Floris, but he declined. The film was shot in 2003.

==External links==
* 

 
 
 
 
 


 
 