A Day with the Meatball
{{Infobox film
| name           = A Day with the Meatball
| image          = 
| alt            =  
| caption        = 
| director       = Nicholaus Goossen
| producer       = Allen Covert Adrian Kulp
| writer         = 
| starring       = Erinn Bartlett  J.D. Donaruma
| music          = 
| cinematography = 
| editing        = Nicholaus Goossen
| studio         = Happy Madison
| distributor    = Columbia Pictures
| released       =  
| runtime        = 2 minutes
| country        = United States
| language       = English
| budget         = 
| gross          = 
}} short comedy film directed by Nicholaus Goossen. It features Adam Sandler.

==Cast==
* Erinn Bartlett as Meats Girlfriend
* J.D. Donaruma as Angry Library Guy
* Albert Malera as Waiter
* Meatball as Himself
* Adam Sandler as Himself

==External links==
*  
* http://www.youtube.com/watch?v=ePf1Y7mmMEw

 
 
 
 
 
 
 
 


 