Aadat Se Majboor
{{Infobox film
| name           = Aadat Se Majboor 
| image          = 1982-k-Adat Se Majboor.jpg
| caption        =
| director       = Ambrish Sangal
| producer       = 
| writer         = Apurba Kishore Bir 
| starring       = Mithun Chakraborty Rameshwari Neena Gupta Mohan Gokhale
| music          = 
| cinematography = 
| editing        =
| distributor    = 
| released       =  2 July 1982
| runtime        =  
| country        = India
| language       = Hindi
| Budget         = 
| preceded_by    =
| followed_by    =
| awards         =
| Gross          = 
}}
 1982 Hindi Indian feature directed by Ambrish Sangal, starring Mithun Chakraborty, Mohan Gokhale, Neena Gupta, Gloria Mahanty, Bijainee Misra and Lalatendu Rath.

==References==
* http://www.ibosnetwork.com/asp/filmbodetails.asp?id=Aadat+Se+Majboor

== External links ==
*  

 
 
 

 