A Good Business Deal
{{Infobox film
| name           = A Good Business Deal
| image          = 
| alt            =  
| caption        = 
| director       = B. Reeves Eason
| producer       = 
| writer         = 
| starring       = Joseph Galbraith
| music          = 
| cinematography = 
| editing        = 
| studio         = 
| distributor    = Mutual Film
| released       =  
| runtime        = 
| country        = United States
| language       = Silent English intertitles
| budget         = 
| gross          = 
}}
 short silent film directed by  B. Reeves Eason.

==Cast==
* Joseph Galbraith Jack Richardson
* Vivian Rich

==External links==
* 

 
 
 
 
 
 
 
 
 