To Rent Furnished
 
{{Infobox film
| name           = To Rent Furnished
| image          =
| caption        =
| director       = B. Reeves Eason
| producer       =
| writer         =
| narrator       =
| starring       = Bessie Banks
| cinematography =
| editing        =
| distributor    = Mutual Film
| released       =  
| runtime        =
| country        = United States Silent English English intertitles
| budget         =
}}

To Rent Furnished is a 1915 American short film directed by  B. Reeves Eason.

==Cast==
* Bessie Banks
* Harry Edmondson
* Vivian Rich
* Walter Spencer

==External links==
* 

 
 
 
 
 
 
 
 