A Question of Honor
 
 
{{Infobox film
| name           = A Question of Honor
| image          =
| caption        =
| director       = B. Reeves Eason
| producer       =
| writer         =
| narrator       = Jack Richardson
| cinematography =
| editing        =
| distributor    =
| released       =  
| runtime        =
| country        = United States Silent English intertitles
| budget         =
}} short silent film directed by  B. Reeves Eason.

==Cast== Jack Richardson
* Vivian Rich
* Walter Spence

==External links==
* 

 
 
 
 
 
 
 
 