Competition (1915 film)
{{Infobox film
| name           = Competition
| image          = 
| caption        = 
| director       = B. Reeves Eason Tom Ricketts
| producer       = American Film Manufacturing Company
| writer         = Theodosia Harris
| starring       = Charlotte Burton
| music          = 
| cinematography = 
| editing        = 
| distributor    = Mutual Film
| released       =  
| runtime        =  
| country        = United States  Silent English intertitles
| budget         = 
}}
 directional debut, and he also acted in it.

==Cast==
* Charlotte Burton 
* B. Reeves Eason (as Reaves Eason) Jack Richardson
* Vivian Rich
* Harry von Meter (as Harry Van Meter)

==External links==
* 

 
 
 
 
 
 
 
 
 