The Youngest Profession
{{Infobox film
| name           = The Youngest Profession
| image          = YoungestProfession AusOS.jpg
| image_size     = 175px
| caption        = Australian theatrical poster
| director       = Edward Buzzell
| producer       = B.F. Zeidman
| writer         = Lillian Day (book) George Oppenheimer Charles Lederer Leonard Spigelgass Jan Isbell Fortune
| narrator       = Edward Arnold John Carroll David Snell
| cinematography = Charles Lawton, Jr.
| editing        = Ralph E. Winters
| distributor    = Metro-Goldwyn-Mayer
| released       =  
| runtime        =
| country        = United States
| language       = English
| budget         =$446,000  . 
| gross          =$1,546,000 
}}
 Edward Arnold, John Carroll, cameos by Robert Taylor. 
==Box Office==
According to MGM records the film earned $1,187,000 in the US and Canada and $359,000 elsewhere resulting in a profit of $583,000. 
==References==
 

==External links==
* 
* 

 

 

 
 
 
 
 
 
 
 
 


 