Viviana (film)
 
{{Infobox film
| name           = Viviana
| image          =
| caption        =
| director       = B. Reeves Eason
| producer       =
| writer         =
| starring       = Sylvia Ashton
| cinematography =
| editing        =
| distributor    = Mutual Film
| released       =  
| runtime        =
| country        = United States
| language       = Silent with English intertitles
| budget         =
}}
 short drama film directed by  B. Reeves Eason.

==Cast==
* Sylvia Ashton
* Marion Christie
* George Periolat
* Leslie Reed
* Vivian Rich

==External links==
* 

 
 
 
 
 
 
 
 
 
 