The Jack of Hearts
 
{{Infobox film
| name           = The Jack of Hearts
| image          =
| caption        =
| director       = B. Reeves Eason
| producer       =
| writer         = Anthony Coldeway Dorothy Rockfort
| narrator       =
| starring       = Hoot Gibson
| cinematography =
| editing        =
| distributor    = Universal Film Manufacturing Company
| released       =  
| runtime        = 20 minutes
| country        = United States Silent English intertitles
| budget         =
}}
 short Western Western film directed by  B. Reeves Eason.

==Cast==
* Hoot Gibson
* Jack Perrin
* M.W. Lindley
* Josephine Hill

==See also==
* Hoot Gibson filmography

==External links==
* 

 
 
 
 
 
 
 
 
 
 
 