The Tell Tale Wire
 
{{Infobox film
| name           = The Tell Tale Wire
| image          =
| caption        =
| director       = B. Reeves Eason
| producer       =
| writer         = Philip Hubbard Lillian Valentine
| narrator       =
| starring       = Hoot Gibson
| cinematography =
| editing        =
| distributor    =
| released       =  
| runtime        = 20 minutes
| country        = United States Silent English intertitles
| budget         =
}}
 short Western Western film directed by  B. Reeves Eason.

==Cast==
* Hoot Gibson
* Josephine Hill
* Leo Pattee

==See also==
* Hoot Gibson filmography

==External links==
* 

 
 
 
 
 
 
 
 
 
 