The Rattler's Hiss
 
{{Infobox film
| name           = The Rattlers Hiss
| image          = 
| image_size     = 
| caption        = 
| director       = B. Reeves Eason
| producer       = 
| writer         = George Hively
| starring       = Hoot Gibson
| music          = 
| cinematography = 
| editing        = 
| distributor    = Universal Film Manufacturing Company
| released       =  
| runtime        = 20 minutes
| country        = United States 
| language       = Silent with English intertitles
| budget         = 
}}
 short Western Western film directed by  B. Reeves Eason.

==Cast==
* Hoot Gibson 
* Mildred Moore
* Tote Du Crow George Field

==See also==
* Hoot Gibson filmography

==External links==
* 

 
 
 
 
 
 
 
 
 
 


 
 