Niggaz4Life: The Only Home Video
{{Multiple issues|
 
 
 
}}

{{Infobox Film | name = Niggaz4Life: The Only Home Video
| image          = The Only Home Video.jpg |
| producer       = Eazy-E
| caption        = 
| director       = Mark Gerard
| writer         = Mark Gerard Eazy-E
| starring       = Eazy-E Dr. Dre MC Ren DJ Yella
| music          = N.W.A.
| cinematography = Mark Gerard
| editing        = Mark Gerard
| distributor    = Ruthless Records Priority Records TriStar Pictures Carolco Pictures
| released       = November 2, 1992 February 18, 2003
| runtime        = 60 min.
| language       = English
| budget         =  
}}
Niggaz4Life: The Only Home Video is a 1992  , "Alwayz Into Somethin", "Appetite for Destruction" and "Approach to Danger".  On October 8, 2002 the film was released on DVD format.  

==External links==
* 

 

 
 