Mabel Lost and Won
{{Infobox film
| name           = Mabel Lost and Won
| image          =
| caption        =
| director       = Mabel Normand
| producer       =
| writer         =
| starring       = Mabel Normand Owen Moore Mack Swain
| cinematography =
| editing        =
| distributor    =
| released       =  
| runtime        = 11 minutes
| country        = United States
| language       = Silent film English intertitles
| budget         =
}}
Mabel Lost and Won is a 1915 American short comedy film starring Mabel Normand and Owen Moore.  The film was also directed by Mabel Normand.

==Cast==
*Mabel Normand
*Owen Moore
*Mack Swain

==External links==
* 
*  
* 
* 
* 

 
 
 
 
 
 
 


 