Sone Yay
{{Infobox film
| name           = Sone Yay
| image          =
| image_size     =
| caption        =
| director       = Kyi Soe Tun
| producer       =
| writer         = Mit Mit (Pyay)
| narrator       =
| starring       =
| music          =
| cinematography = Kyi Soe Tun
| editing        =
| distributor    =
| released       =  
| runtime        =
| country        = Myanmar Myanmar
| budget         =
| gross          =
| preceded_by    =
| followed_by    =
| website        =
}} Burmese drama film directed by Kyi Soe Tun.

==Plot==
Aung Win is working in the Construction Department in Yangon. His wife dies and Aung Win is left with their son and daughter. Aung Win wifes sister takes care of the children. When the children are old to attend the school, he is moved to Pyay.

==Cast==
*Kyaw Hein as Aung Win
*Khin Than Nu
*Win Swe
*Hnin Si
*Aung Pyaih
*Zeyar
*Zin Mar Oo
*Min Oo
*Thu Zar Nwe
*Kyaw Min Htun
*Ei Thiri Lwin

==References==
 

 
 
 

 
 