Padauk Pinle
 
{{Infobox film
| name           = Padauk Pinlè
| image          =
| caption        =
| director       =
| producer       =
| writer         =
| narrator       =
| starring       = Yaza Ne Win, Tun Eindra Bo, Zaw One
| music          =
| cinematography =
| editing        =
| distributor    =
| released       =  
| runtime        =
| country        = Myanmar
| language       =
| budget         =
}}
Padauk Pinle ((   ), Sea of Padauk) is a 2003 Burmese musical drama film.

==Cast==
*Yaza Ne Win
*Zaw One
*Tun Eindra Bo
*Zargana
*Zaw Win Htut

==Release==
It was released on 14 March 2003.

==References==
 

 

 
 
 
 


 
 