The Black Horse Bandit
{{Infobox film
| name           = The Black Horse Bandit
| image          = 
| caption        = 
| director       = Harry Harvey
| producer       = 
| writer         = George Hively
| starring       = Hoot Gibson
| music          = 
| cinematography = 
| editing        = 
| distributor    = 
| released       =  
| runtime        = 20 minutes
| country        = United States Silent English intertitles
| budget         = 
}}
 short Western Western film directed by Harry Harvey and featuring Hoot Gibson.

==Cast==
* Hoot Gibson
* Helen Gibson
* Pete Morrison
* Vester Pegg
* Buck Connors

==See also==
* List of American films of 1919
* Hoot Gibson filmography

==External links==
* 

 
 
 
 
 
 
 
 
 