Kingdom Come (1919 film)
 
{{Infobox film
| name           = Kingdom Come
| image          =
| caption        = George Holt
| producer       =
| writer         = Karl R. Coolidge Dorothy Rockfort
| starring       = Hoot Gibson
| cinematography =
| editing        =
| distributor    =
| released       =  
| runtime        = 20 minutes
| country        = United States Silent English English intertitles
| budget         =
}}
 short Western Western film George Holt and featuring Hoot Gibson.

==Cast==
* Pete Morrison
* Hoot Gibson
* Josie Sedgwick
* Hal Wilson
* Joey Jacobs

==See also==
* Hoot Gibson filmography

==External links==
* 

 
 
 
 
 
 
 
 
 