The Lone Hand (1919 film)
{{Infobox film
| name           = The Lone Hand
| image          =
| caption        = George Holt
| producer       =
| writer         = Arthur Henry Gooden
| starring       = Hoot Gibson
| music          =
| cinematography =
| editing        =
| distributor    =
| released       =  
| runtime        = 20 minutes
| country        = United States Silent English intertitles
| budget         =
}}
 short Western Western film George Holt and featuring Hoot Gibson. A print is preserved in the Library of Congress collection. 

==Cast==
* Hoot Gibson
* Josephine Hill
* Frank MacQuarrie
* Charles Brinley

==See also==
* Hoot Gibson filmography

==References==
 

==External links==
* 

 
 
 
 
 
 
 
 
 
 