Masked (film)
 
{{Infobox film
| name           = Masked
| image          = 
| caption        = 
| director       = Mack V. Wright
| producer       = 
| writer         = Harvey Gates Hope Loring
| narrator       = 
| starring       = Hoot Gibson
| music          = 
| cinematography = 
| editing        = 
| distributor    = 
| released       =  
| runtime        = 20 minutes
| country        = United States  Silent English intertitles
| budget         = 
}}
 short Western Western film directed by Mack V. Wright and featuring Hoot Gibson.

==Cast==
* Hoot Gibson
* Virginia Browne Faire
* Dan Crimmins
* Nelson McDowell
* Jim Corey
* Tom London

==See also==
* Hoot Gibson filmography

==External links==
* 

 
 
 
 
 
 
 
 


 
 