His Nose in the Book
 
{{Infobox film
| name           = His Nose in the Book
| image          = 
| image size     = 
| caption        = 
| director       = B. Reeves Eason
| producer       = 
| writer         = B. Reeves Eason Henry Murray
| starring       = Hoot Gibson
| music          = 
| cinematography = 
| editing        = 
| distributor    = Universal Film Manufacturing Company
| released       =  
| runtime        = 20 minutes
| country        = United States  Silent English intertitles
| budget         = 
}}
 short Western Western film directed by B. Reeves Eason and featuring Hoot Gibson.

==Cast==
* Hoot Gibson
* Mildred Moore
* B. Reeves Eason Jr.
* Jim Corey George Field
* Tom London credited as Leonard Clapham

==See also==
* Hoot Gibson filmography

==External links==
* 

 
 
 
 
 
 
 
 
 


 
 