Aag Aur Toofan
{{Infobox film
| name           = Aag Aur Toofan 
| image          = 
| caption        =
| director       = Tanvir Ahmed
| producer       = Robin Kumar
| writer         = B. R. Ishara Anwar Hussain
| music          = N. Dutta
| cinematography = A. Palav, Rao, Shankar
| editing        = Madhu Adsule
| distributor    = 
| released       =  1975
| runtime        = 
| country        = India
| language       = Hindi
| Budget         = 
| preceded_by    =
| followed_by    =
| awards         =
| Gross          = }} 1975 Bollywood Anwar Hussain.

==Cast== Mumtaz - Anwar Hussain -  Rajan Haskar -  Mohan Choti -  Meenaxi -  Rajen Kapoor -  Rekha Chauvan -   Sheikh -  Uma Dhawan -  Tun Tun -  Amar -  Uma Dutt -  Mona -  Rani - Kirti Kumar -   Keshto Mukherjee -  Mehmood Jr. -

== External links ==
*  

 
 
 

 