The Fightin' Terror
 
{{Infobox film
| name           = The Fightin Terror
| image          = 
| caption        = 
| director       = Hoot Gibson
| producer       = 
| writer         = Harvey Gates
| starring       = Hoot Gibson
| music          = 
| cinematography = 
| editing        = 
| distributor    = 
| released       =  
| runtime        = 20 minutes
| country        = United States  Silent English intertitles
| budget         = 
}}
 short Western Western film directed by and featuring Hoot Gibson.

==Cast==
* Hoot Gibson
* Yvette Mitchell
* Jim Corey
* Mark Fenton
* George Rand
* Harry Tenbrook

==See also==
* List of American films of 1920
* Hoot Gibson filmography

==External links==
* 

 
 
 
 
 
 
 
 
 


 
 