The Broncho Kid
 
{{Infobox film
| name           = The Broncho Kid
| image          = 
| image_size     = 
| caption        = 
| director       = Mack V. Wright
| producer       = 
| writer         = Arthur Henry Gooden
| narrator       = 
| starring       = Hoot Gibson
| music          = 
| cinematography = 
| editing        = 
| distributor    = 
| released       =  
| runtime        = 20 minutes
| country        = United States  Silent English English intertitles
| budget         = 
}}
 short Western Western film directed by Mack V. Wright and featuring Hoot Gibson.

==Cast==
* Hoot Gibson
* Yvette Mitchell
* Dudley Hendricks credited as D.C. Hendricks
* Jim Corey

==See also==
* List of American films of 1920
* Hoot Gibson filmography

==External links==
* 

 
 
 
 
 
 
 
 
 


 
 