Bolt (1994 film)
 
{{Infobox film
  | name           = Bolt
  | image          =
  | caption        =
  | director       = Henri Colline George Mendeluk
  | producer       = Rod Hewitt (executive producer) 
  | writer         = Henri Colline (screenplay) Rod Hewitt, Fabienne Rigaud (story)
  | starring       = Richard Grieco Michael Ironside Sean Young
  | music          = Chris Squire
  | cinematography = Gerald B. Wolfe
  | editing        = Mark Sanders
  | distributor    =
  | released       = 1994
  | runtime        = 93 minutes English
  | budget         =
  | preceded by    =
  | followed by    =
}}
 reservation causes the conflict to escalate into a violent climax. It was released on DVD as Rebel Run in 1999.  , imdb.com 

The movie received generally poor reviews, and Sean Young later said that the cast referred to the film as "Blot". 

==References==
 

==External links==
* 

 
 
 
 
 


 