Superstition (1920 film)
 
{{Infobox film
| name           = Superstition
| image          =
| image size     =
| caption        =
| director       = Edward Laemmle
| producer       =
| writer         = Ford Beebe Arthur Henry Gooden
| starring       = Hoot Gibson
| music          =
| cinematography =
| editing        =
| distributor    = Universal Film Manufacturing Co.
| released       =  
| runtime        = 20 minutes
| country        = United States
| language       = Silent with English intertitles
| budget         =
}}
 short Western Western film directed by Edward Laemmle for the Universal Film Mfg. Co. and featuring Hoot Gibson.

==Cast==
* Hoot Gibson Charles Newton
* Jim Corey
* Dorothy Wood
* Betty Keller

==See also==
* Hoot Gibson filmography

==External links==
* 

 
 
 
 
 
 
 
 
 


 
 