The Shootin' Fool
 
{{Infobox film
| name           = The Shootin Fool
| image          = 
| caption        = 
| director       = Hoot Gibson
| producer       = 
| writer         = Josephine Spencer F. Hadden Ward
| starring       = Hoot Gibson
| music          = 
| cinematography = 
| editing        = 
| distributor    = 
| released       =  
| runtime        = 20 minutes
| country        = United States  Silent English intertitles
| budget         = 
}}
 short Western Western film directed by and featuring Hoot Gibson.

==Cast==
* Hoot Gibson
* Dorothy Wood
* Jim Corey
* James Gibson credited as Jim Gibson

==See also==
* Hoot Gibson filmography

==External links==
* 

 
 
 
 
 
 
 
 
 


 
 