The Two-Fisted Lover
 
{{Infobox film
| name           = The Two-Fisted Lover
| image          =
| caption        =
| director       = Edward Laemmle
| producer       =
| writer         = Ford Beebe
| starring       = Hoot Gibson
| cinematography =
| editing        =
| distributor    =
| released       =  
| runtime        = 20 minutes
| country        = United States Silent English intertitles
| budget         =
}}
 short Western Western film directed by Edward Laemmle and featuring Hoot Gibson.

==Cast==
* Hoot Gibson
* Dorothy Wood
* Jim Corey
* Walter Crowley
* Katherine Bates
* Nancy Caswell Charles Newton

==See also==
* Hoot Gibson filmography

==External links==
* 

 
 
 
 
 
 
 
 
 


 
 