Aag Ke Sholay
{{Infobox film
| name           = Aag Ke Sholay 
| image          = 
| caption        =
| director       = S R Pratap
| producer       = Gautam Bhatia
| writer         = 
| starring       = Hemant Birje, Gulshan Grover, Vijeta Pandit, Sumeet Saigal
| music          = Vijay
| cinematography = 
| editing        = 
| distributor    = Kirti Associate
| released       = 14 October 1988
| runtime        = 138 min
| country        = India
| language       = Hindi
| Budget         = 
| preceded_by    =
| followed_by    =
| awards         =
| Gross          = }}
Aag Ke Sholay (English translation - Flames of Fire) is 1988 Hindi Language Movie directed by S R Pratap and starring Hemant Birje, Gulshan Grover, Vijeta Pandit, Sumeet Saigal, Sripada, Rashmi Inder.
 

==References==
 

== External links ==
*  

 
 
 


 