Patti Smith: Dream of Life
 
{{Infobox Film
| name           = Patti Smith: Dream of Life
| image          = Patti Smith- Dream of Life.jpg
| director       = Steven Sebring
| producer       = Scott Vogel, Steven Sebring, Margaret Smilow
| narrator       = Patti Smith
| starring       = Patti Smith
| music          = Patti Smith
| cinematography = Phillip Hunt, Steven Sebring
| editing        = Angelo Corrao, Lin Polito
| distributor    = Celluloid Dreams
| released       = 20 January 2008
| runtime        = 109 min
| country        = United States English
| budget         = 
| gross          = 
}} PBS series P.O.V. on December 30, 2009. 

A Patti Smith: Dream of Life app for the iPad was published in May 2011. 

== Band ==
* Patti Smith – Singing|vocals, clarinet
* Lenny Kaye – guitar
* Oliver Ray – guitar
* Tony Shanahan – Bass guitar|bass, vocals drums

== Notes ==
 

== External links ==
*  
*  
*  

 

 
 
 
 
 
 
 
 
 
 
 

 