The Trail of the Hound
 
{{Infobox film
| name           = The Trail of the Hound
| image          =
| caption        = Albert Russell
| producer       =
| writer         = Ford Beebe
| starring       = Hoot Gibson
| cinematography =
| editing        =
| distributor    =
| released       =  
| runtime        = 20 minutes
| country        = United States Silent English intertitles
| budget         =
}}
 short Western Western film Albert Russell and featuring Hoot Gibson.

==Cast==
* Hoot Gibson
* Jim Corey Charles Newton
* Ben Corbett
* W.S. Weatherwax
* Dorothy Wood

==See also==
* Hoot Gibson filmography

==External links==
* 

 
 
 
 
 
 
 
 
 


 
 