Border (2007 film)
{{Infobox film
| name           = Border
| image size     = 
| image	=	Border FilmPoster.jpeg
| border         = 
| alt            = 
| caption        = 
| director       = Christopher Burgard
| producer       = 
| writer         = 
| screenplay     = 
| story          = 
| narrator       = 
| starring       = 
| music          = 
| cinematography = 
| editing        = 
| studio         = 
| distributor    = 
| released       =  
| runtime        = 
| country        = United States
| language       = English
| budget         = 
| gross          = 
}} documentary directed American and Mexican civil unrest and the effects that these issues are having on the residents of both countries.

==External links==
* 

 
 
 
 
 
 
 
 
 