The Statue of Liberty (film)
{{Infobox film
| name           = The Statue of Liberty
| image_size     = 
| image	=	The Statue of Liberty FilmPoster.jpeg
| caption        = 
| director       = Ken Burns
| producer       = Ken Burns Buddy Squires
| writer         = Geoffrey C. Ward Bernard Weisberger
| narrator       = David McCullough
| starring       = 
| music          = 
| cinematography = 
| editing        = Buddy Squires
| distributor    = 
| released       = 1985
| run time       = 55 minutes
| country        = United States 
| language       = English
| budget         = 
| preceded_by    = 
| followed_by    = 
}} Best Documentary Feature.   

==Contributors==
The film included readings by Jeremy Irons and Arthur Miller, among others. 
 James Baldwin Planet of the Apes. 

==References==
 

==External links==
* 
* 

 

 
 
 
 
 
 
 
 
 

 