The Fightin' Fury
 
{{Infobox film
| name           = The Fightin Fury
| image          = 
| caption        = 
| director       = Hoot Gibson
| producer       =  George Morgan
| starring       = Hoot Gibson
| music          = 
| cinematography = 
| editing        = 
| distributor    = 
| released       =  
| runtime        = 20 minutes
| country        = United States  Silent English intertitles
| budget         = 
}}
 short Western Western film directed by and starring Hoot Gibson.

==Cast==
* Hoot Gibson
* Gertrude Olmstead Charles Newton
* Ben Corbett
* Otto Nelson
* John Judd

==See also==
* List of American films of 1921
* Hoot Gibson filmography

==External links==
* 

 
 
 
 
 
 
 
 
 


 
 