Out o' Luck
 
{{Infobox film
| name           = Out o Luck
| image          = 
| caption        = 
| director       = Hoot Gibson
| producer       =  George Morgan
| starring       = Hoot Gibson
| music          = 
| cinematography = 
| editing        = 
| distributor    = 
| released       =  
| runtime        = 20 minutes
| country        = United States 
| language       = Silent with English intertitles
| budget         = 
}}
 short Western Western film directed by and starring Hoot Gibson.

==Cast==
* Hoot Gibson
* Gertrude Olmstead
* Jim Corey

==See also==
* Hoot Gibson filmography

==External links==
* 

 
 
 
 
 
 
 
 


 
 