Kickaroo
 
{{Infobox film
| name           = Kickaroo
| image          =
| caption        = Albert Russell
| producer       = George Morgan
| starring       = Hoot Gibson
| cinematography =
| editing        =
| distributor    =
| released       =  
| runtime        = 20 minutes
| country        = United States Silent English intertitles
| budget         =
}}
 short Western Western film Albert Russell and featuring Hoot Gibson.

==Cast==
* Hoot Gibson
* Gertrude Olmstead
* Otto Nelson
* Ben Corbett

==See also==
* Hoot Gibson filmography

==External links==
* 

 
 
 
 
 
 
 
 


 
 