Headin' West
 
{{Infobox film
| name           = Headin West
| image          = 
| caption        = 
| director       = William James Craft
| producer       = 
| writer         = Harvey Gates
| narrator       = 
| starring       = Hoot Gibson
| music          = 
| cinematography = 
| editing        = 
| distributor    = 
| released       =  
| runtime        = 50 minutes
| country        = United States  Silent English English intertitles
| budget         = 
}}
 Western film directed by William James Craft and featuring Hoot Gibson.   

==Cast==
* Jim Corey
* Hoot Gibson Charles Le Moyne
* Gertrude Short

==See also==
* Hoot Gibson filmography

==References==
 

==External links==
* 

 
 
 
 
 
 
 


 
 