The Lovers of Woomook-baemi
{{Infobox film name           = Lovers of Woomuk-Baemi image          = Lovers in Woomuk-Baemi.jpg caption        = Poster for Lovers of Woomuk-Baemi (1990) director       = Jang Sun-woo  producer       = Suh Byung-ki writer         = Jang Sun-woo Im Jong-jae starring       = Park Joong-hoon Choi Myung-gil music          = Lee Jong-gu cinematography = You Young-gil editing        = Kim Hyeon distributor    = Mokad Korea Co., Ltd. released       =   runtime        = 114 minutes country        = South Korea language       = Korean budget         =  gross          = 
| film name = {{Film name hangul         =   rr             = Umukbaemiui Sarang mr             = Umukpaemi ŭi Sarang context        = }}
}} 1990 South Korean film directed by Jang Sun-woo.

==Synopsis==
A melodrama about the love affair of a tailor from the countryside. 

==Cast==
* Park Joong-hoon... Il-do
* Choi Myung-gil... Gong-ryae
* Yoo Hye-ri... Sae-daek
* Lee Dae-keun... Park Seok-hee
* Choi Joo-bong... Nam-su
* Kim Young-ok... Il-dos mother
* Shin Chaong-shik... Il-dos father
* Chung Sang-chul... Na-ris father
* Seo Kap-sook... Na-ris mother
* Yang Taek-jo... Choi

==Notes==
 

==Bibliography==
*  
*  

 
 
 
 
 


 