Bad Movie
 
{{Infobox film name           = Bad Movie image          = Bad Movie.jpg caption        = Poster for Bad Movie (1997)
| film name = {{Film name hangul         =     hanja          = 나쁜   rr             = Nappeun yeonghwa mr             = Nappŭn yŏnghwa}} director       = Jang Sun-woo  producer       = Ahn Byoung-ju writer         = Jang Sun-woo Kim Soo-hyun starring       = Hang Seul-ki Park Kyeong-won music          =  cinematography = Choi Jeong-won Cho Yong-kyou Kim Woo-hyung editing        = Kim Yong-soo distributor    = Miracin Korea Film Company released       =   runtime        = 144 minutes country        = South Korea language       = Korean budget         =  gross          = 
}}
Bad Movie ( ), also known as Timeless, Bottomless Bad Movie, is a 1997 South Korean film directed by Jang Sun-woo.

==Plot==
A semi-documentary concerning the violent lives of delinquent teenagers in Seoul. 

==Awards==
* Pusan International Film Festival (1997) Netpac Award 
* Tokyo International Film Festival (1997) Asian Film Award

==Notes==
 

==Bibliography==
*  
*  
*  
*  
*  

 
 
 
 


 