The Charlatan (film)
{{Infobox film
| name           = The Charlatan
| image          = 
| image_size     = 
| caption        = 
| director       = Michael Curtiz
| producer       = 
| writer         = 
| narrator       = 
| starring       = Gyula Csortos Ica von Lenkeffy Tivadar Uray
| music          = 
| cinematography = 
| editing        = 
| distributor    = 
| released       =  
| runtime        = 
| country        = Hungary
| language       = Silent
| budget         = 
| gross          = 
}}
The Charlatan ( ) is a 1917 Hungarian film directed by Michael Curtiz. 

==Cast==
* Gyula Csortos
* Margit T. Halmi
* Ica von Lenkeffy
* Tivadar Uray
* László Z. Molnár
* Giza Báthory
* Lajos Réthey

==See also==
* Michael Curtiz filmography

==External links==
* 

 

 
 
 
 
 
 
 
 