Nobody's Son
{{Infobox film
| name           = Nobodys Son
| image          = 
| image_size     = 
| caption        = 
| director       = Michael Curtiz
| producer       = 
| writer         = 
| narrator       = 
| starring       = Gyula Csortos Ica von Lenkeffy Károly Lajthay
| music          = 
| cinematography = 
| editing        = 
| distributor    = 
| released       =  
| runtime        = 
| country        = Hungary
| language       = Silent
| budget         = 
| gross          = 
}}
Nobodys Son ( ) is a 1917 Hungarian film directed by Michael Curtiz.

==Cast==
* Gyula Csortos
* Dezso Gyarfas
* Hermin Haraszti
* Ica von Lenkeffy
* Károly Lajthay
* József Sziklay

==See also==
* Michael Curtiz filmography

==External links==
* 

 

 
 
 
 
 
 
 