The Karthauzer
{{Infobox film
| name           = The Karthauzer
| image          = 
| image_size     = 
| caption        = 
| director       = Michael Curtiz
| producer       = 
| writer         = 
| narrator       = 
| starring       = Alfréd Deésy Károly Lajthay
| music          = 
| cinematography = 
| editing        = 
| distributor    = 
| released       =  
| runtime        = 
| country        = Hungary
| language       = Silent
| budget         = 
| gross          = 
}}
The Karthauzer ( ) is a 1916 Hungarian film directed by Michael Curtiz. 

==Cast==
* Alfréd Deésy
* Károly Lajthay - Armand (as Charles Lederle)

==See also==
* Michael Curtiz filmography

==External links==
* 

 

 
 
 
 
 
 
 
 