Good and Evil (film)
{{Infobox film
| name           = Good and Evil
| image          =
| image size     =
| caption        =
| director       = Michael Curtiz
| producer       =
| writer         =
| narrator       =
| starring       = Lucy Doraine Alfons Fryland
| music          =
| cinematography = Gustav Ucicky
| editing        =
| distributor    =
| released       = 4 February 1921
| runtime        =
| country        = Austria
| language       = Silent
| budget         =
| gross          =
| preceded by    =
| followed by    =
}}
Good and Evil ( ) is a 1921 Austrian film directed by Michael Curtiz.

==Cast==
* Lucy Doraine
* Anton Tiller
* Alfons Fryland
* Magda Nagy
* Ralph Ostermann

==See also==
* Michael Curtiz filmography

==External links==
* 

 

 
 
 
 
 
 
 
 