The Star of Damascus
{{Infobox film
| name           = The Star of Damascus
| image          =
| image_size     =
| caption        =
| director       = Michael Curtiz
| producer       =
| writer         =
| narrator       =
| starring       = Lucy Doraine Iván Petrovich
| music          =
| cinematography = Gustav Ucicky
| editing        =
| distributor    =
| released       = 3 September 1920
| runtime        =
| country        = Austria
| language       = Silent
| budget         =
| gross          =
| preceded_by    =
| followed_by    =
}}
The Star of Damascus ( ) is a 1920 Austrian film directed by Michael Curtiz.

==Cast==
* Lucy Doraine
* Iván Petrovich

==See also==
* Michael Curtiz filmography

==External links==
* 

 

 
 
 
 
 
 
 
 