Miss Tutti Frutti
{{Infobox film
| name           = Miss Tutti Frutti
| image          = 
| caption        = 
| director       = Michael Curtiz
| producer       = 
| writer         = Friedrich Porges
| starring       = Lucy Doraine Alfons Fryland
| music          = 
| cinematography = 
| editing        = 
| distributor    = 
| released       =  
| runtime        = 
| country        = Austria
| language       = Silent
| budget         = 
| gross          = 
}}

Miss Tutti Frutti is a 1921 Austrian silent film directed by Michael Curtiz.

==Cast==
* Lucy Doraine
* Alfons Fryland
* Josef König
* Oskar Sachs
* Armin Springer

==See also==
* Michael Curtiz filmography

==External links==
* 

 

 
 
 
 
 
 
 