Nameless (film)
 
{{Infobox film
| name           = Nameless
| image          = 
| caption        = 
| director       = Michael Curtiz
| producer       = Arnold Pressburger
| writer         = Emric Foeldes
| starring       = Victor Varconi
| music          = 
| cinematography = Gustav Ucicky
| editing        = 
| distributor    = 
| released       =  
| runtime        = 
| country        = Austria
| language       = Silent
| budget         = 
| gross          = 
}}
Nameless ( ) is a 1923 Austrian film directed by Michael Curtiz.

==Cast==
* Victor Varconi
* Mary Kid
* Karl Farkas
* Arthur Gottlein
* Hans Lackner
* Maria Raffe

==See also==
* Michael Curtiz filmography

==External links==
* 

 

 
 
 
 
 
 
 
 