Touch-Me-Not
 Touch me not}}
{{Infobox film name           = Touch-Me-Not image          = Bongseonhwa poster.jpg caption        = Korean poster for Touch-Me-Not (1956) director       = Kim Ki-young  producer       = Kim Ki-young writer         = An Hwa-yeong starring       = Na Gang-hui An Seok-jin music          = Han Sang-ki cinematography = Seo Byeong-hyeon editing        = Kim Ki-young distributor    = Kim Ki-Yeong Production released       =   runtime        =  country        = South Korea language       = Korean budget         =  gross          = 
| film name      =   hanja          =   rr             = Bongseonhwa mr             = Pongsŏnhwa  context        = }}
}} 1956 South Korean film directed by Kim Ki-young.

==Synopsis==
A historical melodrama about a love triangle within a group of bandits. 

==Cast==
* Na Gang-hui 
* An Seok-jin
* Beak Song
* Hong Il-hwa
* Ko Seol-bong
* Go Seon-ae
* Park Am
* Lee Hyeon
* Kang Kye-shik
* Jo Hyang

==References==
 

==Bibliography==
*  
*  
*  

 

 
 
 
 
 


 