Hunting of Fools
{{Infobox film name           = Hunting of Fools image          = Hunting of Fools.jpg caption        = Poster for Hunting of Fools (1984) director       = Kim Ki-young  producer       = Park Chong-chan writer         = Kim Ki-young starring       = Eom Sim-jeong Kim Seong-geun music          = Kim Jung-gil cinematography = Seo Jeong-min editing        = Hyeon Dong-chun distributor    = Hwa Chun Trading Company released       =   runtime        = 100 minutes country        = South Korea language       = Korean
| film name      = {{Film name hangul         =   hanja          =  rr             = Babosanyang mr             = Pabosanyang}} budget         =  gross          = 
}}
Hunting of Fools ( ) is a 1984 South Korean film directed by Kim Ki-young.

==Synopsis==
 
A social drama about two men who have failed to graduate from college. 

==Cast==
  
* Eom Sim-jeong 
* Kim Seong-geun
* Bae Gyu-bin
* Kim In-moon
* Kim Won-seop
* Yoon In-Ja
* No Gyeong-sin
* Park Am
* Kim Sung-kyom
* Jang Hyeok

==Notes==
 

==Bibliography==
*  
*  
*  

 

 
 
 
 


 