Touch & Go (2003 film)
{{Infobox Film
| name           =  Touch & Go
| image          =  
| image_size     = 
| caption        =  
| director       =   
| producer       =   
| writer         =   
| narrator       =   
| starring       =Ellen Page   
| music          =   
| cinematography =   
| editing        =   
| studio         =   
| distributor    =   
| released       =  2003
| runtime        =   
| country        =  
| language       =   
| budget         =   
| gross          = 
| preceded_by    = 
| followed_by    = 
}} 2003 Canadian Scott Simpson.

==External links==
*  at the Internet Movie Database

 
 
 
 


 
 