A Snake of June
{{Infobox film
| name           = A Snake of June
| image          = ASnakeOfJune2002Poster.jpg
| caption        = Japanese Poster
| director       = Shinya Tsukamoto
| producer       = Shinya Tsukamoto Shin-Ichi Kawahara
| writer         = Shinya Tsukamoto
| screenplay     = 
| story          = 
| based on       =  
| starring       = 
| music          = Chu Ishikawa
| cinematography = Shinya Tsukamoto
| editing        = Shinya Tsukamoto
| studio         = 
| distributor    = 
| released       =  
| runtime        = 77 minutes
| country        = 
| language       = Japanese
| budget         = 
| gross          = 
}}
 San Marco Special Jury Award at the Venice Film Festival.

==Plot== shy career sexuality in a number of ways, causing their lives to be disrupted.

==Cast==
* Asuka Kurosawa as Rinko Tatsumi
* Yuji Kohtari as Shigehiko (as Yuji Koutari)
* Shinya Tsukamoto as Iguchi
* Masato Tsujioka
* Susumu Terajima 
* Tomorowo Taguchi 
* Shûji Ôtsuki 
* Tomoko Matsumoto 
* Mansaku Fuwa

==External links==
*  

 

 
 
 
 
 
 


 
 