Unborn in the USA
{{Infobox film
| name           = Unborn in the USA: Inside the War on Abortion
| image          = 
| image_size     = 
| caption        = 
| director       = Stephen Fell, Will Thompson
| producer       = 
| writer         = 
| narrator       = 
| starring       = 
| music          = 
| cinematography = 
| editing        = 
| distributor    = First Run Features
| released       = May 15, 2007
| runtime        = 105 minutes
| country        = United States
| language       = 
| budget         = 
| gross          = 
| preceded_by    = 
| followed_by    = 
}}

Unborn in the USA: Inside the War on Abortion is a 2007 documentary film featuring interviews with pro-life activists across the United States. Its tagline is, "How the pro-lifers are winning". The film was started as a thesis project by students Stephen Fell and Will Thompson of Rice University. 
 March for Army of God and other pro-life activists.

==References==
 

==External links==
*  
*  
*   - First Run Features

 
 
 


 
 