Fake ID (film)
{{Infobox Film
| name           = Fake ID
| image          = 
| image_size     = 
| caption        = 
| director       = Gil D. Reyes
| producer       = Stuart Perelmuter Gil D. Reyes
| writer         = Stuart Perelmuter Gil D. Reyes
| narrator       = 
| starring       = Stuart Perelmuter Brian Gligor Nina Burns Mark Fisher Michael Cyril Creighton Jason Decker
| music          = 
| cinematography = Paul Carney Sam Berry
| editing        = 
| distributor    = Alluvial Filmworks
| released       = March, 2003
| runtime        = 86 minutes
| country        = United States
| language       = English
| budget         = 
| gross          = 
| preceded_by    = 
| followed_by    = 
}}
Fake ID is a 2003  . Retrieved February 14, 2008. 

==Cast==
* Stuart Perelmuter as David
* Brian Gligor as Eric
* Nina Burns as Lauren
* Mark Fisher (actor) as Brenton
* Michael Cyril Creighton as Mikey
* Jason Decker as Max

==Footnotes==
 

==References==
*  

==External links==
*  
*  

 
 
 
 
 
 

 