The Santa Fe Trail (1923 film)
 
{{Infobox film
| name           = The Santa Fe Trail
| image          = 
| caption        =  Robert Dillon
| producer       =  Robert Dillon
| story          = Ben F. Wilson
| writer         = 
| starring       = Jack Perrin Neva Gerber
| cinematography = 
| editing        = 
| distributor    = Arrow Film Corp.
| released       =  
| runtime        = 15 episodes 
| country        = United States 
| language       = Silent with English intertitles
| budget         = 
}}
 Western film Robert Dillon, produced by Ben F. Wilson and released by Arrow Film Corporation. The film is considered to be lost film|lost.   

==Cast==
* Jack Perrin as Kit Carson
* Neva Gerber
* Jim Welch (as James Welch)
* Elias Bullock
* Wilbur McGaugh
* Clark B. Coffey
* Joe De La Cruz
* Maria Laredo
* Ned Jarvis

==See also==
* List of film serials
* List of film serials by studio
* List of lost films

==References==
 

==External links==
* 
* 

 
 
 
 
 
 
 
 
 
 
 


 
 