Bad Boys (2003 film)
{{Infobox film
| name           = Bad Boys
| image          = BadBoys2003Poster.jpg
| caption        = Film poster
| writer         = Pekka Lehtosaari
| starring       = Peter Franzén, Niko Saarela, Lauri Nurkse, Jasper Pääkkönen, Vesa-Matti Loiri|
| director       = Aleksi Mäkelä
| producer       = Markus Selin
| composer       = Tuomas Kantelinen
| distributor    = Solar Films
| released       =  
| runtime        = 126 minutes
| country        = Finland
| language       = Finnish
| budget         = €1,826,000 
| gross          = $4,778,324 (Finland)
}}
Bad Boys ( ) is a   in 2003, taking in $4,778,324.  This makes the film one of the most successful Finnish films at the national box office of all time.

== References ==

 

==External links==
* 

 
 
 
 
 


 