1895 (film)
{{Infobox film
| name           = 1895
| image          = 1895_poster.jpg
| caption        = Taiwan Poster
| director       = Hong Zhiyu
| producer       = 
| writer         = 
| starring       = Cheryl Yang Lee Chia-yin James Wen
| music          = Deon Lee Jeffrey Cheng
| cinematography = 
| editing        = 
| distributor    = 20th Century Fox Taiwan
| released       =  
| runtime        = 110 minutues
| country        = Taiwan Hakka Taiwanese Mandarin Japanese
| budget         = $2 million
}} Taiwanese Hakka Hakka film Japanese Invasion Hakka fighters TWD (approximately 2&nbsp;000&nbsp;000&nbsp;US dollar|USD), with roughly half of it provided by the Council for Hakka Affairs of the Executive Yuan.  The film was released on November 7, 2008.

== References ==
 

 
 
 


 