Premabhishekam (2008 film)
 

{{Infobox film
| name           = Premabhishekam
| image          =
| caption        = Veediki Cancer Ledu
| director       = S. S. Vikram Gandhi Venu Madhav
| writer         =
| narrator       = Venu Madhav Ali Brahmanandam Naga Babu Sri Hari
| music          =
| cinematography =
| editing        =
| distributor    = Savitri Cinema
| released       = March 14, 2008
| runtime        = 157 min.
| country        = India Telugu
| budget         = 10 crores
| preceded_by    =
| followed_by    =
| website        =
}}
 Telugu Comedy Venu Madhav as hero and Priya Mohan and Ruthika as heroiens. The film also stars Ali (actor)|Ali, Brahmanandam, Nagendra Babu|Nagababu, and Srihari.

==Release==
The film was released worldwide on March 14, 2008.

==External links==
* 
* 
* 
* 

 
 
 
 


 