The Blue Pearl
{{Infobox film
| name           = The Blue Pearl
| image          =
| image_size     =
| caption        = Original Japanese movie poster
| director       = Ishirō Honda
| producer       =
| writer         =
| narrator       =
| starring       =
| music          =
| cinematography =
| editing        =
| distributor    = Toho
| released       = 1951 (Japan)
| runtime        =
| country        = Japan
| language       = Japanese
| budget         =
| preceded_by    =
| followed_by    =
}} Japanese film directed by Ishirō Honda.

==External links==
 

 

 
 
 
 
 
 

 