Moby Dick (1978 film)
{{Infobox film
| name           = Moby Dick
| image          = 
| image size     = 
| alt            = 
| caption        =  Paul Stanley
| producer       = John Robert
| writer         = Herman Melville
| starring       =Jack Aranson 
| music          = 
| cinematography = 
| editing        =Peter Knight 
| studio         = 
| distributor    = 
| released       =1978
| runtime        =90 min.
| country        =  
| language       = English
| budget         =$1,175,000 (est.) 
| gross          =
}} 1978 filmed Paul Stanley.

==External links==
*  

 

 
 
 
 
 
 
 


 