Love Makeup
{{Infobox film
| name           = Love Makeup
| image          = Koi-gesho poster.jpg
| image_size     =
| caption        = Original Japanese movie poster
| director       = Ishirō Honda
| producer       = Tomoyuki Tanaka, Toho
| writer         =
| narrator       =
| starring       =
| music          =
| cinematography =
| editing        =
| distributor    = Toei Company
| released       = 1955 (Japan)
| runtime        =
| country        = Japan Japanese
| budget         =
| preceded_by    =
| followed_by    =
}} Japanese film directed by Ishirō Honda.

==External links==
*  

 

 
 
 
 
 
 


 