The Brothers (1973 film)
 
 
{{Infobox Film
 | name           = The Brothers (aka The Kung Fu Brothers)
 | image          = 
 | image_size     = 
 | caption        = 
 | director       = 
 | producer       = 
 | writer         = 
 | narrator       = 
 | starring       = 
 | music          = 
 | cinematography = 
 | editing        = 
 | distributor    = 
 | released       = 1973
 | runtime        = 
 | country        = Hong Kong/Taiwan Mandarin
| budget         = 
 | gross          = 
 | preceded_by    = 
 | followed_by    = 
 }}

The Brothers (Da di shuang ying in Mandarin), is a Kung Fu film which was also released in the United States under the title The Kung Fu Brothers. 

<!-- I have found conflicting info on the web as to who directed this movie.  IMDb states it is Philip Chalong (aka Chalong Pakdivijit), but hkmdb.com has the name Chan Tung-Man... Is this possibly a 3rd alias for the same person?  I am finding that many HK actors have multiple aliases. 
-->

==References==
 

== External links ==
*  

 
 
 


 