Unknown Africa
 
 
{{Infobox film
| name           = Unknown Africa
| image          = 
| caption        = 
| director       = 
| producer       = 
| writer         = 
| starring       = Saba Douglas-Hamilton
| music          = 
| cinematography = 
| editing        = 
| distributor    = 
| released       = 2007
| runtime        = 
| country        = 
| language       = English
| budget         = 
| gross          = 
}}

Unknown Africa is a 2007 documentary film from the BBC dealing with the environment and society of places in Africa.

==External links==
*  

 
 
 
 
 

 