Musica in piazza
{{Infobox film
| name           =Musica in piazza
| image          = 
| image_size     =
| caption        = 
| director       = Mario Mattoli
| producer       = 
| writer         = 
| narrator       = 
| starring       = 
| music          = 
| cinematography = 
| editing        = 
| distributor    =
| released       = 1936 
| runtime        = 
| country        = Italy Italian
}}
 1936 Italy|Italian comedy film directed by Mario Mattoli.

==Cast==
*Gemma Bolognesi
*Guido Celano
*Ugo Ceseri
*Mino Doro
*Anna Maria Dossena
*Carlo Duse
*Achille Majeroni
*Milly
*Maria Raspini
*Ermanno Roveri
*Agostino Salvietti
*Enrico Viarisio

== External links ==
*  

 

 
 
 
 
 
 

 
 