*Corpus Callosum
{{Infobox film
| name           = *Corpus Callosum
| image          = 
| alt            =  
| caption        = 
| director       = Michael Snow
| producer       = 
| writer         = Michael Snow
| starring       = Jacqueline Anderson
| music          = 
| cinematography = Harald Bachmann Robbi Hinds
| editing        = 
| studio         = 
| distributor    = 
| released       =  
| runtime        = 92 minutes
| country        = Canada
| language       = English
| budget         = 
| gross          = 
}}

*Corpus Callosum is a 2002 experimental Canadian film directed by Michael Snow. It won the Independent/Experimental Film and Video Award from the Los Angeles Film Critics Association Awards.

==Cast==
* Jacqueline Anderson as Walking Woman
* Berj Bannayan
* Greg Hermanovic
* John Massey
* John Penner
* Kim Plate Tom Sherman
* Joanne Tod

==External links==
* 

 
 
 
 
 
 
 