Svet na Kajžarju
{{Infobox film
| name           = Svet na kajžarju
| image          =
| image size     =
| caption        =
| director       = France Štiglic
| producer       =
| writer         =
| starring       = Vika Podgorska Miro Kopač Tatjana Šenk Bert Sotlar Vladimir Skrbinšek Ivo Zoretič Lojze Potokar Frane Milčinski - Ježek 
| music          = Ciril Cvetko
| cinematography = Ivan Marinček
| editing        =
| distributor    =
| released       = 27 December 1952
| runtime        = 100 minutes
| country        = Yugoslavia
| language       = Slovene
| budget         =
| gross          =
}}
 1952 Slovene Slovene film Slovene countryside in the years immediately after the Second World War.

==External links==
* 

 
 
 
 
 
 
 