500 Dunam on the Moon
{{Infobox film
| name           = 500 Dunam on the Moon
| image          = 
| caption        = 
| director       = Rachel Leah Jones
| producer       = Rachel Leah Jones   Eyal Sivan
| writer         = Rachel Leah Jones
| screenplay     = 
| story          = 
| based on       =  
| starring       = 
| music          = 
| cinematography = 
| editing        = Rachel Leah Jones
| studio         = 
| distributor    = 
| released       = 
| runtime        = 
| country        = United States
| language       = 
| budget         = 
| gross          = 
}}
 
500 Dunam on the Moon is a 2002 documentary film directed by Rachel Leah Jones about Ein Hod, a Palestinian village that was captured and depopulated by Israeli forces in the 1948 Arab–Israeli War.  

==See also==
* Omar al-Qattan

==References==
 

==External links==
* 

 
 
 
 
 
 

 
 