Anne Against the World
 
{{Infobox film
| name           = Anne Against the World
| image          =
| image size     =
| caption        =
| director       = Duke Worne
| producer       =
| writer         = Arthur Hoerl
| narrator       = Shirley Mason Jack Mower
| music          =
| cinematography = Hap Depew
| editing        = J. S. Harrington
| distributor    =
| released       =  
| runtime        =
| country        = United States
| language       = Silent with English intertitles
| budget         =
}}

Anne Against the World is a 1929 American drama film directed by Duke Worne and featuring Boris Karloff. 

==Cast== Shirley Mason - Anne
* Jack Mower - John Forbes
* James Bradbury Jr. - Eddie
* Billy Franey
* Isabelle Keith - Teddy
* Belle Stoddard
* Thomas A. Curran - Emmett
* Henry Roquemore - Folmer
* Boris Karloff

==References==
 

==External links==
* 

 
 
 
 
 
 
 
 


 