The Star Boarder (1919 film)
{{Infobox film
| name           = The Star Boarder
| image          = 
| image size     = 
| border         = 
| alt            = 
| caption        = 
| director       = Larry Semon
| producer       = 
| writer         = Larry Semon (scenario)
| starring       = Larry Semon Lucille Carlisle
| distributor    = Vitagraph Company of America
| released       =  
| runtime        = 
| country        = United States
| language       = Silent English intertitles
}}
 1919 American silent comedy comedy short short written, directed and starring Larry Semon. The film also stars Lucille Carlisle, and features Norma Shearer (in her film debut) in an uncredited role as a beauty pageant contestant.

== External links ==
*  

 
 
 
 
 
 
 
 
 
 


 