Favorite Deadly Sins
{{Infobox Film
| name           = Favorite Deadly Sins
| image          = 
| image_size     = 
| caption        = 
| director       = David Jablin Denis Leary
| producer       = 
| writer         = Lust: Ann Lembeck Greed:  
| narrator       = 
| starring       = Joe Mantegna Denis Leary Andrew Clay
| music          = Adam Roth (Lust) Christopher Tyng (Greed and Anger)
| cinematography = 
| editing        = 
| distributor    = 
| released       = 
| runtime        = 
| country        = United States
| language       = English
| budget         = 
| gross          = 
| preceded_by    = 
| followed_by    = 
}}
National Lampoons Favorite Deadly Sins is a 1995 comedy TV-film. It is a trilogy of short episodes about the foundation of show business; Lust Greed and Anger. It stars   won Best Directing in Comedy CableACE Award for this film. 

==References==
 

==External links==
*  

 

 
 
 
 
 
 
 


 