Neem Annapurna
{{Infobox film name           = Neem Annapurna image          =  image_size     = caption        =  director       = Buddhadev Dasgupta producer       = Buddhadev Dasgupta  writer         = Buddhadev Dasgupta narrator       =  starring       =  music          =   cinematography =  editing        =   distributor    =  released       = 1979 runtime        = 96 minutes country        = India language  Bengali
|budget         =  gross          =  preceded_by    =  followed_by    = 
}} Bengali film directed and written by Buddhadev Dasgupta and starring Sunil Mukherjee.

==External links==
*  

 
 
 
 
 
 
 
 