Samayer Kache
{{Infobox film name           = Samayer Kache image          =  image_size     = caption        =  director       = Buddhadev Dasgupta producer       =    writer         = Buddhadev Dasgupta narrator       =  starring       =  music          =    cinematography =  editing        =   distributor    =  released       = 1968 runtime        =  country        = India language  Bengali
|budget         =  gross          =  preceded_by    =  followed_by    = 
}} 1968 Cinema Bengali short film directed and written by Buddhadev Dasgupta.

==External links==
*  

 

 
 
 
 
 


 