Dooratwa
{{Infobox film name           = Dooratwa image          =  image_size     = caption        =  director       = Buddhadev Dasgupta producer       = Buddhadev Dasgupta writer         = Buddhadev Dasgupta narrator       =  starring       =  music          =  Ain Rasheed Khan, Mahmud Mirza cinematography = Ranjit Roy editing        =   distributor    =  released       = 1978 runtime        = 96 minutes country        = India language  Bengali
|budget         =  gross          =  preceded_by    =  followed_by    = 
}} 1978 Cinema Bengali film directed and written by Buddhadev Dasgupta.

==Cast==
*Bijon Bhattacharya
*Pradip Mukherjee as Mondar 
*Niranjan Ray
*Mamata Shankar as  Anjali 

==External links==
*  

 

 
 
 
 
 

 