Bronze Head And Steel Arm
 
 
 

{{Infobox film
| name           = Bronze Head And Steel Arm
| image          =
| image_size     =
| caption        =
| director       = Gam Sing Yan
| producer       =
| writer         =
| narrator       =
| starring       =
| music          =
| cinematography =
| editing        =
| distributor    = 1972
| runtime        =
| country        = Taiwan, Hong Kong Mandarin
| budget         =
}}
 1972 Taiwanese and Hong Kong kung fu film. 

==References==
 

 
 
 
 
 
 


 
 
 