The Death Duel
 
 
 

{{Infobox film
| name           = The Death Duel
| image          =
| image_size     =
| caption        =
| director       = Chiang Ping Han
| producer       =
| writer         =
| narrator       =
| starring       =
| music          =
| cinematography =
| editing        =
| distributor    = 1972
| runtime        =
| country        = Taiwan, Hong Kong Mandarin
| budget         =
}} 1972 Taiwanese and  Hong Kong film. 

==References==
 

 
 
 
 
 
 


 
 
 