Canzone di primavera
{{Infobox film
| name           = Canzone di primavera
| image          = 
| image_size     = 
| caption        =  Mario Costa
| producer       = 
| writer         = 
| narrator       = 
| starring       = 
| music          =
| cinematography = 
| editing        = 
| distributor    =  1950 
| runtime        = 89 minutes
| country        = Italy Italy
| budget         = 
}}
 1950 Italy|Italian Mario Costa.

==Cast==
*Leonardo Cortese   
*Tamara Lees    Claudio Villa   
*Laura Gore   
*Aroldo Tieri   
*Ludmilla Dudarova   
*Checco Durante   
*Dante Maggio  
*Paola Borboni  
*Arturo Bragaglia   
*Piero Lulli   
*Enrico Glori   
*Franco Pesce   
*Jone Morino

== External links ==
*  

 
 
 
 
 
 
 