La Funivia del faloria
{{Infobox film
| name           = La Funivia del faloria
| image          = 
| image_size     = 
| caption        = 
| director       = Michelangelo Antonioni
| producer       = 
| writer         = 
| narrator       = 
| starring       = 
| music          =
| cinematography = 
| editing        = 
| distributor    =  1950 
| runtime        = 10 minutes
| country        = Italy Italian
| budget         = 
}}
 1950 Italy|Italian documentary film directed by Michelangelo Antonioni.
 
The film takes the viewer on a cable car ride through the Dolomites. Much of the film was shot in Cortina dAmpezzo.

== External links ==
*  

 
 
 
 
 
 
 


 
 