Crush (1972 film)
 
 
{{Infobox film
| name           = Crush 唐手跆拳道
| image          =
| image_size     =
| caption        =
| director       = Tu Guangqi
| producer       =
| writer         =
| narrator       =
| starring       = Chan Hung Lit Steve Chen Jason Pai
| music          =
| cinematography =
| editing        =
| distributor    =
| released        = 
| runtime        =
| country        = Hong Kong Mandarin
| budget         =
}} 1972 Cinema Hong Kong film. 

==See also==
* Can Dialectics Break Bricks? (1972)

==References==
 

==External links==
*  
*   at Hong Kong Cinemagic
*   at Hong Kong Movie Database

 
 
 
 
 


 
 