Chow Ken
 
 
{{Infobox film
| name           = Chow Ken
| image          =
| image_size     =
| caption        =
| director       = Ding Sin Saai
| producer       =
| writer         =
| narrator       =
| starring       =
| music          =
| cinematography =
| editing        =
| distributor    =
| released       = 1972
| runtime        =
| country        = Hong Kong Mandarin
| budget         =
}}
 1972 Hong Kong film. 

==References==
 

==See also==
*Qiu Jin

 
 
 
 


 
 