Crimes Are To Be Paid
 
 
 

{{Infobox film
| name           = Crimes Are To Be Paid
| image          =
| image_size     =
| caption        =
| director       = Chow Yuk Kong
| producer       =
| writer         =
| narrator       =
| starring       =
| music          =
| cinematography =
| editing        =
| distributor    = 1972
| runtime        =
| country        = Taiwan and Hong Kong Mandarin
| budget         =
}}
 1972 Taiwanese and Hong Kong film. 

==References==
 

 
 
 
 
 


 
 
 