The Big Fight (1972 film)
 
 
{{Infobox film
| name           = The Big Fight
| image_size     = 
| image	=	The Big Fight FilmPoster.jpeg
| caption        = 
| director       = Sung Ting Mei
| producer       = 
| writer         = 
| narrator       = 
| starring       = 
| music          =
| cinematography = 
| editing        = 
| distributor    = 
| released       = 1972 
| runtime        = 
| country        = Hong Kong Mandarin
| budget         = 
| amg_id         = 
}}
 1972 Hong Kong film. 

==References==
 

== External links ==
* 

 
 
 
 
 


 
 