The Story of a Story
 
{{Infobox film
| name           = The Story of a Story
| image          =
| caption        =
| director       = Tod Browning
| producer       =
| writer         =
| starring       = Eugene Pallette Miriam Cooper
| cinematography =
| editing        =
| distributor    =
| released       =  
| runtime        = 1 reel
| country        = United States
| language       = Silent with English intertitles
| budget         =
}}
 short fantasy film directed by Tod Browning.   

==Cast==
* Eugene Pallette as John Penhallow
* Miriam Cooper as His daughter
* Frankie Newman
* Charles Lee
* Claire Anderson

==References==
 

==External links==
* 

 

 
 
 
 
 
 
 
 


 
 