The Electric Alarm
{{Infobox film
| name           = The Electric Alarm
| image          = 
| caption        = 
| director       = Tod Browning
| producer       = 
| writer         =  Charles Gorman
| music          = 
| cinematography = 
| editing        = 
| distributor    = 
| released       =  
| runtime        = 1 reel
| country        = United States 
| language       = Silent with English intertitles
| budget         = 
}}
 short drama film directed by Tod Browning.   

==Cast==
* A. E. Freeman - Ryley Charles Gorman - Dick Ray
* Lucy Payton - Marys mother
* Lilian Webster - Mary

==References==
 

==External links==
* 

 

 
 
 
 
 
 
 
 
 

 