Wrestling Swordfish
{{Infobox film
| name           = Wrestling Swordfish
| image          =
| caption        =
| director       =
| producer       = Mack Sennett
| writer         = Gene Towne
| starring       =
| music          =
| cinematography =
| editing        =
| distributor    =
| released       =  
| runtime        = 8 minutes
| country        = United States
| language       = English
| budget         =
}}
 1932 for Best Short Subject (Novelty).      

==References==
 

==External links==
*  

 

 
 
 
 
 
 
 