Cup Final (film)
 
{{Infobox film
| name           = Cup Final (גמר גביע)
| image          = 
| caption        = 
| director       = Eran Riklis
| producer       = 
| writer         = Eyal Halfon
| narrator       = 
| starring       = Moshe Ivgy Mohammed Bakri
| music          = 
| cinematography = 
| editing        = 
| distributor    = 
| released       = 20 February 1992 (Germany)  14 May 1993 (UK)
| runtime        = 105 minutes
| country        = Israel English Hebrew Hebrew Arabic Arabic
| budget         = 
| gross          = 
}}

Cup Final ( , gmar gavia) is a 1991 Israeli film set during the 1982 invasion of Lebanon by Israel and the 1982 FIFA World Cup.

==Plot== Palestinian fighters Italian team), World Cup.

==Festivals==
*Berlin International Film Festival (20 February 1992)
*17th Moscow International Film Festival (1991)   

==See also==
*Lebanon (2009 film)
*Strangers (2007 Israeli film)
*Waltz with Bashir

==References==
 

== External links ==
*  

 
 
 
 
 
 
 
 
 
 
 
 
 