La doppia ferita
{{Infobox film
| name           = La doppia ferita
| image          = 
| image_size     = 
| caption        = 
| director       = Augusto Genina
| producer       = 
| writer         = 
| narrator       = 
| starring       = 
| music          =
| cinematography = 
| editing        = 
| distributor    = 
| released       =  
| runtime        = 
| country        = Italy
| language       = Silent
| budget         = 
| gross          = 
}}
 1915 Italian film directed by Augusto Genina.

== External links ==
*  

 
 
 
 
 
 
 