Pigs Is Pigs (1954 film)
{{Infobox Hollywood cartoon
| cartoon name      = Pigs Is Pigs
| series            =
| image             =
| image size        =
| alt               =
| caption           =
| director          =Jack Kinney
| producer          =
| story artist      =
| narrator          = Gary Owens     Bill Thompson
| musician          =
| animator          =
| layout artist     =
| background artist =
| studio            = Walt Disney Productions
| distributor       =
| release date      = 1954
| color process     =
| runtime           =
| country           = English
| preceded by       =
| followed by       =
}}

Not to be confused with Pigs Is Pigs (1937 film)
 Walt Disney Pigs Is UPA Style. The melody of the traditional Irish jig The Irish Washerwoman is repeated throughout the short.

It was nominated for an Academy Award for Best Animated Short Film.

==External links==
* 

 
 
 
 
 

 