La moglie di sua eccellenza
{{Infobox film
| name           = La moglie di sua eccellenza
| image          =
| caption        =
| director       = Augusto Genina
| producer       =
| writer         =
| starring       =
| cinematography =
| editing        =
| distributor    =
| released       =  
| runtime        =
| country        = Italy
| language       = Silent
| budget         =
}}
 1913 Italy|Italian film directed by Augusto Genina.

== External links ==
*  

 
 
 
 
 
 

 