Il sopravvissuto
{{Infobox film
| name           = Il sopravvissuto
| image          =
| caption        =
| director       = Augusto Genina
| producer       =
| writer         =
| starring       =
| cinematography =
| editing        =
| distributor    =
| released       =  
| runtime        =
| country        = Italy
| language       = Silent
| budget         =
}}
 1916 Italy|Italian film directed by Augusto Genina.

== External links ==
*  

 
 
 
 
 
 
 