Heavenly Music
 
 
{{Infobox film
| name           = Heavenly Music
| image          = 
| caption        = 
| director       = Josef Berne Jerry Bresler Sam Coslow
| writer         = Reginald Le Borg Edward James Paul Girard Smith Michael L. Simmons
| starring       = Fred Brady Mary Elliott
| music          = 
| cinematography = Robert Surtees
| editing        = Albert Akst MGM
| released       =  
| runtime        = 22 minutes
| country        = United States 
| language       = English
| budget         = 
}}
 short fantasy Best Short Subject (Two-Reel).      

==Cast==
* Fred Brady - Ted Barry
* Mary Elliott - Joy
* Eric Blore - Mr. Frisbie - Public Relations
* Steven Geray - Ludwig van Beethoven

==References==
 

==External links==
* 

 

 
 
 
 
 
 
 
 
 