Reunion (2001 film)
 
{{Infobox Film
| name           = Reunion
| image          = 
| image_size     = 
| caption        = 
| director       = Leif Tilden Mark Poppi
| producer       = Kimberly Shane OHara Eric M. Klein
| writer         = Kimberly Shane OHara Eric M. Klein
| narrator       =  Jennifer Rubin Corey Glover
| music          = 
| cinematography = 
| editing        = 
| distributor    = FilmMates Entertainment
| released       = 2001
| runtime        = 94 minutes
| country        = United States
| language       = English
| budget         = 
}}
 American feature Jennifer Rubin Danish avant-garde school of Dogme.

==Selected Cast==

*Billy Wirth ...  Brad Jennifer Rubin ...  Jeanie
*Corey Glover	...  Ty
*Marlene Forte ... Margaret
*Rainer Judd	...  Mindy
*Dwier Brown	...  Patrick
*Andres Faucher ...  J.C.
*Steven Gilborn ... George
*Georgia Simon ... Georgina
*Rod Britt ... 	Mr. Andretti
*Dan Gunther ...  Kile
*Michael James Johnson ...  Michael

==External links==
*  
* 

 
 
 
 


 