Grandad of Races
 
{{Infobox film
| name           = Grandad of Races
| image          = 
| caption        = 
| director       = André de la Varre
| producer       = Gordon Hollingshead
| writer         = Charles L. Tedford
| narrator       = 
| starring       = Art Gilmore
| music          = 
| cinematography = André de la Varre
| editing        = Rex Steele
| distributor    = Warner Bros.
| released       =  
| runtime        = 
| country        = United States
| language       = English
| budget         = 
}}
 short documentary Best Short Subject (One-Reel).   

==Cast==
* Art Gilmore as Narrator

==References==
 

==External links==
* 

 

 
 
 
 
 
 
 
 
 
 
 
 


 
 