Light in the Window
{{Infobox Film
| name           = Light in the Window
| image          = 
| image size     = 
| caption        = 
| director       = Jean Oser
| producer       = Boris Vermont
| writer         = 
| narrator       = 
| starring       = 
| music          = 
| cinematography = 
| editing        = 
| distributor    = 
| released       = September 1952
| runtime        = 10 minutes
| country        = United States 
| language       = English
| budget         = 
| preceded by    = 
| followed by    = 
}}
 1952 short 1953 for Best Short Subject (One-Reel).   

== References ==
 

== External links ==
* 

 

 
 
 
 
 
 
 