The Wetback Hound
{{Infobox film
| name           = The Wetback Hound
| image          =
| image size     =
| caption        =
| director       =
| producer       = Larry Lansburgh
| writer         =
| starring       =
| music          =
| cinematography =
| editing        = Disney
| released       =  
| runtime        = 18 minutes
| country        = United States
| language       = English
| budget         =
}}
 short family 1958 for Best Short Subject.   

==References==
 

==External links==
* 

 

 
 
 
 
 
 
 
 