The Chicken (film)
 
{{Infobox film
| name           = The Chicken
| image          = 
| caption        = 
| director       = Claude Berri
| producer       = Claude Berri
| writer         = Charles Nastat
| starring       = Jacques Marin
| music          = 
| cinematography = Ghislain Cloquet
| editing        = Sophie Coussein
| distributor    = 
| released       =  
| runtime        = 15 minutes
| country        = France
| language       = French 
| budget         = 
}} 1966 for Best Short Subject.   

==Cast==
* Jacques Marin
* Viviane Bourdonneux
* Martin Serre

==References==
 

==External links==
* 

 
 

 
 
 
 
 
 
 
 
 
 
 
 
 