Heureux Anniversaire
 
{{Infobox film
| name           = Heureux Anniversaire
| image          = 
| caption        = 
| director       = Pierre Étaix
| producer       = Jean-Claude Carrière Pierre Étaix
| writer         = Pierre Étaix
| narrator       = 
| starring       = Robert Blome Pierre Étaix
| music          = 
| cinematography = Pierre Levent
| editing        = 
| distributor    = 
| released       =  
| runtime        = 12 minutes
| country        = France 
| language       = French
| budget         = 
}}
 short comedy 1963 for Best Short Subject.   

==Cast==
* Robert Blome
* Pierre Étaix
* Lucien Frégis
* Laurence Lignières
* Georges Loriot
* Ican Paillaud
* Nono Zammit

==References==
 

==External links==
* 

 

 
 
 
 
 
 
 
 
 
 
 


 
 