Up (1984 film)
 
{{Infobox film
| name           = Up
| image          = 
| caption        = 
| director       = Mike Hoover Tim Huntley
| producer       = Mike Hoover
| writer         = 
| narrator       = 
| starring       = Ed Cesar Erick McWayne
| music          = 
| cinematography = 
| editing        = 
| distributor    = 
| released       =  
| runtime        = 14 minutes
| country        = United States 
| language       = English
| budget         = 
}}
 1985 for Best Short Subject.      

==Cast==
* Ed Cesar - Himself
* Erick McWayne - The Boy

==References==
 

==External links==
* 

 

 
 
 
 
 
 
 