In the Region of Ice
 
{{Infobox film
| name           = In the Region of Ice
| image          = 
| caption        = 
| director       = Peter Werner
| producer       = Andre R. Guttfreund
| writer         = 
| narrator       = 
| starring       = Fionnula Flanagan
| music          = 
| cinematography = 
| editing        = 
| distributor    = 
| released       =  
| runtime        = 37 minutes
| country        = United States 
| language       = English 
| budget         = 
}}
 Best Short Subject.   

==Cast==
* Fionnula Flanagan - The Sister
* Peter Lampert - The Boy (as Peter Lempert)

==References==
 

==External links==
* 

 

 
 
 
 
 
 
 