Board and Care
{{Infobox film
| name           = Board and Care
| image          =
| image size     =
| caption        = Ron Ellis
| producer       = Amelia Anderson Paul Cheesman Ron Ellis Sarah Pillsbury
| writer         =
| starring       = Richard Goss Laura Jean Ellis
| music          =
| cinematography = Fred Goodich
| editing        =
| distributor    =
| released       =  
| runtime        =
| country        = United States
| language       = English
| budget         =
}}
 Ron Ellis. Best Short Subject.   

==Cast==
* Richard Goss - Ricky
* Laura Jean Ellis - Lila
* Luana Anders - Carolyn
* Sunshine Parker - Briggs
* John Frederick Jones - Stanton

==References==
 

==External links==
* 

 

 
 
 
 
 
 
 
 

 