The Rookie Cop
{{Infobox film| name = The Rookie Cop
  | image    =
  | caption  = David Howard
  | producer = Bert Gilroy
  | writer   = 
  | starring = Tim Holt
  | music    = 
  | cinematography = Harry J. Wild
  | editing  = 
  | distributor = RKO Radio Pictures
  | released = April 28, 1939 
  | runtime  = 
  | language = English
  | budget   = $77,000 Richard Jewel, RKO Film Grosses: 1931-1951, Historical Journal of Film Radio and Television, Vol 14 No 1, 1994 p56  Richard Jewell & Vernon Harbin, The RKO Story. New Rochelle, New York: Arlington House, 1982. p131 
| gross = $162,000 
 }} Janet Shaw, David Howard.

==Reception==
The film made a profit of $18,000. 

==References==
 

== External links ==
*  

 
 
 
 
 
 
 
 
 


 