Thursday's Children
 
{{Infobox film
| name           = Thursdays Children
| image          = 
| caption        = 
| director       = Lindsay Anderson Guy Brenton
| producer       = 
| writer         = Lindsay Anderson Guy Brenton
| narrator       = Richard Burton
| starring       = 
| music          = 
| cinematography = Walter Lassally
| editing        = 
| distributor    = 
| released       =  
| runtime        = 21 minutes
| country        = United Kingdom 
| language       = English
| budget         = 
}}
 short documentary 1955 for Documentary Short Subject.   

==Cast==
* Richard Burton - Narrator

==See also==
* Richard Burton filmography

==References==
 

==External links==
* 

 
 

 
 
 
 
 
 
 
 
 
 
 
 
 

 
 