Il trono e la seggiola
{{Infobox film
| name           = Il trono e la seggiola
| image          =
| caption        =
| director       = Augusto Genina
| producer       =
| writer         =
| starring       =
| cinematography =
| editing        =
| distributor    =
| released       =  
| runtime        =
| country        = Italy Italian
| budget         =
}}
 1918 Italy|Italian film directed by Augusto Genina.

==Cast==
*Oreste Bilancia   
*Piera Bouvier   
*Tullio Carminati   
*Alfonso Cassini   
*Yvonne Fleuriel   

== External links ==
*  

 
 
 
 
 
 
 