Interviews with My Lai Veterans
 
{{Infobox film
| name           = Interviews with My Lai Veterans
| image          = 
| caption        = 
| director       = Joseph Strick
| producer       = Joseph Strick
| writer         = Joseph Strick
| narrator       = 
| starring       = Richard Hammer
| music          = 
| cinematography = Richard Pearce Haskell Wexler
| editing        = Sylvia Sarner
| distributor    = 
| released       =  
| runtime        = 22 minutes
| country        = United States 
| language       = English
| budget         = 
}}
 short documentary Documentary Short Subject.   

==Cast==
* Richard Hammer as Himself, interviewer (voice)

==References==
 

==External links==
* 

 

 
 
 
 
 
 
 
 
 
 
 
 
 
 


 
 