Project Hope (film)
{{Infobox film
| name           = Project Hope
| image          = 
| image_size     = 
| caption        = 
| director       = 
| producer       = Frank P. Bibas
| writer         = 
| narrator       = 
| starring       = 
| music          = 
| cinematography = 
| editing        = 
| distributor    = 
| released       =  
| runtime        = 
| country        = United States
| language       = English
| budget         = 
| preceded_by    = 
| followed_by    = 
}} 1962 for Documentary Short Subject.   

==References==
 

==External links==
* 

 

 
 
 
 
 
 
 
 
 


 