Rajdhani (film)
{{Infobox film
| name           = Rajdhani
| image          = Rajdhani 1956.jpg
| image_size     = 
| caption        = 
| director       = Naresh Saigal
| producer       = 
| writer         = 
| narrator       = 
| starring       = Sunil Dutt Nimmi Durga Khote
| music          = Hansraj Behl
| cinematography = 
| editing        = 
| distributor    = 
| released       = 1956
| runtime        = 
| country        = India
| language       = Hindi
| budget         = 
| gross          = 
| preceded_by    = 
| followed_by    = 
}} 1956 Cinema Indian action film directed by Naresh Saigal. Talat Mahmood and Lata Mangeshkar were playback singers for the film.

==Cast==
*Sunil Dutt 		
*Nimmi 			
*Durga Khote 		 Johnny Walker	
*Ramayan Tiwari 		
*Purnima Purnima 		
*Kumari Naaz 

==Reception==
The film has been described as "forgettable". 

==References==
 
 
== External links ==
*  

 
 
 
 


 
 