Don't (1974 film)
 
{{Infobox film
| name           = Dont
| image          = 
| caption        = 
| director       = Robin Lehman
| producer       = Robin Lehman
| writer         = Robin Lehman
| narrator       = 
| music          = 
| cinematography = Robin Lehman
| editing        = 
| distributor    = 
| released       =  
| runtime        = 19 minutes
| country        = United States 
| language       = English
| budget         = 
}} short American Documentary Short Subject.   

==References==
 

==External links==
* 

 

 
 
 
 
 
 
 
 
 
 
 
 


 
 