Talashe Haq
{{Infobox Film
| name           = Talashe Haq
| image          = 
| image_size     = 
| caption        = 
| director       = Chimanlal Luhar|C. M. Luhar
| producer       = 
| writer         = 
| narrator       =  Yakub Jaddan Bai Nargis Ashiq Husain Gulzar Bai A. R. Akhtar
| music          = Jaddan Bai
| cinematography = 
| editing        = 
| distributor    = Sangeet Film Co.
| released       = 1935
| runtime        = 
| country        = India
| language       = Hindi
| budget         = 
| gross          = 
| preceded_by    = 
| followed_by    = 
}} Indian film directed by Chimanlal Luhar|C. M. Luhar.

==Release==
Talashe Haq is a movie starring Nargis. 

== External links ==
*  

==References==
 

 
 
 


 