You Don't Have to Die
 
{{Infobox film
| name           = You Dont Have to Die
| image          =
| caption        = Malcolm Clarke Bill Guttentag
| producer       = Malcolm Clarke Bill Guttentag
| writer         = Malcolm Clarke Bill Guttentag
| narrator       =
| starring       = Jason Gaes
| music          =
| cinematography = Greg Andracke
| editing        = Nancy Frazen
| distributor    =
| released       =  
| runtime        =
| country        = United States
| language       = English
| budget         =
}}
 short documentary Malcolm Clarke 1989 for Documentary Short Subject.      

==Cast==
* Jason Gaes as Himself
* Adam Gaes as Himself
* Craig Gaes as Himself
* Geralyn Gaes as Herself
* Melissa Gaes as Herself
* Tim Gaes as Himself

==References==
 

==External links==
* 

 

 
 
 
 
 
 
 
 
 
 
 
 
 


 