Flamenco at 5:15
 
{{Infobox film
| name           = Flamenco at 5:15
| image          = 
| caption        = 
| director       = Cynthia Scott
| producer       = Cynthia Scott Kathleen Shannon Adam Symansky
| writer         = 
| starring       = Susana Robledo Antonio Robledo
| music          =  Paul Cowan
| editing        = Paul Demers Cynthia Scott
| distributor    = National Film Board of Canada
| released       =  
| runtime        = 29 minutes
| country        = Canada 
| language       = English
| budget         = $142,457 
}} short documentary Studio D, Documentary Short Subject.         

==Cast==
* Susana Robledo as Herself (as Susana)
* Antonio Robledo as Himself

==See also==
*Flamenco (1995 film), a 1995 documentary

==References==
 

==External links==
* 
*  

 

 
 
 
 
 
 
 
 
 
 
 


 
 
 