Paul Robeson: Tribute to an Artist
{{Infobox film
| name           = Paul Robeson: Tribute to an Artist
| image          = 
| caption        = 
| director       = Saul J. Turell
| producer       = Jessica Berman
| writer         = Saul J. Turell
| narrator       = 
| starring       = Paul Robeson Sidney Poitier
| music          = 
| cinematography = 
| editing        = Donald P. Finamore
| distributor    = 
| released       =  
| runtime        = 30 minutes
| country        = United States
| language       = English
| budget         = 
}}
 short documentary 1980 for Documentary Short Subject.   

==Cast==
* Paul Robeson as Himself (archive footage)
* Sidney Poitier as Narrator (voice)
* Margaret Webster as Herself - Director of Othello (voice) (archive footage) (uncredited)

==References==
 

==External links==
* 

 

 
 
 
 
 
 
 
 
 
 
 
 
 


 
 