Stout Hearts and Willing Hands
 
{{Infobox film
| name           = Stout Hearts and Willing Hands
| image          =
| caption        =
| director       = Bryan Foy
| producer       =
| writer         = Albert Austin Walter Weems Frank Fay Lew Cody
| music          =
| cinematography =
| editing        = Charles Craft
| distributor    =
| released       =  
| runtime        = 20 minutes
| country        = United States
| language       = English
| budget         =
}}
 short comedy 1932 for Best Short Subject (Comedy),    but was disqualified. No reason was given for its disqualification.   

==Cast== Frank Fay
* Lew Cody
* Laura La Plante
* Alec B. Francis
* Mary Carr
* Owen Moore Tom Moore Matt Moore
* Georgie Harris
* Eddie Quillan
* Matthew Betz
* Maurice Black
* Benny Rubin
* Bryant Washburn

==References==
 

==External links==
* 

 
 
 
 
 
 
 
 
 
 


 