What, No Men!
 
{{Infobox film
| name           = What, No Men!
| image          =
| caption        =
| director       = Ralph Staub
| producer       =
| writer         = Joe Traub   Paul Gerard Smith Phil Regan
| music          = Sammy Fain   Irving Kahal
| cinematography = Ray Rennahan
| editing        = Jack Killifer
| distributor    = Warner Bros./Vitaphone
| released       =  
| runtime        = 21:28
| country        = United States
| language       = English
| budget         =
}} short comedy 1934 for Best Short Subject (Comedy).      

==Cast==
* El Brendel as Gus Olson, gas utility representative Phil Regan as Policeman
* Wini Shaw as Saloon Owner

==References==
 

==External links==
* 

 
 
 
 
 
 
 
 


 