Strikes and Spares
{{Infobox film
| name           = Strikes and Spares
| image          = Poster of the movie Strikes and Spares.jpg
| caption        = Film poster
| director       = Felix E. Feist Pete Smith
| writer         =
| starring       = Pete Smith Andy Varipapa
| music          =
| cinematography =
| editing        = MGM
| released       =  
| runtime        = 9 minutes
| country        = United States
| language       = English
| budget         =
}}
 short list sports film 1934 for Best Short Subject (Novelty).      

==Cast== Pete Smith as Narrator (voice)
* Andy Varipapa as Himself - Worlds Greatest Bowling Fixture
* Buster Brodie as Little Bald-Headed Man (uncredited)
* Ray Turner as Pin Boy (uncredited)

==References==
 

==External links==
* 

 
 
 
 
 
 
 
 
 


 
 