The Great Heart
{{Infobox film
| name           = The Great Heart
| image          = 
| caption        =  David Miller
| producer       = 
| writer         = Morgan Cox Carey Wilson David Snell
| cinematography = 
| editing        =  MGM
| released       =  
| runtime        = 11 minutes
| country        = United States
| language       = English
| budget         = 
}}
 David Miller. Best Short Subject (One-Reel).      

==Cast== Carey Wilson - Narrator
* Tom Neal - Father Damian (uncredited)

==References==
 

==External links==
* 

 

 
 
 
 
 
 
 
 


 