SuperTex
{{Infobox film
| name           = SuperTex
| image          =
| caption        =
| director       = Jan Schütte
| producer       =
| writer         = Leon de Winter (novel) Andrew Kazamia Richard Reitinger Jan Schütte
| narrator       =
| starring       = Stephen Mangan Jan Decleir Maureen Lipman Victor Löw
| music          =
| cinematography =
| editing        =
| distributor    =
| released       = 2003
| runtime        =
| country        = Germany Netherlands
| language       = English
| budget         =
| preceded by    =
| followed by    =
}}
 Dutch film that runs approximately 97 minutes. The drama was filmed in English and directed by Jan Schütte.

==Cast==
* Stephen Mangan
* Jan Decleir
* Elliot Levey
* Tracy-Ann Oberman

==External links==
*  

 
 
 
 
 
 


 
 