The Trap (1913 film)
{{Infobox film
| name           = The Trap
| image          = 
| caption        = 
| director       = Edwin August Pat Powers
| writer         =  Pauline Bush Lon Chaney
| music          = 
| cinematography = 
| editing        =  Universal Film Manufacturing Company
| released       =  
| runtime        = 1 reel
| country        = United States 
| language       = Silent English intertitles
| budget         = 
}}
 silent short short drama Pat Powers, Pauline Bush Lon Chaney. of the same name in 1922.

==Cast==
* Murdock MacQuarrie as Chance Pauline Bush as Jane
* Cleo Madison as Cleo Lon Chaney as Lon

==References==
 

==External links==
* 

 
 
 
 
 
 
 
 
 
 
 

 