People's Encounter
{{Infobox Film
| name           = Peoples Encounter
| image          = 
| image_size     = 
| caption        = 
| director       = Mohan Gandhi
| producer       = 
| writer         = 
| narrator       = 
| starring       = Meka Srikanth Vinod kumar Bhanupriya
| music          = M. M. Keeravani
| cinematography = Dr. Prasad Babu
| editing        = 
| studio         = Ushakiran Movies
| released       = 1991
| runtime        = 
| country        = India   Telugu
| budget         = 
| gross          = 
| preceded_by    = 
| followed_by    = 
}}

Peoples Encounter is an Indian film released on Ushakiran Movies in 1991. The film is based on the situations in Andhra Pradesh in early 1990s.It was the Srikanths debut film. 

== Plot ==
 Peoples War andhra .

==References==
 

== External links ==
*  

 
 
 
 


 