The Forbidden Room
 
{{Infobox film
| name           = The Forbidden Room
| image          =
| caption        =
| director       = Allan Dwan
| producer       =
| writer         = Bess Meredyth
| narrator       = Pauline Bush Lon Chaney
| music          =
| cinematography =
| editing        = Universal Pictures
| released       =  
| runtime        = 20 minutes
| country        = United States 
| language       = Silent with English intertitles
| budget         =
}}
 silent drama Lon Chaney. The film is now considered to be lost film|lost.   

==Cast==
* Murdock MacQuarrie - Dr. James Gibson Pauline Bush - Gibsons sister / niece
* William C. Dowlan - Prosecuting Attorney Lon Chaney - John Morris
* John Burton - Dr. Jarvis

==References==
 

==External links==
* 

 
 
 
 
 
 
 
 
 
 
 

 