A Night of Thrills
 
{{Infobox film
| name           = A Night of Thrills
| image          =
| caption        =
| director       = Joe De Grasse
| producer       =
| writer         = Lon Chaney Pauline Bush
| cinematography =
| editing        = Universal Pictures
| released       =  
| runtime        =
| country        = United States
| language       = Silent with English intertitles
| budget         =
}}
 silent drama Lon Chaney. The film is now considered to be lost film|lost.   

==Cast== Lon Chaney as Visitor Pauline Bush as Hazel
* William C. Dowlan as Jack
* Charles Manley as Howard Wild

==References==
 

==External links==
* 

 
 
 
 
 
 
 
 
 
 
 

 