The Threads of Fate
 
 
{{Infobox film
| name           = The Threads of Fate
| image          = 
| caption        = 
| director       = Joe De Grasse
| producer       =  Tom Forman Pauline Bush Lon Chaney
| music          = 
| cinematography = 
| editing        =  Universal Pictures
| released       =  
| runtime        = 
| country        = United States 
| language       = Silent with English intertitles
| budget         = 
}}
 silent drama Pauline Bush, Lon Chaney. The film is now considered to be a lost film.   

==Cast== Pauline Bush - The Wife
* William C. Dowlan - The Lover Lon Chaney - The Count

==See also==
*Lon Chaney filmography
*List of lost films

==References==
 

==External links==
* 
* 

 
 
 
 
 
 
 
 
 
 
 

 