When the Gods Played a Badger Game
{{Infobox film
| name           = When the Gods Played a Badger Game
| image          =
| caption        =
| director       = Joe De Grasse
| producer       =
| writer         = Pauline Bush Lon Chaney
| cinematography =
| editing        = Universal Pictures
| released       = February 28, 1915
| runtime        = One reel
| country        = United States
| language       = Silent with English intertitles
| budget         =
}}
 silent drama Pauline Bush Lon Chaney.

==Cast== Pauline Bush - Nan DeVere, the chorus Girl Lon Chaney - Joe, the property man
* T. D. Crittenden
* Florence Weil
* Olive Carey (as Olive Golden)

==References==
 

==External links==
* 

 
 
 
 
 
 
 
 
 
 

 