The Measure of a Man (1915 film)
 
{{Infobox film
| name           = The Measure of a Man
| image          = 
| caption        = 
| director       = Joe De Grasse
| producer       =  Tom Forman Lon Chaney Pauline Bush
| music          = 
| cinematography = 
| editing        =  Universal Pictures
| released       =  
| runtime        = 
| country        = United States 
| language       = Silent with English intertitles
| budget         = 
}}
 silent drama Lon Chaney.   

==Cast== Pauline Bush as Helen MacDermott
* William C. Dowlan as Bob Brandt Lon Chaney as Lt. Jim Stuart
* Joe De Grasse as Undetermined Role

==References==
 

==External links==
* 

 
 
 
 
 
 
 
 
 
 


 