For Cash
 
{{Infobox film
| name           = For Cash
| image          =
| caption        = Lon Chaney
| producer       =
| writer         = W. M. Caldwell
| starring       = J. Warren Kerrigan Vera Sisson
| cinematography =
| editing        = Universal Pictures
| released       =  
| runtime        =
| country        = United States
| language       = Silent with English intertitles
| budget         =
}}
 silent drama Lon Chaney. The film is now considered to be lost film|lost.   

==Cast==
* J. Warren Kerrigan - Arthen Owen
* Vera Sisson - Vera Ronceval
* J. Edwin Brown - Amos Ronceval (as Mr. Brown) William Quinn - Lee Varick
* Walter Bytell - Mr. Ronceval

==References==
 

==External links==
* 

 
 
 
 
 
 
 
 
 
 

 