Where the Forest Ends
{{Infobox film
| name           = Where the Forest Ends
| image          =
| caption        =
| director       = Joe De Grasse
| producer       =
| writer         = James Dayton Olga Printzlau Lon Chaney Pauline Bush
| music          =
| cinematography =
| editing        = Universal Pictures
| released       = March 7, 1915
| runtime        =
| country        = United States
| language       = Silent with English intertitles
| budget         =
}}
 silent drama Lon Chaney. The film is now considered to be lost film|lost.   

==Cast== Pauline Bush - Rose Lon Chaney - Paul Rouchelle
* William C. Dowlan - Jack Norton
* Joe De Grasse - Silent Jordan

==References==
 

==External links==
* 

 
 
 
 
 
 
 
 
 
 
 

 