The Violin Maker
 
{{Infobox film
| name           = The Violin Maker
| image          =
| caption        = Lon Chaney
| producer       =
| writer         = Milton Moore Lon Chaney Gretchen Lederer
| cinematography =
| editing        = Universal Pictures
| released       =  
| runtime        =
| country        = United States
| language       = Silent with English intertitles
| budget         =
}}
 silent drama Lon Chaney. The film is now considered to be lost film|lost.   

==Cast== Lon Chaney as Pedro
* Gretchen Lederer as Marguerita William Quinn as Maurice Puello

==References==
 

==External links==
* 

 
 
 
 
 
 
 
 
 
 
 

 