Steady Company
 
{{Infobox film
| name           = Steady Company
| image          = 
| caption        = 
| director       = Joe De Grasse
| producer       = 
| writer         = Jules Furthman Ida May Park Lon Chaney Pauline Bush
| music          = 
| cinematography = 
| editing        =  Universal Pictures
| released       =  
| runtime        = 
| country        = United States
| language       = Silent with English intertitles
| budget         = 
}}
 silent drama Lon Chaney. The film is now considered to be lost film|lost.   

==Cast== Pauline Bush - Nan Brenner Lon Chaney - Jimmy Ford
* Lydia Yeamans Titus - Mrs. Ford

==See also==
*Lon Chaney filmography
*List of lost films

==References==
 

==External links==
* 
* 

 
 
 
 
 
 
 
 
 
 
 

 