The Stool Pigeon (1915 film)
{{Infobox film
| name           = The Stool Pigeon
| image          = 
| image size     = 
| caption        =  Lon Chaney
| producer       = 
| writer         = Harry G. Stafford
| narrator       =  Lon Chaney
| music          = 
| cinematography = 
| editing        =  Universal Pictures
| released       =  
| runtime        = 
| country        = United States  Silent English intertitles
| budget         = 
| preceded by    = 
| followed by    = 
}}
 Lon Chaney. debut film as a director. He subsequently directed six other films. The film is now considered to be lost film|lost.    

==Cast==
* J. Warren Kerrigan - Walter Jason
* Vera Sisson - Mildred Moore Lon Chaney
* George Periolat - Oswald Trumble

==References==
 

==External links==
* 

 
 
 
 
 
 
 
 
 
 

 