The Trust (1915 film)
 
{{Infobox film
| name           = The Trust
| image          =
| caption        = Lon Chaney
| producer       =
| writer         = Katherine M. Kingsherry Lon Chaney Vera Sisson
| cinematography =
| editing        = Universal Pictures
| released       =  
| runtime        =
| country        = United States
| language       = Silent with English intertitles
| budget         =
}}
 silent drama Lon Chaney. The film is now considered to be lost film|lost.   

==Cast==
* Vera Sisson as Florence Allison William Quinn as Florences husband Lon Chaney as Jim Mason
* T. D. Crittenden

==References==
 

==External links==
* 

 
 
 
 
 
 
 
 
 
 
 

 