The Pine's Revenge
 
{{Infobox film
| name           = The Pines Revenge
| image          = 
| caption        = 
| director       = Joe De Grasse
| producer       = 
| writer         = Nell Shipman Lon Chaney Cleo Madison
| music          = 
| cinematography = 
| editing        =  Universal Pictures
| released       =  
| runtime        = 
| country        = United States 
| language       = Silent with English intertitles
| budget         = 
}}
 silent drama Lon Chaney. The film is now considered to be lost film|lost.   

==Cast==
* Cleo Madison as Grace Milton
* Arthur Shirley as Dick Rance Lon Chaney as Black Scotty
* Millard K. Wilson as John Harding

==See also==
*List of lost films
*Lon Chaney filmography

==References==
 

==External links==
* 

 
 
 
 
 
 
 
 
 
 
 

 