Felix on the Job
 
{{Infobox film
| name           = Felix on the Job
| image          = 
| image size     = 
| caption        = 
| director       = George Felix
| producer       = Joe De Grasse
| writer         = Harry Wielze
| narrator       =  Lon Chaney George Felix
| music          = 
| cinematography = 
| editing        =  Universal Pictures
| released       =  
| runtime        = 
| country        = United States 
| language       = Silent with English intertitles
| budget         = 
}}
 silent comedy Lon Chaney.   

==Cast==
* George Felix - Felix
* Eva Loring - Felixs Wife Lon Chaney - Tod
* Lydia Yeamans Titus - Tods Wife

==References==
 

==External links==
* 

 
 
 
 
 
 
 
 


 