Heart Beats of Long Ago
{{Infobox film
| name           = Heart Beats of Long Ago
| image          = 
| caption        = 
| director       = D. W. Griffith
| producer       = 
| writer         =  George Nichols
| cinematography = G. W. Bitzer
| editing        = 
| distributor    = Biograph Company
| released       =  
| runtime        = 17 minutes
| country        = United States 
| language       = Silent with English intertitles
| budget         = 
}}
 short silent silent drama George Nichols and featuring Blanche Sweet.   

==Cast== George Nichols - The Father
* Wilfred Lucas - The Lover
* Donald Crisp - Courtier
* Blanche Sweet
* Kate Toncray - Lady-in-Waiting

==See also==
* D. W. Griffith filmography
* Blanche Sweet filmography

==References==
 

==External links==
* 
* 

 

 
 
 
 
 
 
 
 
 
 

 