The Smile of a Child
 
{{Infobox film
| name           = The Smile of a Child
| image          = 
| caption        = 
| director       = D. W. Griffith
| producer       = 
| writer         = Maie B. Havey
| starring       = Blanche Sweet
| music          = 
| cinematography = G. W. Bitzer
| editing        = 
| distributor    = Biograph Company
| released       =  
| runtime        = 
| country        = United States 
| language       = Silent with English intertitles
| budget         = 
}}
 short silent silent drama film directed by D. W. Griffith and starring Blanche Sweet.   

==Cast==
* Blanche Sweet - The Peasant Woman
* Edwin August
* W. Chrystie Miller
* Baden Powell - The Child

==See also==
* D. W. Griffith filmography
* Blanche Sweet filmography

==References==
 

==External links==
* 

 
 
 
 
 
 
 
 
 
 

 