Stranded: I've Come from a Plane that Crashed in the Mountains
 
{{Infobox film
| name           = Stranded
| image          = Strandedposter08.jpg Promotional film poster
| director       = Gonzalo Arijón
| producer       =
| writer         = Gonzalo Arijón
| narrator       =
| starring       =
| music          =
| cinematography =
| editing        =
| distributor    = Zeitgeist Films
| released       =  
| runtime        = 126 minutes
| country        = France
| language       = Spanish
| budget         =
}} consume the 2008 Directors Guild of America Awards. It had its theatrical premiere on October 22 in New York.

==Critical reception== Shawn Levy of The Oregonian named it the 5th best film of 2008,  and Kenneth Turan of the Los Angeles Times named it the 8th best film of 2008 (in a six-way tie).     

==References==
 

== External links ==
*  
*  
*  

 
 
 
 

 