Har Har Mahadev
{{Infobox film
| name           = Har Har Mahdev
| image          = 
| image_size     = 
| caption        = 
| director       = Jayant Desai
| producer       = 
| writer         = 
| narrator       = 
| starring       = Trilok Kapoor and Nirupa Roy
| music          = 
| cinematography = 
| editing        = 
| distributor    = 
| released       = 1950
| runtime        = 137 minutes
| country        = India Hindi
| budget         = 
| gross          = 
| preceded_by    = 
| followed_by    = 
}}
 1950 Bollywood film directed by Jayant Desai and starring Trilok Kapoor and Nirupa Roy. A box-office success, the film became the fifth highest earning film of 1950, earning an approximate gross of Rs. 1,10,00,000 and a net gross of Rs. 60,00,000. 

==Cast==
* Nirupa Roy: Uma
* Trilok Kapoor: Shiva
* Jeevan
* Durga Khote
* Shanta Kunwar
* Kanta Kumari
* Mishra
* Meenaxi
* Niranjan Sharma
* Kusum
 Satyanarayan
* Savitri
* Master Dhulia ,Ghosh
* Savant
* Ramshashtri, Pravinkumar
* Suryakant Shukla
* Prof. Bhim
* Nagotkar & Vicky Kapoor
  
   Compiled by Neeta Pate. Through old book.

*

==References==
 

==External links==
*  

 
 
 
 


 