The Stuff Heroes Are Made Of
{{Infobox film
| name           = The Stuff Heroes Are Made Of
| image          = 
| caption        = 
| director       = D. W. Griffith Frank Powell
| producer       = 
| writer         = 
| starring       = Blanche Sweet Edwin August
| music          = 
| cinematography = G. W. Bitzer
| editing        = 
| distributor    = Biograph Company
| released       =  
| runtime        = 17 minutes
| country        = United States
| language       = Silent with English intertitles
| budget         = 
}}
 short silent silent drama film directed by D. W. Griffith and Frank Powell and starring Blanche Sweet.   

==Cast==
* Edwin August - The Young Author
* Blanche Sweet - Alice
* Marion Sunshine - Jennie
* Jack Pickford

==See also==
* D. W. Griffith filmography
* Blanche Sweet filmography

==References==
 

==External links==
* 

 
 
 
 
 
 
 
 
 
 
 

 