The Long Road (film)
 
{{Infobox film
| name           = The Long Road
| image          = 
| caption        = 
| director       = D. W. Griffith
| producer       = 
| writer         = Bernardine R. Leist
| starring       = Blanche Sweet
| music          = 
| cinematography = G. W. Bitzer
| editing        = 
| distributor    = Biograph Company
| released       =  
| runtime        = 17 minutes
| country        = United States
| language       = Silent with English intertitles
| budget         = 
}}
 short silent silent drama film directed by D. W. Griffith and starring Blanche Sweet.   

==Cast==
* Blanche Sweet - Edith
* Grace Henderson - Ediths Mother Charles West - Ned
* Claire McDowell - Neds Wife
* Edna Foster - Neds Son
* Kate Bruce - Mother Superior
* Edwin August - At Party
* William J. Butler - At Party
* Donald Crisp - A Servant / The Landlord

==See also==
* D. W. Griffith filmography
* Blanche Sweet filmography

==References==
 

==External links==
* 

 
 
 
 
 
 
 
 
 
 

 