Eadweard Muybridge, Zoopraxographer
{{Infobox film
| name           = Eadweard Muybridge, Zoopraxographer
| image          = 
| caption        = 
| director       = Thom Andersen
| producer       = Thom Andersen
| writer         = 
| narrator       = Dean Stockwell
| starring       = Eadweard Muybridge
| music          = 
| cinematography = 
| editing        = Morgan Fisher
| distributor    = 
| released       = 1975
| runtime        = 59 minutes
| country        = United States 
| language       = English
| budget         = 
}}

Eadweard Muybridge, Zoopraxographer is a 1975 documentary film directed by Thom Andersen about the English photographer Eadweard Muybridge.   

==Cast==
* Eadweard Muybridge - Himself
* Dean Stockwell - Narrator

==References==
 

==External links==
* 

 
 
 
 
 
 
 
 
 