La Folie du Docteur Tube
 
{{Infobox film
| name           = La Folie du Docteur Tube
| image          =
| caption        =
| director       = Abel Gance
| producer       = Louis Nalpas
| writer         = Abel Gance
| starring       = Albert Dieudonné
| cinematography = Léonce-Henri Burel
| editing        =
| distributor    =
| released       =  
| runtime        = 10 minutes
| country        = France Silent French French intertitles
| budget         =
}}
 short silent silent experimental distorting lenses on the camera.    A print of the film survives.    

==Cast==
* Albert Dieudonné - Dr. Tube

==References==
 

==External links==
* 

 

 
 
 
 
 
 
 
 
 

 