Hollywood High (1977 film)
{{Infobox film
| name           = Hollywood High
| image          = 
| image_size     = 
| border         = 
| alt            = 
| caption        = 
| film name      = 
| director       = Patrick Wright
| producer       = Peter Perry Jr.
| writer         = 
| screenplay     = 
| story          = 
| based on       =  
| narrator       = 
| starring       = 
| music          = Scott Gale
| cinematography = Jonathan Silveira
| editing        = Marco Perri
| studio         = 
| distributor    = 
| released       = 1977 
| runtime        = 81 minutes
| country        = United States
| language       = English
| budget         = 
| gross          = 
}}
Hollywood High is a    " and remarking, "Even for a dubious genre like this, this movie reaches a level of badness that would make even the most jaded exploitation filmmakers pause, and subsequently resolve never to reach such a low point. Practically every department in this movie - acting, writing, directing, etc. - is at the very bottom of the barrel." Keith Bailey.   , The Unknown Movies. Retrieved 2008-07-21.  Despite its poor reception, the movie had an unofficial Sandra Brennan, Allmovie.  . Retrieved 2008-07-21.  sequel, Hollywood High Part 2, in 1981 in film|1981, which was likewise panned. 

==Unrelated series pilot==
Turner Classic Movies notes the existence of an unrelated 30-minute television pilot, also debuting in 1977, for a prospective series.  , TCM.com. Retrieved 2008-07-21. 

==Notes==
 

==External links==
*  
*   at Internet Movie Database

 
 
 
 
 
 
 
 