Daulat (1937 film)
 
{{Infobox film
| name           = Daulat
| image          = 
| image_size     = 
| caption        = 
| director       = S.M.Yusuf
| producer       = 
| writer         = 
| narrator       = 
| starring       = 
| music          = 
| cinematography = 
| editing        = 
| distributor    = 
| released       = 1937
| runtime        = 
| country        = India Hindi
| budget         = 
| gross          = 
| preceded_by    = 
| followed_by    = 
}} 1937 Bollywood film directed by S. M. Yusuf.

==Cast== 
*Agha   
*Brijmala   
*Chandrarao   
*Harishchandra   
*Khatun 
*Shah Nawaz   
*S.M. Sadiq   
*Maher Sultana   
*Usharani 

==Trivia==
Modi is director of the films , Sikandar , Pukar , Prithvi Vallabh and Daulat , among others.  

==External links==
*  

==References==
 

 
 
 



 