Triumph of Love (film)
{{Infobox film
| name           = Triumph of Love
| image          = 
| caption        = 
| director       = Mario Mattoli
| producer       = 
| writer         = Aldo De Benedetti Gherardo Gherardi Mario Mattoli
| starring       = Paola Barbara
| music          = 
| cinematography = Arturo Gallea
| editing        = 
| distributor    = 
| released       =  
| runtime        = 70 minutes
| country        = Italy 
| language       = Italian
| budget         = 
}}

Triumph of Love ( ) is a 1938 Italian comedy film directed by Mario Mattoli and starring Paola Barbara.   

==Cast==
* Paola Barbara - Giovanna
* Vittorio De Sica - Vincenzo
* Armando Migliari - Doctor
* Giuditta Rissone - Aunt Lucia
* Enrico Viarisio - Giangiacomo

==References==
 

==External links==
* 

 

 
 
 
 
 
 
 
 
 