The Hunchback of Notre Dame (1911 film)
{{Infobox film
| name           = The Hunchback of Notre Dame
| image          = 
| caption        = 
| director       = Albert Capellani
| producer       = Pathé Frères  (as Compagnie Genérale des Établissements Pathé Frères Phonographes & Cinématographes  )
| writer         = Victor Hugo (novel)
| based on       =  
| starring       = Henry Krauss Stacia Napierkowska
| music          =  
| cinematography = 
| editing        = 
| distributor    = Pathé Frères (France) General Film Company (USA)
| released       = December, 1911 (USA)
| runtime        = 
| country        = France
| awards         = 
| language       = Silent film
| budget         = 
| preceded_by    = 
| followed_by    = 
}}
 1911 silent novel of the same name. It starred Henry Krauss and Stacia Napierkowska.

==External links==
*  

 

 
 
 
 
 
 
 
 
 
 
 

 
 