An Evening of Edgar Allan Poe
 

{{Infobox film
| name           = An Evening of Edgar Allan Poe
| image          = 
| caption        =  Kenneth Johnson
| producer       = Samuel Z. Arkoff Kenneth Johnson
| writer         = Kenneth Johnson Edgar Allan Poe David Welch
| screenplay     = 
| story          = 
| based on       =  
| narrator       = Vincent Price
| starring       = 
| music          = Les Baxter
| cinematography = 
| editing        = Jerry Greene
| studio         = 
| distributor    = 
| released       =  
| runtime        = 53 minutes
| country        = United States
| language       = English
| budget         = 
| gross          = 
}}
 Edgar Allan Poes stories, directed by Kenneth Johnson, with music by Les Baxter. 

The stories included are: "The Tell-Tale Heart", "The Sphinx", "The Cask of Amontillado" and "The Pit and the Pendulum".

== References ==
 

== External links ==
*  

 
 
 
 
 
 
 
 
 
 


 