Hôtel des Invalides (film)
 
{{Infobox film
| name           = Hôtel des Invalides
| image          = 
| caption        = 
| director       = Georges Franju
| producer       = Paul Legros
| writer         = Georges Franju
| narrator       = Michel Simon
| starring       = 
| music          = 
| cinematography = Marcel Fradetal
| editing        = 
| distributor    = 
| released       =  
| runtime        = 22 minutes
| country        = France 
| language       = French
| budget         = 
}}
 short documentary film directed by Georges Franju.   

==Cast==
* Michel Simon as Récitant / Narrator (voice)

==References==
 

==External links==
* 

 

 
 
 
 
 
 
 
 
 


 
 