Too Hot to Handle (1977 film)
 
{{Infobox film
| name           = Too Hot to Handle
| image          = Too hot to handle ver2.jpg
| image_size     = 
| caption        = Theatrical release poster
| director       = Don Schain
| producer       = Ralph T. Desiderio
| writer         = Don Buday Don Schain Jan Michael Sherman
| narrator       = 
| starring       = Cheri Caffaro Corinne Calvet Vic Diaz
| music          = Hugo Montenegro
| cinematography = Fred Conde
| editing        = Barbara Pokras		
| distributor    = New World Pictures
| released       = May 27, 1977
| runtime        = 
| country        = United States Philippines English
| budget         = 
| gross          = 
| preceded_by    = 
| followed_by    = 
}} 1977 exploitation hitwoman in the Philippines. The film was directed by Don Schain and stars Cheri Caffaro, Corinne Calvet and Vic Diaz.

==External links==
*  

 
 
 
 
 
 
 


 