Slogans (film)
{{Infobox film
| name           = Slogans Parullat
| image          = Slogans (film).jpg
| image_size     = 
| border         = 
| alt            = 
| caption        = 
| director       = Gjergj Xhuvani
| producer       = 
| writer         = 
| screenplay     = 
| story          = 
| based on       =  
| narrator       = 
| starring       = Marko Bitraku Mirjana Dedi Artur Gorishti
| music          = 
| cinematography = 
| editing        = 
| studio         = 
| distributor    = 
| released       = 31 October 2001 (France)
| runtime        = 90 minutes
| country        = 
| language       = 
| budget         = 
| gross          = 
}}
 2001 Cinema Albanian film directed by Gjergj Xhuvani. It was the first Albanian film to be selected to screen on the Directors Fortnight at Cannes Filmfestival 2001 and has gone on to win many other festival awards. It was further Albanias submission to the 74th Academy Awards for the Academy Award for Best Foreign Language Film, but was not accepted as a nominee.        
 socialist and patriotic slogans Communist party officials.

==See also==
 
*Cinema of Albania
*List of submissions to the 74th Academy Awards for Best Foreign Language Film

==References==
 

==External links==
* 

 

 
 
 
 

 
 