The Crime of the Century (1933 film)
{{Infobox film
| name           = The Crime of the Century
| image          =
| caption        =
| director       = William Beaudine
| producer       =
| writer         =
| narrator       = David Landau William Janney
| music          =
| cinematography =
| editing        =
| distributor    = Paramount Pictures
| released       =  
| runtime        = 73 min.
| country        = United States
| language       = English
| budget         =
| gross          =
}}
 David Landau.

==Plot==
A bank official, whom a doctor had earlier hypnotized to obtain money from the banks vault, is found murdered.

== External links ==
* 
*  

 

 
 
 
 
 
 


 