Ljubav i drugi zločini
{{Infobox film |
  name           = Ljubav i drugi zločini   Love and Other Crimes |
  image          = |
  director       = Stefan Arsenijević |
  writer         = Stefan Arsenijević Srđan Koljević |
  starring       = Anica Dobra  Vuk Kostić |
  producer       = |
 
  released       =   |
  runtime        = 106 min.  |
  country        = | Serbian |
  music          = |
  awards         = |
  budget         = |
  grosses        = |
}} 2008 Serbian romantic comedy directed by Stefan Arsenijević, and written by Arsenijević and Srđan Koljević, and stars Anica Dobra and Vuk Kostić. The film won Arsenijević an award for Best Director at the 2008 Sofia International Film Festival.

== External links ==
*  

 
 
 
 
 
 
 
 


 
 