Aakhri Sajda
 

{{Infobox film
| name           = Aakhri Sajda
| image          = Aakhri Sajda.jpg
| image_size     = 
| caption        = 
| director       = 
| producer       = 
| writer         = 
| narrator       = 
| starring       =  Sajjad Hussain
| cinematography = 
| editing        = 
| distributor    = 
| released       = 1977
| runtime        = 
| country        = India Hindi
| budget         = 
| gross          = 
}}
 1977 Bollywood film.

==Cast==
*Mala Sinha Murad
*Helen Helen
*Jagdeep

==External links==
*  

 
 
 


 