Abhi To Jee Lein
{{Infobox film
| name           = Abhi To Jee Lein
| image          =
| image size     =
| caption        =
| director       = Roshan Taneja
| producer       =
| writer         = Roshan Taneja
| narrator       =
| starring       =
| music          =Sapan Jagmohan
| cinematography =
| editing        =
| distributor    =
| released       = 1977
| runtime        =
| country        = India Hindi
| budget         =
| gross          =
| preceded by    =
| followed by    =
}}
 1977 Bollywood film directed and written by Roshan Taneja.

==Cast==
*Jaya Bhaduri ...  Jaya
*Danny Denzongpa ...  Danny
*Simi Garewal ...  Miss Mahajan (Lecturer)
*Iftekhar ...  Deepaks Father
*Farida Jalal ...  The Nun
*Shashi Kiran ...  Shashi
*Kiran Kumar...  Deepak
*Paintal ...  Bunty
*Radha Saluja ...  Rita
*Surendranath ...  Mukesh

==Playback singers==
*Kishore Kumar
*Lata Mangeshkar

==External links==
*  

 
 
 

 