A Girl and a Gun
{{Multiple issues|
 
 
}}

{{Infobox film
| name           = A Girl and a Gun
| image          =
| image size     = 
| alt            = 
| caption        = 
| director       = David Hughes
| producer       = 
| writer         = David Hughes
| screenplay     = 
| story          = 
| narrator       =  Paul Freeman Anna Walton
| music          = 
| cinematography = 
| editing        = 
| studio         = 
| distributor    = BT Vision Download Store (UK)
| released       =  
| runtime        = 17 minutes
| country        = United Kingdom
| language       = English
| budget         = 
| gross          = 
| preceded by    = 
| followed by    = 
}}
 Paul Freeman and Anna Walton.

==Crew==
The film was produced by Margaret Matheson of Bard Entertainments and Michael Riley (film producer) of Sterling Pictures, and marked the writing and directing debut of David L G Hughes.  The cinematography is by Ula Pontikos and the score is by Tom E Morrison.

==External links==
*  
*  

 
 
 
 
 
 
 


 
 