Trouping with Ellen
 
{{Infobox film
| name           = Trouping with Ellen
| image          =
| caption        =
| director       = T. Hayes Hunter
| producer       = Eastern Productions (I)
| writer         = Earl Derr Biggers, Gerald C. Duffy
| starring       =
| cinematography =
| editing        =
| studio         =
| distributor    =
| released       =  
| runtime        =
| country        = United States
| awards         =
| language       = Silent
| budget         =
}}
 1924 silent era American film starring Basil Rathbone, Gaston Glass, Helen Chadwick and Mary Thurman. 

A lost film. 

==References==
 

==External links==
* 
* 

 

 
 
 
 
 
 


 