Behave Yourself (1962 film)
 Behave Yourself}}
{{Infobox film
| name           = Behave Yourself
| image          = 
| alt            =  
| caption        = 
| director       = Michael Winner
| producer       = Harold Baim
| writer         = Emily Post Michael Winner Jack Jackson Pete Murray Glen Mason
| music          = DeWolfe
| cinematography = Eric Owen
| editing        = Mark Kingston
| studio         = 
| distributor    = 
| released       =   
| runtime        = 29 minutes
| country        = United Kingdom
| language       = English
| budget         = 
| gross          = 
}} short comedy Jack Jackson and Pete Murray.

==External links==
* 
* 

 

 
 
 
 
 


 
 