Pod banderą miłości
{{Infobox film
| name           = Pod banderą miłości
| image          =
| image_size     = 
| caption        = 
| director       = Michał Waszyński
| producer       =
| writer         = Jerzy Braun
| narrator       = 
| starring       = 
| music          = 
| cinematography =  
| editing        = 
| distributor    = 
| released       =  
| runtime        = 
| country        = Poland
| language       = Polish
| budget         = 
}}
 1929 Poland|Polish romance film directed by Michał Waszyński.

==Cast==
*Zbigniew Sawan ...  Andrzej 
*Jerzy Marr ...  Jerzy Rzecki 
*Paweł Owerłło ...  Komandor 
*Maria Bogda ...  Maria 
*Jadwiga Boryta ...  Kobieta-szpieg (as Jaga Boryta) 
*Władysław Walter ...  Marynarz 
*Leonard Zajączkowski ...  Marynarz (as Leon Zajączkowski) 
*Tekla Trapszo ...  Andrzejs mother 
*Jerzy Kobusz ...  Kadet szkoły morskiej 
*Tadeusz Fijewski ...  Kadet Szkoły Morskiej

== External links ==
*  

 

 
 
 
 
 
 
 


 
 