Jaśnie pan szofer
{{Infobox film
| name           = Jaśnie pan szofer
| image          =
| image_size     = 
| caption        = 
| director       = Michał Waszyński
| producer       = 
| writer         = Konrad Tom
| narrator       = 
| starring       = 
| music          =    
| cinematography =  
| editing        = 
| distributor    = 
| released       =13 September 1935
| runtime        =80 minutes
| country        = Poland Polish
| budget         = 
}}
 1935 Poland|Polish romantic comedy film directed by Michał Waszyński. 

==Cast==
*Eugeniusz Bodo ...  Count Karol Boratyński 
*Ina Benita ...  Hania Pudłowiczówna 
*Antoni Fertner ...  Chairman Pudłowicz 
*Tadeusz Olsza ...  Antoni Łypko, the chauffeur 
*Stanisława Wysocka ...  Countess Boratyńska
*Ludwik Sempoliński ...  Józef Kędziorek, crooked valet 
*Wiktor Biegański   
*Jan Bonecki   
*Feliks Chmurkowski ...  Anatol Szober, banker 
*Loda Niemirzanka ...  Kasia, maid 
*Józef Redo ...  Waiter 
*Zofia Ślaska ...  Nina Szoberowa

==References==
{{reflist|refs=
}}

== External links ==
*  

 

 
 
 
 
 
 
 


 
 