Sto metrów miłości
{{Infobox film
| name           = Sto metrów miłości
| image          =
| image_size     = 
| caption        = 
| director       = Michał Waszyński
| producer       = 
| writer         = Adolf Dymsza, Konrad Tom 
| narrator       = 
| starring       = 
| music          =    
| cinematography =  
| editing        = 
| distributor    = 
| released       =11 November 1932
| runtime        = 
| country        = Poland Polish
| budget         = 
}}
 1932 Poland|Polish film directed by Michał Waszyński.

==Cast==
*Zula Pogorzelska ...  Zośka 
*Adolf Dymsza ...  Dodek 
*Konrad Tom ...  Moniek vel Mieszek Oszczep-Sardinenfis 
*Ludwik Lawiński ...  Rybkes 
*Dora Kalinówna ...  Dora, Rybkes sister 
*Krystyna Ankwicz ...  Lili 
*Mieczysław Cybulski ...  Jan Leski 
*Franciszek Petersile ...  Janusz Pedałowicz 
*Jerzy Kobusz   
*Antoni Rózycki   
*Stefania Betcherowa   
*Eugeniusz Koszutski   
*Marian Rentgen

== External links ==
*  

 

 
 
 
 
 
 


 