New Jersey: The Movie
{{Infobox film
| name           = New Jersey: The Movie
| image          = NJTM Poster.jpg
| caption        = Theatrical release poster.
| director       = Steve Chernoski
| producer       = Alena Kruchkova
| writer         = Steve Chernoski
| starring       = Steve Chernoski
| music          = 
| editing        = Andrei Litvinov
| distributor    = 
| released       = 
| runtime        = 
| country        = United States
| language       = English
| budget         = $25,000
| gross          = 
}} 2009 United American documentary North and South Jersey|South. 

It was released on  DVD in February 2010. 

The film was produced by Alena Kruchkova and edited by Andrei Litvinov. 

==See also==
*Central Jersey

==References==
 

==External links==
 
* 
*  
* 

 
 
 
 
 
 
 

 