Runaway Match
 
{{Infobox film
| name           = Runaway Match
| image          =
| caption        =
| director       = Alf Collins
| producer       =
| writer         =
| starring       =
| cinematography =
| editing        =
| distributor    = Gaumont Film Company
| released       =  
| runtime        = 5 minutes
| country        = United Kingdom
| language       = English
| budget         =
| gross          =
}} 1903 short silent film consisting of nine shots.   It may be the "first auto-centered narrative film"    and the first car chase in the movies.   

==Plot== elope by car. The womans wealthy father gives chase, but his limousine breaks down. When he arrives too late to prevent the marriage, he becomes reconciled to his new son-in-law.

==References==
 

== External links ==
*  

 
 
 
 
 
 

 