Unknown Men of San Marino
{{Infobox film
| name           =Unknown Men of San Marino
| image          =
| image_size     = 
| caption        = 
| director       =Michał Waszyński
| producer       = 
| writer         =Cesare Zavattini  Vittorio Cottafavi  Giulio Morelli
| narrator       = 
| starring       = 
| music          =    Alessandro Cicognini
| cinematography =  Arturo Gallea
| editing        = Mario Serandrei
| distributor    = 
| released       = October 29 1946
| runtime        = 85 minutes
| country        = Italy
| language       = Italian
| budget         = 
}}
 1946 cinema Italian drama film directed by Polish director Michał Waszyński.

==Cast==
*Anna Magnani ...  Liana, la prostituta 
*Vittorio De Sica ...  Leo, lateo 
*Aurel Milloss ...  Lo sconosciuto 
*Renata Bogdanska   
*Antonio Gandusio ...  Don Antonio, il prete 
*Irma Gramatica   
*Franca Belli   
*Giuseppe Porelli   
*Fausto Guerzoni  

== External links ==
*  

 

 
 
 
 
 
 
 
 