Wielka droga
{{Infobox film
| name           = Wielka droga
| image          =
| image size     =
| caption        =
| director       =Michał Waszyński
| producer       =
| writer         =Konrad Tom
| narrator       =
| starring       =
| music          =
| cinematography =
| editing        =
| distributor    =
| released       =29 October 1946
| runtime        =80 minutes
| country        = Poland Polish
| budget         =
}}
 1946 Poland|Polish film directed by Michał Waszyński.

==Cast==
*Albin Ossowski ...  Adam
*Renata Bogdanska ...  Irena
*Jadwiga Andrzejewska ...  Jadwiga
*Wieslawa Buczerowa
*Feliks Fabian
*Ludwik Lawinski
*Mieczyslaw Malicz
*Boleslaw Orlicz
*Józef Winawer

== External links ==
*  

 

 
 
 
 
 
 

 