Tropical Snow
{{Infobox film
| name           = Tropical Snow
| image          = Tropical Snow.jpg 
| caption        =  
| director       = Ciro Durán
| producer       =  
| screenplay   =  Ciro Durán
| based on   = 
| starring       = David Carradine Madeleine Stowe Jsu Garcia
| music          =  Alan DerMarderosian	
| cinematography =  
| editing        =  
| distributor    = Paramount Pictures
| released       = 1988 (West Germany) April 1989 (USA) 
| runtime        = 87 min.
| country        = United States
| language       = English
| gross          =  
}}
Tropical Snow is a 1988 American drama film about cocaine smuggling and is also Tim Allens film debut. 

==References==
 

==External links==
* 
* 
* 

 
 
 
 
 
 
 
 
 

 
 