Anmol Ratan
{{Infobox film
| name           = Anmol Ratan
| image          =
| caption        =
| director       =  M. Sadiq
| producer       = Dewan Productions
| writer         =
| starring       = Karan Dewan, Meena Kumari, Madan Puri, Gope, Gulab
Nirmala
| music          = Vinod
| cinematography =
| editing        =
| distributor    = Dewan Productions
| released       = 1 Jan 1950
| runtime        =
| country        = India
| language       = Hindi
| Budget         =
| preceded by    =
| followed by    =
| gross          =
}}
Anmol Ratan is 1950 Bollywood drama film directed by M. Sadiq.

==Cast==
*Karan Dewan
*Meena Kumari
*Madan Puri
*Gope Gulab
*Nirmala Nirmala

==Music==
The soundtrack was composed by Vinod. Playback singers included Talat Mahmood and Lata Mangeshkar.

==External links==
*  
*  

 
 
 
 
 

 
 