Wrap Up
 Wrap}}
{{Infobox film
| name           = Abrígate
| image          = Abrígate.jpg
| image size     =
| caption        = Poster
| director       = Ramón Costafreda
| producer       =
| writer         = Ramón Costafreda, Fernando Castets
| narrator       =
| starring       =
| music          =
| cinematography =
| editing        =
| distributor    =
| released       =  
| runtime        = 98 minutes
| country        = Spain Argentina
| language       = Spanish
| budget         =
}}
Wrap Up ( ) is a 2007 comedy film directed and written by Ramón Costafreda.

==Cast==
* Manuela Pal ...Valeria
* Félix Gómez ...Marcelo
* María Bouzas ...Adela
* Celso Bugallo ...Coco
* Amalia Gómez ...Leonor
* Pablo Tamayo ...Telmo
* Cristina Ramallal ...Montse
* María Salgueiro ...Irene
* Álex Neira ...Gabriel
* Isabel Naveira ...María

==External links==
*  
*   at the cinenacional.com  .

 
 
 
 
 

 
 
 