Snushanerne
{{Infobox Film
| name           = Snushanerne
| image          = 
| image_size     = 
| caption        = 
| director       = Lau Lauritzen, Jr. Alice OFredericks
| producer       = 
| writer         = Lau Lauritzen, Jr. Alice OFredericks
| narrator       = 
| starring       = Per Gundmann
| music          = 
| cinematography = Carlo Bentsen
| editing        = Edith Schlüssel
| distributor    = 
| released       = 1 January 1936
| runtime        = 
| country        = Denmark
| language       = Danish
| budget         = 
| preceded_by    = 
| followed_by    = 
}}

Snushanerne is a 1936 Danish film directed by Lau Lauritzen, Jr. and Alice OFredericks.

==Cast==
* Per Gundmann
* Kai Holm Arthur Jensen
* Sigurd Langberg
* Lau Lauritzen, Jr.
* Connie Meiling
* Carl Viggo Meincke
* Carola Merrild
* Palle Reenberg
* Eigil Reimers
* Ib Schønberg - Peter Basse

==External links==
* 

 
 

 
 
 
 
 
 
 