Klingende toner
{{Infobox Film
| name           = Klingende toner
| image          = 
| image_size     = 
| caption        = 
| director       = Lau Lauritzen, Jr. Alice OFredericks
| producer       = 
| writer         = Lau Lauritzen, Jr. Alice OFredericks
| narrator       = 
| starring       = Emil Christoffersen
| music          = 
| cinematography = Rudolf Frederiksen
| editing        = 
| distributor    = 
| released       = 6 August 1945
| runtime        = 
| country        = Denmark 
| language       = Danish
| budget         = 
| preceded_by    = 
| followed_by    = 
}}

Klingende toner is a 1945 Danish film directed by Lau Lauritzen, Jr. and Alice OFredericks. 

==Cast==
* Emil Christoffersen - Himself
* Kirsten Thrane Petersen - Herself
* Erik Sjöberg - Himself
* Wandy Tworek - Himself

==External links==
* 

 

 
 
 
 
 
 
 