Kong Bukseløs
{{Infobox film
| name           = Kong Bukseløs
| image          =
| image_size     =
| caption        =
| director       = Lau Lauritzen Sr.
| producer       =
| writer         = Eigil Monk
| narrator       =
| starring       =
| music          =
| cinematography = Hugo J. Fischer
| editing        =
| distributor    = Nordisk Film
| released       = 11 October 1915
| runtime        =
| country        = Denmark
| language       = Silent
| budget         =
| preceded_by    =
| followed_by    =
| website        =
}}
 1915 Denmark|Danish silent film directed by Lau Lauritzen Sr.. The film stars Oscar Stribolt and Carl Schenstrøm.

==Cast==
*Oscar Stribolt - Paludan Plum, digter
*Carl Schenstrøm -Adam Brink, skuespiller
*Agnes Andersen -  Bella, en livlig pige
*Frederik Buch - En skomagerdreng
*Franz Skondrup

==External links==
* 

 

 
 
 
 
 

 