En slem Dreng
 
{{Infobox film
| name           = En slem Dreng
| image          =
| image_size     =
| caption        =
| director       = Lau Lauritzen Sr.
| producer       =
| writer         = Valdemar Andersen
| narrator       =
| starring       =
| music          =
| cinematography = Frederik Fuglsang
| editing        =
| distributor    = Nordisk Film
| released       = 12 September 1915
| runtime        =
| country        = Denmark
| language       = Silent
| budget         =
| preceded_by    =
| followed_by    =
| website        =
}}
 Danish silent film directed by Lau Lauritzen Sr.. The film stars Lauritz Olsen and Gyda Aller.

==Cast==
*Lauritz Olsen - Karl King, forfatter
*Gyda Aller - Frøken Mimim, Karl kæreste
*Oscar Stribolt - Brumberg, Karls onkel
*Henny Lauritzen - Fru Brumberg
*Frederik Buch - "Drengen"
*Carl Schenstrøm - Læreren
*Julie Henriksen

==External links==
* 

 

 
 
 
 
 


 