Girls Without Tomorrow 1992
 
 
{{Infobox Film
| name           = Girls Without Tomorrow 1992
| image          = 
| image_size     = 
| caption        = 
| director       = David Lam Tak Luk Wong Chi
| producer       = David Lam Tak Luk So Man-Sing
| narrator       =  Pauline Chan
| music          = 
| cinematography = 
| editing        = 
| distributor    = 
| released       = 
| runtime        = 101 min.
| country        = Hong Kong
| language       = 
| budget         = 
| gross          = 
}}
Girls Without Tomorrow 1992 (應召女郎1988之二現代應召女郎) is a 1992 Hong Kong film directed by David Lam Tak Luk and Wong Chi. It is a sequel to the 1988 film Girls Without Tomorrow.

==Cast and roles== Pauline Chan – Eva
* Ekin Cheng – Onn (credited as Dior Cheng)
* John Ching – Big Fly
* Andy Hui – Ling-Yuks New Pimp
* Vivian Chow – Fong Siu-Ling
* Michael Dingo – Wang
* Fung Bo-Bo – Hung
* Rutherford John – Western Businessman 2
* Carina Lau – Wa
* Lau Siu-Ming – Li
* Mike Leeder – Western businessman
* Waise Lee – Peter
* May Lo Mei-Mei – Yuen Ling-Yuk
* Shum Wai – Simon
* Yee Fn Wei – Drunk Actor
* Yung Sai-Kit – Man with Eye Trouble

==External links==
*  
*  

 
 
 