American Tongues
 
{{Infobox film
| name           = American Tongues
| image          = 
| caption        = 
| director       = Louis Alvarez Andy Kolker
| producer       = Louis Alvarez Andy Kolker
| writer         = 
| screenplay     = 
| story          = 
| based on       =  
| narrator       = Polly Holliday
| starring       = Molly Ivins Robert Klein Trey Wilson
| music          = Dr. John
| cinematography = 
| editing        = 
| studio         = 
| distributor    = 
| released       =  
| runtime        = 56 minutes
| country        = United States
| language       = English
| budget         = 
| gross          = 
}}
 documentary examining accents and perceptions thereof.

It was produced and directed by Louis Alvarez and Andrew Kolker. The Center for New American Media won a Peabody Award for the film in 1987.

==External links==
*  

 
 
 
 
 
 
 
 


 