Soha Jora
{{Infobox film
| name           = Suha Jora
| image          = Soha-jora m.jpg
| image_size     =
| caption        =
| director       = Pervez Rana
| producer       = Syed Zubair Shah (Nargis Husband)
| writer         = Mohammad Kemal Pasha
| photography  	 = Sajjad Rizvi
| lyrics         = Altaf Bajwa
| starring       = Shaan (actor)|Shaan, Nargis
| music          = Tafoo
| cinematography =
| editing        =
| released       = May 4, 2007
| runtime        =
| country        = Pakistan Punjabi
| budget         =
| domestic gross =
| preceded_by    =
| followed_by    =
}}
 Punjabi film directed by Pervez Rana. The film was a super hit in Lahore.film Sooha Jora ("Bridal Dress") was produced by Nargis husband Zubair Shah.

==Synopsis==

 

==Cast== Shaan
* Nargis
* Sidra Noor
* Mustafa Qureshi
* Safqat Cheema
* Syed Raza Ali Rizvi (Child Actor)

==References==
*  

 
 
 


 