Street Corner (1929 film)
:For other films with this title, see Street Corner (disambiguation).
 
{{Infobox film
| name           = Street Corner
| image          =
| caption        =
| director       = Russell Birdwell
| producer       =
| writer         =
| narrator       =
| starring       = Josef Swickard Henry B. Walthall
| music          =
| cinematography =
| editing        =
| distributor    =
| released       =  
| runtime        =
| country        = United States English
| budget         =
| gross          =
| website        =
}}
Street Corner (1929 in film|1929) is a black-and-white short film starring Josef Swickard and Henry B. Walthall, and directed by Russell Birdwell.

==External links==
* 


 
 
 
 


 