Beirut Open City
{{Infobox film
| caption        =
| name           =Beirut Open City
| writer         =Samir Habchi
| starring       = Khaled El Nabawi   Rodney Haddad   Cirine Abdelnour   Diamand abou abboud
| director       =Samir Habchi
| released       =2008
| runtime        =100 minutes
| country        =Lebanon
| music          =
| budget         =
| cinematography =Milad Tauk	
| language       =Arabic
| producer       =
| distributor    =
}}
Beirut Open City ( ) (  film by the Lebanese director Samir Habchi.  The film takes place after the Lebanese Civil War during the 1990s and the Syrian occupation of Lebanon.  

==References==
 

==External links==
*  

 
 
 
 


 
 