Doki-Doki
 
{{Infobox film
| name           = Doki-Doki
| image          = 
| alt            =
| caption        = 
| film name      = 
| director       = Chris Eska
| producer       = Megumi Kano Aya Mitsuhashi
| writer         = Chris Eska
| screenplay     = 
| story          = 
| based on       =  
| starring       = Endo Yumi Hayato Sugano Sae Takenaka
| narrator       = Haruki Iwakiri
| music          = 
| cinematography = Yasu Tanida
| editing        = Chris Eska
| studio         =       
| distributor    = 
| released       =   
| runtime        = 
| country        = Japan
| language       = 
| budget         = 
| gross          =  
}} 2003 and directed by Chris Eska. Doki-Doki had its premiere U.S. broadcast on Public Broadcasting Service|PBSs Independent Lens series on December 21, 2004 (introduction by Susan Sarandon).

==Cast==
*Endo Yumi as Yumi
*Hayato Sugano as Yosuke
*Sae Takenaka as Makiko
*Haruki Iwakiri as Narrator

==Crew==
*Chris Eska, Director, Writer, Editor
*Megumi Kano, Producer
*Aya Mitsuhashi, Producer
*Yasu Tanida, Director of Photography

==External links==
*  
*  
*  
*  
*  
*  

 
 
 
 


 
 