Le droit à la vie
 
{{Infobox film
| name           = Le droit à la vie
| image          =
| caption        =
| director       = Abel Gance
| producer       = Louis Nalpas
| writer         = Abel Gance
| starring       = Paul Vermoyal
| cinematography = Léonce-Henri Burel
| editing        =
| distributor    =
| released       =  
| runtime        =
| country        = France Silent French French intertitles
| budget         =
}}
 silent French film directed by Abel Gance.      

==Cast==
* Paul Vermoyal - Pierre Veryal
* Léon Mathot - Jacques Alberty
* Andrée Brabant - Andree Mael
* Georges Paulais - Marc Toln
* Eugénie Bade - Grandmother
* Lebrey - Magistrate
* Anthony Gildès

==References==
 

==External links==
* 

 

 
 
 
 
 
 
 
 