Les Gaz mortels
{{Infobox film
| name           = Les Gaz mortels
| image          =
| caption        =
| director       = Abel Gance
| producer       = Louis Nalpas
| writer         = Abel Gance
| starring       = Doriani
| cinematography = Léonce-Henri Burel
| editing        =
| distributor    =
| released       =  
| runtime        = 71 minutes (18 frame rate| frame/s)
| country        = France Silent French French intertitles
| budget         =
}}
 silent French film directed by Abel Gance.      

==Cast==
* Doriani
* Émile Keppens
* Henri Maillard
* Léon Mathot
* Germaine Pelisse
* Maud Richard Jean Fleury

==References==
 

==External links==
* 

 

 
 
 
 
 
 
 
 