Kenji Comes Home
{{Infobox film
| name           = Kenji Comes Home
| image          = 
| caption        = 
| director       = 
| producer       = Paul F. Heard
| writer         = 
| narrator       = 
| starring       = 
| music          = 
| cinematography = 
| editing        = 
| distributor    = 
| released       = 1949
| runtime        = 
| country        = United States 
| language       = English
| budget         = 
}}
 Best Documentary Feature.     

==References==
 

==External links==
* 

 
 
 
 
 
 
 