Crèvecoeur (film)
 
{{Infobox film
| name           = Crèvecoeur
| image          = 
| caption        =  Jacques Dupont
| producer       = René Risacher
| writer         = Jacques Dupont
| narrator       = 
| starring       = 
| music          = 
| cinematography = Henri Decaë
| editing        = Jacques Dupont Pierre Gillette
| distributor    = 
| released       =  
| runtime        = 90 minutes
| country        = France 
| language       = French
| budget         = 
}}
 Jacques Dupont. Best Documentary United Nations Command in the Korean War.

==References==
 

==External links==
* 

 
 
 
 
 
 
 
 
 
 


 
 