Antarctic Crossing
 
{{Infobox film
| name           = Antarctic Crossing
| image          =
| caption        = George Lowe James Carr
| writer         =
| narrator       =
| starring       =
| music          =
| cinematography =
| editing        =
| distributor    =
| released       =  
| runtime        = 47 minutes
| country        = United Kingdom
| language       = English
| budget         =
}} George Lowe. Best Documentary Feature.    The film follows Sir Vivian Fuchs on his way back from Shackleton Base.   
==References==
 

==External links==
*  
*  

 
 
 
 
 
 

 
 