The Yanks Are Coming (1963 film)
{{Infobox film
| name           = The Yanks Are Coming
| image          =
| caption        =
| director       =
| producer       = Marshall Flaum
| writer         =
| narrator       =
| starring       =
| music          =
| cinematography =
| editing        =
| distributor    =
| released       = 1963
| runtime        =
| country        = United States
| language       = English
| budget         =
}}
 Best Documentary Feature.    Marshall Flaum wrote, produced and directed the documentary about the American involvement in World War I.    

==References==
 

==External links==
* 

 
 
 
 
 
 
 
 