The Hidden World
{{Infobox film
| name           = The Hidden World
| image          = 
| caption        = 
| director       =  Robert Snyder
| writer         = 
| narrator       = Gregory Peck
| starring       = 
| music          = 
| cinematography = 
| editing        = 
| distributor    = 
| released       =  
| runtime        = 
| country        = United States 
| language       = English
| budget         = 
}}
 Best Documentary Feature.     

==References==
 

==External links==
* 

 
 
 
 
 
 
 
 