The Sea Around Us (film)
{{Infobox film
| name           = The Sea Around Us
| image          = TheSeaAroundUsFilmPoster.gif
| caption        = Film poster for "The Sea Around Us"
| director       = Irwin Allen
| producer       = Irwin Allen Rachel L. Carson
| writer         = Irwin Allen
| narrator       = Don Forbes Theodore von Eltz
| starring       = 
| music          = Constantin Bakaleinikoff
| cinematography = Doane Harrison
| editing        = Frederic Knudtson
| distributor    = RKO
| released       =  
| runtime        = 61 minutes
| country        = United States 
| language       = English
| budget         = 
}}
 same name.

==Cast==
* Don Forbes as Narrator
* Theodore von Eltz as Narrator

==References==
 

==External links==
* 

 
 

 
 
 
 
 
 
 
 
 
 
 
 