Harvest (1967 film)
{{Infobox film
| name           = Harvest
| image          = 
| caption        = 
| director       = 
| producer       = Carroll Ballard
| writer         = 
| narrator       = 
| music          = 
| cinematography = 
| editing        = 
| distributor    = 
| released       =  
| runtime        = 
| country        = United States 
| language       = English
| budget         = 
}}
 Best Documentary Feature.     
The film portrays the American farm and farmer at harvest time, beginning in Texas with the first cutting of winter wheat, and following the season north to the Canadian border.

==References==
 

==External links==
* 

 
 
 
 
 
 
 