The Battle of the Bulge... The Brave Rifles
{{Infobox film
| name           = The Battle of the Bulge... The Brave Rifles
| image          = 
| caption        = 
| director       = 
| producer       = Laurence E. Mascott
| writer         =  Arthur Kennedy
| starring       = 
| music          = 
| cinematography = 
| editing        = 
| distributor    = 
| released       =  
| runtime        = 52 minutes
| country        = United States 
| language       = English
| budget         = 
}}
 Best Documentary Feature.     

==References==
 

==External links==
* 

 
 
 
 
 
 
 
 
 
 