The Face of a Genius
{{Infobox film
| name           = The Face of a Genius
| image          = 
| caption        = 
| director       = 
| producer       = Alfred R. Kelman
| writer         = 
| narrator       = 
| starring       = 
| music          = 
| cinematography = 
| editing        = 
| distributor    = 
| released       =  
| runtime        = 
| country        = United States 
| language       = English
| budget         = 
}} Best Documentary Best Documentary Feature.        

==References==
 

==External links==
* 

 

 
 
 
 
 
 
 

 