The Really Big Family
 
{{Infobox film
| name           = The Really Big Family
| image          = 
| caption        = 
| director       = Alexander Grasshoff
| producer       = Sam Farnsworth Alexander Grasshoff
| writer         = Arthur Bramble Nicolas Noxon
| narrator       = Henry Fonda
| starring       = 
| music          = 
| cinematography = Vilis Lapenieks
| editing        = John Soh
| distributor    = 
| released       =  
| runtime        = 
| country        = United States 
| language       = English
| budget         = 
}}
 Best Documentary Feature.   

==References==
 

==External links==
* 

 
 
 
 
 
 
 
 
 
 
 
 


 