The Elephant King
{{Infobox film
| name           = The Elephant King
| image          = 
| caption        = 
| director       = Seth Grossman
| producer       = Tamar Sela, Tom Waller, Emanuel Michael
| writer         = Seth Grossman
| starring       = Tate Ellington, Jonno Roberts, Florence Faivre, Ellen Burstyn
| music          = 
| cinematography = Diego Quemada-Diez
| editing        = 
| distributor    = 
| released       =  
| runtime        = 92 minutes
| country        = Thailand United States
| language       = English Thai
| budget         = 
}}
The Elephant King is a 2006 romantic drama film directed by Seth Grossman.

== External links ==
*  

 
 
 
 
 


 
 