Journey to the Outer Limits
{{Infobox film
| name           = Journey to the Outer Limits
| image          = 
| caption        = 
| director       = Alexander Grasshoff
| producer       = Peter S. Brown Nicholas Clapp Alexander Grasshoff Dennis B. Kane
| writer         = Kenneth M. Rosen
| narrator       = Leslie Nielsen
| starring       = 
| music          = 
| cinematography = Mike Hoover David Myers
| editing        = David Newhouse
| distributor    = 
| released       =  
| runtime        = 52 minutes
| country        = United States
| language       = English
| budget         = 
}}
 Best Documentary Feature.   

==References==
 

==External links==
* 

 
 
 
 
 
 
 


 