Fighting for Our Lives (film)
{{Infobox film
| name           = Fighting for Our Lives
| image          = DVD_Cover_of_Fighting_for_Our_Lives.jpg
| caption        = DVD Cover
| director       = Glen Pearcy
| producer       = Glen Pearcy
| writer         = Peter Matthiessen Glen Pearcy Luis Valdez
| narrator       = Luis Valdez
| starring       = 
| music          = 
| cinematography = Glen Pearcy
| editing        = Glen Pearcy
| distributor    = 
| released       = November 1975
| runtime        = 59 minutes
| country        = United States
| language       = English
| budget         = 
}} picket lines. 1976 Academy Best Documentary Feature.     

==References==
 

==External links==
* 

 
 
 
 
 
 