People of the Wind
:The People of the Wind is also the title of a science fiction novel by Poul Anderson
{{Infobox film
| name           = People of the Wind
| image          = 
| caption        = 
| director       = 
| producer       = Anthony Howarth David Koff
| writer         = 
| narrator       = James Mason
| starring       = 
| music          = G.T. Moore and Shusha Guppy
| cinematography = Michael Dodds
| editing        = Carolyn Hicks
| distributor    = 
| released       =  
| runtime        = 110 minutes
| country        = United States
| language       = English
| budget         = 
}} Best Documentary Feature    and also for a Golden Globe. 

==References==
 

==External links==
* 
* 

 
 
 
 
 
 
 
 
 