Homage to Chagall: The Colours of Love
{{Infobox film
| name           = Homage to Chagall: The Colours of Love
| image	         = Homage to Chagall- The Colours of Love FilmPoster.jpeg
| caption        = DVD cover
| director       = Harry Rasky
| producer       = Harry Rasky
| writer         = Harry Rasky
| narrator       = Jean Gascon (French narrator) James Mason (English narrator) Joseph Wiseman (English narrator)
| starring       = 
| music          = 
| cinematography = Kenneth W. Gregg
| editing        = Arla Saare
| distributor    = 
| released       =  
| runtime        = 88 minutes
| country        = Canada 
| language       = English
| budget         = 
}}
 Best Documentary Feature.      

==References==
 

==External links==
* 

 
 
 
 
 
 
 
 

 
 