Against Wind and Tide: A Cuban Odyssey
 
{{Infobox film
| name           = Against Wind and Tide: A Cuban Odyssey
| image          =
| caption        =
| director       =
| producer       = Susanne Bauman Jim Burroughs Harvey Flaxman Paul Neshamkin
| writer         = John Brousek
| narrator       =
| starring       =
| music          =
| cinematography =
| editing        =
| distributor    =
| released       =  
| runtime        = 60 minutes
| country        = United States
| language       = English
| budget         =
}} Best Documentary Feature.      

==References==
 

==External links==
* 

 
 
 
 
 
 
 
 
 
 
 
 