El Salvador: Another Vietnam
{{Infobox film
| name           = El Salvador: Another Vietnam
| image          = 
| caption        = 
| director       = Glenn Silber Teté Vasconcellos
| producer       = Glenn Silber Teté Vasconcellos Claudia Vianello
| writer         = Claudia Vianello
| narrator       = Mike Farrell
| starring       = 
| music          = 
| cinematography = Newton Thomas Sigel
| editing        = Deborah Shaffer Kate Taverna
| distributor    = 
| released       =  
| runtime        = 53 minutes
| country        = United States
| language       = English
| budget         = 
}}
 Best Documentary Feature.     

==References==
 

==External links==
* 

 
 
 
 
 
 
 
 
 
 
 
 