Ben's Mill
{{Infobox film
| name           = Bens Mill
| image          =
| caption        =
| director       = Michel Chalufour John Karol
| producer       = Michael Ambrosino Michel Chalufour John Karol
| writer         =
| narrator       =
| starring       =
| music          =
| cinematography =
| editing        =
| distributor    =
| released       = 1982
| runtime        = 59 minutes
| country        = United States
| language       = English
| budget         =
}}
 Best Documentary Feature.      

==References==
 

==External links==
* 

 
 
 
 
 
 
 
 