When the Moors Ruled in Europe
 
 
{{Infobox film
| name           = When The Moors Ruled In Europe
| image          = When The Moors Ruled In Europe.jpg
| image size     = 
| alt            = 
| caption        = 
| director       = Timothy Copestake
| producer       = 
| writer         = 
| narrator       = 
| starring       = 
| music          = 
| cinematography = 
| editing        = 
| studio         = 
| distributor    = 
| released       = 2005
| runtime        = 
| country        = United Kingdom
| language       = English
| budget         = 
| gross          = 
| preceded by    = 
| followed by    = 
}}
 English historian Cordoba and the Moroccan city of Fes.

The era ended with the Reconquista during which the Catholic authorities burnt over 1,000,000 Arabic texts. 

==References==
 
 
* 
* 
* 
* 
 

== External links ==
*  

 
 
 
 
 
 
 


 
 