Hellfire: A Journey from Hiroshima
{{Infobox film
| name           = Hellfire: A Journey from Hiroshima
| image          = 
| caption        =  James MacDonald
| producer       = John W. Dower John Junkerman
| writer         = John Junkerman
| narrator       = 
| starring       = 
| music          = 
| cinematography = Michael Camerini
| editing        = 
| distributor    = 
| released       =  
| runtime        = 58 minutes   
| country        = United States 
| language       = English
| budget         = 
}}
 Best Documentary Feature.     

==References==
 

==External links==
* 

 
 
 
 
 
 
 
 