A Stitch for Time
 
{{Infobox film
| name           = A Stitch for Time
| image          =
| caption        =
| director       = Nigel Noble
| producer       = Cyril Christo Barbara Herbich
| writer         =
| narrator       =
| starring       =
| music          =
| cinematography =
| editing        =
| distributor    =
| released       =  
| runtime        =
| country        = United States
| language       = English
| budget         =
}}
 Best Documentary Feature.   

==References==
 

==External links==
* 

 
 
 
 
 
 
 
 


 