Adam Clayton Powell (film)
 
{{Infobox film
| name           = Adam Clayton Powell
| image          = Adam Clayton Powell film.jpg
| caption        =
| director       = Richard Kilberg
| producer       = Richard Kilberg Yvonne Smith
| writer         = Phyllis Garland Richard Kilberg
| narrator       = Julian Bond
| starring       =
| music          =
| cinematography = Bill Sheehy
| editing        =
| distributor    =
| released       =  
| runtime        = 54 minutes
| country        = United States
| language       = English
| budget         =
}} civil rights Best Documentary Feature.   

==References==
 

==External links==
* 

 

 
 
 
 
 
 
 
 
 
 