Building Bombs
{{Infobox film
| name           = Building Bombs
| image          =
| caption        = Susan J. Robinson
| producer       = Mark Mori Susan J. Robinson
| writer         =
| narrator       = Jane Alexander
| starring       =
| music          =
| cinematography =
| editing        =
| distributor    =
| released       =  
| runtime        = 54 minutes
| country        = United States
| language       = English
| budget         =
}}
 Best Documentary Feature.    It dealt with environmental contamination and worker safety issues at the Savannah River Site nuclear materials processing center in the United States state of South Carolina.

==References==
 

==External links==
* 

 
 
 
 
 
 
 


 