D-Day Remembered
 
{{Infobox film
| name           = D-Day Remembered
| image          = 
| caption        = 
| director       = Charles Guggenheim
| producer       = Charles Guggenheim
| writer         = Charles Guggenheim
| narrator       = David McCullough
| starring       = 
| music          = 
| cinematography = 
| editing        = Joseph Wiedenmayer
| distributor    = 
| released       =  
| runtime        = 54 minutes
| country        = United States 
| language       = English
| budget         = 
}} Best Documentary Feature.   

==References==
 

==External links==
* 

 
 
 

 
 
 
 
 
 
 
 
 
 
 