Remodelled Beauty
 
{{Infobox film
| name           = Remodelled Beauty
| image          = 
| caption        = 
| director       = Il-ho Jang
| producer       = Ju Dong-jin
| writer         = Ka Seu Oh   Yeong-il Lee
| starring       = Jin-su Kim Ji-in Yu Nak-hun Lee
| music          = 
| cinematography = Woon-gyo Jeong
| editing        = 
| distributor    = 
| released       =  
| runtime        = 81 minutes
| country        = South Korea
| language       = Korean
| budget         = 
| gross          = 
| film name      = {{Film name
 | hangul         = 정형미인
 | hanja          =  
 | rr             = Jeonghyeongmi-in
 | mr             = Chŏnghyŏngmiin}}
}}
Remodelled Beauty is a 1975 South Korean horror film.

==Cast==
*Lee Nak-hoon
*Yu Ji-in
*Kim Ok-jin
*Kim Jin-su
*Park Am
*Jeong Jin-a
*Choe Sung-kwan
*Kim Yun-suk
*Maeng Hyeon-hui
*Lee Jeong-hwa
 

 
 
 
 


 
 