Hank Aaron: Chasing the Dream
{{Infobox film
| name           = Hank Aaron: Chasing the Dream
| image          = 
| caption        = 
| director       = Michael Tollin
| producer       = Michael Tollin  (exec.)  Denzel Washington  (exec.) 
| writer         = Michael Tollin
| narrator       = 
| music          = Ed Smart
| cinematography = Derek Britt Chuck Cohen
| editing        = John Ganem
| distributor    = 
| released       =  
| runtime        = 120 minutes
| country        = United States 
| language       = English
| budget         = 
}}
 all time Best Documentary Feature.        

==References==
 

==External links==
* 

 
 

 
 
 
 
 
 
 
 
 

 