Suzanne Farrell: Elusive Muse
{{Infobox film
| name           = Suzanne Farrell: Elusive Muse
| image          = Suzanne Farrell- Elusive Muse.jpg
| image size     =
| caption        =
| director       = Anne Belle Deborah Dickson
| producer       = Anne Belle Catherine Tambini
| writer         =
| narrator       =
| starring       =
| music          =
| cinematography = Don Lenzer
| editing        =
| distributor    =
| released       =  
| runtime        = 90 minutes
| country        = United States
| language       = English
| budget         =
}}
 1996 documentary Best Documentary Feature.   

==References==

 

==External links==
* 

 

 
 
 
 
 
 
 
 