Tomie: Revenge
{{Infobox film
| name           = Tomie: Revenge
| image          = Tomie-revenge-poster.jpg
| image size     = 
| border         = 
| alt            = 
| caption        = Film poster
| director       = Ataru Oikawa
| producer       = 
| writer         = 
| screenplay     = 
| story          = 
| based on       =   
| narrator       = 
| starring       = Hisako Shirata   Minami Hinase   Anri Ban
| music          = 
| cinematography = 
| editing        = 
| studio         = 
| distributor    = 
| released       =   
| runtime        = 72 minutes
| country        = Japan
| language       = Japanese
| budget         = 
| gross          = 
}}
 of the same name by Junji Ito, more specifically the chapter Revenge.

==Plot==
Tomie is played by Anri Ban. The story revolves around a young, female doctor, and an unidentified naked woman she runs down on the road one night. In her search for the wounded girl (who has a mole under her left eye) the doctor ends up in an abandoned house filled with bodies, madmen and an unconscious girl. She then discovers Tomie and madness begins yet again.

==Cast==
* Hisako Shirata 
* Minami Hinase
* Anri Ban - Tomie

==References==
 

==External links==
*  
*   at SaruDama

 
 

 
 
 
 
 
 
 
 


 
 