Life of a Thoroughbred
{{Infobox film
| name           = Life of a Thoroughbred
| image          = 
| caption        = 
| director       = Tom Cummiskey
| producer       = Truman H. Talley
| writer         = Russell G. Shields
| narrator       = 
| starring       = 
| music          = 
| cinematography = 
| editing        =  Twentieth Century-Fox Film Corporation
| released       =  
| runtime        = 11 minutes
| country        = United States
| language       = English
| budget         = 
}} short documentary Best Documentary Short.   

==References==
 

==External links==
* 

 
 
 
 
 
 
 
 


 