Tomorrow We Fly
{{Infobox film
| name           = Tomorrow We Fly
| image          = 
| caption        = 
| director       = 
| producer       = 
| writer         = 
| narrator       = 
| music          = 
| cinematography = 
| editing        = 
| distributor    = United States Navy
| released       =  
| runtime        = 
| country        = United States
| language       = English
| budget         = 
}}
 short documentary Best Documentary Short.   

==References==
 

==External links==
* 

 
 
 
 
 
 
 
 
 
 
 


 