Traffic with the Devil
{{Infobox film
| name           = Traffic with the Devil
| image          = 
| caption        = 
| director       = Gunther von Fritsch
| producer       = Herbert Morgan
| writer         = Herbert Morgan
| narrator       = Charles Reineke
| cinematography = Floyd Crosby
| editing        = 
| distributor    = MGM
| released       =  
| runtime        = 19 minutes
| country        = United States 
| language       = English
| budget         = 
}}
 short documentary Best Documentary Short.      

==References==
 

==External links==
* 

 
 
 
 
 
 
 
 
 
 
 
 


 
 