Operation Vittles (film)
{{Infobox film
| name           = Operation Vittles
| image          = 
| image_size     = 
| caption        = 
| director       = 
| producer       = 
| writer         = 
| narrator       = 
| starring       = 
| music          = 
| cinematography = 
| editing        = 
| distributor    = 
| released       =  
| runtime        = 
| country        = United States
| language       = English
| budget         = 
| preceded_by    = 
}} short documentary Best Documentary Short.   

==References==
 

==External links==
* 

 
 
 
 
 
 
 
 
 


 
 