1848 (film)
 
{{Infobox film
| name           = 1848
| image          = 
| caption        = 
| director       = Marguerite de la Mure Victoria Mercanton
| producer       = 
| writer         = 
| narrator       = Bernard Blier
| starring       = Bernard Blier
| music          = Guy Bernard
| cinematography = André Dumaître 
| editing        = 
| distributor    = 
| released       =  
| runtime        = 20 minutes
| country        = France
| language       = French
| budget         = 
}}
 short documentary film directed by Marguerite de la Mure and Victoria Mercanton. 

==Synopsis==
The film explains the French Revolution of 1848. Bernard Bliers narration is supported by pictures once drawn by contemporary artists including Honoré Daumier.

==Accolades== Best Documentary Short.      

==References==
 

==External links==
* 

 
 
 
 
 
 
 
 
 
 
 
 

 
 