Passport to Nowhere
{{Infobox film
| name           = Passport to Nowhere
| image          = 
| caption        = 
| director       = 
| producer       = Frederic Ullman Jr.
| writer         = 
| narrator       = 
| starring       = 
| music          = 
| cinematography = 
| editing        = 
| distributor    = RKO Pictures
| released       =  
| runtime        = 
| country        = United States 
| language       = English
| budget         = 
}} short documentary Best Documentary Short.   

==References==
 

==External links==
* 

 
 
 
 
 
 
 
 
 


 