The Rising Tide (film)
 
{{Infobox film
| name           = The Rising Tide
| image          = 
| caption        = 
| director       = Jean Palardy
| producer       = James Beveridge
| writer         = 
| narrator       = 
| starring       = 
| music          = 
| cinematography = 
| editing        = 
| distributor    = National Film Board of Canada
| released       =  
| runtime        = 10 minutes
| country        = Canada 
| language       = English
| budget         = 
}}
 short documentary Best Documentary Short.      

Produced by the National Film Board of Canada, the film shows how cooperatives in the Maritime provinces gave new life and hope to poverty-stricken fishermen. The Rising Tide received a special citation at the Canadian Film Awards.   

==References==
 

==External links==
* 

 
 
 
 
 
 
 
 
 
 
 
 
 
 
 


 
 