Devil Take Us
{{Infobox film
| name           = Devil Take Us
| caption        = Film poster
| image	         = Devil Take Us FilmPoster.jpeg
| director       = Herbert Morgan
| producer       = Herbert Morgan
| writer         = Herbert Morgan
| narrator       = 
| starring       = 
| music          = 
| cinematography = Floyd Crosby
| editing        = 
| distributor    = 
| released       = 1952
| runtime        = 
| country        = United States 
| language       = English
| budget         = 
}}
 short documentary Best Documentary Best Two-Reel Short.   

==References==
 

==External links==
* 

 
 
 
 
 
 
 
 


 