The Word (1953 film)
 
{{Infobox film
| name           = The Word
| image          =
| caption        =
| director       = John Adams John Healy
| writer         =
| narrator       =
| starring       =
| music          =
| cinematography =
| editing        = Twentieth Century-Fox Film Corporation
| released       =  
| runtime        =
| country        = United States
| language       = English
| budget         =
}}
 short documentary John Adams. Best Documentary Short.   

==References==
 

==External links==
* 

 
 
 
 
 
 
 
 
 


 