Rembrandt: A Self-Portrait
{{Infobox film
| name           = Rembrandt: A Self-Portrait
| image          = 
| image_size     = 
| caption        = 
| director       = 
| producer       = Morrie Roizman
| writer         = 
| narrator       = 
| starring       = 
| music          = 
| cinematography = 
| editing        = 
| distributor    = Distributors Corporation of America
| released       = 1954
| runtime        = 
| country        = United States 
| language       = English
| budget         = 
}}
 short documentary Best Documentary Short.   

==References==
 

==External links==
* 

 
 
 
 
 
 
 
 
 
 
 
 