From Generation to Generation
{{Infobox film
| name           = From Generation to Generation
| image          = 
| caption        = 
| director       = 
| producer       = Edward F. Cullen
| writer         = 
| starring       = 
| music          = 
| cinematography = 
| editing        = 
| distributor    = 
| released       =  
| runtime        = 
| country        = United States 
| language       = English
| budget         = 
}}
 short documentary Best Documentary Short.   

==References==
 

==External links==
* 

 
 
 
 
 
 
 


 