The Living Stone
{{Infobox film
| name           = The Living Stone
| image          =
| caption        =
| director       = John Feeney Tom Daly
| writer         = John Feeney
| narrator       = George Whalley
| starring       =
| music          =
| cinematography = Patrick Carey
| editing        = Stuart Baker John Feeney
| distributor    = National Film Board of Canada
| released       =  
| runtime        = 34 minutes
| country        = Canada
| language       = English
| budget         =
}}
 short documentary Best Documentary Short.   

The film is included in the 2011 Inuit film anthology  , bringing together over 100 films by and about the Inuit people of Canada, distributed on DVD to Inuit communities across the Canadian North and available online.   

==References==
 

==External links==
* 
* 

 
 
 
 
 
 
 
 
 
 
 
 
 


 
 