Cadavere a spasso
{{Infobox film
| name           = Cadavere a spasso
| image          =
| image_size     =
| caption        =
| director       = Marco Masi
| producer       =
| writer         =
| narrator       =
| starring       =
| music          =
| cinematography =
| editor       =
| distributor    =
| released       = 1965
| runtime        =
| country        = Italy Italian
| budget         =
}}
 1965 Italy|Italian comedy film directed by Marco Masi.

==Cast==
*Pietro De Vico ...  Nicolino
*Heidi Stroh ...  Patrizia (as Heidy Stroh)
*Marisa Sally ...  Serena
*Tiberio Murgia
*Enrico Pozzi
*Giuseppe Ricagno
*Fabio Battistini
*Luigi Batzella
*Conny Caracciolo

==External links==
*  

 
 
 
 
 

 
 