The Adventurer of Tortuga
{{Infobox film
| name           = L&#39;avventuriero della tortuga
| image          = Lavventuriero della tortuga.jpg
| image_size     =
| caption        =
| director       = Luigi Capuano
| producer       =
| writer         = Emilio Salgari, Luigi Capuano
| narrator       =
| starring       =
| music          =
| cinematography =
| editor       =
| distributor    =
| released       = August 13, 1965
| runtime        =
| country        = Italy Italian
| budget         =
}}
 1965 Italy|Italian historical film directed by Luigi Capuano. It is based on the novel by Emilio Salgari.

==Cast== class = wikitable
! Actor !! Role
|- Guy Madison ||  Alfonso di Montélimar
|- Ingeborg Schöner ||  Soledad Quintero
|- Rik Battaglia ||  Pedro Valverde
|- Nadia Gray || Dona Rosita
|- Andrea Aureli || Enrico Vallejo
|- Aldo Bufi Landi || Mendoza
|- Mino Doro Tarsarios
|- Linda Sini ||  Paquita
|}

==External links==
*  

 
 
 
 
 
 
 
 
 

 