The Shipment (film)
{{Infobox film
| name           = The Shipment
| image          =
| caption        =
| director       = Alex Wright
| producer       = David Bixler Greg Malcolm Vicki Sotheran Christopher Webster
| writer         = Richard Steen
| narrator       =
| starring       = Matthew Modine Elizabeth Berkley Nicholas Turturro
| music          = Richard Tuttobene
| cinematography = Russ Lyster
| editing        = Louis F. Cioffi
| studio         = Promark Entertainment Group
| distributor    =
| released       =  
| runtime        = 92 minutes
| country        = Canada
| language       = English
| budget         = $5,500,000 (estimated) 
| gross          =
}} 2001 film|movie mob enforcer Viagra gone awry. It stars Matthew Modine, Elizabeth Berkley, Nicholas Turturro, and Robert Loggia.

==External links==
* 

 
 
 


 