Breaking the Language Barrier
{{Infobox film
| name           = Breaking the Language Barrier
| image          =
| caption        =
| director       =
| producer       =
| writer         =
| narrator       =
| starring       =
| music          =
| cinematography =
| editing        =
| distributor    = United States Air Force
| released       = 1961
| runtime        =
| country        = United States
| language       = English
| budget         =
| preceded by    =
| followed by    =
}} Best Documentary Short.   

==References==
 

==External links==
* 

 
 
 
 
 
 
 
 


 