Point of View (film)
{{Infobox Film
| name           = Point of View
| image          = 
| image_size     = 
| caption        = 
| director       = 
| producer       = 
| writer         = 
| narrator       = 
| starring       = 
| music          = 
| cinematography = 
| editing        = 
| distributor    = 
| released       = 1965
| runtime        = 
| country        = United States 
| language       = English
| budget         = 
| preceded_by    = 
| followed_by    = 
}}
 short documentary Best Documentary Short.   

==References==
 

==External links==
* 

 
 
 
 
 
 
 


 