A Country Doctor (film)
{{Infobox Film
| name           = A Country Doctor
| image          = 
| caption        = 
| director       = Kōji Yamamura
| writer         = Kōji Yamamura
| starring       = Sensaku Shigeyama
| producer       = 
| music          = Hitomi Shimizu
| cinematography = Kōji Yamamura
| editing        = Kōji Yamamura
| distributor    = Shochiku|Shōchiku
| released       =  
| runtime        = 21 minutes 
| rating         = 
| country        = Japan
| awards         = 
| language       = Japanese
| budget         = 
}}

 }} is a 2007 anime short film by Kōji Yamamura.  
 A Country Doctor",  voiced by kyōgen actors of the Shigeyama house. 

The film has won several awards, including the 2008 Ōfuji Noburō Award from the Mainichi Film Concours and the 2007 Grand Prize at the Ottawa International Animation Festival. It was also included in the Animation Show of Shows in 2008.

==References==
{{Reflist|refs=
 "Franz Kafkas A Country Doctor". Newtype USA. 7 (2) p. 15.  .  . 
}}

== External links ==
*    
*  
*  

 

 
 
 
 
 
 
 
 
 


 