Leo Beuerman
{{Infobox film
| name           = Leo Beuerman
| image          = 
| caption        = 
| director       = Gene Boomer
| producer       = Russell A. Mosser Arthur H. Wolf
| writer         = Margaret Travis
| narrator       = 
| starring       = 
| music          = 
| cinematography = 
| editing        = Larry Bixby
| distributor    = 
| released       = 1969
| runtime        = 
| country        = United States 
| language       = English
| budget         = 
}}
 short documentary Best Documentary Short.   

==References==
 

==External links==
* 
* 

 
 
 
 
 
 
 


 