Saint Matthew Passion (film)
 
{{Infobox film
| name           = Saint Matthew Passion
| image          = 
| caption        = 
| director       = Tamás Czigány
| producer       = 
| writer         = 
| narrator       = 
| starring       = 
| music          = 
| cinematography = 
| editing        = 
| distributor    = 
| released       = 1966
| runtime        = 
| country        = Hungary 
| language       = Hungarian
| budget         = 
}}
 short documentary Best Documentary Short.   

==References==
 

==External links==
* 

 
 
 
 
 
 
 


 
 