Cowboy (1966 film)
 
{{Infobox film
| name           = Cowboy
| image          = 
| caption        = 
| director       = Michael Ahnemann
| producer       = Michael Ahnemann Gary Schlosser
| writer         = Michael Ahnemann
| narrator       = 
| starring       = 
| music          = 
| cinematography = 
| editing        = Michael Ahnemann
| distributor    = 
| released       =  
| runtime        = 
| country        = United States 
| language       = English
| budget         = 
}} Best Documentary Short.   

==References==
 

==External links==
* 

 
 
 
 
 
 
 
 


 