Jenny Is a Good Thing
 
{{Infobox film
| name           = Jenny Is a Good Thing
| image          = 
| caption        = 
| director       = Joan Horvath
| producer       = Joan Horvath
| writer         = 
| narrator       = Burt Lancaster
| music          = 
| cinematography = 
| editing        = 
| distributor    = 
| released       =  
| runtime        = 18 minutes
| country        = United States 
| language       = English
| budget         = 
}}
 short documentary Project Head Best Documentary Short.         

==References==
 

==External links==
*  on YouTube
* 

 
 
 
 
 
 
 
 
 
 
 

 