Adolescence (film)
 
{{Infobox film
| name           = Adolescence
| image          =
| caption        =
| director       = Marin Karmitz
| producer       = Vladimir Forgency Marin Karmitz
| writer         =
| narrator       = Sonia Petrovna
| music          =
| cinematography =
| editing        =
| distributor    =
| released       =  
| runtime        =
| country        = France
| language       = French
| budget         =
}} short documentary Best Documentary Short.      

==References==
 

==External links==
* 

 
 
 
 
 
 
 
 
 


 
 