First Edition (film)
{{Infobox film
| name           = First Edition
| image          = 
| caption        = 
| director       = Helen Whitney
| producer       = DeWitt Sage Helen Whitney
| writer         = DeWitt Sage Helen Whitney
| narrator       = 
| music          = 
| cinematography = Ted Haimes
| editing        = Nancy Baker
| distributor    = 
| released       =  
| runtime        = 30 minutes
| country        = United States 
| language       = English
| budget         = 
}} short documentary Best Documentary Short.   

==References==
 

==External links==
* 

 
 
 
 
 
 


 