Agueda Martinez: Our People, Our Country
{{Infobox film
| name           = Agueda Martinez: Our People, Our Country
| image          =
| caption        =
| director       =
| producer       = Moctesuma Esparza
| writer         =
| narrator       =
| starring       =
| music          =
| cinematography =
| editing        =
| distributor    =
| released       =  
| runtime        =
| country        = United States
| language       = English
| budget         =
}}
 short documentary Best Documentary Short.   

==References==
 

==External links==
* 

 
 
 
 
 
 
 
 


 
 