Probes in Space
{{Infobox film
| name           = Probes in Space
| image          = 
| caption        = 
| director       =  George Casey
| writer         = 
| starring       = 
| music          = 
| cinematography = 
| editing        = 
| distributor    = 
| released       = 1975
| runtime        = 
| country        = United States 
| language       = English
| budget         = 
}}
 short documentary George Casey. Best Documentary Short.      

==References==
 

==External links==
* 

 
 
 
 
 
 
 


 
 