A Long Way from Nowhere
 
{{Infobox film
| name           = A Long Way from Nowhere
| image          =
| image size     =
| caption        =
| director       =
| producer       = Bob Aller
| writer         =
| narrator       =
| starring       =
| music          =
| cinematography =
| editing        =
| distributor    =
| released       =  
| runtime        =
| country        = United States
| language       = English
| budget         =
}}
 short documentary Best Documentary Short.   

==References==
 

==External links==
* 

 
 
 
 
 
 
 
 
 


 