The Divided Trail: A Native American Odyssey
 
{{Infobox film
| name           = The Divided Trail: A Native American Odyssey
| image          = 
| caption        = 
| director       = Jerry Aronson
| producer       = 
| writer         = 
| narrator       = 
| music          = 
| cinematography = 
| editing        = Jerry Aronson Bob Eisenhardt
| distributor    = 
| released       =  
| runtime        = 33 minutes
| country        = United States 
| language       = English
| budget         = 
}}
 short documentary Best Documentary Short.    It lost to The Flight of the Gossamer Condor.   

==References==
 

==External links==
* 

 
 
 
 
 
 
 
 
 


 