The End of the Road (1976 film)
{{Infobox film
| name           = The End of the Road
| image          = 
| image_size     = 
| caption        =  John Armstrong
| producer       = John Armstrong
| writer         = 
| narrator       = 
| starring       = 
| music          = 
| cinematography = 
| editing        = 
| distributor    = 
| released       = 1976
| runtime        = 23 minutes
| country        = United Kingdom 
| language       = English
| budget         = 
}}
 short documentary John Armstrong. Best Documentary Short.   

==References==
 

==External links==
* 

 
 
 
 
 
 
 
 


 
 