Blackwood (film)
 
{{Infobox film
| name           = Blackwood
| image          =
| caption        = Andy Thomson Tom Daly Colin Low
| writer         = Barry Cowling
| narrator       = Gordon Pinsent
| starring       =
| music          =
| cinematography = Tony Ianzelo
| editing        = Les Halman
| distributor    = National Film Board of Canada
| released       =  
| runtime        = 28 minutes
| country        = Canada
| language       = English
| budget         =
}}
 short documentary Newfoundland artist Best Documentary Short.      

==References==
 

==External links==
* 
* 

 

 
 
 
 
 
 
 
 
 
 
 
 
 

 
 