City Out of Wilderness
{{Infobox Film
| name           = City Out of Wilderness
| image          = 
| caption        = 
| director       =  Francis Thompson
| writer         = 
| narrator       = 
| music          = 
| cinematography = 
| editing        = 
| distributor    = 
| released       =  
| runtime        = 28 minutes
| country        = United States 
| language       = English
| budget         = 
}}
 short documentary Francis Thompson. Best Documentary Short.   

Produced by the United States Capitol Historical Society, City Out of Wilderness chronicles the history and evolution of Washington, D.C., from its very beginnings to the then-modern era of the 1970s.   

==References==
 

==External links==
* 

 
 
 
 
 
 
 
 
 
 
 
 
 


 
 