Millions of Years Ahead of Man
 
{{Infobox film
| name           = Millions of Years Ahead of Man
| image          = 
| caption        = 
| director       = 
| producer       = Manfred Baier
| writer         = 
| narrator       = 
| starring       = 
| music          = 
| cinematography = 
| editing        = 
| distributor    = 
| released       = 1975
| runtime        = 
| country        = West Germany
| language       = German
| budget         = 
}}
 short documentary Best Documentary Short.   

==References==
 

==External links==
* 

 
 
 
 
 
 
 


 
 