American Shoeshine
{{Infobox film
| name           = American Shoeshine
| image          =
| image size     =
| caption        =
| director       = Sparky Greene
| producer       = Sparky Greene
| writer         =
| narrator       =
| starring       =
| music          =
| cinematography =
| editing        =
| distributor    =
| released       =  
| runtime        = 30 minutes
| country        = United States
| language       = English
| budget         =
}}
 short documentary Best Documentary Short.   

==References==
 

==External links==
* 

 
 
 
 
 


 