Adventures in Perception
{{Infobox film
| name           = Adventures in Perception
| image          =
| caption        =
| director       = Han Van Gelder
| producer       = Han Van Gelder
| writer         =
| narrator       =
| starring       =
| music          =
| cinematography =
| editing        =
| distributor    =
| released       =  
| runtime        =
| country        = Netherlands
| language       = Dutch
| budget         =
}}
 short documentary Best Documentary Cork Cork Film Festival.    It is a study on the works of M. C. Escher   

==References==
 

==External links==
* 

 
 
 
 
 
 
 
 
 
 
 

 
 