Background (1973 film)
{{Infobox film
| name           = Background
| image          =
| caption        =
| director       = Carmen DAvino
| producer       = Carmen DAvino
| writer         =
| narrator       =
| music          =
| cinematography =
| editing        =
| distributor    =
| released       =  
| runtime        = 19 minutes
| country        = United States
| language       = English
| budget         =
}}
 short documentary Best Documentary Short.      

==References==
 

==External links==
* 

 
 
 
 
 
 
 


 