Americas in Transition
{{Infobox film
| name           = Americas in Transition
| image          =
| caption        =
| director       = Obie Benz
| producer       = Obie Benz
| writer         =
| narrator       = Edward Asner
| starring       =
| music          =
| cinematography =
| editing        =
| distributor    =
| released       =  
| runtime        =
| country        = United States
| language       = English
| budget         =
}}
 short documentary Best Documentary Short.   

==References==
 

==External links==
* 

 
 
 
 
 
 
 


 