See What I Say
 
{{Infobox film
| name           = See What I Say
| image          = 
| caption        = 
| director       = 
| producer       = Linda Chapman Pam LeBlanc Freddi Stevens
| writer         = 
| narrator       = 
| music          = 
| cinematography = 
| editing        = 
| distributor    = 
| released       =  
| runtime        = 
| country        = United States 
| language       = English
| budget         = 
}}
 short documentary Best Documentary Short.    The subjects of the film are hearing-impaired women who discuss their use of sign language.

==References==
 

==External links==
* 

 
 
 
 
 
 
 
 
 
 
 
 


 