It's the Same World
{{Infobox Film
| name           = Its the Same World
| image          = 
| image_size     = 
| caption        = 
| director       =  Dick Young
| writer         = 
| narrator       = 
| starring       = 
| music          = 
| cinematography = 
| editing        = 
| distributor    = 
| released       = 1980
| runtime        = 20 minutes
| country        = United States 
| language       = English
| budget         = 
| preceded_by    = 
| followed_by    = 
}}
 short documentary Dick Young. Best Documentary Short.   

==References==
 

==External links==
* 

 
 
 
 
 
 
 


 