The Klan: A Legacy of Hate in America
{{Infobox film
| name           = The Klan: A Legacy of Hate in America
| image          = 
| caption        = 
| director       = Werner Schumann
| producer       = Charles Guggenheim Werner Schumann
| writer         = Charles Guggenheim Patsy Sims
| narrator       = James Whitmore
| starring       = 
| music          = 
| cinematography = Wayne Ewing
| editing        = Werner Schumann
| distributor    = 
| released       = 1982
| runtime        = 
| country        = United States 
| language       = English
| budget         = 
}}
 short documentary Best Documentary Short.   

==References==
 

==External links==
* 

 
 
 
 
 
 
 
 
 
 
 


 