To Live or Let Die
 
{{Infobox film
| name           = To Live or Let Die
| image          =
| caption        =
| director       = Terry Sanders
| producer       =
| writer         =
| narrator       =
| starring       =
| music          =
| cinematography =
| editing        =
| distributor    =
| released       =  
| runtime        =
| country        = United States
| language       = English
| budget         =
}}
 short documentary Best Documentary Short.   

==References==
 

==External links==
* 

 
 
 
 
 
 
 
 


 