In the Wee Wee Hours...
 
{{Infobox film
| name           = In the Wee Wee Hours...
| image          = 
| caption        = 
| director       = Izak Ben-Meir
| producer       = Izak Ben-Meir Frantisek Daniel
| writer         = 
| narrator       = 
| music          = 
| cinematography = Bruce Dorfman
| editing        = 
| distributor    = 
| released       =  
| runtime        = 
| country        = United States
| language       = English
| budget         = 
}}
 short documentary Best Documentary Short.      

==References==
 

==External links==
* 

 
 
 
 
 
 
 
 
 
 
 


 
 