Gang Cops
 
{{Infobox film
| name           = Gang Cops
| image          = 
| caption        =  Daniel Marks
| producer       = 
| writer         = 
| narrator       = 
| starring       = 
| music          = 
| cinematography = 
| editing        = 
| distributor    = 
| released       =  
| runtime        = 
| country        = United States 
| language       = English
| budget         = 
}}
 short documentary Best Documentary Short.      
 School of Cinema/Television.

==References==
 

==External links==
* 

 
 
 
 
 
 
 
 
 
 
 
 
 
 
 
 


 