Language Says It All
 
{{Infobox film
| name           = Language Says It All
| image          = 
| caption        = 
| director       = Rhyena Halpern Megan Williams
| writer         = 
| music          = 
| cinematography = 
| editing        = 
| distributor    = 
| released       =  
| runtime        = 
| country        = United States 
| language       = English
| budget         = 
}}
 short documentary Megan Williams. Best Documentary Short.   

==References==
 

==External links==
* 

 
 
 
 
 
 
 
 
 
 
 


 