Portrait of Imogen
{{Infobox film
| name           = Portrait of Imogen
| image          = 
| caption        = 
| director       = Meg Partridge
| producer       = Nancy Hale Meg Partridge
| writer         = 
| narrator       = 
| starring       = Imogen Cunningham
| music          = 
| cinematography = Meg Partridge Craig Withrow
| editing        = Claude Ibrahimoff
| distributor    = 
| released       = 1988
| runtime        = 30 minutes
| country        = United States 
| language       = English
| budget         = 
}}
 short documentary Best Documentary Short.   

==References==
 

==External links==
* 

 
 
 
 
 
 
 
 
 


 
 