A Little Vicious
 
{{Infobox film
| name           = A Little Vicious
| image          =
| caption        =
| director       = Immy Humes
| producer       = Immy Humes
| writer         =
| narrator       = Kevin Bacon
| music          =
| cinematography =
| editing        = Douglas Cheek
| distributor    =
| released       =  
| runtime        = 30 minutes
| country        = United States
| language       = English
| budget         =
}}
 short documentary Best Documentary Short.      

==References==
 

==External links==
* 

 
 
 
 
 
 
 
 
 
 
 
 


 