Chimps: So Like Us
 
{{Infobox film
| name           = Chimps: So Like Us
| image          = 
| caption        = 
| director       = Karen Goodman Kirk Simon
| producer       = Karen Goodman Kirk Simon
| writer         = 
| narrator       = 
| starring       = 
| music          = 
| cinematography = Kirk Simon Buddy Squires Gary Steele
| editing        = Sarah Stein
| distributor    = 
| released       =  
| runtime        = 
| country        = United States 
| language       = English
| budget         = 
}}
 short documentary Best Documentary Short.    The half hour film, shot on location in New York, Arizona and Tanzania, profiles the work of Jane Goodall. The film has been broadcast extensively on HBO.

==References==
 

==External links==
* 

 

 
 
 
 
 
 
 
 
 
 


 
 