Sunrise Over Tiananmen Square
 
{{Infobox film
| name           = Sunrise Over Tiananmen Square
| image          =
| caption        =
| director       = Shui-Bo Wang
| producer       = Don McWilliams
| writer         =
| narrator       = Shui-Bo Wang
| starring       =
| music          =
| cinematography = Pierre Landry Lynda Pelley
| editing        = Don McWilliams
| distributor    = National Film Board of Canada
| released       =  
| runtime        = 29 minutes
| country        = Canada
| language       = English
| budget         =
}}
 short animated Best Documentary The Personals.      

Other honours for the film included the Gemini Award for Best History/Biography Documentary program and the award for Best Short Documentary at Hot Docs. 

==References==
 

==External links==
* 
*  

 
 
 
 
 
 
 
 
 
 
 
 
 
 
 
 

 
 