Never Give Up: The 20th Century Odyssey of Herbert Zipper
 
{{Infobox film
| name           = Never Give Up: The 20th Century Odyssey of Herbert Zipper
| image          = 
| caption        = 
| director       = Terry Sanders
| producer       = Freida Lee Mock Terry Sanders
| writer         = Terry Sanders
| narrator       = 
| starring       = Herbert Zipper
| music          = 
| cinematography = 
| editing        = 
| distributor    = 
| released       =  
| runtime        = 40 minutes
| country        = United States Canada
| language       = English
| budget         = 
}} short documentary Best Documentary Short at the 68th Academy Awards in 1996.      

==References==
 

==External links==
* 

 
 
 
 
 
 
 
 
 
 
 
 
 
 
 