Blues Highway (film)
{{Infobox film
| name           = Blues Highway
| image          =
| caption        =
| director       = Bill Guttentag Vince DiPersio
| producer       = Vince DiPersio Bill Guttentag
| writer         = Vince DiPersio Bill Guttentag
| starring       =
| music          =
| cinematography =
| editing        = Jason Rosenfield
| distributor    =
| released       =  
| runtime        =
| country        = United States
| language       = English
| budget         =
}}
 short documentary Best Documentary Short.   

==References==
 

==External links==
* 

 
 
 
 
 
 
 
 
 


 