Family Video Diaries: Daughter of the Bride
 
{{Infobox film
| name           = Family Video Diaries: Daughter of the Bride
| image          = 
| caption        = 
| director       = Terri Randall
| producer       = Sheila Nevins Terri Randall
| writer         = Terri Randall
| narrator       = 
| starring       = 
| music          = 
| cinematography = Mark Trottenberg
| editing        = Juliet Weber
| distributor    = 
| released       =  
| runtime        = 30 minutes
| country        = United States 
| language       = English
| budget         = 
}} short documentary Best Documentary Short.      

==References==
 

==External links==
* 

 
 
 
 
 
 
 
 


 