Samaj Ko Badal Dalo
{{Infobox film
| name           = Samaj Ko Badal Dalo
| image          = 
| image_size     = 
| caption        = 
| director       = V. Madhusudhan Rao Gemini
| writer         =
| narrator       = 
| starring       =Ajay Sahni, Sarada, Pran, Kanhaiyalal, Prem Chopra, Mukri,  Kanchana, Dhumal, Aruna Irani Ravi
| cinematography = Tyagraj Pendharkar
| editing        = 
| distributor    = 
| released       = 1970
| runtime        = 
| country        = India Hindi
| budget         = 
| gross          = 
| preceded_by    = 
| followed_by    = 
| website        = 
}}
 1970 Bollywood drama film directed by V. Madhusudhan Rao. The film stars Ajay Sahni, Sharada, Pran, Kanhaiyalal, Prem Chopra, Mukri,  Kanchana, Dhumal (actor)|Dhumal, Aruna Irani. It is the Hindi version of the Telugu film "Manushulu Marali", which is a remake of the Malayalam movie, Thulabharam(1968) by A. Vincent.

==External links==
*  

 
 

 
 
 
 