Sabse Bada Sukh
{{Infobox film
| name           = Sabse Bada Sukh
| image          = 
| image_size     = 
| caption        = 
| director       = Hrishikesh Mukherjee
| producer       = 
| writer         =
| narrator       = 
| starring       = Naarghita
| music          = 
| cinematography = 
| editing        = 
| distributor    = 
| released       = 1972
| runtime        = 
| country        = India
| language       = Hindi
| budget         = 
| gross          = 
| preceded_by    = 
| followed_by    = 
}}
 1972 Bollywood drama film directed by Hrishikesh Mukherjee. 

==Cast==
*Vijay Arora ...  Shankar 
*G. Asrani ...  Asrani, Movie Director 
*Kumud Damle   
*Utpal Dutt ...  Vedji 
*Meeta Faiyyaz   
*Robi Ghosh ...  Lalloo 
*Tarun Ghosh ...  Pandit chacha 
*Sanjeev Kumar ...  Narrator 
*Keshto Mukherjee ...  Guide at railway station 
*Meena Rai   
*Rajnibala ...  Urvashi, Movie Actress 
*Tun Tun

==External links==
*  

 

 
 
 
 
 
 
 