Aankh Micholi
{{Infobox film
| name           = Aankh Micholi
| image          = Aankh Micholi.jpg
| image_size     = 
| caption        = 
| director       = Ravindra Dave
| producer       = 
| writer         =
| narrator       = 
| starring       =Mala Sinha and Shekar
| music          = 
| cinematography = 
| editing        = 
| distributor    = 
| released       = 1972
| runtime        = 
| country        = India Hindi
| budget         = 
| gross          = 
| preceded_by    = 
| followed_by    = 
| website        = 
}}
 1972 Bollywood drama film directed by Ravindra Dave. The film stars Mala Sinha and Shekar.

==External links==
*  

 
 
 
 
 

 
 