Thi Reeta
 

{{Infobox film
| name           = Thi Reeta
| image          = 
| image_size     = 
| caption        = 
| director       = 
| producer       = 
| writer         =
| narrator       = 
| starring       =Manmohan Krishna, Vinod Mehra and Tanuja 
| music          = 
| cinematography = 
| editing        = 
| distributor    = 
| released       = 1971
| runtime        = 
| country        = India Hindi
| budget         = 
| gross          = 
| preceded_by    = 
| followed_by    = 
| website        = 
}}
 1971 Bollywood drama film . The film stars Manmohan Krishna, Vinod Mehra and Tanuja .

==Cast==
 

==External links==
*  

 
 
 
 


 
 