Jai Jwala
{{Infobox film
| name           = Jai Jwala
| image          = 
| image_size     = 
| caption        = 
| director       = Manohar Deepak
| producer       = 
| writer         =
| narrator       = 
| starring       =
| music          = 
| cinematography = 
| editing        = 
| distributor    = 
| released       = 1972
| runtime        = 
| country        = India Hindi
| budget         = 
| gross          = 
| preceded_by    = 
| followed_by    = 
| website        = 
}}
 1972 Hindi drama film directed by Manohar Deepak. The film stars Sunil Dutt and Madhumati.

==External links==
*  

 
 
 
 

 
 