Rani Mera Naam
{{Infobox film
| name           = Rani Mera Naam
| image          = Rani Mera Naam.jpg
| image_size     = 
| caption        = 
| director       = K. S. R. Das
| producer       = R.N. Venkateswarlu & B. Sushila Devi
| writer         =
| narrator       = 
| starring       =Ashok Kumar, Prem Nath, Vijayalalita, Jayashree T., Faryal and Baby Sridevi
| music          = R.D. Burman
| cinematography = 
| editing        = K.S.R. Doss
| dialogue       = Raj Baldev Raj
| released       = 1972
| runtime        = 
| country        = India Hindi
| budget         = 
| gross          = 
| preceded_by    = 
| followed_by    = 
| website        = 
}}
 1972 Bollywood drama film directed by K. S. R. Das. The film stars Ashok Kumar and Prem Nath . 

==Cast==
*Vijayalalitha   
*Ajit   
*Madan Puri    Anwar Hussain   
*Natraj   
*Iftekhar   
*Jagdeep

==External links==
*  

 

 
 

 
 
 
 