Sansar (1971 film)
{{Infobox film
| name           = Sansar
| image          = 
| image_size     = 
| caption        = 
| director       = Dilip Bose
| producer       = 
| writer         =
| narrator       = 
| starring       = Navin Nischol Anupama Nirupa Roy
| music          = 
| cinematography = 
| editing        = 
| distributor    = 
| released       = 1971
| runtime        = 
| country        = India Hindi
| budget         = 
| gross          = 
| preceded_by    = 
| followed_by    = 
| website        = 
}}
 1971 Bollywood drama film directed by Dilip Bose. The film stars Navin Nischol, Anupama and Nirupa Roy. 
The music score for this movie was by Chitragupta. Poet   and Asha Bhonsle) and Haathon Mein Kitaab Baalon Mein Gulaab (Kishore Kumar)

==External links==
*  

 
 

 
 
 
 