Jai Bangladesh
{{Infobox film
| name           = Jai Bangladesh
| image          = Jai Bangladesh.jpg
| image_size     = 
| caption        = 
| director       = I.S. Johar
| producer       = 
| writer         =
| narrator       = 
| starring       =Kabari Choudhury and Dilip Dutt Special Appearance Ramesh Johar
| music          = 
| cinematography = 
| editing        = 
| distributor    = 
| released       = 1971
| runtime        = 
| country        = India Hindi
| budget         = 
| gross          = 
| preceded_by    = 
| followed_by    = 
| website        = 
}}
 1971 Bollywood military drama film directed by I.S. Johar. The film stars Kabari Choudhury and Dilip Dutt .

==Cast==
*Kabari Choudhury   
*Dilip Dutt   
*Ambika Johar   
*I.S. Johar   
*Madhumati

==External links==
*  

 
 
 
 


 
 