Pyaar Diwana
{{Infobox film
| name           = Pyaar Diwana
| image          = Pyaar Diwana.jpg
| image_size     =
| caption        = 
| director       = Samar Chatterjee
| producer       = 
| writer         =
| narrator       =  Mumtaz 
| music          = 
| cinematography = 
| editing        = 
| distributor    = 
| released       = 1972
| runtime        = 
| country        = India Hindi
| budget         = 
| gross          = 
| preceded_by    = 
| followed_by    = 
| website        = 
}}
 1972 Bollywood Mumtaz .

==Cast== Mumtaz ...  Mamta 
*Iftekhar   
*Padma Khanna   
*Kishore Kumar ...  Sunil  Sunder ...  Dr. Sunder 
 
==External links==
*  
 
 

 
 
 
 