Parchhaiyan (film)
{{Infobox film
| name           = Parchhaiyan
| image          = 
| image_size     = 
| caption        = 
| director       = Sharankumar Chand
| producer       = 
| writer         =
| narrator       =  Bindu
| music          = 
| cinematography = 
| editing        = 
| distributor    = 
| released       = 1972
| runtime        = 
| country        = India Hindi
| budget         = 
| gross          = 
| preceded_by    = 
| followed_by    = 
| website        = 
}}
 1972 Bollywood drama film directed by Sharankumar Chand. The film stars Vinod Khanna and Bindu (actress)|Bindu.

==Cast== Bindu   
*Mohan Choti   
*Iftekhar   
*Vinod Khanna   
*Sujit Kumar   
*Indrani Mukherjee    Murad   
*Ranjeet   
*Reshma   
*Sajjan   
*Meena Talpade 

==External links==
*  

 
 

 
 
 
 