Subah-o-Shyam
{{Infobox film
| name           = Subah-o-Shaam
| image          = 
| image_size     = 
| caption        = 
| director       = Tapi Chanakya
| producer       = 
| writer         =Kaushal Bharati  Som Haksar 
| narrator       = 
| starring       = Sanjeev Kumar  Waheeda Rehman
| music          = Laxmikant-Pyarelal
| cinematography = 
| editing        = 
| distributor    = 
| released       = 1972
| runtime        = 
| country        = India Hindi
| budget         = 
| gross          = 
| preceded_by    = 
| followed_by    = 
| website        = 
}}

Subah-o-Sham is an Indo Iranian Bollywood films of 1972 Bollywood drama film directed by Tapi Chanakya.

==Cast==
*Azar   
*Simin Ghaffari   
*Irene Zazians   
*Kahnmoi   
*Mohammad Ali Fardin ...  Aarun 
*Meeri Kiukas  (as Meeri) 
*Sanjeev Kumar ...  Naseer 
*Loretta   
*Paiman ...  Romil 
*Rafiee ...  Razaaq  
*Rafi    
*Waheeda Rehman ...  Shirin 
*Mir Mohammad Tajaddod 
*Tehrani  

==External links==
*  

 
 
 
 

 
 