Samaanta
{{Infobox film
| name           = Samaanta
| image          = 
| image_size     = 
| caption        = 
| director       = Nitin Bose
| producer       = 
| writer         =
| narrator       = 
| starring       =
| music          = 
| cinematography = 
| editing        = 
| distributor    = 
| released       = 1972
| runtime        = 
| country        = India Hindi
| budget         = 
| gross          = 
| preceded_by    = 
| followed_by    = 
| website        = 
}}
 1972 Bollywood drama film directed by Nitin Bose. 

==Cast==
*Ashoo   
*Dheeraj Kumar   
*Snehlata 

==External links==
*  

 
 
 
 

 
 