Beharoopia
{{Infobox film
| name           = Beharoopia
| image          = 
| image_size     = 
| caption        = 
| director       = Rajesh Nanda
| producer       = 
| writer         =
| narrator       =  Helen
| music          = 
| cinematography = 
| editing        = 
| distributor    = 
| released       = 1971
| runtime        = 
| country        = India Hindi
| budget         = 
| gross          = 
| preceded_by    = 
| followed_by    = 
| website        = 
}}
 1971 Bollywood fantasy film directed by Rajesh Nanda. The film stars Helen Jairag Richardson|Helen.

==Cast==
*Helen Jairag Richardson|Helen.   
*Hiralal   
*Dheeraj Kumar   
*Snehlata

==External links==
*  

 
 
 
 


 
 