Shayar-e-Kashmir Mahjoor
{{Infobox film
| name           = Shayar-e-Kashmir Mahjoor
| image          = 
| image_size     = 
| caption        = 
| director       = Prabhat Mukherjee
| producer       = 
| writer         =
| narrator       = 
| starring       =
| music          = 
| cinematography = 
| editing        = 
| distributor    = 
| released       = 1972
| runtime        = 
| country        = India Hindi
| budget         = 
| gross          = 
| preceded_by    = 
| followed_by    = 
| website        = 
}}
 1972 Bollywood biographical drama film directed by Prabhat Mukherjee. The film stars Balraj Sahni.

The film is a biography of Kashmiri poet Ghulam Ahmed Mahjoor.

==External links==
*  

 
 
 
 

 
 