Ek Nazar
{{Infobox film
| name           = Ek Nazar
| image          = Ek Nazar.jpg
| image_size     = 
| caption        = 
| director       =B.R. Ishara 
| producer       = 
| writer         =
| narrator       = 
| starring       =Amitabh Bachchan, Jaya Bachchan and Nadira
| music          = Laxmikant Pyarelal
| cinematography = 
| editing        = 
| distributor    = 
| released       = 1972
| runtime        = 
| country        = India Hindi
| budget         = 
| gross          = 
| preceded_by    = 
| followed_by    = 
| website        = 
}}
 1972 Bollywood romance film directed by B.R. Ishara. The film stars Amitabh Bachchan, Jaya Bachchan and Nadira.

==Cast==
*Amitabh Bachchan ...  Manmohan Akash Tyagi
*Jaya Bhaduri ...  Shabnam
*Nadira ...  Aminabai
*Tarun Bose ...  Raghunath Tyagi
*Manmohan Krishna Asit Sen ...  Popatlal Begana Dulari ...  Kalavati Kailashnath Sudhir ...  Deepak (Deepu) / Nawab Shaukatjung
*Johnny Whisky Rashid Khan
*Hari Shukla
*Daya Devi
*Kamala
*Raja Duggal
*Hameed
*Raza Murad...  Ashok Bhaiya (Amitabh Bachchan friend posed as lawyer)

==External links==
*  

 
 
 
 
 


 
 