Do Boon Pani
{{Infobox film
| name           = Do Boon Pani
| image          = 
| image_size     = 
| caption        = 
| director       = Khwaja Ahmad Abbas  
| producer       = 
| writer         =
| narrator       = 
| starring       =Simi Garewal
| music          = 
| cinematography = 
| editing        = 
| distributor    = 
| released       = 1971
| runtime        = 141 minutes
| country        = India Hindi
| budget         = 
| gross          = 
| preceded_by    = 
| followed_by    = 
| website        = 
}}
 1971 Bollywood drama film directed by Khwaja Ahmad Abbas. The film stars Simi Garewal and Madhu Chanda.

==Cast==
* Jalal Agha ...  Ganga Singh
* Madhu Chanda ...  Sonki
* Simi Garewal ...  Gauri
* Sajjan ...  Hari Singh
* Prakash Thapa ...  Mangal Singh

==External links==
*  

 
 
 
 

 
 