Do Bachche Dus Haath
{{Infobox film
| name           = Do Bachche Dus Haath
| image          = 
| image_size     = 
| caption        = 
| director       = Kalpataru Nasir
| producer       = 
| writer         =
| narrator       = 
| starring       =Ahmad Ansari and Prem Nath
| music          = 
| cinematography = 
| editing        = 
| distributor    = 
| released       = 1972
| runtime        = 
| country        = India Hindi
| budget         = 
| gross          = 
| preceded_by    = 
| followed_by    = 
| website        = 
}}
 1972 Bollywood drama film directed by Kalpataru Nasir. The film stars Ahmad Ansari and Prem Nath. 

==External links==
*  

 
 

 
 
 
 