Sultana Daku
{{Infobox film
| name           = Sultana Daku
| image          = 
| image_size     = 
| caption        = 
| director       = Mohammed Hussain
| producer       = 
| writer         =
| narrator       = 
| starring       =Helen Jairag Richardson and Dara Singh 
| music          = 
| cinematography = 
| editing        = 
| distributor    = 
| released       = 1972
| runtime        = 
| country        = India Urdu
| budget         = 
| gross          = 
| preceded_by    = 
| followed_by    = 
| website        = 
}}
 1972 Bollywood drama film directed by Mohammed Hussain. The film stars Helen Jairag Richardson and Dara Singh .

==See also==
*The Confession of Sultana Daku

==External links==
*  

 
 
 
 
 
 


 
 