Tillie Olsen: A Heart in Action
 

{{Infobox film
| name           = Tillie Olsen: A Heart in Action
| image          =
| image_size     =
| caption        = Filmmaker Ann Hershey and Tillie Olsen
| director       = Ann Hershey
| producer       = Ann Hershey
| writer         =
| narrator       =
| starring       = Tillie Olsen
| music          =
| cinematography =
| editing        =
| distributor    = Women Make Movies 2007
| runtime        = 66 minutes
| country        = United States
| language       = English
| budget         =
| preceded_by    =
| followed_by    =
| website        =
}}

Tillie Olsen: A Heart in Action is a   (1974). The film includes extensive interviews with Olsen and with prominent fans of her work, including writers Alice Walker and Florence Howe and feminist political leader Gloria Steinem.  

==References==
 

==External links==
* 
* 

 
 
 


 
 