A Fowl Proceeding
{{Infobox film
| name           = A Fowl Proceeding
| image          =
| caption        =
| director       = Leslie S. Hiscott
| producer       = George A. Cooper
| writer         = Thomas le Breton
| screenplay     =
| story          =
| based on       =
| starring       = Sydney Fairbrother Irene Tripod
| cinematography =
| editing        =
| studio         =
| distributor    =
| released       =  
| runtime        =
| country        = United Kingdom
| language       =
| budget         =
| gross          =
}}
 short comedy film directed by Leslie S. Hiscott and featuring Sydney Fairbrother and Irene Tripod.

==External links==
*  

 
 
 
 
 
 
 


 
 