Next Time Ned
 
{{Infobox film
| name           = Next Time Ned
| image          = 
| alt            =  
| caption        = 
| director       = Thomas McCue
| producer       = Thomas McCue   Raymond Mearns
| writer         = Thomas McCue
| starring       = Raymond Mearns  Iain Robertson
| music          = Woodenbox, Raymond Mearns
| cinematography = Sean Walker
| editing        = 
| studio         = 
| distributor    = 
| released       =  
| runtime        = 80 minutes
| country        = United Kingdom
| language       = English
| budget         = £ 3,000
| gross          = 
}} Thomas McCue and starring Raymond Mearns.     It featured Glasgow band San Sebastian on its soundtrack. The theme tune of "I belong to Glasgow" was recorded by Glasgow band Funkilicious.  The film was premiered on 8 May 2009 at Jumping Jaks in Glasgow.

==References==
 
 

 
 
 


 