Pandit Aur Pathan
{{Infobox film
| name           = Pandit Aur Pathan
| image          = Pandit Aur Pathan.jpg
| image_size     = 
| caption        =  Joginder Shelly
| producer       = 
| writer         =
| narrator       =  Agha
| music          = 
| cinematography = 
| editing        = 
| distributor    = 
| released       = 1977
| runtime        = 
| country        = India Hindi
| budget         = 
| gross          = 
| preceded_by    = 
| followed_by    = 
| website        = 
}}
 1977 Bollywood Joginder Shelly.

==Cast== Agha ...  Hairan 
*Rajan Haksar ...  Police Inspector  Helen ...  Salma 
*Nazir Hussain ...  Roopas blind dad 
*Dheeraj Kumar ...  Birju 
*Kiran Kumar ...  Inspector Anand  Mehmood ...  Shankar 
*Ram Mohan...  Ramzan 
*Mukri ...  Parheshan 
*Nazneen ...  Radha 
*Joginder Shelly ...  Sher Sheroo Khan (as Joginder) 
*Jayshree T. ...  Chamakchalho 
*Meena T. ...  Roopa 
*Tun Tun ...  Champakali

==External links==
*  

 
 
 
 


 
 