Kaagaz Ki Nao
{{Infobox film
| name           = Kaagaz Ki Nao
| image          = 
| image_size     = 
| caption        = 
| director       = B. R. Ishara
| producer       = 
| writer         =
| narrator       = 
| starring       =
| music          = 
| cinematography = 
| editing        = 
| distributor    = 
| released       = 1975
| runtime        = 
| country        = India Hindi
| budget         = 
| gross          = 
| preceded_by    = 
| followed_by    = 
| website        = 
}}
 1975 Bollywood film directed by B. R. Ishara. 

==Cast== Raj Kiran   
*Pradeep Kumar   
*Sarika 

==External links==
*  

 
 
 

 