Jeevan Sangram
{{Infobox film
| name           = Jeevan Sangram
| image          = 
| image_size     = 
| caption        = 
| director       = 
| producer       = 
| writer         =
| narrator       = 
| starring       =
| music          = 
| cinematography = 
| editing        = 
| distributor    = 
| released       = 1974
| runtime        = 
| country        = India Hindi
| budget         = 
| gross          = 
| preceded_by    = 
| followed_by    = 
| website        = 
}}
 1974 Bollywood drama film.

==Cast==
*Jalal Agha   
*Iftekhar ...  Police Inspector 
*Shashi Kapoor ...  Arjun 
*Padma Khanna   
*Manmohan   
* Tarun Bose as Kirpal
*Ram Mohan    Murad   
*Radha Saluja ...  Amba  Asit Sen  
*Om Shivpuri

==External links==
*  

 
 
 
 

 
 