Nai Duniya Naye Log
{{Infobox film
| name           = Nai Duniya Naye Log
| image          = 
| image_size     = 
| caption        = 
| director       = B.R.Ishara 
| producer       = 
| writer         =
| narrator       = 
| starring       =Danny Denzongpa 
| music          = 
| cinematography = 
| editing        = 
| distributor    = 
| released       = 1973
| runtime        = 
| country        = India Hindi
| budget         = 
| gross          = 
| preceded_by    = 
| followed_by    = 
| website        = 
}}
 1973 Bollywood drama film directed by B.R.Ishara. The film stars Reena Roy and Danny Denzongpa in their first film roles.

==Cast==
*Reena Roy ...  Sandhya 
*Satyen   
*Danny Denzongpa   
*Manmohan Krishna   
*Nadira 

==External links==
*  

 
 
 
 

 
 