Balak Aur Janwar
{{Infobox film
| name           = Balak Aur Janwar
| image          = 
| image_size     = 
| caption        = 
| director       = Nanabhai Bhatt
| producer       = 
| writer         =
| narrator       = 
| starring       =
| music          = 
| cinematography = 
| editing        = 
| distributor    = 
| released       = 1975
| runtime        = 
| country        = India Hindi
| budget         = 
| gross          = 
| preceded_by    = 
| followed_by    = 
| website        = 
}}
 1975 Bollywood film directed by Nanabhai Bhatt. 

==Cast==
*Mohan Choti    Dulari   
*Alankar Joshi   
*Kanan Kaushal   
*Baldev Khosa   
*Usha Solanki 

==External links==
*  

 
 
 

 