Insaaniyat
{{Infobox film
| name           = Insaaniyat
| image          = Insaaniyat74.jpg
| image_size     =
| caption        = 
| director       = Prayag Raj
| producer       = 
| writer         =
| narrator       = 
| starring       =Shashi Kapoor 
| music          =Shankar-Jaikishan
| cinematography = 
| editing        = 
| distributor    = 
| released       = 1974
| runtime        = 
| country        = India Hindi
| budget         = 
| gross          = 
| preceded_by    = 
| followed_by    = 
| website        = 
}}
 1974 Bollywood drama film directed by Prayag Raj. The film stars Shashi Kapoor.

==Cast==
*Shashi Kapoor ...  Dilip 
*Sujit Kumar ...  Ram  Jayant ...  Raghuvir / Diwan 
*Jagdeep ...  Abdulla 
*Durga Khote ...  Rams mom 
*Krishan Dhawan ...  Ramu 
*Roopesh Kumar ...  Girdharilal 
*Kamal Kapoor ...  Judge - Dilips dad 
*Pinchoo Kapoor ...  John 
*Viju Khote ...  Circus employee (as Biju Khote) 
*Sulochana Latkar ...  Dilips mom 
*Madhu   
*Jagdish Raj ...  Police Inspector Ramesh 
*Hari Shivdasani ...  Poonamchand 
*Lata Sinha   
*Kumud Tripathi ...  Asha 

==External links==
*  

 
 
 
 

 
 