Darwaza
 
{{Infobox film
| name           = Darwaza
| image          = Darwazafilm.jpg
| image_size     =
| caption        = 
| director       =  Shyam Ramsay and Tulsi Ramsay
| producer       = 
| writer         = Kumar Ramsay
| narrator       = 
| starring       =Anil Dhawan
| screenplay     =Kumar Ramsay 
| cinematography = 
| editing        = 
| distributor    = 
| released       = 1978
| runtime        = 
| country        = India Hindi
| budget         = 
| gross          = 
| preceded_by    = 
| followed_by    = 
| website        = 
}}
 1978 Bollywood horror film directed by Shyam Ramsay and Tulsi Ramsay. The film stars Anil Dhawan.

==Cast==
*Anil Dhawan ...  Suraj Singh 
*Imtiaz Khan ...  Shakaal (as Imtiaz) 
*Anju Mahendru ...  Reshma 
*Shakti Kapoor ...  Goga 
*Sheetal ...  Shaila 
*Krishan Dhawan ...  Rachnas Father 
*Trilok Kapoor   
*Kumud Tripathi   
*Appi Umrani   
*D.K. Sapru ...  Sardar (as Sapru)  Randhir   
*Bhagwan Dada ...  Last man to fall in the mud 
*Satyendra Kapoor ...  Ganga (as Satyendra Kappu) 
*Rakesh Pandey

==External links==
*  

 
 
 
 


 
 