Maan Apmaan
{{Infobox film
| name           = Maan Apmaan
| image          = 
| image_size     = 
| caption        = 
| director       = N.V. Deshpande
| producer       = 
| writer         =
| narrator       = 
| starring       =
| music          = Laxmikant-Pyarelal
| cinematography = 
| editing        = 
| distributor    = 
| released       = 1979
| runtime        = 
| country        = India Hindi
| budget         = 
| gross          = 
| preceded_by    = 
| followed_by    = 
| website        = 
}}
 1979 Bollywood film directed by N.V. Deshpande. 

==Cast==
*Mohan Choti ...  Makhan 
*Dhumal (actor)|Dhumal...  Makhans maternal uncle 
*Gajanan Jagirdar ...  Parvatis dad 
*Kanan Kaushal ...  Parvati (Paro) 
*Sanjeev Kumar ...  Shankar 
*Vishwa Mehra   
*Ratnamala ...  Laxmi (Paros mom)  Asit Sen ...  Ramdas (Dasu) 
*Shammi ...  Mrs. Ramdas 
*Usha Solanki ...  Savitri Dhumal ... Makhans maternal uncle

==External links==
*  

 
 
 
 
 