Do Chattane
{{Infobox film
| name           = Do Chattane
| image          = Do Chattane.jpg
| image_size     = 
| caption        = 
| director       = G. H. Sarin
| producer       = 
| writer         =
| narrator       = 
| starring       =
| music          = 
| cinematography = 
| editing        = 
| distributor    = 
| released       = 1974
| runtime        = 
| country        = India Hindi
| budget         = 
| gross          = 
| preceded_by    = 
| followed_by    = 
| website        = 
}}
 1974 Bollywood action film directed by G. H. Sarin.

==Cast== Vikram ...  Rana
*Rakesh Pandey ...  Ramzan
*Asha Sachdev ...  Asha
*Aruna Irani ...  Aruna
*Om Prakash ...  Pagal Chacha
*Alka ...  Farida
*Chandrashekhar ...  Abdul
*V. Gopal ...  Radheyshyam
*Jankidas ...  Dhanirams associate
*D.K. Sapru ...  Dhaniram
*Joginder| Joginder Shelly ...  Raka (as Joginder) Sunder ...  Sitaram

==External links==
*  

 
 
 
 


 
 