Chaani
 
{{Infobox film
| name           = Chaani
| image          = 
| image_size     = 
| caption        = 
| director       = Shantaram Rajaram Vankudre  (V. Shantaram)
| producer       = Shantaram Rajaram Vankudre  (V. Shantaram)
| writer         =
| narrator       = 
| starring       = Ranjana Deshmukh, Siddharth Ray (Sushant Ray)
| music          = Hridaynath Mangeshkar
| cinematography = 
| editing        = 
| distributor    = 
| released       = 1977
| runtime        = 
| country        = India Hindi
| budget         = 
| gross          = 
| preceded_by    = 
| followed_by    = 
| website        = 
}}
 1977 Bollywood film directed by Rajaram Vankudre Shantaram. 
this film songs lyrics are written by famous poeter Mr. Chintamani Tryambak Khanolkar aka Arti Prabhu 
==Cast== Ranjana as Channi 
*Siddharth Ray
*Yashvant Dutt

==External links==
*  

 
 
 
 