Jeena Yahan
{{Infobox film
| name           = Jeena Yahan
| image          = 
| image_size     = 
| caption        = 
| director       = Basu Chatterjee
| producer       = 
| writer         =
| narrator       = 
| starring       =
| music          = Salil Chowdhury
| cinematography = 
| editing        = 
| distributor    = 
| released       = 1979
| runtime        = 
| country        = India Hindi
| budget         = 
| gross          = 
| preceded_by    = 
| followed_by    = 
| website        = 
}}
 1979 Bollywood film directed by Basu Chatterjee.

Produced by N.P Ali/Jamu Pictures
==Cast==
*Shekhar Kapur
*Shabana Azmi
*Dina Pathak Sunder
*Purohit
*Arvind Deshpande
*Devendra Khandelwal  (as Devendra)
*Kiran Vairale
*V.K. Pathak
*Amol Palekar ...  Guest Appearance
*Zarina Wahab ...  Guest Appearance
*Vidya Sinha ...  Guest

==External links==
*  
 

 

 
 
 