Kahani Hum Sab Ki
{{Infobox film
| name           = Kahani Hum Sab Ki
| image          = 
| image_size     = 
| caption        = 
| director       = Rajkumar Kohli
| producer       = 
| writer         =
| narrator       = 
| starring       =Lalita Pawar and Mala Sinha
| music          = 
| cinematography = 
| editing        = 
| distributor    = 
| released       = 1973
| runtime        = 
| country        = India Hindi
| budget         = 
| gross          = 
| preceded_by    = 
| followed_by    = 
| website        = 
}}
 1973 Bollywood drama film directed by Rajkumar Kohli. The film stars Lalita Pawar and Mala Sinha .

==Cast==
*Roopesh Kumar   
*Lalita Pawar   
*Mala Sinha 

==External links==
*  

 
 
 
 
 

 
 