Ladki Jawan Ho Gayi
{{Infobox film
| name           = Ladki Jawan Ho Gayi
| image          = 
| image_size     = 
| caption        = 
| director       =Anand Dasani 
| producer       = 
| writer         =
| narrator       = 
| starring       =
| music          = 
| cinematography = 
| editing        = 
| distributor    = 
| released       = 1977
| runtime        = 
| country        = India Hindi
| budget         = 
| gross          = 
| preceded_by    = 
| followed_by    = 
| website        = 
}}
 1977 Bollywood film directed by Anand Dasani. 

==Cast==
*Sunil Dutt   
*Sujit Kumar    Manorama 

==External links==
*  

 
 
 
 