Sewak
 
{{Infobox film
| name           = Sewak
| image          = 
| image_size     = 
| caption        = 
| director       =S. M. Abbas 
| producer       = 
| writer         =
| narrator       = 
| starring       =
| music          = 
| cinematography = 
| editing        = 
| distributor    = 
| released       = 1975
| runtime        = 
| country        = India Hindi
| budget         = 
| gross          = 
| preceded_by    = 
| followed_by    = 
| website        = 
}}
 1975 Bollywood film directed by S. M. Abbas. 

==Cast== Bindu   
*Vinod Khanna   
*Kumari Naaz   
*Ranjeet   
*Shyama   
*Neetu Singh    Johnny Walker 

==External links==
*  

 
 
 
 

 