Dhuen Ki Lakeer
{{Infobox film
| name           = Dhuen Ki Lakeer
| image          = 
| image_size     = 
| caption        = 
| director       = Kishore Sahu
| producer       = 
| writer         =
| narrator       = 
| starring       =Ramesh Aurora and Parveen Babi
| music          = 
| cinematography = S.N.Dubey
| editing        = 
| distributor    = 
| released       = 1974
| runtime        = 
| country        = India Hindi
| budget         = 
| gross          = 
| preceded_by    = 
| followed_by    = 
| website        = 
}}
 1974 Bollywood drama film directed by Kishore Sahu. The film stars Ramesh Aurora and Parveen Babi.

==Cast==
*Ramesh Aurora   
*Parveen Babi   
*Urmila Bhatt   
*Preeti Ganguli 

==External links==
*  

 

 
 
 
 
 

 
 