Hum Tere Aashiq Hain
{{Infobox film
| name           = Hum Tere Aashiq Hain
| image          = Hum Tere Ashiq Hain.jpg
| image_size     = 
| caption        = 
| director       = Prem Sagar
| producer       = Prem Sagar	
| writer         =
| narrator       = 
| starring       =Jeetendra Hema Malini
| music          = Ravindra Jain
| cinematography = 
| editing        = 
| distributor    = 
| released       = 1979
| runtime        = 
| country        = India Hindi
| budget         = 
| gross          = 
| preceded_by    = 
| followed_by    = 
| website        = 
}}
 1979 Bollywood film produced and directed by Prem Sagar. It stars Jeetendra and Hema Malini in pivotal roles. 

==Cast==
*Jeetendra ...  Dr. Anand 
*Hema Malini ...  Ramkali 
*Amjad Khan ...  Thakur Shamsher Singh 
*Shreeram Lagoo ...  Dr. Pradhan 
*Om Shivpuri ...  Sardar Santhalu 
*Sujit Kumar ...  Legal Advisor Jackson 
*Sheetal ...  Lalita 
*Keshto Mukherjee ...  Mukherjee 
*Birbal ...  Khushiram 
*Ram Sethi ...  Nawab Mirza Bahadur Dauliya
*Jankidas ...  Thakurs Munim 
*Mac Mohan ...  Kaalia 
*Shammi ...  Teacher

==External links==
*  

 
 
 
 