Umar Qaid
{{Infobox film
| name           = life Sentence
| image          = Umar Qaid.jpg
| image_size     = 260px
| caption        = 
| director       = Sikandar Khanna
| producer       = 
| writer         =
| narrator       = 
| starring       =
| music          = Sonik-Omi
| cinematography = 
| editing        = 
| distributor    = 
| released       = 1975
| runtime        = 
| country        = India Hindi
| budget         = 
| gross          = 
| preceded_by    = 
| followed_by    = 
| website        = 
}}
 1975 Bollywood action film directed by Sikandar Khanna. The film stars Sunil Dutt, Jeetendra, Vinod Mehra, Moushumi Chatterjee, Reena Roy, etc.

==Cast==
*Sunil Dutt		
*Jeetendra		
*Vinod Mehra		
*Moushumi Chatterjee	
*Reena Roy		
*Anju Mahendru		
*Asrani	
*Kader Khan		
*Krishan Dhawan	
*Om Shivpuri

==External links==
*  

 
 
 

 