Ghulam Begam Badshah
{{Infobox film
| name           = Ghulam Begam Badshah
| image          = Ghulam Begam Badshah.jpg
| image_size     = 
| caption        =  Jambu
| producer       = Govindram Ahuja Sudesh Kumar
| writer         = 
| narrator       = 
| starring       = Shatrughan Sinha Moushumi Chatterjee
| music          = Kalyanji-Anandji
| cinematography = 
| editing        = 
| studio         = 
| distributor    = 
| released       = 
| runtime        = 
| country        = India
| language       = Hindi
| budget         = 
| gross          = 
| preceded_by    = 
| followed_by    = 
| website        = 
}}
 1973 Bollywood drama film directed by Jambu. The film stars Shatrughan Sinha and Anil Dhawan.

==Cast==
*Shatrughan Sinha...  Thakur Pratap
*Anil Dhawan ...  Thakur Gopal
*Moushumi Chatterjee ...  Laxmi (as Maushumi Chatterji)
*Kumud Chuggani ...  Kesar (as Kumud Chugani)
*Sudesh Kumar ...  Shyam (as Soodesh Kumar) David Abraham...  Thakur Balwant (as David) Sunder ...  Hanuman Randhir ...  Munimji
*Pinchoo Kapoor ...  Ranjeet
*Meena T. ...  Harbhajans Wife Neelam  (as Neelum)
*Leena
*Jagdish Raj ...  Card Player
*Rajan Kapoor
*Raj Joshi

==External links==
*  

 
 
 
 
 

 
 