Himalay Se Ooncha
{{Infobox film
| name           = Himalay Se Ooncha
| image          = Himalay Se Ooncha.jpg
| image_size     = 
| caption        = 
| director       = B.S. Thapa
| producer       = 
| writer         =
| narrator       = 
| starring       = Sunil Dutt
| music          = Kalyanji Anandji
| cinematography = 
| editing        = 
| distributor    = 
| released       = 1975
| runtime        = 
| country        = India Hindi
| budget         = 
| gross          = 
| preceded_by    = 
| followed_by    = 
| website        = 
}}
Himalay Se Ooncha is a 1975 Hindi action film directed by B.S. Thapa. The film stars Sunil Dutt.

==Cast==
*Sunil Dutt ...  Vijay
*Mallika Sarabhai ...  Kanchan
*Ranjeet ...  Ranjeet
*Rakesh Pandey ...  Captain George
*Raju Desai ...  Raju
*Master Bittoo ...  Bittoo
*Nandita Thakur ...  Geeta Sharma Shiv Kumar ...  Bhushan
*P. Jairaj ...  Chief of Kathmandu Tower Randhir ...  Plane Passenger who requested for soil
*Ram Sethi ...   Plane passenger who tested calling button Sunder ...  Plane Passenger who recognized Devraj by guess
*Ram Mohan ...  Ram Singh
*Karan Dewan
*M. Rajan ...  Mr. Verma
*Jankidas ...  Plane Passenger with a book in his hand

==Music==
The music was composed by Kalyanji-Anandji.

==External links==
*  

 
 
 
 
 
 


 
 