Shaayad
{{Infobox film
| name           = Shaayad
| image          = 
| image_size     = 
| caption        = 
| director       = 
| producer       = 
| writer         = Jai Prakash Chowksey
| narrator       = 
| starring       =
| music          = 
| cinematography = 
| editing        = 
| distributor    = 
| released       = 1979
| runtime        = 
| country        = India Hindi
| budget         = 
| gross          = 
| preceded_by    = 
| followed_by    = 
| website        = 
}}
 1979 Bollywood film starring Neeta Mehta, Vijayendra Ghatge, Om Puri and Naseeruddin Shah.

==External links==
*  

 
 
 
 