Sharafat Chod Di Maine
{{Infobox film
| name           = Sharafat Chod Di Maine
| image          = Sharafat Chod Di Maine.jpg
| image_size     = 
| caption        = 
| director       = Jagdev Bhambri
| producer       = 
| writer         =
| narrator       = 
| starring       =
| music          = 
| cinematography = 
| editing        = 
| distributor    = 
| released       = 1976
| runtime        = 
| country        = India Hindi
| budget         = 
| gross          = 
| preceded_by    = 
| followed_by    = 
| website        = 
}}
 1976 Bollywood film directed by Jagdev Bhambri. 

==Cast==
*Abhi Bhattacharya    Bindu   
*Jagdeep   
*Feroz Khan   
*Padma Khanna   
*Dev Kumar   
*Dheeraj Kumar   
*Hema Malini   
*Neetu Singh   
*Jayshree T. 

==External links==
*  

 
 
 

 