Sampark
 

{{Infobox film
| name           = Sampark
| image          = 
| image_size     = 
| caption        = 
| director       = 
| producer       = 
| writer         =
| narrator       = 
| starring       =
| music          = 
| cinematography = 
| editing        = 
| distributor    = 
| released       = 1979
| runtime        = 
| country        = India Hindi
| budget         = 
| gross          = 
| preceded_by    = 
| followed_by    = 
| website        = 
}}
 1979 Bollywood Mazhar Khan.

==Cast==
* Madhu Kapoor - Manniya
* Girish Karnad - Heera Mazhar Khan - Brindavan Biharilal
* Kulbhushan Kharbanda - Ram Pyare Misra
* Rameshwari - Champa
* Anjan Srivastav - Gokul
* Jayshree T. - Dancer

==External links==
*  

 
 
 
 