Dooriyaan
 
{{Infobox film
| name           = Dooriyaan
| image          = Dooriyaanfilm.jpg
| image_size     = 
| caption        = Vinyl Record Cover
| director       = Bhimsain Khurana
| producer       = 
| writer         =
| narrator       = 
| starring       = 
| music          = Jaidev
| cinematography = 
| editing        = 
| distributor    = 
| released       = 1979
| runtime        = 
| country        = India Hindi
| budget         = 
| gross          = 
| preceded_by    = 
| followed_by    = 
| website        = 
}}
 1979 Bollywood film directed by Bhimsain Khurana.

==Cast==
*Uttam Kumar
*Sharmila Tagore
*Shreeram Lagoo
*Jalal Agha
*Kireet Khurana ...  Moju
* Sulabha Deshpande
* Arvind Deshpande
*Priyadarshinee

==External links==
*  

 
 
 
 

 