Chakkar Pe Chakkar
{{Infobox film
| name           = Chakkar Pe Chakkar
| image          = Chakkar Pe Chakkar.jpg
| image_size     =
| caption        = 
| director       = Ashok Roy
| producer       = 
| writer         =
| narrator       =  Pran Amjad Khan
| music          = 
| cinematography = 
| editing        = 
| distributor    = 
| released       = 1977
| runtime        = 
| country        = India Hindi
| budget         = 
| gross          = 
| preceded_by    = 
| followed_by    = 
| website        = 
}}
 1977 Bollywood romantic comedy film directed by Ashok Roy. The film stars Shashi Kapoor and Rekha.

==Cast==
*Shashi Kapoor ...  Ravi Kumar 
*Rekha ...  Shila Sahini 
*Raza Murad    Pran   
*Madan Puri   
*Lalita Pawar    Bindu   
*Bhagwan   
*G. Asrani   
*Amjad Khan   
*Kumari Naaz  

==External links==
*  

 
 
 
 
 

 
 