Mehmaan
{{Infobox film
| name           = Mehmaan
| image          = Mehmaan.jpg
| image_size     =
| caption        = 
| director       = Kotayya Pratyagatma
| producer       = 
| writer         =
| narrator       = 
| starring       =Rekha and Leela Chitwas
| music          = 
| cinematography = 
| editing        = 
| distributor    = 
| released       = 1973
| runtime        = 
| country        = India Hindi
| budget         = 
| gross          = 
| preceded_by    = 
| followed_by    = 
| website        = 
}}
 1973 Bollywood crime film directed by Kotayya Pratyagatma
. The film stars Rekha and Leela Chitwas .

==Cast==
*Biswajeet ...  Rajesh 
*Tarun Bose ...  Tarun 
*Leela Chitnis ...  Rajeshs mom  Helen ...  Kitty  Anwar Hussain ...  Anwar 
*Manmohan Krishna ...  Manmohan / Vijay Singh 
*Mukri ...  Bellboy 
*Rekha ...  Sheela  Joginder Shelly ...  Sinha  Sulochana ...  Santosh

==External links==
*  

 
 
 
 


 
 