Agni Rekha
{{Infobox film
| name           = Agni Rekha
| image          = Agni Rekha.jpg
| image_size     =
| caption        = 
| director       = Mahesh Kaul
| producer       = 
| writer         =
| narrator       =  Bindu  Sanjeev Kumar
| music          = Jagdish J
| cinematography = 
| editing        = 
| distributor    = 
| released       = 1973
| runtime        = 
| country        = India Hindi
| budget         = 
| gross          = 
| preceded_by    = 
| followed_by    = 
| website        = 
}}
 1973 Bollywood Bindu and Sanjeev Kumar .

==Cast==
*G. Asrani Bindu
*Durga Khote
*Sanjeev Kumar Sharada

==Soundtrack==
{| border="4" cellpadding="7" cellspacing="0" style="margin: 1em 1em 1em 0; background: #f9f9f9; border: 1px #aaa solid; border-collapse: collapse; font-size: 95%;"
|- bgcolor="#CCCCCC" align="center"
! # !! Title !! Singer(s)
|-
| 1
| "Geet Hai Yeh Zindagi"
| Chandrani Mukherjee
|-
| 2
| "Geet Hai Yeh Zindagi"
| Manna Dey
|-
| 3
| "Hawaen Payal Baja Rahi Hain"
| Asha Bhosle
|-
| 4
| "Jan-E-Man Jan-E-Jan"
| Asha Bhosle
|-
| 5
| "Lut Gaya Hai Kiska Dil"
| Asha Bhosle
|-
| 6
| "Na Apna Tha Jo Kal Guzra" Mukesh
|-
| 7
| "Yaar Mere Meri Bahon Men Aaja"
| Mohammed Rafi
|}
==External links==
*  

 
 
 
 
 

 
 