Haathi Ke Daant
{{Infobox film
| name           = Haathi Ke Daant
| image          = 
| image_size     = 
| caption        = 
| director       =B.R.Ishara 
| producer       = 
| writer         =
| narrator       = 
| starring       =Rakesh Pandey 
| music          = 
| cinematography = 
| editing        = 
| distributor    = 
| released       = 1973
| runtime        = 
| country        = India Hindi
| budget         = 
| gross          = 
| preceded_by    = 
| followed_by    = 
| website        = 
}}
 1973 Bollywood drama film directed by B.R.Ishara. The film stars Rakesh Pandey.


==External links==
*  

 
 
 
 

 
 