Mazaaq
{{Infobox film
| name           = Mazaaq
| image          = 
| image_size     = 
| caption        = 
| director       = Haidar Ali
| producer       = 
| writer         =
| narrator       = 
| starring       =
| music          = 
| cinematography = 
| editing        = 
| distributor    = 
| released       = 1975
| runtime        = 
| country        = India Hindi
| budget         = 
| gross          = 
| preceded_by    = 
| followed_by    = 
| website        = 
}}
 1975 Bollywood comedy film directed by Haidar Ali. 

==Cast==
*Vinod Mehra ...  Vinod 
*Moushumi Chatterjee ...  Moushumi  Mehmood ...  Raja 
*Aruna Irani ...  Dr. A. Irani 
*Iftekhar ...  Moushumis Father 
*Bhagwan   
*G. Asrani ...  Murali / Marlon  Kanhaiyalal ...  Muralis Father  Agha ...  Gaylord Hotel Manager 
*Mukri ...  Chunnilal Paan Wala 
*Paintal ...  Chauffeur 
*Shubha Khote   
*Viju Khote ...  Gopi 

==External links==
*  

 
 
 

 