Janam Janam Na Saath
{{Infobox film
| name           = Janam Janam Na Saath
| image          = 
| image_size     = 
| caption        = 
| director       = Mehul Kumar
| producer       = 
| writer         =
| narrator       = 
| starring       =
| music          = 
| cinematography = 
| editing        = 
| distributor    = 
| released       = 1977
| runtime        = 
| country        = India Hindi
| budget         = 
| gross          = 
| preceded_by    = 
| followed_by    = 
| website        = 
}}
 1977 Bollywood film directed by Mehul Kumar. 

==Cast==
*Adil Amaan   
*Bhavana Bhatt   
*Ramesh Deo  (as Ramesh Dev) 
*Dhaval   
*Gayatri   
*Tahir Hussain   
*Iftekhar   
*Jagdeep   
*Roopesh Kumar   
*Raksha Trivedi   

==External links==
*  

 
 
 
 