Maa Bahen Aur Biwi
{{Infobox film
| name           = Maa Bahen Aur Biwi
| image          = 
| image_size     = 
| caption        = 
| director       = Harbans Kumar
| producer       = 
| writer         =
| narrator       = 
| starring       =
| music          = 
| cinematography = 
| editing        = 
| distributor    = 
| released       = 1974
| runtime        = 
| country        = India Hindi
| budget         = 
| gross          = 
| preceded_by    = 
| followed_by    = 
| website        = 
}}
 1974 Bollywood drama film directed by Harbans Kumar.

==Cast==
*Kabir Bedi
*Prema Narayan
*Raj Kishore David Abraham
*Anjana
*Jankidas Tabassum
*Tun Tun

==External links==
*  

 
 
 
 

 
 