Jaandaar
{{Infobox film
| name           = Jaandaar
| image          = 
| image_size     = 
| caption        = 
| director       = S.K. Lutha
| producer       = 
| writer         =
| narrator       = 
| starring       =Vinod Mehra and Nirupa Roy 
| music          = 
| cinematography = 
| editing        = 
| distributor    = 
| released       = 1979
| runtime        = 
| country        = India Hindi
| budget         = 
| gross          = 
| preceded_by    = 
| followed_by    = 
| website        = 
}}
 1979 Bollywood film directed by S.K. Lutha. The film stars Vinod Mehra and Nirupa Roy . 

==External links==
*  

 
 
 
 