Aur Kaun?
{{Infobox film
| name           = Aur Kaun?
| image          = 
| image_size     = 
| caption        = 
| director       = Shyam Ramsay and Tulsi Ramsay
| producer       = 
| writer         =
| narrator       = 
| starring       = Sachin (actor)|Sachin, Rajni Sharma, Padmini Kapila, Om Shivpuri
| music          = Bappi Lahiri
| cinematography = 
| editing        = 
| distributor    = 
| released       = 1979
| runtime        = 
| country        = India Hindi
| budget         = 200000
| gross          = 200000
| preceded_by    = 
| followed_by    = 
| website        = 
}}
 1979 Bollywood horror film directed by Shyam Ramsay and Tulsi Ramsay . The music of the film composed by Bappi Lahiri was popular in 1979 specially the song "Haan Pehli Baar" sung by Kishore Kumar.The title song was sung by Lata Mangeshkar in her haunting melody style.

==Cast==
*Roopesh Kumar   
*Madan Puri    Sachin ...  Raj 
*Om Shivpuri

==Song== Music Director- Bappi Lahiri||	 ||Lyricist- Amit Khanna||
  Music Director- Bappi Lahiri||	 ||Lyricist- Amit Khanna||
 Music Director- Bappi Lahiri||	 ||Lyricist- Amit Khanna||
 Music Director- Bappi Lahiri||	 ||Lyricist- Amit Khanna||

==External links==
*  

 
 
 
 
 


 
 