Shankar Dada
{{Infobox film
| name           = Shankar Dada
| image          = Shankar Dada 1976.JPG
| image_size     = 
| caption        = Theatrical poster
| director       = Shibu Mitra
| producer       = 
| writer         =Ram Kelkar (screenplay), Ehsan Rizvi (dialogue)
| narrator       = 
| starring       =
| music          = 
| cinematography = 
| editing        = 
| distributor    = 
| released       = 22 July 1976
| runtime        = 
| country        = India
| language       = Hindi
| budget         = 
| gross          = 
| preceded_by    = 
| followed_by    = 
| website        = 
}}
 1976 Bollywood film directed by Shibu Mitra.

==Cast==
*Ashok Kumar ...  Superintendent of Police 
*Shashi Kapoor ...  Shankar Dada 
*Neetu Singh ...  Roopa Verma  Anwar Hussain ...  Babu Dada Babubhai 
*Roopesh Kumar ...  Moti  Bindu ...  Bindiya  Pran ...  Police Inspector Amar Singh 
*Anjali Kadam ...  Mrs. Shanta Singh 
*Mohan Choti ...  Porter 
*Rajan Haksar ...  Lakhan Singh 
*Rajan Kapoor 
*Uttam Sodi   
*Navin Kumar 
*Khurshid   
*Kulkarni  

==External links==
*  

 
 
 

 