Parmatma
{{Infobox film
| name           = Parmatma
| image          = 
| image_size     = 
| caption        = 
| director       = Chand
| producer       =  Jainendra Jain
| narrator       = 
| starring       =
| music          = 
| cinematography = 
| editing        = 
| distributor    = 
| released       = 1978
| runtime        = 
| country        = India Hindi
| budget         = 
| gross          = 
| preceded_by    = 
| followed_by    = 
| website        = 
}}
 1978 Bollywood adventure film directed by Chand.

==Cast==
*Shatrughan Sinha ...  Anand 
*Rekha ...  Deepa 
*Aruna Irani ...  Lily 
*Imtiaz Khan ...  Zorawar Singh (as Imtiaz) 
*Pradeep Kumar ...  Guruji Maharaj Swami 
*Ranjeet ...  Johnny 
*Dev Kumar ...  Girdhari (Johnnys Father) 
*Jagdish Raj ...  Inspector 
*Chand Usmani    Helen ...  Katorani (Bar Girl) 
*Komilla Wirk  (as Komila Wirk)

==External links==
*  

 
 
 
 


 
 