Nirdosh
{{Infobox film
| name           = Nirdosh
| image          = 
| image_size     = 
| caption        = 
| director       = S.M. Sagar 
| producer       = 
| writer         =
| narrator       = 
| starring       =Vinod Mehra 
| music          = 
| cinematography = 
| editing        = 
| distributor    = 
| released       = 1973
| runtime        = 
| country        = India Hindi
| budget         = 
| gross          = 
| preceded_by    = 
| followed_by    = 
| website        = 
}}
 1973 Bollywood drama film directed by S.M. Sagar . The film stars Vinod Mehra.

==External links==
*  

 
 
 
 
 

 
 