Phandebaaz
{{Infobox film
| name           = Phandebaaz
| image          = Phandebaaz.jpg
| image_size     = 
| caption        = 
| director       = Samir Ganguly
| producer       = 
| writer         =
| narrator       = 
| starring       =
| music          = 
| cinematography = 
| editing        = 
| distributor    = 
| released       = 1978
| runtime        = 
| country        = India Hindi
| budget         = 
| gross          = 
| preceded_by    = 
| followed_by    = 
| website        = 
}}
 1978 Bollywood action film comedy directed by Samir Ganguly. 

==Cast==
*Dharmendra   
*Moushumi Chatterjee   
*Prem Chopra    Helen    Bindu   
*Ranjeet   
*Satyendra Kapoor  (as Satyen Kappu) 
*Bhagwan   
*Tun Tun    Brahmachari   
*Mac Mohan   
*Hema Malini ...  Herself (Guest Appearance 

==External links==
*  

 
 
 
 