Nagin Aur Suhagin
{{Infobox film
| name           = Nagin Aur Suhagin
| image          = 
| image_size     = 
| caption        = 
| director       = Shantilal Soni
| producer       = 
| writer         =
| narrator       = 
| starring       =
| music          = 
| cinematography = 
| editing        = 
| distributor    = 
| released       = 1979
| runtime        = 
| country        = India Hindi
| budget         = 
| gross          = 
| preceded_by    = 
| followed_by    = 
| website        = 
}}
 1979 Bollywood adventure film directed by Shantilal Soni. 

==Cast==
*Vijay Arora...  Anand Singh 
*Rita Bhaduri ...  Gauri J. Singh / Kamla (as Rheeta Baduri) 
*Mahesh Bhatt   
*Laxmi Chhaya ...  Naag Kanya 
*Harita Dave   
*Devyani ...  Gauris sister-in-law 
*Kalpana Divan   
*C.S. Dubey ...  Thakur Zoravar Singh  Jairaj ...  Thakur Jagatpal Singh 
*Baby Minal ...  Young Geeta 
*Mulraj Rajda   
*Geera Shah   
*Jagdish Shah   
*Namita Shah ...  Geeta 
*Baby Suparna ...  Young Gauri

==External links==
*  

 
 
 
 