Dil Kaa Heera
{{Infobox film
| name           = Dil Kaa Heera
| image          = 
| image_size     = 
| caption        = 
| director       = Dulal Guha
| producer       = 
| writer         =
| narrator       = 
| starring       =Dharmendra and Hema Malini 
| music          = 
| cinematography = 
| editing        = 
| distributor    = 
| released       = 1979
| runtime        = 
| country        = India Hindi
| budget         = 
| gross          = 
| preceded_by    = 
| followed_by    = 
| website        = 
}}
 1979 Bollywood film directed by Dulal Guha. The film stars Dharmendra and Hema Malini .

==Cast==
*Dharmendra ...  Customs Officer Rajat Sharma 
*Hema Malini ...  Roopa Parirani  Sachin ...  Kundan Sharma 
*Abhi Bhattachary ...  Gupta 
*Prakash Gill   
*Nandita Bose ...  Seema Gupta 
*Master Sandeep ...  Munna (as Master Sundeep)  Agha ...  Manoharlal K. Shah 
*Pinchoo Kapoor ...  Dinesh Patel  Brahmachari ...  Jai (as Bramchaari) 
*Satyendra Kapoor ...  Satyam Malhotra (as Satyen Kapoo) 
*Jagdish Raj ...  Pilot 
*Jatin Khanna   
*Sanjana   
*Ratna 

==External links==
*  

 
 
 
 
 
 