Khoon Khoon
{{Infobox film
| name           = Khoon Khoon
| image          = Khoon Khoon.jpg
| image_size     = 
| caption        = 
| director       = Mohammed Hussain
| producer       = 
| writer         =
| narrator       = 
| starring       =Mahendra Sandhu, Danny Denzongpa and Rekha
| music          = 
| cinematography = 
| editing        = 
| distributor    = 
| released       = 1973
| runtime        = 
| country        = India Hindi
| budget         = 
| gross          = 
| preceded_by    = 
| followed_by    = 
| website        = 
}}
 1973 Bollywood action film directed by Mohammed Hussain. The film stars Mahendra Sandhu, Danny Denzongpa, and Rekha. The film was a remake of the Clint Eastwood thriller Dirty Harry. Sandhu played a cop and Denzongpa a psychopathic killer.

==Cast==
*Danny Denzongpa
*Mahendra Sandhu
*Rekha
*Faryal Helen   
*Jagdeep

==External links==
*  

 
 
 
 


 
 