Ganga Sagar
 
{{Infobox film
| name           = Ganga Sagar
| image          = 
| image_size     = 
| caption        = 
| director       = Ashish Kumar
| producer       = 
| writer         =
| narrator       = 
| starring       = ASHISH KUMAR
| music          = Ravindra Jain 
| cinematography = 
| editing        = 
| distributor    = 
| released       = 1978
| runtime        = 
| country        = India Hindi
| budget         = 
| gross          = 
| website        = 
}}
 1978 Bollywood film directed by Ashish Kumar. The film stars Trilok Kapoor, Bela Bose, Bharat Bhushan, and Lalita Pawar.

==External links==
*  

 
 
 
 