Maha Sati Savitri
{{Infobox film
| name           = Maha Sati Savitri
| image          = Maha Sati Savitri.jpg
| image_size     = 
| caption        = 
| director       = Chandrakant
| producer       = 
| writer         =
| narrator       = 
| starring       =Jayshree Gadkar and Upendra Trivedi
| music          = 
| cinematography = 
| editing        = 
| distributor    = 
| released       = 1973
| runtime        = 
| country        = India Hindi
| budget         = 
| gross          = 
| preceded_by    = 
| followed_by    = 
| website        = 
}}
 1973 Bollywood fantasy film directed by Chandrakant. The film stars Jayshree Gadkar and Upendra Trivedi.

==Cast==
*Jayshree Gadkar ...  Rajkumari Savitri
*Upendra Trivedi ...  Satyavan
*Meena T. ...  Rajkumari Sukanya
*Ratnamala ...  Maharani Malvi Anuradha
*Ashwani Kumar
*D.K. Sapru ...  Bhagwan Shri Yamraj (as Sapru)
*Prabha Desai
*Kalpana Divan
*Arvind Pandya
*Amrit Patel ...  Rajkumar
*Radheshyam
*Rani
*Arvind Rathod ...  Maharaj Ashvapati
*Shribhagwan Sujata
*Kumud Tripathi

==External links==
*  

 

 
 
 
 
 


 
 