Ek Mutthi Aasmaan
 
{{Infobox film
| name           = Ek Mutthi Aasmaan
| image          = 
| image_size     = 
| caption        = 
| director       = Virender Sinha
| producer       = 
| writer         =
| narrator       = 
| starring       =Vijay Arora and Yogeeta Bali 
| music          = Madan Mohan
| cinematography = 
| editing        = 
| distributor    = 
| released       = 1973
| runtime        = 
| country        = India Hindi
| budget         = 
| gross          = 
| preceded_by    = 
| followed_by    = 
| website        = 
}}
 1973 Bollywood drama film directed by Virender Sinha. The film stars Vijay Arora and Yogeeta Bali .

==Cast==
*Vijay Arora  
*Yogeeta Bali    Mehmood   
*Radha Saluja    Pran   
*Kamal Kapoor   
*I. S. Johar   
*Aruna Irani   
*Kamini Kaushal   
*Gulshan Arora   
*Lalita Pawar

==External links==
*  

 
 
 
 


 
 