Dil Ki Rahen
{{Infobox film
| name           = Dil Ki Rahen
| image          = 
| image_size     = 
| caption        = 
| director       = B.R. Ishara 
| producer       =Syed Kausar Hussain (Allahabad) 
| writer         =
| narrator       = 
| starring       =Rakesh Pandey and Rehana Sultan  Madan Mohan
| cinematography = 
| editing        = 
| distributor    = 
| released       =  
| runtime        = 
| country        = India Hindi
| budget         = 
| gross          = 
}}

Dil Ki Rahen is a 1973 Bollywood drama film directed by B.R. Ishara. Music composed by Madan Mohan. The film stars Rakesh Pandey and Rehana Sultan . 

==Cast==
*Rakesh Pandey   
*Rehana Sultan    Sulochana   
*Dilip Dutt   
*Johnny Whisky   
*Amrit Lakhanpal 

==External links==
*  

 
 
 
 

 
 