The Princess Sen
{{Infobox Film
| name           = The Princess Sen
| image          = The Princess Sen poster.jpg
| caption        = Japanese movie poster
| director       = Keigo Kimura
| producer       = 
| writer         =
| starring       = 
| music          = Fumio Hayasaka
| cinematography = 
| editing        = 
| studio         = Daiei Film
| distributor    = 
| released       = October 20, 1954 
| runtime        = 95 min.
| country        = Japan
| awards         =  Japanese
| budget         = 
| preceded_by    = 
| followed_by    = 
| 
}} Japanese film directed by Keigo Kimura.

== Cast ==
* Machiko Kyō as Sen-hime
* Kenji Sugawara as Yuasa shin roku
* Raizo Ichikawa as Hideyoshi Toyotomi
* Takashi Mita as Honda Heihachirou
* Isao Yamagata
* Eitarō Shindō

== See also ==
* Senhime

== References ==
 

== External links ==
*   http://www.raizofan.net/link4/movie1/sen.htm
*  

 
 
 
 
 

 