Onatsu and Seijuro
{{Infobox Film
| name           = Onatsu and Seijuro
| image          = Onatsu and Seijuro poster.jpg
| caption        = Japanese movie poster
| director       = Taizo Fuyushima
| producer       = Shin Geijutsu Production
| writer         =
| starring       = 
| music          = 
| cinematography = 
| editing        = 
| distributor    = 
| released       = November 1, 1954 
| runtime        = 100 min.
| country        = Japan
| awards         =  Japanese
| budget         = 
| preceded_by    = 
| followed_by    = 
| 
}} Japanese film directed by Taizo Fuyushima.

== Cast ==
* Raizo Ichikawa

== References ==
 

== External links ==
*  
 

 
 
 
 