Yūkyō Gonin Otoko
 
{{Infobox Film
| name           = Yūkyō Gonin Otoko
| image          =
| caption        = Japanese movie poster
| director       =  Daiei
| writer         =
| starring       = 
| music          = 
| cinematography = 
| editing        = 
| distributor    = 
| released       = January 15, 1958 
| runtime        = ? min.
| country        = Japan
| awards         = 
| language       = Japanese
| budget         = 
| preceded_by    = 
| followed_by    = 
| 
}} Japanese film. 

== Cast ==
* Kazuo Hasegawa
* Raizo Ichikawa as Heizaburo Tsumaki
* Shintaro Katsu

== References ==
 

== External links ==
*   http://www.raizofan.net/link4/movie2/yukyo.htm
*  

 
 
 
 
 
 


 