Ambush at Iga Pass
{{Infobox Film
| name           = Ambush at Iga Pass 
| image          =
| caption        = Japanese movie poster
| director       = Kunio Watanabe
| producer       = 
| writer         =
| starring       = 
| music          = 
| cinematography = 
| editing        = 
| distributor    = Daiei Film 1958
| runtime        = 99 minutes
| country        = Japan
| awards         = 
| language       = Japanese
| budget         = 
| preceded_by    = 
| followed_by    = 
| 
}} Japanese film directed by Kunio Watanabe.

== Cast ==
* Kazuo Hasegawa
* Narutoshi Hayashi
* Raizo Ichikawa

== References ==
 

== External links ==
*  
*  

 
 
 
 


 