Nijūkyū-nin no Kenka-jō
{{Infobox film
| name           = Nijūkyū-nin no Kenka-jō
| image          =
| caption        = Japanese movie poster
| director       =
| producer       = 
| writer         =
| starring       =
| music          =
| cinematography =
| editing        =
| studio         = Daiei Film
| distributor    =
| released       = June 4, 1957
| runtime        = 91 minutes
| country        = Japan
| awards         = Japanese
| budget         =
| preceded_by    =
| followed_by    =
|
}} Japanese film directed by Kimiyoshi Yasuda.

==Cast==
* Raizo Ichikawa
* Michiko Saga
* Shintaro Katsu
* Michiko Ai
* Narutoshi Hayashi

==References==
 

==External links==
* 

 

 
 
 
 
 
 


 