Yatarō gasa
 
{{Infobox film
| name           = Yatarō gasa
| image          =
| caption        = Japanese movie poster
| director       = Kazuo Mori Daiei
| writer         = Fuji Yahiro
| starring       = 
| music          = Ichirō Saitō
| cinematography = Shozo Honda
| editing        = 
| distributor    =  1957 
| runtime        = 94 min.
| country        = Japan
| awards         = 
| language       = Japanese
| budget         = 
| preceded_by    = 
| followed_by    = 
| 
}} Japanese film directed by Kazuo Mori.

== Cast ==
* Raizo Ichikawa as Yatarō

== See also ==
* Kasa (hat)

== References ==
 

== External links ==
*   http://www.raizofan.net/link4/movie2/yataro.htm
*  

 

 
 
 
 
 
 


 