Eine große Liebe
{{Infobox film
| name           = Eine Große Liebe
| image          = 
| caption        = 
| director       = Hans Bertram
| producer       = 
| writer         = Hans Bertram Gisela Uhlen
| starring       = Gisela Uhlen
| music          = 
| cinematography = Georg Bruckbauer
| editing        = Rudolf Schaad Fritz Stapenhorst
| distributor    = 
| released       =  
| runtime        = 90 minutes
| country        = Germany
| language       = German
| budget         = 
}}

Eine große Liebe ( . It was entered into the 1949 Cannes Film Festival.   

==Cast==
* Gisela Uhlen
* Michael Korrontay
* Barbara Bertram
* Rüdiger von Sperl
* Erika von Thellmann
* Udo Loeptin
* Hertha von Hagen
* Gustav Waldau
* Elisabeth Flickenschildt

==References==
 

==External links==
* 

 
 
 
 
 
 


 