Lies of Love
 
{{Infobox film
| name           = Lies of Love
| image          = 
| caption        = 
| director       = Michelangelo Antonioni
| producer       = 
| writer         = Michelangelo Antonioni
| narrator       = 
| starring       = Annie OHara
| music          = 
| cinematography = Renato Del Frate
| editing        = 
| distributor    = 
| released       =  
| runtime        = 10 minutes
| country        = Italy
| language       = Italian
| budget         = 
}}
 short Italian documentary film directed by Michelangelo Antonioni. It was entered into the 1949 Cannes Film Festival.   

==Cast==
* Annie OHara
* Sergio Raimondi
* Sandro Roberti
* Anna Vita

==References==
 

==External links==
* 

 

 
 
 
 
 
 
 
 
 
 


 
 