Winterspelt (film)
{{Infobox Film
| name           = Winterspelt
| director       = Eberhard Fechner
| writer         = Alfred Andersch   Eberhard Fechner
| starring       = Ulrich von Dobschütz   Hans Christian Blech   George Sewell
| music          = 
| cinematography = 
| editing        = 
| distributor    = Hessischer Rundfunk
| released       = 30 March 1979
| runtime        = 110 min
| country        = Germany
| language       = German
}} David Healy.  It is set during the Second World War. It was also released as Winterspelt 1944.

==References==
 

== External links ==
*  

 
 
 
 
 
 