Diamonds on Wheels
{{Infobox film
| name           = Diamonds on Wheels
| director       = Jerome Courtland
| writer         = Pierre Castex   William R. Yates Barry Jackson
| music          = 
| cinematography = 
| editing        = 
| distributor    = Walt Disney Productions
| released       = 10 March 1974
| runtime        = 84 min
| country        = United Kingdom
| language       = English
}} family comedy Barry Jackson. 

== References ==
 

== External links ==
*  

 
 
 
 
 
 


 
 