Onibi Kago
{{Infobox Film
| name           = Onibi Kago
| image          =
| caption        = Japanese movie poster
| director       = Mitsuo Hirotsu 
| producer       = 
| writer         =
| starring       = 
| music          = Urato Watanabe
| cinematography = 
| editing        = 
| studio         = Daiei Film
| distributor    = 
| released       = November 10, 1957 
| runtime        = 87 min.
| country        = Japan
| awards         =  Japanese
| budget         = 
| preceded_by    = 
| followed_by    = 
| 
}} Japanese film directed by Mitsuo Hirotsu (弘津三男).

== Cast ==
* Raizo Ichikawa
* Michiko Saga
* Narutoshi Hayashi
* Tamao Nakamura

== References ==
 

== External links ==
*   http://www.raizofan.net/link4/movie2/onibi.htm

 
 
 
 
 


 