Sen'un Ajia no Joō
{{Infobox Film
| name           = Senun Ajia no Joō
| image          =
| caption        = Japanese movie poster
| director       = Hiromasa Nomura
| producer       = Shintoho
| writer         = Akira Onozawa (writer) 
Shinichi Sekizawa (writer)
| starring       = 
| music          = 
| cinematography = Susumu Yamanaka
| editing        = 
| distributor    = 
| released       =   
| runtime        = 95 min.
| country        = Japan
| awards         = 
| language       = Japanese
| budget         = 
| preceded_by    = 
| followed_by    = 
}}
  is a 1957 color Japanese film drama directed by Hiromasa Nomura. The film is about Yoshiko Kawashima.  Its English title is "Queen of Asia". 

== Cast ==
* Ureo Egawa
* Kazuo Kodama
* Shōji Nakayama
* Tomohiko Ohtani
* Takihiro Oka
* Hirotaro Sugiyama
* Miyuki Takakura
* Tadao Takashima
* Tetsurō Tamba
* Ken Utsui

== References ==
 

== External links ==
*  

 
 
 
 


 