Nightmare (1942 film)
{{Infobox film
| name           = Nightmare
| image          =
| caption        =
| director       = Tim Whelan Dwight Taylor
| writer         = Dwight Taylor, Philip MacDonald
| narrator       =
| starring       = Diana Barrymore Brian Donlevy
| music          =
| cinematography =
| editing        =
| studio         = Universal Pictures
| distributor    =
| released       =  
| runtime        = 80 min
| country        = United States
| language       = English
| budget         =
| gross          =
}} wartime London.

The film was based on a novel of the same name by Philip MacDonald.

==External links==
*  
*  

 

 
 
 
 
 
 
 
 


 