Man Who Causes a Storm
{{Infobox Film
| name           = Man Who Causes a Storm 嵐を呼ぶ男
| image          =
| caption        = Japanese movie poster
| director       = Umetsugu Inoue
| producer       = Nikkatsu
| writer         = Umetsugu Inoue (writer) Dai Nishijima (writer)
| starring       = 
| music          = 
| cinematography = Kazumi Iwasa
| editing        = 
| distributor    =  1957 
| runtime        = 101 min.
| country        = Japan
| awards         =  Japanese
| budget         = 
| preceded_by    = 
| followed_by    = 
}} Japanese film directed by Umetsugu Inoue.

== Cast ==
* Yujiro Ishihara

== References ==
 

== External links ==
*  

 
 
 
 


 