The 7th Secret Courier for Edo
{{Infobox film
| name           = The 7th Secret Courier for Edo 
| image          =
| caption        = Japanese movie poster
| director       = Kazuo Mori
| producer       = Daiei Film
| writer         =
| starring       = Raizo Ichikawa
| music          = Ichirō Saitō
| cinematography = 
| editing        = 
| distributor    =  1958
| runtime        = 74 minutes
| country        = Japan
| awards         = 
| language       = Japanese
| budget         = 
| preceded_by    = 
| followed_by    = 
}}
  is a 1958 Japanese black-and-white period drama (jidaigeki) directed by Kazuo Mori.  

== Cast ==
* Raizo Ichikawa as Ban Sakon 
* Michiko Ai
* Tokiko Mita

== References ==
 

== External links ==
*  

 

 
 
 
 
 
 
 
 

 