Tabi wa Kimagure Kaze Makase
{{Infobox Film
| name           = Tabi wa Kimagure Kaze Makase
| image          =
| caption        = Japanese movie poster
| director       = Katsuhiko Tasaka
| producer       = 
| writer         =
| starring       = 
| music          = 
| cinematography = 
| editing        = 
| studio         = Daiei Film
| distributor    = Daiei Film
| released       = April 16, 1958 
| runtime        = 79 min.
| country        = Japan
| awards         = 
| language       = Japanese
| budget         = 
| preceded_by    = 
| followed_by    = 
}}
  is a 1958 black-and-white Japanese film directed by  .

== Cast ==
* Raizo Ichikawa
* Yōko Uraji
* Jun Negami
* Tokiko Mita

== References ==
 

== External links ==
*   http://www.raizofan.net/link4/movie3/tabi.htm

 
 
 
 
 


 