Megitsune Buro
{{Infobox Film
| name           = Megitsune Buro
| image          =
| caption        = Japanese movie poster
| director       = Yasuda Kimiyoshi
| producer       = 
| writer         =
| starring       = 
| music          = 
| cinematography = 
| editing        = 
| studio         = Daiei Film
| distributor    =  1958   http://www.jmdb.ne.jp/1958/ch002860.htm accessed 16 January 2009 
| runtime        = 87 min. 
| country        = Japan
| awards         =  Japanese
| budget         = 
| preceded_by    = 
| followed_by    = 
}} Japanese film directed by Yasuda Kimiyoshi.

== Cast ==
* Raizo Ichikawa
* Michiko Saga (瑳峨三智子)
* Narutoshi Hayashi
* Yōko Uraji

== References ==
 

== External links ==

 
 
 
 


 