Fūsoku 40 metres
{{Infobox Film
| name           = Fūsoku 40 metres
| image          =
| caption        = Japanese movie poster
| director       = Koreyoshi Kurahara
| producer       = Nikkatsu
| writer         =
| starring       = 
| music          = 
| cinematography = 
| editing        = 
| distributor    =  1958 
| runtime        = 100 min. 
| country        = Japan
| awards         = 
| language       = Japanese
| budget         = 
| preceded_by    = 
| followed_by    = 
}} Japanese film directed by Koreyoshi Kurahara.

== Cast ==
* Yujiro Ishihara
* Mie Kitahara
* Misako Watanabe

== References ==
 

== External links ==

 

 
 
 
 
 


 