The Medium (1951 film)
 
{{Infobox film
| name           = The Medium
| image          = 
| image_size     = 
| caption        = 
| director       = Gian Carlo Menotti
| producer       = Chandler Cowles Evan M. Frankel Walther Lowendahl Milton Perlman
| writer         = Gian Carlo Menotti
| starring       = Marie Powers
| music          = 
| cinematography = Enzo Serafin
| editing        = Alexander Hammid
| distributor    = 
| released       =  
| runtime        = 
| country        = Italy
| language       = Italian
| budget         = 
}}
 same name and was entered into the 1952 Cannes Film Festival.    It would later be screened out of competition at the 1987 Cannes Film Festival.   

==Cast==
* Marie Powers - Madame Flora
* Leopoldo Savona - Toby (as Leo Coleman)
* Belva Kibler - Mrs. Nolan
* Beverly Dame - Mrs. Gobineau
* Donald Morgan - Mr. Gobineau
* Anna Maria Alberghetti - Monica

==References==
 

==External links==
* 

 
 
 
 
 
 
 


 