A Night of Love (1951 film)
{{Infobox film
| name           = A Night of Love
| image          = 
| caption        = 
| director       = Ahmed Badrakhan
| producer       = 
| writer         = 
| starring       = Mahmoud El-Meliguy
| music          = 
| cinematography = Abdelhalim Nasr
| editing        = 
| distributor    = 
| released       = 1951
| runtime        = 
| country        = Egypt
| language       = Arabic
| budget         = 
}}

A Night of Love ( ) is a 1951 Egyptian film directed by Ahmed Badrakhan. It was entered into the 1952 Cannes Film Festival.     

==Cast==
* Mahmoud El-Meliguy
* Mariam Fakhr Eddine
* Abbas Fares
* Kamal Fares
* Ferdoos Mohammed
* Hussein Riad
* Zeinab Sedky

==References==
 

==External links==
* 

 
 
 
 
 
 
 