Gesshoku
{{Infobox Film
| name           = Gesshoku
| image          = Gesshoku poster.jpg
| caption        = Japanese movie poster
| director       = Umetsugu Inoue
| producer       = Nikkatsu
| writer         =
| starring       = 
| music          = 
| cinematography = 
| editing        = 
| distributor    =  1956 
| runtime        = ? min.
| country        = Japan
| awards         = 
| language       = Japanese
| budget         = 
| preceded_by    = 
| followed_by    = 
}} Japanese film directed by Umetsugu Inoue.

== Cast ==
* Yujiro Ishihara

== References ==
 

== External links ==

 
 
 
 
 


 