Rangiku monogatari
{{Infobox film
| name           = Rangiku monogatari
| image          = Rangiku monogatari poster.jpg
| caption        = Japanese movie poster
| director       = Senkichi Taniguchi
| producer       = Toho
| writer         =
| starring       =
| music          =
| cinematography =
| editing        =
| distributor    = 1956   http://www.jmdb.ne.jp/1956/cf000430.htm accessed 19 January 2009 
| runtime        = 96 min. 
| country        = Japan
| awards         = Japanese
| budget         =
| preceded_by    =
| followed_by    =
| imdb_id        =  
|
}} Japanese film directed by Senkichi Taniguchi.

==Cast==
* Ryō Ikebe
* Kaoru Yachigusa

==References==
 

 
 
 
 
 


 