Ani to sono musume
{{Infobox Film
| name           = Ani to sono musume
| image          =
| caption        = Japanese movie poster
| director       = Shūe Matsubayashi
| producer       = Toho
| writer         = Yasujirō Shimazu (writer)
| starring       = 
| music          = 
| cinematography = 
| editing        = 
| distributor    =  1956 
| runtime        = ? min.
| country        = Japan
| awards         = 
| language       = Japanese
| budget         = 
| preceded_by    = 
| followed_by    = 
| 
}} Japanese film drama directed by Shūe Matsubayashi.

== Cast ==
* Setsuko Hara

== See also ==
* Ani to sono imoto (1939)

== References ==
 

== External links ==
*  

 
 
 
 


 