Midori haruka ni
{{Infobox film
| name           = Midori haruka ni
| image          = Midori haruka ni poster.jpg
| caption        = Japanese movie poster
| director       = Umetsugu Inoue
| producer       = Nikkatsu
| writer         =
| starring       =
| music          =
| cinematography =
| editing        =
| distributor    = 1955 
| runtime        = ? min.
| country        = Japan
| awards         = Japanese
| budget         =
| preceded_by    =
| followed_by    =
| imdb_id        =  
|
}} Japanese film directed by Umetsugu Inoue.

==Cast==
* Ruriko Asaoka
*  )
* Mie Kitahara (北原三枝)
* Minoru Takada (高田稔)
* ( )
* (市川俊幸)
* Ayuko Fujishiro (藤代鮎子)
* Ichirō Arishima

==References==
 

==External links==

 
 
 
 
 


 