A Thousand and One Nights with Toho
{{Infobox Film
| name           = A Thousand and One Nights with Toho
| image          = Toho senichi-ya poster.jpg
| caption        = Japanese movie poster
| director       = Kon Ichikawa
| producer       = 
| writer         =
| starring       = 
| music          = 
| cinematography = 
| editing        = 
| studio         = Shintoho
| distributor    = Toho 1947 
| runtime        = 61 min.
| country        = Japan
| awards         =  Japanese
| budget         = 
| preceded_by    = 
| followed_by    = 
| 
}} Japanese film directed by Kon Ichikawa.

== Cast ==
* Hisako Yamane
* Susumu Fujita
* Haruo Tanaka
* Yataro Kurokawa
* and others

== References ==
 

== External links ==
*  

 
 

 
 
 
 
 
 
 