Kato hayabusa sento-tai
{{Infobox Film
| name           = Kato hayabusa sento-tai
| image          = Kato hayabusa sento-tai poster.jpg
| caption        = Japanese movie poster
| director       = Kajiro Yamamoto
| producer       = Toho
| writer         = Kajiro Tamamoto
| starring       = 
| music          = 
| cinematography = 
| editing        = 
| distributor    =  1944   http://www.jmdb.ne.jp/1944/bt000130.htm accessed 20 January 2009 
| runtime        = 111 min. 
| country        = Japan
| awards         =  Japanese
| budget         = 
| preceded_by    = 
| followed_by    = 
| 
}} Japanese film directed by Kajiro Yamamoto.

It is a war film and there are special effects by Eiji Tsuburaya.

== Cast ==
* Susumu Fujita as Tateo Katō

== References ==
 

== External links ==
*  
*   

 

 
 
 
 
 
 

 
 