Ano hata o ute
{{Infobox Film
| name           = Ano hata o ute
| image          = Ano hata o ute poster.jpg
| caption        = Japanese movie poster for Ano hata o ute (upper) and for Kato hayabusa sento-tai.
| director       = Yutaka Abe
| producer       = Toho
| writer         = Yagi Koichiro, Oguni Hideo Fernando Poe, Leopold Celecdo
| music          = Kasuga Kunio
| cinematography = Yoshio Miyajima   
| special effects= Tsuburaya Eiji
| distributor    =  1944   http://www.jmdb.ne.jp/1944/bt000090.htm accessed 20 January 2009 
| runtime        = 62 min. 
| country        = Japan
| awards         = 
| language       = Japanese
| budget         = 
| preceded_by    = 
| followed_by    = 
| 
}} Japanese film directed by Yutaka Abe.

== Cast ==
* Denjirō Ōkōchi

== References ==
 
*  

== External links ==
*  
Article on history and analysis: http://www-personal.umich.edu/~amnornes/Dawn.pdf

 
 
 
 
 
 
 
 
 


 