Portrait of Madame Yuki
{{Infobox film
| name           = Portrait of Madame Yuki
| image          =
| caption        =
| director       = Kenji Mizoguchi
| producer       = Shintoho Takimura Productions
| writer         =
| starring       =
| music          = Fumio Hayasaka
| cinematography =
| editing        =
| distributor    =
| released       =  
| runtime        = 88 minutes
| country        = Japan
| awards         = Japanese
| budget         =
}} Japanese film directed by Kenji Mizoguchi.

== Cast ==
* Michiyo Kogure as Yuki Shinano
* Yoshiko Kuga as Hamako Abe
* Ken Uehara as Masaya Kikunaka
* Eijirō Yanagi as Naoyuki Shinano

==See also==
* List of films in the public domain

== References ==
 

== External links ==
*  
*  

 

 

 
 
 
 
 