Zenigata Heiji: Human-skin Spider
 
{{Infobox film
| name           = Zenigata Heiji: Human-skin Spider
| image          = Zenigata Heiji Torimono no Hikae Hitohada Gumo poster.jpg
| caption        = Japanese movie poster
| director       = Daiei
| writer         =
| starring       =
| music          =
| cinematography =
| editing        =
| distributor    = 1956 
| runtime        = 82 min.
| country        = Japan
| awards         =
| language       = Japanese
| budget         =
| preceded_by    =
| followed_by    =
| imdb_id        =  
|
}} Japanese film directed by Kazuo Mori.

==Cast==
* Kazuo Hasegawa
* Ichikawa Raizō VIII

==References==
 

==External links==
*   http://www.raizofan.net/link4/movie2/zeni2.htm

 
 
 
 
 


 