Naked Amazon
 
{{Infobox film
| name           = Naked Amazon
| image          = 
| image_size     = 
| caption        = 
| director       = Zygmunt Sulistrowski
| producer       = 
| writer         = Richard Olizar
| narrator       = 
| starring       = Andrea Bayard
| music          = 
| cinematography = Richard Olizar
| editing        = 
| distributor    = 
| released       =  
| runtime        = 
| country        = Brazil
| language       = Portuguese
| budget         = 
}}

Naked Amazon ( ) is a 1954 Brazilian adventure film directed by Zygmunt Sulistrowski. It was entered into the 1954 Cannes Film Festival.   

==Cast==
* Andrea Bayard
* Dercy Gonçalves
* Angela Maria Jeffrey Mitchell
* Richard Olizar
* José Osorio

==References==
 

==External links==
* 

 
 
 
 
 
 