Flowery Hood
{{Infobox film
| name           = Flowery Hood
| image          = Hana Zukin poster.jpg
| image size     = 190px
| caption        = Japanese movie poster
| director       = Katsuhiko Tasaka
| producer       = 
| writer         =
| starring       =
| music          =
| cinematography =
| editing        =
| distributor    = Daiei Film
| released       = July 25, 1956 
| runtime        = 84 minutes
| country        = Japan
| awards         =
| language       = Japanese
| budget         =
}}
  is a 1956 black-and-white Japanese film directed by Katsuhiko Tasaka.

==Cast==
* Ichikawa Raizō VIII
* Shintaro Katsu

==References==
 

==External links==

 
 
 
 
 


 