Bōryoku no Machi
{{Infobox film
| name           = Bōryoku no Machi
| image          = BoryokunoMachi.jpg
| image_size     = 150px
| caption        =
| director       = Satsuo Yamamoto
| producer       =
| writer         =
| starring       =
| music          =
| cinematography =
| editing        =
| distributor    =
| released       = February 26, 1950 
| runtime        = 111 minutes
| country        = Japan
| awards         =
| language       = Japanese
| budget         =
}} Japanese film directed by Satsuo Yamamoto.

== Cast ==
 
*  )
*  )
*  )
*  )
*  )
*  )
*  )
* Takashi Shimura (志村喬)

== Production Notes ==

The films full title is Boryoku no Machi, Pen Itsuwarazu (ペン偽らず　暴力の街; lit: Streets of Violence, the Pen Never Lies). 

== References ==
 

== External links ==
*  

 

 
 
 
 
 


 