Kawakami Tetsuharu monogatari sebangō 16
{{Infobox film
| name           = Kawakami Tetsuharu monogatari sebangō 16 川上哲治物語　背番号１６
| image          =
| caption        = Japanese movie poster
| director       = Eisuke Takizawa
| producer       = Nikkatsu
| writer         =
| starring       =
| music          =
| cinematography =
| editing        =
| distributor    = 1957 
| runtime        = 80 min.
| country        = Japan
| awards         = Japanese
| budget         =
| preceded_by    =
| followed_by    =
| imdb_id        =  
|
}} Japanese film directed by Eisuke Takizawa.

The film is about Japanese baseball player Tetsuharu Kawakami.



==Cast==
* Shinoda Yoshihiro (信田義弘) as Tetsuharu Kawakami (a boy)
* Shinsuke Maki (牧真介) as Tetsuharu Kawakami (youth)
* Tetsuharu Kawakami as himself
* Akira Kobayashi
* and others

==References==
 

==External links==

 
 
 
 
 
 
 


 