The Magical Warrior
{{Infobox film
| name           = The Magical Warrior
| image          = Tsuna Watari Misemono Zamurai poster.jpg
| caption        = Japanese movie poster
| director       = Bin Kato
| producer       = 
| writer         =
| starring       =
| music          =
| cinematography =
| editing        =
| studio         = Daiei Film
| distributor    = 1955 
| runtime        = 83 min.
| country        = Japan
| awards         = Japanese
| budget         =
| preceded_by    =
| followed_by    =
| imdb_id        =  
|
}} Japanese film directed by Bin Kato.

==Cast==
* Ichikawa Raizō VIII
* Machiko Mizuhara
* Michiko Ai

==References==
 

==External links==

 
 
 
 
 
 


 