Thief and Magistrate
{{Infobox film
| name           = Thief and Magistrate
| image          = Kaito to Hangan poster.jpg
| caption        = Japanese movie poster
| director       = Bin Kato
| producer       = 
| writer         =
| starring       =
| music          =
| cinematography =
| editing        =
| distributor    =
| studio         = Daiei Film 1955 
| runtime        = 87 min.
| country        = Japan
| awards         = Japanese
| budget         =
| preceded_by    =
| followed_by    =
| imdb_id        =  
|
}} Japanese film directed by Bin Kato.

==Cast==
* Ichikawa Raizō VIII as Tōyama no Kin-san
* Shintaro Katsu as Nezumi Kozō

==References==
 

==External links==

 
 
 
 
 
 


 