The Young Lord
{{Infobox film
| name           = The Young Lord
| image          = Onikiri Wakasama poster.jpg
| caption        = Japanese movie poster
| director       = Kimiyoshi Yasuda Daiei
| writer         =
| starring       =
| music          =
| cinematography =
| editing        =
| distributor    = 1955 
| runtime        = 83 min.
| country        = Japan
| awards         = Japanese
| budget         =
| preceded_by    =
| followed_by    =
| imdb_id        =  
|
}} Japanese film directed by Kimiyoshi Yasuda.

==Cast==
* Ichikawa Raizō VIII

==References==
 

==External links==
 
 
 
 
 
 
 

 