The Second Son
 
{{Infobox film
| name           = The Second Son
| image          = Jinanbo Garasu poster.jpg
| caption        = Japanese movie poster
| director       = Mitsuo Hirotsu
| producer       = 
| writer         =
| starring       =
| music          = Urato Watanabe
| cinematography =
| editing        =
| studio         = Daiei Film
| distributor    =
| released       = January 29, 1955 
| runtime        = 75 min.
| country        = Japan
| awards         =
| language       = Japanese
| budget         =
| preceded_by    =
| followed_by    =
| imdb_id        =  
|
}}
 Japanese film directed by Mitsuo Hirotsu.

==Cast==
* Ichikawa Raizō VIII
* Michiko Saga
* Tomosaburō Li ( )
* Ryōsuke Kagawa
* Shinobu Araki
* Hiroshi Ueda
* Teruko Ōmi

==References==
 

==External links==

 
 
 
 
 
 


 