Whatever Will Be, Will Be (1997 film)
 
 
{{Infobox film
| name           = Whatever Will Be, Will Be
| image          =
| caption        =
| film name = {{Film name| traditional    = 迷失樂園
 | simplified     = 迷失乐园
 | pinyin         = Mí Shī Lè Yuán
 | jyutping       = Mai4 Sat1 Lok6 Jyun4}}
| director       = Barry Chu
| producer       = Benny Chan
| writer         = Ngau Pat Manny Luk
| starring       = Michael Tse Teresa Mak Danny Summer Stephen Ho Lanna Wong Joanna Chan
| music          = Patrick Kwok Mok Hau Wan Ka
| cinematography = Venus Keung
| editing        = Grand Yip
| studio         = Keen Pearl International Golden Harvest
| released       =  
| runtime        =
| country        = Hong Kong
| language       = Cantonese
| budget         =
}} 1997 Cinema Hong Kong Category III.

==External links==
*  
*  

 
 
 


 