The Naked Woman and the Gun
 
 
{{Infobox film
| name           = The Naked Woman and the Gun
| image          =
| caption        = Japanese movie poster
| director       = Seijun Suzuki
| producer       = Nikkatsu
| writer         =
| starring       =
| music          =
| cinematography =
| editing        =
| distributor    =
| released       = December 7, 1957 
| runtime        = ? min.
| country        = Japan
| awards         = Japanese
| budget         =
| preceded_by    =
| followed_by    =
}} Japanese film directed by Seijun Suzuki.

== Cast ==
* Hiroshi Kondō
* Joe Shishido

== References ==
 

== External links ==
*  

 

 
 
 
 
 
 


 