Eight Hours of Terror
{{multiple issues|
 
 
}}

{{Infobox film
| name           = Eight Hours of Terror
| image          =
| caption        = Japanese movie poster
| director       = Seijun Suzuki Kazunari Takeda (assistant director)
| producer       = Nikkatsu
| writer         =
| starring       =
| music          = Takio Niki
| cinematography = Kazue Nagatsuka Akira Suzuki
| distributor    =
| released       = March 8, 1957 
| runtime        = ? min.
| country        = Japan
| awards         =
| language       = Japanese
| budget         =
| preceded_by    =
| followed_by    =
| 
}} Japanese film directed by Seijun Suzuki. It is a mystery film.

== Cast ==
* Taizō Fukami
* Hisako Hara
* and others

== References ==
 

== External links ==
*  

 

 
 
 
 
 
 
 


 
 