Un extraño en la escalera
{{Infobox film
| name           = Un extraño en la escalera
| image          = 
| caption        = 
| director       = Tulio Demicheli
| producer       = Gregorio Walerstein
| writer         = Tulio Demicheli Ladislas Fodor
| starring       = Arturo de Córdova
| music          = 
| cinematography = Jack Draper
| editing        = Rafael Ceballos
| distributor    = 
| released       = 4 March 1955
| runtime        = 95 minutes
| country        = Mexico
| language       = Spanish
| budget         = 
}}
 Mexican drama film directed by Tulio Demicheli. It was entered into the 1955 Cannes Film Festival.     

==Cast==
* Arturo de Córdova
* Silvia Pinal
* José María Linares-Rivas
* Andrés Soler
* Bertica Serrano
* Sonja Marrero
* Luciano de Pazos
* César Pomar

==References==
 

==External links==
* 

 
 
 
 
 
 
 
 