A Flood in Baath Country
{{Infobox film
| name           = A Flood in Baath Country طوفان في بلد البعث
| image          =
| image size     =
| caption        =
| director       = Omar Amiralay
| producer       = ARTE France - AMIP
| writer         =
| narrator       = Omar Amiralay
| starring       =
| music          =
| cinematography = Meyar Roumi
| editing        = Chantal Piquet
| distributor    = AMIP
| released       = 2003
| runtime        = 48 minutes
| country        = France
| language       = Arabic, French and English subtitles
| budget         =
| gross          =
| preceded by    =
| followed by    =
}}
A Flood in Baath Country ( ) is a Syrian documentary film by the director Omar Amiralay.

==External links==
* Grand Prix du long métrage documentaire - Festival du film arabe à Institut du Monde Arabe, Paris.
* 
* 

 

 
 
 
 
 
 
 
 
 


 
 