Othello (1955 film)
 
{{Infobox film
| name           = Othello (Отелло)
| image          = 
| caption        = 
| director       = Sergei Yutkevich
| producer       = 
| writer         = William Shakespeare Sergei Yutkevich
| starring       = Sergei Bondarchuk
| music          = Aram Khachaturian
| cinematography = Yevgeni Andrikanis
| editing        = Klavdiya Aleyeva G. Mariamov
| distributor    = 
| released       =  
| runtime        = 107 minutes
| country        = Soviet Union
| language       = Russian
| budget         = 
}}
 Best Director Award.   

==Cast==
* Sergei Bondarchuk - Othello
* Irina Skobtseva - Desdemona Andrei Popov - Iago
* Vladimir Soshalsky - Cassio
* Yevgeni Vesnik - Roderigo
* Antonina Maksimova - Emilia
* Mikhail Troyanovsky - Doge of Venice
* Yevgeni Teterin - Brabantio (as Ye. Teterin)

==References==
 

==External links==
* 

 
 

 
 
 
 
 
 
 

 
 