The Leech
{{Infobox Film
| name           = The Leech
| image          = 
| caption        = 
| director       = Salah Abu Seif Amin Yousseff Ghurab
| producer       = Wahid Farid Ramses Naguib
| writer         = Salah Abu Seif Amin Yousseff Ghurab Sayid Bidir
| narrator       = 
| starring       = Shadia
| music          = 
| cinematography = Wahid Farid
| editing        = 
| distributor    = 
| released       = 9 January, 1956
| runtime        = 126 minutes
| country        = Egypt
| language       = Arabic
| budget         = 
}}
The Leech ( , also known as A Womans Youth) is a 1956 Egyptian drama film directed by Salah Abu Seif. It was entered into the 1956 Cannes Film Festival.     

==Cast==
* Shadia
* Taheya Cariocca as Shafaat
* Shukry Sarhan
* Abdel Warith Assir
* Seraj Munir
* Ferdoos Mohammed as Mother

==References==
 

==External links==
* 

 
 
 
 
 
 
 
 