Gotoma the Buddha
 
{{Infobox film
| name           = Gotoma the Buddha
| image          = 
| caption        = 
| director       = Rajbans Khanna
| producer       = 
| writer         = Rajbans Khanna
| narrator       = 
| music          = 
| cinematography = Dilip Gupta
| editing        = Hrishikesh Mukherjee
| distributor    = 
| released       =  
| runtime        = 
| country        = India
| language       = 
| budget         = 
}}

Gotoma the Buddha is a 1956 Indian documentary film directed by Rajbans Khanna. It was entered into the 1957 Cannes Film Festival, where it won a Special Mention for Best Director and was nominated for the Golden Palm (Best Film).   

==See also==
*Depictions of Gautama Buddha in film

==References==
 

==External links==
* 

 

 
 
 
 
 
 
 
 
 
 
 