Lapland Calendar
 
{{Infobox film
| name           = Lapland Calendar
| image          = 
| caption        = 
| director       = Per Høst Anders Pentha
| producer       = Per Høst
| writer         = Per Høst
| narrator       = 
| starring       = 
| music          = 
| cinematography = 
| editing        = 
| distributor    = 
| released       =  
| runtime        = 100 minutes
| country        = Norway
| language       = Norwegian
| budget         = 
}}

Lapland Calendar ( ) is a 1957 Norwegian documentary film directed by Per Høst. It was entered into the 1957 Cannes Film Festival.   

==Cast==
* Karen Anna Logje - Rauna
* Klemet Veimel - Nilas
* Matti Mikkel Sara - Matti
* Jon Luoso - Heika

==References==
 

==External links==
* 

 
 
 
 
 
 


 
 