La Caleta olvidada
{{Infobox film
| name           = La Caleta olvidada
| image          = 
| caption        = 
| director       = Bruno Gebel
| producer       = 
| writer         = Isidora Aguirre Bruno Gebel
| starring       = Sara Astica
| music          = 
| cinematography = 
| editing        = 
| distributor    = 
| released       = 1958
| runtime        = 
| country        = Chile
| language       = Spanish
| budget         = 
}}

La Caleta olvidada is a 1958 Chilean film directed by Bruno Gebel. It was entered into the 1958 Cannes Film Festival.     

==Cast==
* Sara Astica
* Fernando Davanzo
* Claudio Di Girolamo
* Armando Fenoglio

==References==
 

==External links==
* 


 
 
 
 
 