Longe é a cidade
{{Infobox film
| name           = Longe é a cidade
| image          = 
| image_size     = 
| caption        =  Ricardo Costa
| producer       = 
| writer         = 
| narrator       = 
| starring       = 
| music          = 
| cinematography = 
| editing        = 
| studio         = 
| distributor    = 
| released       = 1981
| runtime        = 
| country        = Portugal
| language       = Portuguese
| budget         = 
| gross          = 
| preceded_by    = 
| followed_by    = 
}}
 Portuguese  Ricardo Costa.

==Synopsis==
The film is part three of the tetralogy Homem Montanhês (Mountain Man). It portrays the inhabitants of a remote village of north-eastern Portugal, in Trás-os-Montes (region)|Trás-os-Montes, still keeping secular traditions such as communal cooperation.

==Bibliographic references==
*O Cais do Olhar by José de Matos-Cruz, Portuguese Cinematheque, 1999
* , article by José de Matos-Cruz

==External links==
*   – producers web page
*  

 
 
 
 
 
 


 
 