Akogare no Hawaii Kōro
{{Infobox film
| name           = Akogare no Hawaii Kōro
| image          =
| caption        = Japanese movie poster
| director       = Torajiro Saito
| producer       = Shintoho
| writer         =
| starring       =
| music          =
| cinematography =
| editing        =
| distributor    =
| released       = April 1, 1950 
| runtime        = 78 minutes
| country        = Japan
| awards         =
| language       = Japanese
| budget         =
| preceded_by    =
| followed_by    =
| imdb_id        =  
|
}} Japanese film directed by Torajiro Saito.

==Cast==
* Haruo Oka
* Hibari Misora
* Sanae Ijita (柴田早苗)
* Mitsuko Yoshikawa
* Tamae Kiyokawa (清川玉枝)
* Achako Hanabishi ( )
* Shintarō Kido
* Robba Furukawa (古川緑波/ )

==See also==
* List of films in the public domain

==References==
 

 
 
 
 
 
 


 