The Devil's Disciple (1926 film)
 
{{Infobox film
| name           = The Devils Disciple
| image          =
| image_size     =
| caption        =
| director       = Oscar Micheaux
| producer       = Oscar Micheaux
| writer         = Oscar Micheaux
| starring       = Evelyn Preer Lawrence Chenault
| music          =
| cinematography =
| editing        =
| distributor    = Micheaux Film
| released       =  
| runtime        =
| country        = United States Silent
| budget         =
}}
 white slavery in New York City.

==References==
*  

==External links==
*  
*  

 

 
 
 
 
 
 
 


 