The Delinquents (1960 film)
{{Infobox film
| name           = The Delinquents
| image          = Los Golfos, film poster.jpg
| caption        = 
| director       = Carlos Saura
| producer       = Pere Portabella
| writer         = Mario Camus Carlos Saura Daniel Sueiro
| starring       = Manuel Zarzo
| music          = Antonio Ramírez Ángel    
| cinematography = Juan Julio Baena
| editing        = Pedro del Rey
| distributor    = 
| released       = May, 1960
| runtime        = 88 minutes
| country        = Spain
| language       = Spanish
| budget         = 
}}

The Delinquents ( ) is a 1959 Spanish drama film directed by Carlos Saura. It was entered into the 1960 Cannes Film Festival.     

==Cast==
* Manuel Zarzo as Julián Luis Marín as Ramón
* Óscar Cruz as Juan
* Juanjo Losada as El Chato
* María Mayer as Visi
* Ramón Rubio as Paco
* Rafael Vargas as Manolo
* Carmen Sánchez as Mujer cotilla

==References==
 

==External links==
* 

 

 
 
 
 
 
 
 
 
 


 
 