Ned (film)
 
 
:For the 2010 British film by Peter Mullan, see Neds (film).
{{Infobox film
| name           = Ned
| image          =
| image size     =
| caption        =
| director       = Abe Forsythe
| producer       = Darryl Robinson
| writer         = Abe Forsythe
| narrator       =
| starring       = Felix Williamson Abe Forsythe Damon Herriman Nick Flint Joseph Ber
| music          =
| cinematography =
| editing        =
| distributor    = Becker Entertainment
| released       =  
| runtime        = 81 minutes
| country        = Australia
| language       = English
| budget         =
| gross = A$20,000 (Australia)) 
| preceded by    =
| followed by    =
}}
Ned (2003) is an Australian film, directed by Abe Forsythe. It is satire of Australian outlaw Ned Kelly, and his iconographical status as a "hero."
 Ned Kelly, starring Heath Ledger.

In November 2006 on Vega FM host Shaun Micallef called Ned "The funniest Australian film made in the last ten years."
==References==
 
==External links==
* 
* 

 
 
 
 
 


 
 