The Emperor Jones (1955 film)
 
{{Infobox television film
| name         = The Emperor Jones
| image        =
| imagesize    =
| genre        = Drama
| runtime      = 60 minutes
| distributor  = ABC
| creator      =
| writer       = Eugene ONeill (play)
| director     =
| producer     = Rex Ingram
| editing      =
| music        =
| country      =  
| language     = English
| network      =
| released     = 23 February 1955
| tv.com_id    = 4516
}}{{Infobox television episode
| Title        = The Emperor Jones
| Series       = Kraft Television Theatre
| Season       = 8
| Episode      = 22
| Airdate      = 23 February 1955
| Production   = 404 Episode list
| Prev         = Departure (1955 film)|Departure
| Next         = Half the Worlds a Bride
}}
 play of the same title produced by the Kraft Television Theatre anthology series starring Ossie Davis in the title role.

Eugene ONeills play opened on Broadway theatre|Broadway, New York City, New York, USA at the Neighborhood Playhouse on 1 November 1920 and ran for 204 performances. 

==References==
 

==External links==
*  
*  
 

 

 
 
 
 
 
 
 
 
 


 