Seven Days... Seven Nights
 
{{Infobox film
| name           = Seven Days... Seven Nights
| image          = 
| caption        = 
| director       = Peter Brook
| producer       = Raoul Lévy
| based on       =  
| writer         = Gérard Jarlot
| starring       = Jeanne Moreau
| music          = 
| cinematography = Armand Thirard
| editing        = Albert Jurgenson
| distributor    = 
| released       =  
| runtime        = 95 minutes
| country        = France
| language       = French
| budget         =  gross = 978,012 admissions (France) 
}} Best Actress.    It is based on the 1958 novel Moderato cantabile by Marguerite Duras.

==Cast==
* Jeanne Moreau as Anne Desbarèdes
* Jean-Paul Belmondo as Chauvin
* Pascale de Boysson as Bars owner
* Jean Deschamps as M. Desbarèdes
* Didier Haudepin as Pierre
* Colette Régis as Miss Giraud
* Valeric Dobuzinsky as Assassin (as Valéric)

==References==
 

==External links==
*  

 

 
 
 
 
 
 
 
 
 
 
 
 