Bawa Karma
 
{{Infobox film
| name           = Bawa Karma
| image          = 
| image_size     = 
| caption        = 
| director       = Dharmasiri Bandaranayake
| producer       = 
| writer         = 
| narrator       = 
| starring       =
| music          = 
| cinematography = 
| editing        = 
| distributor    = 
| released       = 1997
| runtime        = 
| country        = Sri Lanka Sinhala
| budget         = 
| gross          = 
| preceded_by    = 
| followed_by    = 
}}
 1997 Sri Lankan drama film directed by Dharmasiri Bandaranayake.

==Cast==
*Jackson Anthony ...  Peduru 
*Hemasiri Liyanage ...  Father 
*Swarna Mallawarachchi ...  Nona Hami 
*Ravindra Randeniya ...  Muhandiram 
*Suwinitha Weerasinghe ...  Arachchi hamine
*  ... Bema Nona
* 
* 

==External links==
*  

 
 
 
 


 