Children of the Sun (1962 film)
{{Infobox film
| name           = Children of the Sun
| image          = 
| caption        = 
| director       = Jacques Séverac
| producer       = 
| writer         = David Dayan
| starring       = Abdelkader Abderrahmane
| music          = 
| cinematography = Jacques Klein
| editing        = Jacques Mavel
| distributor    = 
| released       = 1962
| runtime        = 185 minutes
| country        = Morocco
| language       = Arabic
| budget         = 
}}

Children of the Sun ( ) is a 1962 Moroccan film directed by Jacques Séverac. It was entered into the 1962 Cannes Film Festival.     

==Cast==
* Abdelkader Abderrahmane
* Aziz Afifi
* Mustapha Brick
* Mohammed Zubir
* Amina Belkahia
* Abdou
* Mohammed Afifi
* Hassan Essakali
* Ahmed Jillali

==References==
 

==External links==
* 

 
 
 
 
 
 