Konga Yo
 
{{Infobox film
| name           = Konga Yo
| image          = 
| image_size     = 
| caption        = 
| director       = Yves Allégret
| producer       = 
| writer         = Yves Allégret François Gall
| narrator       = 
| starring       = Nicole Courcel
| music          = 
| cinematography = Henri Persin
| editing        = Maurice Serein
| distributor    = 
| released       =  
| runtime        = 108 minutes
| country        = France
| language       = French
| budget         = 
| preceded_by    = 
| followed_by    = 
}}

Konga Yo is a 1962 French adventure film directed by Yves Allégret. It was entered into the 1962 Cannes Film Festival.   

==Cast==
* Nicole Courcel - Marie
* Jean Lefebvre - Jean
* Sophie MBali - Angèle
* Roger Pigaut - Georges

==References==
 

==External links==
* 

 
 
 
 
 


 
 