The Cage (film)
{{Infobox film
| name           = The Cage
| image          = 
| image_size     = 
| caption        = 
| director       = Robert Darène
| producer       = 
| writer         = Marc Boureau Alain Bouvette Robert Darène
| narrator       = 
| starring       = Marina Vlady
| music          = 
| cinematography = Jacques Lang
| editing        = Georges Arnstam
| distributor    = 
| released       = 1963
| runtime        = 85 minutes
| country        = France
| language       = French
| budget         = 
| preceded_by    = 
| followed_by    = 
}}

The Cage ( ) is a 1963 French film directed by Robert Darène. It was entered into the 1963 Cannes Film Festival.     

==Cast==
* Marina Vlady
* Jean Servais - Rispal
* Philippe Mory
* Muriel David
* Colette Duval
* Alain Bouvette

==References==
 

==External links==
* 

 
 
 
 
 
 
 