Rat Trap (film)
 
{{Infobox film
| name           = Rat Trap
| image          = 
| caption        = 
| director       = Jean-Gabriel Albicocco
| producer       = Enrique Salomoni Tomás R. Salomoni
| writer         = Jean-Gabriel Albicocco Jacques Lanzmann
| narrator       = 
| starring       = Charles Aznavour
| music          = 
| cinematography = Quinto Albicocco
| editing        = 
| distributor    = 
| released       =  
| runtime        = 94 minutes
| country        = France
| language       = French
| budget         = 
}}

Rat Trap ( ) is a 1963 French adventure film directed by Jean-Gabriel Albicocco. It was entered into the 1963 Cannes Film Festival.      

==Cast==
* Charles Aznavour - Charles
* Richard Badouh
* Franco Fabrizi
* Matias Ferreira Diaz
* Sara Gimenez
* Emilio Gnocchi
* Zuny Joy
* Marie Laforêt
* Francois Prevost
* Roberto Zelada

==References==
 

==External links==
* 

 
 
 
 
 
 
 
 
 
 


 
 