Girl Crazy (1929 film)
 
Girl Crazy was a 1929 comedy film directed by  ".  The films story is credited to Hampton Del Ruth, Alfred J. Goulding, Harry McCoy, Earle Rodney, and Mack Sennett.

== See also ==

* 1929 in film

== References ==

 

 
 
 
 
 
 
 
 


 