Road Movie (film)
 
{{Infobox film name           = Road Movie image          = Road Movie film poster.jpg director       = Kim In-sik producer       = Cha Seung-jae writer         = Kim In-sik starring       = Hwang Jung-min Jung Chan Seo Lin music          = Lee Han-na cinematography = Kim Jae-ho editing        = Lee Jae-woong distributor    = Big Blue Films  . Koreanfilm.org. Retrieved 2008-04-13.  released       =   runtime        = 114 minutes country        = South Korea language       = Korean budget         =  gross          =   
| film name      = {{Film name hangul         =   rr             = Rodeu mubi mr             = Rodŭ muni}}
}}
Road Movie ( ) is a 2002 South Korean film about a love triangle between a woman, a man who loves her, and a gay man who loves him. Living on the margins of society, they go on a road trip together.

== Cast ==
* Hwang Jung-min ... Dae-shik
* Jung Chan ... Suk-won
* Seo Lin ... Il-joo
* Jung Hyung-gi ... Min-seok
* Bang Eun-jin ... Jung-in
* Kim Gi-cheon ... Jo-si

== References ==
 

==External links==
*  
*  
*  
*  
*   at Koreanfilm.org

 
 
 
 
 
 
 

 
 