The Sandman (2000 film)
{{Infobox film
| name           = The Sandman
| image          = 
| image_size     = 
| border         = 
| alt            = 
| caption        = 
| director       = Brothers Quay, William Tuckett
| producer       = Keith Griffiths
| writer         = 
| screenplay     = 
| story          = 
| based on       =  
| narrator       = 
| starring       = Tamara Rojo, Irek Mukhamedov, Heathcote Williams, Zenaida Yanowsky
| music          =  Tony Miller
| editing        = Simon Laurie
| studio         = 
| distributor    = 
| released       = 2000 
| runtime        = 41 minutes
| country        = UK
| language       = English
| budget         = 
| gross          = 
}} televised ballet, The Sandman". 

==References==
 

==External links==
*  

 

 
 
 
 
 
 
 


 