Game: On
Game: graphics rendering engine.    In 2005, the film won awards for Best Picture and Best Commercial/Game Machinima at the 2005 Machinima Film Festival. 

==Notes==
 

==References==
 
* 
* 
 

==Further reading==
 
*   
* 
* 
* 
 

==External links==
* 

 
 


 