Public Cemetery
{{multiple issues|
 
 
}}

 

{{Infobox film
| name           = Wolhaui gongdongmyoji
| image          = PublicCemetery1967Poster.jpg
| alt            =  
| caption        = 
| director       = Cheol-hwi Kwon
| producer       = Cheol-hwi Kwon
| writer         = Cheol-hwi Kwon
| starring       = {{Plainlist|
*Geum-bong Do
*Hae Hwang
*Ae-ran Jeong
*Mi-ae Kang}}
| music          = 
| cinematography = Jae-yeong Kim
| editing        = Hyeon-su Jang
| studio         = 
| distributor    = 
| released       =   
| runtime        = 87 minutes
| country        = South Korea
| language       = Korean
| budget         = 
| gross          = 
}} horror film.

==Plot==
A mother murders the woman who married her son, only to have her return as a ghost to get revenge.

==External links==
*  
*  

 
 
 
 


 
 