Great Teacher Onizuka
{{Infobox animanga/Header
| name            = Great Teacher Onizuka
| image           =  
| caption         = The first volume of Great Teacher Onizuka, published by Tokyopop, featuring Eikichi Onizuka.
| ja_kanji        = グレート・ティーチャー・オニヅカ
| ja_romaji       = Gurēto Tīchā Onizuka
| genre           = Comedy-drama, School, Slice of Life
}}
{{Infobox animanga/Print
| type            = manga
| author          = Tooru Fujisawa
| publisher       = Kodansha
| publisher_en    =  
| demographic     = Shōnen manga|Shōnen
| magazine        = Weekly Shōnen Magazine
| first           = 16 May 1997
| last            = 17 April 2002
| volumes         = 25
| volume_list     = 
}}
{{Infobox animanga/Video
| type            = drama
| director        = Masayuki Suzuki
| producer        = 
| writer          = Kazuhiko Yukawa
| music           = 
| studio          = 
| network         = Fuji Television, Kansai TV
| first           = 7 July 1998
| last            = 22 September 1998
| episodes        = 12 + 1 Special
| episode_list    = 
}}
{{Infobox animanga/Video
| type            = live film
| director        = Masayuki Suzuki
| producer        = 
| writer          = 
| music           = 
| studio          = 
| released        = 1999
| runtime         = 140 minutes
}}
{{Infobox animanga/Video
| type            = tv series
| director        = Naoyasu Hanyu Noriyuki Abe
| producer        = 
| writer          = 
| music           = 
| studio          = Studio Pierrot
| licensee        =  
| network         = Animax, Fuji Television
| network_en      =  
| first           = 30 June 1999
| last            = 24 September 2000
| episodes        = 43
| episode_list    = List of Great Teacher Onizuka episodes
}}
{{Infobox animanga/Print
| type            = manga
| title           = GTO Shonan 14 Days
| author          = Tohru Fujisawa
| publisher       = Kodansha
| publisher_en    = Vertical Inc
| demographic     = Shōnen manga|Shōnen
| magazine        =  Weekly Shōnen Magazine
| first           = 2009
| last            = 2011 
| volumes         = 9
| volume_list     = 
}}
{{Infobox animanga/Video
| type            = drama
| director        = Imai Kazuhisa
| producer        = Kasai Hideyuki, Yamamoto Yoshihiko
| writer          = Tohru Fujisawa (Original Manga), Masaki Fukuzawa
| music           = Haneoka Kei
| studio          = 
| network         = Fuji Television, Kansai TV
| first           = 3 July 2012
| last            = 11 September 2012
| episodes        = 11 + 3 Special
| episode_list    = 
}}
{{Infobox animanga/Video
| type            = drama
| title           = GTO In Taiwan
| director        = Imai Kazuhisa
| writer          = Tohru Fujisawa (Original Manga), Junpei Yamaoka
| music           = Haneoka Kei
| studio          =  Gala Television (GTV)
| first           = 22 March 2014
| last            = 12 April 2014
| episodes        = 4
| episode_list    = 
}}
{{Infobox animanga/Print
| type            = manga
| title           = GTO: Paradise Lost
| author          = Tohru Fujisawa
| publisher       = Kodansha
| demographic     = Seinen manga|Seinen
| magazine        = Weekly Young Magazine
| first           = April 14, 2014
| last            = 
| volumes         = 2
| volume_list     = 
}}
{{Infobox animanga/Video
| type            = drama
| title           = GTO 2014
| director        = Ken Iizuka
| writer          = Tohru Fujisawa (Original Manga)
| studio          = 
| network         = Fuji Television, Kansai TV
| first           = July 8, 2014 
| last            = September 16, 2014
| episodes        = 11
| episode_list    = 
}}
 
 Bad Company, both of which focus on the life of Onizuka before he becomes a teacher in Great Teacher Onizuka.

Due to the popularity of the manga, several adaptations of GTO were established. These adaptations include a twelve-episode Japanese television drama running from July to September 1998; a live action|live-action film directed by Masayuki Suzuki and released in December 1999; and a 43-episode anime television series aired in Japan by Fuji Television and Animax from June 1999 to September 2000. Both the anime and manga have been licensed in North America by Tokyopop. A second live action series aired in Japan during 2012, and two more in 2014.

==Plot==
  date with him. Onizukas attempt to sleep with her fails when her current "boyfriend", her teacher, shows up at the love hotel they are in and asks her to return to him. The teacher is old and unattractive, but has sufficient influence over her that she leaps from a second-story window and lands in his arms.

Onizuka, upon seeing this display of a teachers power over girls, decides to become a teacher himself. However, he earns his teaching degree, just barely, at a second-rate college. In his quest, he discovers two important things: he has a conscience and a sense of morality. This means taking advantage of impressionable schoolgirls is out, but their unusually attractive mothers are a different matter. He enjoys teaching and, most of the time, he teaches life lessons rather than the routine schoolwork. He hates the systems of traditional education, especially when they have grown ignorant and condescending to students and their needs.
 nervous breakdown, mission of self-discovery by breaking through to each student one-by-one, and helping each student to overcome their problems and learn to genuinely enjoy life.  He uses methods that would be unorthodox, against the law, and also life-threatening, yet somehow, he manages to succeed to educate and open up his students.

==Production==

When writing GTO, Fujisawa was influenced by the writing style of Kouhei Tsuka. The series was originally intended to run for 10 volumes, however it was extended at the request of the publisher. Fujisawa began to run out of characters as a result. When faced with writing block he would write stories without Onizuka.

Onizukas first name, Eikichi, was taken from musician Eikichi Yazawa. When developing Onizukas character for the series, Fujisawa sought to incorporate real character traits from Japanese gangs often referred to as "Yankees". Onizukas look is modelled on such gang members and was not intended to convey an "American look". Onizuka acts tough and confident but is actually shy and lacking in confidence to follow through on some of his desires. He is a simple character that stands by his own reasoning and principles and has his own conscience. Fujisawa gave him the viewpoint that you should take responsibility for your actions, something he sees as important.

Onizukas role in the school is to provide a bridge between the students and teachers. The character of Fuyutsuki reflects the point of view of the average teacher. Fujisawa highlights his own school experience where teachers were mostly focused only on a good performance record rather than the teaching itself. However he was able to take an interest in Mathematics because of the approach of his teacher. He used this experience to build the series.  

==Media==

===Manga===
 

The series was published in Weekly Shonen Magazine from 1997 until 2002.     A total of 25 volumes were published between 
May 14, 1997 and April 15, 2002.   The series was licensed in English by Tokopop and was one of Tokyopops first releases in the "Authentic Manga" lineup of titles using the Japanese right to left reading style. In doing so the artwork remained unchanged from the original compared to previous publishing methods.  The 25 English volumes were published between April 23, 2002 and August 9, 2005.  

On 9 June 2009, a sequel to the GTO manga began releasing in Kodanshas Weekly Shōnen Magazine, under the title "GTO&nbsp;- Shonan 14 Days". North American publisher   manga series, from volume 11 onwards, as "GTO: The Early Years" in 2012. 

A new manga series entitled GTO:Paradise Lost started in Young Magazine in April 2014.   

===Live-action===

A 12-episode live-action Japanese television drama adaption directed by Masayuki Suzuki was broadcast from July 7, 1998 to September 22, 1998.  The series starred Takashi Sorimachi as Onizuka and had an average audience share of 28.5% with the final episode recording a rate of 35.7%. The final episode was the 8th most watched broadcast in the Kantō region during 1998.     Several changes were made for the live action adaption. For example Fuyutsuki (Nanako Matsushima) is an eager teacher who supports Onizuka in the manga, whereas in the live action adaptation she initially dislikes Onizuka and wants to leave teaching to become an Air Hostess.    A television special was broadcast on June 29, 1999. This was followed by a theatrical movie in January 2000.  The film was successful at the box office grossing ¥1,320,000,000 becoming the 10th highest grossing film of the year.  The movie was released in North America by Tokyo Shock on July 26, 2005. 
  Akira of Exile was selected to play Onizuka.  An Autumn special was broadcast on October 2, 2012, followed by a New years special on January 2, 2013 and a Spring special on April 2, 2013.   
 Mandarin Chinese dialogue. The series has been announced for English subtitled release via the Crunchyroll streaming service. {{cite web|url=http://www.animenewsnetwork.com/news/2014-03-22/crunchyroll-to-stream-champion-joe-2-live-action-gto-taiwan |title=Crunchyroll to Stream Champion Joe 2, Live-Action GTO Taiwan
 |publisher=Anime News Network |accessdate=January 23, 2014 |date=January 22, 2014}}  A new series set in Japan aired from July to September 2014. 

===Anime===
 

A 43 episode anime adaption was produced by Studio Pierrot and was broadcast from June 30, 1999 to September 24, 2001. It was directed by Noriyuki Abe and Horiyuki Ishido.     Yoshiyuki Suga provided scripts, having also written scripts for the Live Action adaption. 

Tokyopop licensed the series for release in North America and released it across 10 DVDs between March 22, 2002 and September 16, 2003.   The series was re-released in a 7 disc box set by Eastern Star Studios on September 24, 2013.  Crunchyroll began streaming the series in January 2015. 

==Reception==
In  , Jason Thompson refers to the series as "Shameless, frequently sexist and totally hilarious". He adds "The rule of the manga is that every time Onizuka does something incredibly cool and heartwarming, he must immediately do something unbelievably retarded". He praises the series for staying fresh through imagery, detailed art and pop culture dialogue even though the formula repeats itself. Lastly he states that it "approaches true social satire." He gave the series four stars out of four.
 

In The Dorama Encyclopedia, Jonathan Clements and Motoko Tamamuro note that the subject and humorous approach to the series was well received by the teenage audience. 

In   Jonathan Clements and Helen McCarthy noted the use of computer cloud and water effects in the anime adaption. While appreciating the advantages of the anime adaption allowing for more violence, they call the first live action adaption the "quintessential GTO". 

==References==
 

==External links==
 
* 
* 

 
 
 

 
 
 
 
 
 
 
 
 
 
 
 
 
 
 
 
 
 
 
 
 
 
 