Černé oči, proč pláčete...?
{{Infobox film
| name           = Černé oči, proč pláčete...?
| image          =
| image_size     = 
| caption        = 
| director       = Leo Marten
| producer       = 
| writer         =Leo Marten (writer), Karel Spelina (story)
| narrator       = 
| starring       = 
| music          =   
| cinematography = 
| editing        = 
| distributor    = 
| released       = March 28 1930
| runtime        =
| country        = Czechoslovakia
| language       = Czech
| budget         = 
}} 1930 Czechoslovakia|Czechoslovak comedy film  directed by Leo Marten.

==Cast==
*Frank Argus   
*Milka Balek-Brodská   
*Filip Balek-Brodský   
*Sasa Dobrovolná ...  Anna Novotna  Eman Fiala   
*Ludmila Folprechtova   
*Antonín Fric   
*Jaro Hykman ...  Marcel Novotny 
*Mary Jansová   
*Mario Karas  
*Jindrich Lhoták ...  Jarsky 
*Václav Pecián  
*Karel Schleichert   
*Ferry Seidl   
*Čeněk Šlégl ...  Maj. von Rohrerich 
*Eduard Slégl   
*Jan W. Speerger ...  Pavel Cermak 
*Otto Zahrádka ...  Trnka

== External links ==
*  

 
 
 
 
 
 
 
 
 