Poslední muž
{{Infobox film
| name           = Poslední muž
| image          =Poslední muž poster CS.jpg
| image_size     = 
| caption        = 
| director       = Martin Frič
| producer       = 
| writer         = Václav Wasserman (screenplay), F.X. Svoboda (play)
| starring       = 
| music          =   
| cinematography = 
| editing        = 
| distributor    = 
| released       =  
| runtime        =
| country        = Czechoslovakia
| language       = Czech
| budget         = 
}}
 1934 Czechoslovakia|Czechoslovak comedy film  directed by Martin Frič and starring Hugo Haas.   

==Cast==
*Hugo Haas ...  Prof. Alois Kohout 
*Zdenka Baldová ...  Mrs. Kohoutová 
*Marie Glázrová ...  Zdenka, daughter 
*Antonín Novotný ...  Jaroslav, son 
*Vladimír Borský ...  Dr. Jirí Becvár (as V. Borský) 
*Jirina Steimarová ...  Tonca Vacková 
*Darja Hajská ...  Baruska, cooky 
*Jára Kohout ...  Frantík 
*Václav Trégl ...  Rejsek, janitor 
*Bohdan Lachman ...  Director the school 
*Milada Gampeová...  Liduska Pivodová 
*Josef Kotalík ...  Station master 
*Emanuel Hríbal ...  Sadar 
*Josef Mach ...  Student 
*Alois Dvorský ...  Teacher

==References==
 

== External links ==
*  

 

 
 
 
 
 
 
 
 


 
 