Candlelight in Algeria
{{Infobox film
| name           = Candlelight in Algeria
| image          = 
| alt            =  
| caption        =  George King
| producer       = John Stafford
| writer         = John Clements Dorothy Hope Katherine Strueby Brock Williams
| starring       = James Mason Carla Lehmann Raymond Lovell Enid Stamp-Taylor Walter Rilla
| music          = Roy Douglas James Turner
| cinematography = Otto Heller
| editing        = Winifred Cooper Terence Fisher
| studio         = 
| distributor    = 
| released       =  
| runtime        = 86 minutes
| country        = United Kingdom
| language       = English
| budget         = 
| gross          = 
}} George King and starring James Mason, Carla Lehmann and Raymond Lovell.

==External links==
 

 

 
 
 
 
 
 
 
 

 