Manuela (1976 film)
{{Infobox film
| name           = Manuela
| image          = 
| caption        = 
| director       = Gonzalo García Pelayo
| producer       = 
| writer         = Pancho Bautista (Novel: Manuel Halcón)
| starring       = Charo López Fernando Rey
| music          = Lole y Manuel Triana Hilario Camacho Goma Gualberto Granada Joselero Manuel de Paula 
| cinematography = Raúl Artigot
| editing        = 
| distributor    = 
| released       =  
| runtime        = 105 minutes
| country        = Spain
| language       = Spanish
| budget         = 
}}
 Spanish drama film directed by Gonzalo García Pelayo and starring Charo López, Fernando Rey and Máximo Valverde. 

==References==
 

 
 
 
 


 