10,000 Kids and a Cop
{{Infobox film
| name           = 10,000 Kids and a Cop
| image          = 
| image size     = 
| alt            = 
| caption        = 
| director       = Charles Barton
| producer       = 
| writer         =  James Stewart Brenda Joyce
| starring       = Bud Abbott Lou Costello
| music          = 
| cinematography = 
| editing        = 
| studio         = 
| distributor    = Universal Pictures
| released       =   
| runtime        = 
| country        = United States
| language       = English
| budget         = 
| gross          = 
| preceded by    = 
| followed by    = 
}} documentary short short directed Charles Barton James Stewart, Brenda Joyce, and it was originally distributed for free to U.S. film exhibitors.    A restored version of the film was included as a special feature in the 2006 DVD release of The Abbott and Costello Show. 

==References==
 

==External links==
* 

 

 
 
 
 
 
 
 
 
 


 