Kinta 1881
 
 
 

{{Infobox Film
| name           = Kinta 1881
| image          =
| image_size     =
| caption        =
| director       = CL Hor
| producer       = Jean Liang Andrew Lee Adrian Wong Wong Chee Meng
| writer         = Chow Kam Leong
| narrator       =
| starring       =
| music          = Chow Kam Leong
| cinematography = Jacky Tang
| editing        =
| studio         = 
| distributor    =
| released       =
| runtime        =
| country        = Malaysia
| language       = Chinese
| budget         =
| gross          =
| preceded_by    =
| followed_by    =
}}
 Malaysian martial martial arts-action action film. The film was the first Malaysian film in martial arts genre, such as Cicak Man for first Malaysian superhero film. Although being a Malaysian film, its language is Chinese language|Chinese.  It was ported to the US, dubbed, and retitled Four Dragons in 2008.

== Plot == Chinese immigrants flooded the valley in the hope of making their fortune.

==References==
*  

 
 

 
 
 