Amar a morir
{{Infobox film
| name           = Amar a morir
| image          = amar_a_morir_poster.jpg
| image size     = 
| alt            = 
| caption        = Theatrical Poster
| director       = Fernando Lebrija
| producer       = David Wisnievitz   Matthias Ehrenberg   Miguel Angel Boccaloni
| writer         = Fernando Lebrija (writer)   Harrison Reiner (writer)
| narrator       = 
| starring       = Jose Maria de Tavira   Martina Garcia   Alberto Estrella
| music          = 
| cinematography = Masanobu Takayanagi
| editing        = Radu Ion
| studio         = Laguna Pictures
| distributor    = 
| released       =  
| runtime        = 119 min
| country        = Mexico
| language       = Spanish
| budget         = 
| gross          = 
| preceded by    = 
| followed by    = 
}}
Amar a morir ("Love to Die") is a 2009 Spanish language|Spanish-language film. 

== References ==
 

==External links==
* 
* 

 
 
 
 
 


 