The Voice of Passion
 
{{Infobox film
| name           = The Voice of Passion
| image          =
| caption        =
| director       = Victor Sjöström
| producer       =
| writer         = Peter Lykke-Seest Victor Sjöström
| narrator       =
| starring       = Greta Almroth
| music          =
| cinematography = Henrik Jaenzon
| editing        =
| distributor    =
| released       =  
| runtime        = 89 minutes
| country        = Sweden Silent Swedish Swedish intertitles
| budget         =
}}
 silent drama film directed by Victor Sjöström.   

==Cast==
* Greta Almroth - Ruth
* John Ekman
* Richard Lund - Lander
* Victor Sjöström - Daniel Barkner
* Ragna Wettergreen - Louise Barkner

==References==
 

==External links==
* 
* 

 

 
 
 
 
 
 
 
 
 
 