The Price of Betrayal
 
{{Infobox film
| name           = The Price of Betrayal
| image          = 
| caption        = 
| director       = Victor Sjöström
| producer       = 
| writer         = Axel Frische
| starring       = Gabriel Alw
| music          = 
| cinematography = Henrik Jaenzon Julius Jaenzon
| editing        = 
| distributor    = 
| released       =  
| runtime        = 40 minutes
| country        = Sweden Silent Swedish Swedish intertitles
| budget         = 
}}
 silent drama film directed by Victor Sjöström.   

==Cast==
* Gabriel Alw
* Stina Berg
* Egil Eide - Blom
* Kaja Eide - Mrs. Blom
* John Ekman - Mr. Holck

==References==
 

==External links==
* 

 

 
 
 
 
 
 
 
 
 
 
 


 
 