In the Hour of Trial
 
{{Infobox film
| name           = In the Hour of Trial
| image          = 
| caption        = 
| director       = Victor Sjöström
| producer       = 
| writer         = Fritz Magnussen
| starring       = Victor Sjöström
| music          = 
| cinematography = Henrik Jaenzon
| editing        = 
| distributor    = 
| released       =  
| runtime        = 41 minutes
| country        = Sweden Silent Swedish Swedish intertitles
| budget         = 
}}
 silent drama film directed by Victor Sjöström.   

==Cast==
* Kotti Chave as Hogardts Son (age 4)
* Richard Lund as Hogardt
* Greta Pfeil as Mrs. Nilsson
* Victor Sjöström as Sven Nilsson

==References==
 

==External links==
* 

 

 
 
 
 
 
 
 
 
 
 


 
 