Autumn Has Already Started
{{Infobox film
| name           =Autumn Has Already Started
| image          = 
| image_size     = 
| caption        = 
| director       = Mikio Naruse
| producer       = Mikio Naruse
| writer         = Ryozo Kasahara
| narrator       = 
| starring       = 
| music          = Ichirō Saitō
| cinematography = 
| editing        = 
| distributor    = Toho
| released       = October 1, 1960
| runtime        = 79 minutes
| country        = Japan
| language       = Japanese
| budget         =

}} 1960 Japanese film directed by Mikio Naruse.

==Cast==

*Nobuko Otowa		
*Jun Fujimaki		
*Kamatari Fujiwara		
*Yosuke Natsuki		
*Natsuko Kahara		
*Daisuke Katô		
*Seizaburô Kawazu		
*Hisako Hara		
*Kin Sugai		
*Naoya Kusakawa		
*Sachiko Hara	
*Futaba Ichiki		
*Kenzaburo Osawa

== External links ==
*  

 

 
 
 
 
 
 


 