Oranje Hein (1936 film)
 
{{Infobox film
| name           = Oranje Hein 
| image          = 
| image_size     = 
| caption        = 
| director       = Max Nosseck
| producer       =  Leo Meyer (writer)
| narrator       = 
| starring       = 
| music          =   
| cinematography = 
| editing        = 
| distributor    = 
| released       = October 22, 1936
| runtime        = 
| country        = Netherlands Dutch
| budget         = 
}} 1936 Netherlands|Dutch film directed by Max Nosseck. 

==Cast==
*Herman Bouber	... 	Oranje Hein
*Aaf Bouber	... 	Aal
*Johan Elsensohn	... 	Thijs van der Spil, fishmonger
*Annie Verhulst	... 	Ant van der Spil
*Sylvain Poons	... 	Uncle Bram
*Fien Berghegge		(as Fientje Berghegge)
*Max Croiset		
*Harry Boda		
*Clara Vischer-Blaaser		(as Clara Vischer)
	
== External links ==
*  

 

 
 
 
 

 