De Witte Waan
 
{{Infobox film
| name           = De Witte Waan
| image          = 
| image_size     = 
| caption        = 
| director       = Adriaan Ditvoorst
| producer       = 
| writer         = Adriaan Ditvoorst
| narrator       = 
| starring       = Thom Hoffman Pim Lambeau Louise Ruys
| music          =   
| cinematography = 
| editing        = 
| distributor    = 
| released       = 1984
| runtime        = 96 minutes
| country        = Netherlands
| language       = Dutch
| budget         = 
}} 1984 cinema Dutch film directed by Adriaan Ditvoorst. Its USA title is White Madness.

==Cast==
* Thom Hoffman ... Lazlo 
* Pim Lambeau ... Moeder 
* Louise Ruys ... Tante 
* Guusje van Tilborgh ... Jasja 
* Hans Croiset ... Portier / Man ongeluk 
* Jules Croiset ... Vader 
* Pamela Koevoets ... Dokter 
* Hilde Van Mieghem ... Lili 
* Joe Hennes ... Fuji 
* Luk van Mello ... Dealer  Theo van Gogh ... Junk

== External links ==
*  

 
 
 
 
 
 