Camping (1978 film)
{{Infobox film
| name           = Camping
| image          = 
| image_size     = 
| caption        = 
| director       = Thijs Chanowski
| producer       = Thijs Chanowski
| writer         = Werkteater
| narrator       = 
| starring       = 
| music          =   
| cinematography = 
| editing        = 
| distributor    = 
| released       = 1978
| runtime        = 91 minutes
| country        = Netherlands Dutch
| budget         = 
}} 1978 Netherlands|Dutch film directed bys Thijs Chanowski. 

==Cast==
 
== External links ==
*  

 
 
 

 