In the Night (film)
 
{{Infobox film
| name           = In the Night
| image          = 
| image_size     = 
| caption        =  Frank Richardson
| producer       = 
| writer         = Cyril Harcourt Frank Powell
| narrator       = 
| starring       = 
| music          =   
| cinematography = 
| editing        = 
| distributor    = 
| released       = 7 July 1922
| runtime        = 
| country        = United Kingdom Netherlands
| language       = Silent
| budget         = 
}} 1922 cinema Dutch silent silent crime Frank Richardson.

==Cast==
* C. M. Hallard - The Stranger Dorothy Fane - Estelle
* Hayford Hobbs - George Stanton
* Adelqui Migliar - James Marston
* Gladys Jennings - Anne Marston
* Frank Dane - Inspector

== External links ==
*  

 
 
 
 
 
 
 


 
 