De zigeunerin
 
{{Infobox film
| name           = De zigeunerin
| image          = 
| image_size     = 
| caption        = 
| director       = Louis H. Chrispijn
| producer       = 
| writer         = 
| narrator       = 
| starring       = 
| music          =   
| cinematography = 
| editing        = 
| distributor    = 
| released       = 1914
| runtime        =  Netherlands
| language       =Silent
| budget         = 
| amg_id         = 
}} 1914 short short Netherlands|Dutch silent film directed by Louis H. Chrispijn.

==Cast==
*Christine van Meeteren	 ... 	Tiska
*Louis H. Chrispijn	... 	Prof. Mortman
*Theo Frenkel Jr.	... 	Jack Mortman
*Julia Cuypers	... 	Zus van prof. Mortman / Sister of prof. Mortman

== External links ==
*  

 
 
 
 
 
 
 


 