Dag Dokter!
{{Infobox film
| name           = Dag Dokter!
| image          = 
| image_size     = 
| caption        = 
| director       = Ate de Jong
| producer       = 
| writer         = 
| narrator       = 
| starring       = 
| music          =   
| cinematography = 
| editing        = 
| distributor    = 
| released       = 1978
| runtime        = 94 minutes
| country        = Netherlands Dutch
| budget         = 
}} 1978 Netherlands|Dutch drama film directed by Ate de Jong. 

==Cast==
*Matthijs van Heijningen	... 	Fat man
*Kitty Janssen	... 	Elizabeth Delfman
*Derek de Lint	... 	Theo van Delft
*Dick Swidde	... 	Mr. Koppers
*André van den Heuvel	... 	Bernard Delfman
*Huub van der Lubbe	... 	Maxim
*Monique van de Ven	... 	Ingrid Sanders
*Bill Ward	... 	Jimmy Sanders
*Astrid Wijn	... 	Marjan van Dijk
== External links ==
*  

 

 
 
 