De Bunker
 
{{Infobox film
| name           = De Bunker
| image          = 
| image_size     = 
| caption        = 
| director       = Gerard Soeteman
| producer       = 
| writer         = Gerard Soeteman
| narrator       = 
| starring       = 
| music          =   
| cinematography = 
| editing        = 
| distributor    = 
| released       = October 1, 1992
| runtime        = 
| country        = Netherlands Dutch
| budget         = 
}} 1992 Netherlands|Dutch drama film directed by Gerard Soeteman. 

==Cast==
*Thom Hoffman	... 	Gerrit Kleinveld
*Huub van der Lubbe	... 	Wolting
*Dolf de Vries	... 	Ferguson
*Geert Lageveen	... 	Schrander
*Gijs de Lange	... 	Demani
*Peter Bos	... 	Dekker
*Cas Enklaar	... 	Van Zalingen
*Ids van der Krieken	... 	Van der Groep
*Fred Goessens	... 	Freekenhorst
*Jaap Maarleveld	... 	Van der Stam
*Jack Wouterse	... 	Ritter
*Kees Campfens	... 	Franzka
*Rik van Uffelen	... 	Noppen
*Han Kerkhoffs	... 	Flipse
*Boris Gerrets	... 	Horak

== External links ==
*  

 
 
 
 
 

 