Voorbeschikten
 
{{Infobox film
| name           = Voorbeschikten
| image          = 
| image_size     = 
| caption        = 
| director       = Tonny Stevens
| producer       = 
| writer         = Jean Stapelveld Tonny Stevens
| narrator       = 
| starring       = 
| music          =   
| cinematography = 
| editing        = 
| distributor    = 
| released       = 1920
| runtime        = 83 minutes
| country        = Netherlands
| language       = Silent
| budget         = 
| amg_id         = 
}} 1920 Netherlands|Dutch silent drama film directed by Tonny Stevens.

==Cast==
* Jan Van Ees - Jonckheer Axel van Hoogveld
* Roosje Köhler-van Gelder - Odette van der Zee
* Jan C. De Vos - Leo, een vriend van Axel
* Tonny Stevens - Lou
* Bertha de Vos-von Gentner - Colette
* Gerard Vrolik - Willem, Axels bediende

== External links ==
*  

 
 
 
 
 


 