Rembrandt fecit 1669
 
{{Infobox film
| name           = Rembrandt fecit 1669
| image          = 
| image_size     = 
| caption        = 
| director       = Jos Stelling
| producer       = 
| writer         = 
| narrator       = 
| starring       = 
| music          =   
| cinematography = 
| editing        = 
| distributor    = 
| released       = 1977
| runtime        = 107 minutes
| country        = Netherlands Dutch
| budget         = 
}} 1977 Cinema Dutch film directed by Jos Stelling. 

==Cast==
*Frans Stelling - The young Rembrandt
*Ton de Koff - The old Rembrandt
*Lucie Singeling - Saskia van Uylenburg
*Aya Gill - Hendrikje Stoffels
*Hanneke van der Velden - Geertje Dircx Titus
*Henk Douze

== External links ==
*  

 
 
 
 
 

 