Squatter's Delight
 
{{Infobox film
| name           = In Krakende Welstand
| image          = 
| image_size     = 
| caption        = 
| director       = Mijke de Jong
| producer       = 
| writer         = Jan Eilander, Mijke de Jong
| narrator       = 
| starring       = 
| music          =   
| cinematography = 
| editing        = 
| distributor    = 
| released       = March 23, 1990
| runtime        = 65 minutes
| country        = Netherlands Dutch
| budget         = 
}} 1990 Netherlands|Dutch drama film directed by Mijke de Jong. 

==Cast==
*Sophie Hoebrechts	... 	Eveline
*Ottolien Boeschoten	... 	Kaat
*Matthias Maat	... 	Michiel
*Angela van de Zon	... 	Hansje
*Pieter Anno	... 	Maurice
*Ivo Jansen op de Haar	... 	Paul
*Titus van der Bragt	... 	Martin
*Bruno van Klaveren	... 	Marc
*Robert Jan Birkenfeld	... 	Architect
*Jan Lenferink	... 	Bekende Nederlander
*Jeroen Planting	... 	Michiel

== External links ==
*  

 

 
 
 
 