De Fûke
{{Infobox film
| name           = De Fûke
| image          = 
| image_size     = 
| caption        = 
| director       = 
| producer       = 
| writer         = 
| narrator       = 
| starring       = 
| music          =   
| cinematography = 
| editing        = 
| distributor    = 
| released       = 2000
| runtime        = 
| country        = Netherlands Frisian
| budget         = 
}} 2000 Frisian film directed by Steven de Jong. The film is based on the 1966 book, written by Rink van der Velde.

==Cast==
* Rense Westra - Jelle
* Syb van der Ploeg - JP
* Steven de Jong – Germ
* Peter Tuinman - Detective
* Hidde Maas -Mayor
* Hilbert Dykstra - adjudant
* Joop Wittermans – keapman
* Cynthia Abma – Mirjam
* Jan Arendsz – de maat 

== External links ==
*  

 
 
 
 

 