Heilig recht
 
{{Infobox film
| name           = Heilig recht
| image          = 
| image_size     = 
| caption        = 
| director       = Louis H. Chrispijn
| producer       = 
| writer         = Otto Zeegers (play)
| narrator       = 
| starring       = 
| music          =   
| cinematography = 
| editing        = 
| distributor    = 
| released       = September 3, 1914
| runtime        = 
| country        = Netherlands
| language       = Silent
| budget         = 
| amg_id         = 
}} 1914 Netherlands|Dutch silent drama film directed by Louis H. Chrispijn.

==Cast==
*Annie Bos	... 	Leida van Galen
*Louis Bouwmeester	... 	Arie van Galen
*Esther De Boer-van Rijk	... 	Koos
*Louis Chrispijn Jr.	... 	Max de Nessel
*Koba Kinsbergen	... 	Leidas jongere zus / Leidas younger sister
*Lau Ezerma	
*Mientje Kling	... 	Figurante / Extra
*Jan van Dommelen		
*Barend Barendse		
*Louis H. Chrispijn		
*Willem van der Veer		
*Fred Homann		

== External links ==
*  

 
 
 
 
 
 


 