Dokter Vlimmen
{{Infobox film
| name           = Doctor Vlimmen
| image          = 
| image_size     = 
| caption        = 
| director       = Guido Pieters
| producer       = 
| writer         = 
| narrator       = 
| starring       = 
| music          =   
| cinematography = 
| editing        = 
| distributor    = 
| released       = 1978
| runtime        = 107 minutes
| country        = Netherlands Dutch
| budget         = 
}} 1978 Netherlands|Dutch film directed by Guido Pieters. 

== External links ==
*  

 

 
 
 