Kampeeravonturen
{{multiple issues|
 
 
 
}}
{{Infobox film
| name           = Kampeeravonturen
| image          = 
| image_size     = 
| caption        = 
| director       = Henk van der Linden
| producer       = 
| writer         = Henk van der Linden 
| narrator       = 
| starring       = 
| music          =   
| cinematography = 
| editing        = 
| distributor    = 
| released       =December 3, 1952
| runtime        =60 minutes
| country        = Netherlands Dutch
| budget         = 
}} 1952 Netherlands|Dutch film directed by Henk van der Linden.

==Plot==
Jan and Gerrie are out camping. At a camp fire, they hear all kinds of stories.

==Cast==
*Arno Feite ...  The fat one
*Jan Klinckhamers ...  Jan
*Jan Wassenaar ...  The bald one
*Gerard Willems ...  Gerrie
*Herman Reinaerts ...  Tramp
*Frits van Wenkop ...  Villain

== External links ==
*  

 
 
 

 