Don Juan (1913 film)
 
{{Infobox film
| name           = Don Juan 
| image          = 
| image_size     = 
| caption        = 
| director       = Léon Boedels
| producer       = 
| writer         = 
| narrator       = 
| starring       = 
| music          =   
| cinematography = 
| editing        = 
| distributor    = 
| released       = 1913
| runtime        =  
| country        = Netherlands
| language       = Silent
| budget         = 
| amg_id         = 
}} 1913 Netherlands|Dutch silent drama film directed by Léon Boedels.

==Cast==
*Willem van der Veer	... 	Don Juan
*Caroline van Dommelen		
*Tilly Lus		
*Constant van Kerckhoven Jr.

== External links ==
*  

 

 
 
 
 
 


 