Faja Lobbi
 
{{Infobox film
| name           = Faja Lobbi
| image          = 
| image_size     = 
| caption        = 
| director       = Herman van der Horst
| producer       = 
| writer         = 
| narrator       = 
| starring       = 
| music          =   
| cinematography = 
| editing        = 
| distributor    = 
| released       = 1960
| runtime        = 
| country        = Netherlands Dutch
| budget         = 
}} 1960 Netherlands|Dutch-Suriname Surinamese award-winning Berlin and Adelaide Film Festival|Adelaide.

== External links ==
*  

 
 
 
 
 

 
 