Alle dagen feest
 
{{Infobox film
| name           = Alle dagen feest
| image          = Alle_dagen_feest_poster.jpg
| image_size     = 
| caption        = Theatrical poster
| director       = Ate de Jong,  Otto Jongerius
| producer       = 
| writer         = 
| narrator       = 
| starring       = 
| music          =   
| cinematography = 
| editing        = 
| distributor    = 
| released       = 1976
| runtime        = 95 minutes
| country        = Netherlands Dutch
| budget         = 
}} 1976 Netherlands|Dutch film directed by Ate de Jong and  Otto Jongerius.

== External links ==
*  

 
 
 

 