Op Hoop van Zegen (1924 film)
 
{{Infobox film
| name           = Op hoop van zegen
| image          = 
| image_size     = 
| caption        = 
| director       = James Bauer Henk Kleinmann
| producer       = Henk Kleinmann
| writer         = Herman Heijermans Armin Petersen
| narrator       = 
| starring       = 
| music          =   
| cinematography = Karl Hasselmann
| editing        = 
| distributor    = 
| released       = 12 December 1924
| runtime        = 95 minutes
| country        = Netherlands
| language       = Silent
| budget         = 
}} 1924 Netherlands|Dutch silent drama film directed by James Bauer and Henk Kleinmann.

==Cast==
* Adele Sandrock - Kniertje
* Hans Adalbert Schlettow - Geert
* Erwin Biswanger - Bos
* Paula Batzer - Clementine
* Werner Funck - Reder Bos Joseph Klein - Simon
* Lotte Steinhoff
* Barbara von Annenkoff - Jo

== External links ==
*  

 
 
 
 
 
 
 
 


 