Behind the Clouds the Sun Is Shining
{{Infobox film
| name           = Behind the Clouds the Sun Is Shining
| image          = 
| image_size     = 
| caption        = 
| director       = Willy Mullens
| producer       = Willy Mullens
| writer         = J. A. Putto
| narrator       = 
| starring       = 
| music          =   
| cinematography = 
| editing        = 
| distributor    = 
| released       = 10 November 1925
| runtime        = 60 minutes Netherlands
| language       = Silent
| budget         = 
}} 1925 Netherlands|Dutch silent documentary film directed by Willy Mullens.

==Cast==
* B. A. Huijsers - Meneer Van den Heuvel
* Mevrouw Huijsers - Zijn vrouw
* Mientje Mullens - Annetje
* J. Nijland - Welzijnswerkster

== External links ==
*  

 
 
 
 
 
 
 


 
 