Het Jaar van de Kreeft
 
{{Infobox film
| name           = Het Jaar van de Kreeft
| image          = 
| image_size     = 
| caption        = 
| director       = Herbert Curiel
| producer       = 
| writer         = Hugo Claus
| narrator       = 
| starring       = 
| music          = Marian de Garriga  
| cinematography = Frans Bromet
| editing        = 
| distributor    = 
| released       = 18 September 1975 (Netherlands)
| runtime        = 91 minutes
| country        = Netherlands Dutch
| budget         = 
}} 1975 Netherlands|Dutch film directed by Herbert Curiel. 

==Cast==
* Willeke van Ammelrooy.... as Toni
* Rutger Hauer.... as Piere
* Piet Romer.... as Daan
* Sascha Hoffs.... as Muisje
* Bart Hammink.... as Karel
 

==Story==
A movie about a short but intense relationship between a man (Rutger Hauer) and a woman (Willeke van Ammelrooy). The two are very different. She doesnt want to give up her independence. Also titled "Cancer Rising".
== External links ==
*  

 
 
 
 

 