1-900 (film)
 
{{Infobox film
| name           = 1-900
| image          = 1-900_dvd_cover.jpg
| image_size     = 
| alt            = 
| caption        = US DVD Cover Theo Van Gogh
| producer       = Theo Van Gogh
| writer         = Johan Doesburg
| narrator       = 
| starring       = 
| music          = Ruud Bos
| cinematography = Tom Erisman
| editing        = 
| distributor    = Shooting Star Film Distribution Dino film production
| released       =  
| runtime        = 87 minutes
| country        = Netherlands
| language       = Dutch fl 250.000,--
| gross          = 
| preceded by    = 
| followed by    = 
}} 1994 Netherlands|Dutch Theo Van Gogh. The screenplay was based on a stage play by Johan van Doesburg. The film depicts a relationship based on telephone sex which gets out of hand.

==Cast==
*Ariane Schluter	... 	Sarah Wevers
*Ad van Kempen	... 	Thomas Venema

== External links ==
*  

 
 
 
 
 
 


 
 