Ivanhood
 
{{Infobox film
| name           = Ivanhood
| image          = 
| image_size     = 
| caption        = 
| director       = Paul Ruven
| producer       = 
| writer         = 
| narrator       = 
| starring       = 
| music          =   
| cinematography = 
| editing        = 
| distributor    = 
| released       = 1992
| runtime        = 
| country        = Netherlands Dutch
| budget         = 
}} 1992 Netherlands|Dutch comedy film directed by Paul Ruven.

==Cast==
*Christo van Klaveren	 ... 	Ivanhood
*Maike Meijer	... 	Eerste Vrouw
*Odette van der Molen	... 	Slanore
*Fabienne Meershoek	... 	Vrouw in kerker
*Joy Hoes	... 	Vrouw in bad
*Carine Korteweg	... 	Robijn
*Gusta Geleynse	... 	Weddenschap-vrouw 1 (as Gusta Geleijnse)
*Jolien Wanninkhof	... 	Weddenschap-vrouw 2
*Annemarike Ruitenbeek	... 	Eerste koerier
*Alice Reys	... 	Saffier
*Willemijn van der Ree	... 	Zwangere koerie

== External links ==
*  

 
 
 
 


 
 