Man, Vrouw, Hondje
 
{{Infobox film
| name           = Man, Vrouw, Hondje
| image          = 
| image_size     = 
| caption        = 
| director       = Nicole van Kilsdonk
| producer       = 
| writer         = Olivier Nilsson-Julien, Nicole van Kilsdonk 
| narrator       = 
| starring       = 
| music          =   
| cinematography = 
| editing        = 
| distributor    = 
| released       =May 12, 1999
| runtime        = 88 minutes
| country        = Netherlands Dutch
| budget         = 
}} 1999 Netherlands|Dutch film directed by Nicole van Kilsdonk. 

==Cast==
*Anneke Blok		
*Kees Brusse	... 	Max
*Cees Geel	... 	Vrachtwagenchauffeur
*Job Gosschalk	... 	Homo 2
*Micha Hulshof		
*Ad Knippels		
*Roeland Kooijmans	... 	Reporter
*Ricky Koole		
*Joep Onderdelinden	... 	Homo
*Allard van der Scheer		
*Marisa Van Eyle		
*Susan Visser	... 	Vrouw vrachtwagenchauffeur
*Nico de Vries	... 	Hans
*Dirk Zeelenberg		
*René van Zinnicq Bergman		
== External links ==
*  

 
 
 

 