Lentelied
 
{{Infobox film
| name           = Lentelied
| image          = 
| image_size     = 
| caption        = 
| director       = Simon Koster
| producer       = 
| writer         = Simon Koster
| narrator       = 
| starring       = 
| music          =   
| cinematography = 
| editing        = 
| distributor    = 
| released       = March 5, 1936
| runtime        = 75 minutes
| country        = Netherlands Dutch
| budget         = 
}} 1936 Netherlands|Dutch film directed by Simon Koster. 

==Cast==
*Jan Teulings... 	Frans Vermeer
*Lau Ezerman	... 	Van Buren
*Ank van der Moer	... 	Charlotte van Buren
*Dick Swidde	... 	Bobby Bevering
*Jules Verstraete	... 	Willems
*Joke Bosch	... 	Marietje
*Julia Cuypers	... 	Waardin van Hotel De Zon
*John Schilthuizen	... 	Jef
*Nell Knoop	... 	Juffrouw van der Linden
*Cor Hermus	... 	Matthijsen
== External links ==
*  

 
 
 

 