Rubia's Jungle
 
{{Infobox film
| name           = Rubia&#39;s Jungle
| image          = 
| image_size     = 
| caption        = 
| director       = 
| producer       = 
| writer         = 
| narrator       = 
| starring       = 
| music          =   
| cinematography = 
| editing        = 
| distributor    = 
| released       = 1970
| runtime        =  minutes
| country        = Netherlands Dutch
| budget         = 
}} 1970 Netherlands|Dutch film directed by . 

==Cast==
 
== External links ==
*  

 
 
 

 