Nachtvlinder
 
{{Infobox film
| name           = Nachtvlinder 
| image          = 
| image_size     = 
| caption        = 
| director       = Herman van Veen
| producer       = 
| writer         = 
| narrator       = 
| starring       = 
| music          =   
| cinematography = 
| editing        = 
| distributor    = 
| released       =2 September 1999
| runtime        = 92 minutes
| country        = Netherlands Dutch
| budget         = 
}} 1999 Netherlands|Dutch family film directed by Herman van Veen.

==Cast==
*Arthur Kristel	... 	Prins Ruben
*Babette van Veen	... 	Sarah Mogèn
*Ramses Shaffy	... 	Walko van Haland
*Hans Trentelman	... 	Onorg
*Fred Delfgaauw	... 	Koning Olaf van Haland
*Maike Meijer	... 	Jonkvrouw Hinde Baldon
*Jules Croiset	... 	Abraham Mogèn
*Karin Bloemen	... 	Geertrui Moens
*Herman van Veen	... 	Wogram
*Frits Lambrechts	... 	Stuurman
*Niels Reijnders	... 	Martijn
*Sarah de Wit	... 	Alma Mogèn
*Lori Spee	... 	Moeder Mogèn

== External links ==
*  

 
 
 


 