Sheer Bluff
 
{{Infobox film
| name           = Sheer Bluff
| image          = 
| image_size     = 
| caption        =  Frank Richardson
| producer       = Maurits Binger
| writer         = Benedict James
| narrator       = 
| starring       = 
| music          =   
| cinematography = 
| editing        = 
| distributor    = 
| released       = 14 December 1921
| runtime        = 
| country        = United Kingdom Netherlands
| language       = Silent
| budget         = 
}} 1921 cinema Dutch silent silent drama Frank Richardson.

==Cast==
* Henry Victor - Maurice Hardacre
* Maudie Dunham - Esther
* Percy Standing - Jasper Hardacre
* Nico De Jong - Stokes
* Lily Bouwmeester - Marion Deslisle
* Hans Bruning - (as Hans Brüning)
* Theo Frenkel Jr.
* Fred Homann
* Willem Hunsche William Hunter
* Julie Meijer
* Julie Ruston
* Lilian Ruston
* Julie Ruys
* Jean Stapelveld
* August Van den Hoeck
* Marie Van Westerhoven

== External links ==
*  

 
 
 
 
 
 


 
 