The Purse Snatcher
 
{{Infobox film
| name           = De Tasjesdief
| image          = 
| image_size     = 
| caption        = 
| director       = Maria Peters
| producer       = 
| writer         =Mieke van Hooft, Maria Peters
| narrator       = 
| starring       = 
| music          =   
| cinematography = 
| editing        = 
| distributor    = 
| released       =April 6, 1995
| runtime        = 96 minutes
| country        = Netherlands Dutch
| budget         = 
}} 1995 Netherlands|Dutch film directed by Maria Peters.

==Cast==
*Olivier Tuinier	... 	Alex van Zuilen
*Aus Greidanus Jr.	... 	Lucos
*Micha Hulshof	... 	Evert
*Myranda Jongeling	... 	Moeder van Alex
*Jaap Spijkers	... 	Vader van Alex
*Ingeborg Uyt den Boogaard	... 	Roos
*Freark Smink	... 	Stiefvader Ronnie
*Renée Fokker	... 	Moeder Evert en Lucos
*Sophie van Pelt	... 	Evelien
*Flip van Duyn	... 	Vader Evelien
*Sheila Lever	... 	Moeder Evelien
*Ann Hasekamp	... 	Blinde Vrouw
*Cees Groot	... 	Leraar
*Marjan Luif	... 	Buurvrouw Roos
*Rob van de Meeberg	... 	Huisarts

== External links ==
*  

 
 
 
 


 