De rode zwaan
 
{{Infobox film
| name           = De rode zwaan
| image          = De rode zwaan.jpg
| image_size     = 
| caption        = 
| director       = Martin Lagestee
| producer       = 
| writer         = Sjoerd Kuyper
| narrator       = 
| starring       = 
| music          =   
| cinematography = 
| editing        = 
| distributor    = 
| released       =October 14, 1999
| runtime        =100 minutes
| country        = Netherlands Dutch
| budget         = 
}} 1999 Netherlands|Dutch film directed by Martin Lagestee.

==Cast==
*Liz Snoyink	 ... 	Koningin Houtvolk
*Rufus Heikens	... 	Jacob
*Pierre Bokma	... 	Generaal
*Sanne Himmelreich	... 	Neeltje
*Frits Lambrechts		
*Nick Majoor	... 	Vezel
*Wolter Muller	... 	Prins Houtvonk
*Thekla Reuten	... 	Dochter van de generaal
*Ariane Schluter	... 	Dokter
*André van den Heuvel	... 	Opa
*Marloes van den Heuvel	... 	Moeder van Jacob
*Mark van der Laan	... 	Patrouille Commadant
*Joost van der Stel	... 	Kwajongen
== External links ==
*  

 
 
 
 

 