Malle Gevallen
 
{{Infobox film
| name           = Malle Gevallen
| image          =  File:Borel in Jopie Koopman, Malle gevallen.jpg
| image_size     = 
| caption        = Louis Borel and Jopie Koopman
| director       = Jaap Speyer
| producer       = 
| writer         = Hans Martin 
| narrator       = 
| starring       = 
| music          =   
| cinematography = 
| editing        = 
| distributor    = 
| released       =28 September 1934
| runtime        =94 minutes
| country        = Netherlands Dutch
| budget         = 
}} 1934 Netherlands|Dutch film directed by Jaap Speyer. 

==Cast==
*Johan Kaart	... 	Student Bram
*Roland Varno	... 	Student Boy
*Louis Borel	... 	Student Hans
*Enny Meunier	... 	School girl Kitty
*Annie Van Duyn	... 	School girl Toos
*Jopie Koopman	... 	Secretary Loeki
	
== External links ==
*  

 
 
 
 

 