Op Hoop van Zegen (1918 film)
 
{{Infobox film
| name           = Op hoop van zegen 
| image          = 
| image_size     = 
| caption        = 
| director       = Maurits Binger
| producer       = Maurits Binger
| writer         = Maurits Binger Herman Heijermans
| narrator       = 
| starring       = 
| music          =   
| cinematography = 
| editing        = 
| distributor    = 
| released       = 21 October 1918
| runtime        = 
| country        = Netherlands
| language       = Silent
| budget         = 
| amg_id         = 
}} 1918 Netherlands|Dutch silent drama film directed by Maurits Binger.

==Cast==
* Esther De Boer-van Rijk - Kniertje
* Annie Bos - Jo
* Willem van der Veer - Geert
* Frits Bouwmeester - Barend
* Jan van Dommelen - Reder Bos
* Antoinette Gerritsen - Clementine Bos
* Willem Hunsche - Simon
* Jeanne Van der Pers - Marietje
* Theo Frenkel Jr. - Mees
* Paula de Waart - Truus
* Jan Grader - Boekhouder Kaps

== External links ==
*  

 
 
 
 
 
 
 


 