Liefdesoffer
 
{{Infobox film
| name           = Liefdesoffer
| image          = 
| image_size     = 
| caption        = 
| director       = Maurits Binger
| producer       = 
| writer         = 
| narrator       = 
| starring       = 
| music          =   
| cinematography = 
| editing        = 
| distributor    = 
| released       = 23 June 1916
| runtime        =  
| country        = Netherlands
| language       = Silent
| budget         = 
| amg_id         = 
}} 1916 Netherlands|Dutch silent drama film directed by Maurits Binger.

==Cast==
* Annie Bos - Margareet Blanker
* Willem van der Veer
* Lola Cornero
* Pierre Mols
* Paula de Waart - Mevr. Miles / Mrs. Miles
* Louis van Dommelen

== External links ==
*  

 
 
 
 
 
 


 