De leugen van Pierrot
 
{{Infobox film
| name           = De leugen van Pierrot
| image          = 
| image_size     = 
| caption        = 
| director       = Maurits Binger
| producer       = 
| writer         = Jacques van Hoven
| narrator       = 
| starring       = 
| music          =   
| cinematography = 
| editing        = 
| distributor    = 
| released       = 20 October 1922
| runtime        = 56 minutes Netherlands
| language       = Silent
| budget         = 
}} 1922 Netherlands|Dutch silent film directed by Maurits Binger.

==Cast==
* Adelqui Migliar
* Esther De Boer-van Rijk - Pierrots blinde moeder
* Henny Schroeder
* Jan van Dommelen
* Renee Spiljar - Een kleine Columbine
* Martijn de Vries - Een kleine Pierot

== External links ==
*  

 
 
 
 
 
 


 