De Nieuwe Avonturen van Dik Trom
 
{{Infobox film
| name           = De Nieuwe Avonturen van Dik Trom
| image          = 
| image_size     = 
| caption        = 
| director       = Henk van der Linden
| producer       = 
| writer         = 
| narrator       = 
| starring       = 
| music          =   
| cinematography = 
| editing        = 
| distributor    = 
| released       = 1958
| runtime        = 
| country        = Netherlands Dutch
| budget         = 
}} 1958 Netherlands|Dutch film directed by Henk van der Linden. The film was based on the popular childrens book series Dik Trom by Cornelis Johannes Kieviet.
 Dik Trom.

==Cast==
 
== External links ==
*  

 

 
 
 
 

 