The Cherry Pick
 
{{Infobox film
| name           = De Kersenpluk
| image          = 
| image_size     = 
| caption        = 
| director       = Arno Kranenborg
| producer       = 
| writer         =Arno Kranenborg, Steven van Galen
| narrator       = 
| starring       = 
| music          =   
| cinematography = 
| editing        = 
| distributor    = 
| released       =January 9, 1997
| runtime        = 96 minutes
| country        = Netherlands Dutch
| budget         = 
}} 1997 Netherlands|Dutch film directed by Arno Kranenborg.

==Cast==
*Annelieke Bouwers		
*Lukas Dijkema	... 	Jan Tabak
*Hainie Hemme	... 	Buschauffeur
*Meiko Kijf	... 	Kapper
*Ricky Koole	... 	Marie
*Dirk Kuik	... 	Taxichauffeur
*Fina Kuik	... 	Vrouw in schiettent
*Grietje Kuik	... 	Vrouw van zweefmolen
*Tini Osinga	... 	Oma
*Hennie Scheper	... 	Tweeling
*Willem Scheper	... 	Tweeling
*Anthony Starke	... 	Bedrijfsleider vliegveld
*Anton Starke	... 	Opa
*Berend Gouke Wendel	... 	Kruidenier
*Finbarr Wilbrink	... 	Jan

== External links ==
*  

 
 
 
 


 