The Three Wishes
 
{{Infobox film
| name           = De Drie Wensen
| image          = 
| image_size     = 
| caption        = 
| director       = Kurt Gerron
| producer       = 
| writer         = Herman Bouber
| narrator       = 
| starring       = 
| music          =   
| cinematography = 
| editing        = 
| distributor    = 
| released       = 1937
| runtime        = 81 minutes
| country        = Netherlands Dutch
| budget         = 
}} 1937 Netherlands|Dutch film directed by Kurt Gerron.

==Cast==
*Annie Van Duyn	... 	Maria Scudo, kinderjuffrouw (as Annie van Duyn)
*Jules Verstraete	... 	Oude miljonair
*Jan Teulings... 	Tino Murante, Marias vriend
*Mimi Boesnach	... 	Cora Corelli, operaster
*Piet Bron	... 	Fortini
*Guus Oster	... 	Marco, Fortinis secretaris
*Aaf Bouber	... 	Juffrouw Talloni (as Aaf Bouber-ten Hoope)
*A.M. De Jong	... 	Rossi, impresario
*Herman Bouber	... 	Campagni, chef van de claque
*Kurt Gerron		
*G.J. Teunissen	... 	Goedmoedige Lobbes
*Arie Croiset

== External links ==
*  

 
 
 
 

 