Charlotte (film)
 
{{Infobox film
| name           = Charlotte 
| image          = 
| image_size     = 
| caption        = 
| director       = Frans Weisz
| producer       = 
| writer         = Judith Herzberg, Frans Weisz 
| narrator       = 
| starring       = 
| music          =   
| cinematography = 
| editing        = 
| distributor    = 
| released       =26 February 1981
| runtime        = 
| country        = Netherlands Dutch
| budget         = 
}} 1981 Netherlands|Dutch film directed by Frans Weisz. 

==Cast==
*Birgit Doll	... 	Charlotte Salomon
*Elisabeth Trissenaar	... 	Paulinka
*Brigitte Horney	... 	Grandma
*Max Croiset... 	Albert
*Peter Capell	... 	Grandfather
*Derek Jacobi	... 	Daberlohn
*Buddy Elias	... 	Herr Schwartz
*Peter Faber	... 	Frits Blech
*Eric Vaessen	... 	Herr Deutscher Maria Machado	... 	Frau Schwartz
*Shireen Strooker	... 	Mukki
*Lous Hensen	... 	Frau Deutscher
*Yoka Berretty	... 	Frau Morgan
*Patricia Hodge	... 	Teacher
*Irene Jarosch	... 	Magda

== External links ==
*  

 
 
 

 