The Mozart Bird
 
{{Infobox film
| name           = De Mozart Bird
| image          = 
| image_size     = 
| caption        = 
| director       = Aryan Kaganof
| producer       = 
| writer         = Daniel Daran, Stacey Grace
| narrator       = 
| starring       = 
| music          =   
| cinematography = 
| editing        = 
| distributor    = 
| released       = September 9, 1993
| runtime        = 
| country        = Netherlands Dutch
| budget         = 
}} 1993 Netherlands|Dutch romantic drama film directed by Aryan Kaganof.

==Cast==
*Stacey Grace	... 	Selene
*Daniel Daran	... 	Howard
*Rosalind George		
*Gabrielle Provaas

== External links ==
*  

 
 
 
 
 


 
 