Tomorrow It Will Be Better
 
{{Infobox film
| name           = Morgen gaat het beter
| image          = Lily Bouwmeester portrait from Morgen Gaat T Beter.jpg
| image_size     = 
| caption        = 
| director       = Frederic Zelnik
| producer       = 
| writer         = As Bruynse (screenplay), Kees Bruynse (screenplay)
| narrator       = 
| starring       = 
| music          =   
| cinematography = 
| editing        = 
| distributor    = 
| released       = February 23, 1939
| runtime        = 101 minutes
| country        = Netherlands Dutch
| budget         = 
}} 1939 Netherlands|Dutch film directed by Frederic Zelnik. 

==Cast==
*Lily Bouwmeester	... 	Willy Verhulst, het schoolmeisje
*Paul Steenbergen	... 	Alfred Herder, programmaleider van radio-omroep
*Theo Frenkel Jr.	... 	Hans Daldrop
*Bob De Lange		
*Kommer Kleyn		
*Aaf Bouber	
*Chris Baay		
*Ko Arnoldi		
*Mien Duymaer Van Twist		
*Louis Gimberg		
*Guus Weitzel		
*Joke Bosch		
== External links ==
*  

 
 
 

 

 