Toen 't licht verdween
 
{{Infobox film
| name           = Toen t licht verdween
| image          = 
| image_size     = 
| caption        = 
| director       = Maurits Binger
| producer       = Maurits Binger
| writer         = Maurits Binger A. W. G. van Riemsdijk
| narrator       = 
| starring       = 
| music          =   
| cinematography = 
| editing        = 
| distributor    = 
| released       = 8 July 1918
| runtime        = 90 minutes
| country        = Netherlands
| language       = Silent
| budget         = 
| amg_id         = 
}} 1918 Netherlands|Dutch silent drama film directed by Maurits Binger.

==Cast==
* Annie Bos - Sylvia
* Adelqui Migliar - Pietro Cignoni
* Lola Cornero - Lyda
* Jan van Dommelen - Gio Romano
* Cor Smits - Professor in de oogheelkunde
* Frits Bouwmeester - Rosni (as Frits Bouwmeester jr.)
* Paula de Waart - Rosnis moeder
* Renee Spiljar - Renée
* Marie Spiljar - Renées kindermeisje
* Ernst Winar

== External links ==
*  

 
 
 
 
 
 


 