Op Stap
 
{{Infobox film
| name           = Op Stap
| image          = 
| image_size     = 
| caption        = 
| director       = Ernst Winar
| producer       = 
| writer         = Alexander Alexander, Jacques van Tol 
| narrator       = 
| starring       = 
| music          =   
| cinematography = 
| editing        = 
| distributor    = 
| released       = 1935
| runtime        = 78 minutes
| country        = Netherlands Dutch
| budget         = 
}} 1935 Netherlands|Dutch musical comedy film directed by Ernst Winar.

==Cast==
*Jan Blok		
*Frans Boogaers		
*Heintje Davids	... 	Mrs. Fortuin
*Louis Davids... 	Piano Tuner
*Fien de la Mar	... 	Bella Ramona
*Alex De Meester		
*Philip Dorn	... 	George van Reen
*Ber Engelen		
*Adolphe Engers	... 	Uncle Barend
*Josephine van Gasteren		
*Jan Hahn	... 	Man bij Operette
*Fientje Koehler		
*Jopie Koopman	... 	Polly Fortuin
*Walter Smith		
*Tini Visscher

== External links ==
*  

 
 
 
 

 