Krates
 
{{Infobox film
| name           = Krates 
| image          = 
| image_size     = 
| caption        = 
| director       = Louis H. Chrispijn
| producer       = 
| writer         = Justus van Maurik (book)
| narrator       = 
| starring       = 
| music          =   
| cinematography = 
| editing        = 
| distributor    = 
| released       = November 28, 1913
| runtime        =  
| country        = Netherlands
| language       = Silent
| budget         = 
| amg_id         = 
}} 1913 Netherlands|Dutch silent drama film directed by Louis H. Chrispijn.

==Cast==
*Cor Laurentius	... 	Jonge Theodoor Makko / Krates / Young Theodoor Makko / Krates
*Charles Gilhuys	... 	Oudere Theodoor Makko / Krates / Elderly Theodoor Makko / Krates
*Eugenie Krix	... 	Juffrouw Ram / miss Ram
*Gerard Pilger Sr.	... 	Philip Strijkman
*Willem Hunsche	... 	Löbell
*Mientje Kling	... 	Augusta Tournel
*Jan van Dommelen	... 	Signor Carlo
*Alex Benno		
*Louis Chrispijn Jr.		
*Christine van Meeteren		
*Gerard Pilger Jr.		

== External links ==
*  

 
 
 
 
 
 


 