The Cross-Patch
 
{{Infobox film
| name           = De Kribbebijter
| image          = 
| image_size     = 
| caption        = 
| director       = Henry Koster and Ernst Winar
| producer       = 
| writer         = Alexander Alexander, Jane Bess
| narrator       = 
| starring       = 
| music          =   
| cinematography = 
| editing        = 
| distributor    = 
| released       =August 8, 1935
| runtime        =86 minutes
| country        = Netherlands Dutch
| budget         = 
}} 1935 Netherlands|Dutch film directed by Henry Koster and Ernst Winar. 

==Cast==
*Cor Ruys	... 	Baron de Kribbebijter
*Philip Dorn	... 	Willy (as Frits van Dongen)
*Dolly Mollinger	... 	Loes
*Louis De Bree	... 	Oom Moekie
*Louis Borel	... 	Van Maren
*Mary Dresselhuys	... 	Mary
*Chris Baay	... 	Schimmelman
*Sien De la Mar-Kloppers	... 	Katrien
*August Kiehl	... 	Frans
*Mary Smit	... 	Roos
*Fie Kohler		
*John Gobau		
*Jan Blok		
*Anton Burgdorffer		
*Sophie van Dijk
== External links ==
*  

 
 
 
 

 