Allemaal naar Bed
{{Infobox film
| name           = Allemaal naar Bed
| image          = 
| image_size     = 
| caption        = 
| director       = Dick Visser
| producer       = 
| writer         = 
| narrator       = 
| starring       = 
| music          =   
| cinematography = 
| editing        = 
| distributor    = 
| released       = 1970
| runtime        = 102 minutes
| country        = Netherlands Dutch
| budget         = 
}} 1970 Netherlands|Dutch film directed by Dick Visser. 

==Cast==
 
== External links ==
*  

 
 
 

 