Een Zomerzotheid
 
{{Infobox film
| name           = Een Zomerzotheid 
| image          = 
| image_size     = 
| caption        = 
| director       = Hans van Meerten
| producer       = 
| writer         = Walter Schlee (writer), Cissy van Marxveldt (novel)
| narrator       = 
| starring       = 
| music          =   
| cinematography = 
| editing        = 
| distributor    = 
| released       = 1936
| runtime        = 
| country        = Netherlands Dutch
| budget         = 
}} 1936 Netherlands|Dutch film directed by Hans van Meerten. 

==Cast==
*Henry Berg		
*Leo de Hartogh		
*Pam Ingenegeren		
*Jenny Moerdijk		
*Elly Sternheim		
*Theo Valck-Lucassen		
*Adriaan Van Hees		

== External links ==
*  

 
 
 
 

 