American Girls (film)
 
{{Infobox film
| name           = American Girls
| image          = 
| image_size     = 
| caption        = 
| director       = Maurits Binger Louis Davids
| producer       = Maurits Binger
| writer         = Maurits Binger Louis Davids
| narrator       = 
| starring       = 
| music          =   
| cinematography = 
| editing        = 
| distributor    = 
| released       = 4 November 1918
| runtime        =  Netherlands
| language       = Silent
| budget         = 
| amg_id         = 
}} 1918 Netherlands|Dutch silent drama film directed by Maurits Binger.

==Cast==
* Lola Cornero - Lola
* Beppie De Vries - Beppie
* Margie Morris - Margie
* Adelqui Migliar - Adelqui
* Annie Bos - Anny
* Jan van Dommelen - Jan Dommel
* Louis Davids - Tinus / Various Roles
* Cor Smits - Miljonair Brown
* Paula de Waart - Polly Dewar
* Marcello Lanfredi
* Max van Gelder - Man theaterbureau

== External links ==
*  

 
 
 
 
 
 


 