Mrs. Dery Where Are You?
{{Infobox film
| name           = Mrs. Dery Where Are You?
| image          = 
| caption        = 
| director       = Gyula Maár
| producer       = 
| writer         = Gyula Maár János Pilinszky
| starring       = Mari Törőcsik
| music          = 
| cinematography = Lajos Koltai
| editing        = György Sívó
| distributor    = 
| released       =  
| runtime        = 98 minutes
| country        = Hungary
| language       = Hungarian
| budget         = 
}}
 Best Actress.   

==Cast==
* Mari Törőcsik - Déryné
* Ferenc Kállai - Déry
* Mária Sulyok - Déry anyja
* Imre Ráday - Intendáns
* Tamás Major - Jancsó, öreg színész
* Cecília Esztergályos - Schodelné
* Kornél Gelley - Magyar úr, dilettáns színész
* András Kozák - Ifjú gróf
* András Schiff - Zongorázó fiú
* Zsuzsa Zolnay - Capuletné

==References==
 

==External links==
* 

 
 
 
 
 
 