Shichihenge tanuki goten
{{Infobox Film
| name           = Shichihenge tanuki goten
| image          = Shichihenge tanuki goten poster.jpg
| caption        = Japanese movie poster
| director       = Tatsuo Ohsone
| producer       = Shochiku
| writer         = Tatsuo Nakada (writer) Shinichi Yanagawa (writer)
| starring       = 
| music          = Tadashi Manjome
| cinematography = Hideo Ishimoto
| editing        = 
| distributor    =  1954 
| runtime        = 101 min.
| country        = Japan
| awards         =  Japanese
| budget         = 
| preceded_by    = 
| followed_by    = 
| 
}} Japanese film directed by Tatsuo Ohsone.

== Cast ==
* Hibari Misora
* Shunji Sakai
* Chizuko Ashihara
* Chikako Miyagi
* Kōkichi Takada
* Frankie Sakai

== References ==
 

== External links ==
* http://www.imdb.com/title/tt0440797/

 
 
 
 
 


 