Deep River (film)
{{Infobox film
| name           = Deep River
| image          = 
| image_size     = 
| alt            = 
| caption        = 
| director       = Kei Kumai
| producer       = 
| writer         = Shusaku Endo  (Novel) 
| starring       = 
| music          = 
| cinematography = 
| editing        = 
| studio         = Deep River Production Committee Shigoto
| distributor    = Toho
| released       =  
| runtime        = 130 minutes
| country        = Japan
| language       = Japanese
| budget         = 
| gross          = 
}} 1995 Cinema Japanese film novel of official submission Best Foreign Language Film, but did not manage to receive a nomination.   

==References==
 

==External links==
* 

 

 
 
 
 
 
 
 
 