The Baby Formula
{{Infobox film
| name           = The Baby Formula
| image          = The Baby Formula FilmPoster.jpeg
| caption        = 
| director       = Alison Reid
| producer       = 
| writer         = 
| starring       = Angela Vint Megan Fahlenbock
| music          = 
| cinematography = 
| editing        = 
| studio         = 
| distributor    = 
| released       =  
| runtime        = 
| country        = Canada
| language       = English
| budget         = 
| gross          = 
}}
The Baby Formula is a  , May 15, 2009. 

Directed by Alison Reid, the film stars Angela Vint and Megan Fahlenbock as Athena and Lilith, a lesbian couple each pregnant with the others baby through an experimental stem cell procedure that created artificial sperm from their DNA. 

The films cast also includes Rosemary Dunsmore, Dmitry Chepovetsky and Maggie Cassella.

==References==
 

==External links==
*  
*  

 
 
 
 
 
 
 
 
 
 
 


 
 