Tell Me Who You Are (film)
{{Infobox film
| name           = Tell Me Who You Are
| image          = 
| image_size     = 
| caption        = 
| director       = Souleymane Cissé
| producer       = 
| writer         = Souleymane Cissé
| narrator       = 
| starring       = 
| music          = 
| cinematography = 
| editing        = 
| distributor    = 
| released       =  
| runtime        = 135 minutes
| country        = Mali France
| language       = 
| budget         = 
}}
Tell Me Who You Are (also known as Min Ye,  ) is a 2009 Malian drama film directed by Souleymane Cissé. It was given a special screening at the 2009 Cannes Film Festival.   

==Cast==
* Assane Kouyate
* Sogona Gakou
* Badra Alou Sissoko

==References==
 

==External links==
* 

 
 
 
 
 


 