Arena (2009 film)
{{Infobox film
| name           = Arena
| image          = Arena film.jpg
| caption        = Film poster
| director       = João Salaviza
| producer       = François dArtemare Maria João Mayer
| writer         = João Salaviza
| starring       = Carloto Cotta
| music          =
| cinematography = Vasco Viana
| editing        =
| distributor    =
| released       =  
| runtime        = 15 minutes
| country        = Portugal
| language       = Portuguese
| budget         =
}}
Arena is a 2009 Portuguese short drama film directed by João Salaviza. It won the Short Film Palme dOr at the 2009 Cannes Film Festival.   

==Cast==
* Carloto Cotta as Mauro
* Cláudio Rosa as 2nd kid
* Rafael Sardo as 1st kid
* Rodrigo Madeira as Alemão

==See also==
* Portuguese films of the 2000s

==References==
 

==External links==
* 

 
 
 
 
 
 
 
 
 
 