Edo Sangokushi
 

{{Infobox film
| name           = Edo Sangokushi 
| image          = Edo Sangokushi poster.jpg
| caption        = Japanese movie poster
| director       = Seika Shiba
| producer       = Nikkatsu
| writer         =
| starring       =
| cinematography =
| editing        =
| distributor    = Nikkatsu part II|ref2= part III|ref3= }}
| runtime        = ? minutes
| country        = Japan
| awards         =
| language       = silent
| budget         =
}} Japanese film directed by Seika Shiba.

== References ==
 

== External links ==
 

 
 
 
 
 
 


 
 