Kutsukake Tokijirō (1954 film)
{{Infobox Film
| name           = Kutsukake Tokijirō 沓掛時次郎
| image          = Kutsukake Tokijiro 1954 poster.jpg
| caption        = Japanese movie poster
| director       = Kiyoshi Saeki
| producer       = Nikkatsu
| writer         =
| starring       = 
| music          = 
| cinematography = 
| editing        = 
| distributor    = Nikkatsu 1954 
| runtime        = ? min.
| country        = Japan
| awards         = 
| language       = Japanese
| budget         = 
| preceded_by    = 
| followed_by    = 
| 
}} Japanese film directed by Kiyoshi Saeki.
 Kutsukake Tokijirō.

== Cast == Kutsukake Tokijirō
* and others

== References ==
 

== External links ==
* http://www.allcinema.net/prog/show_c.php?num_c=136413

 
 
 
 
 
 


 