Jaguar (1979 film)
 
{{Infobox film
| name           = Jaguar
| image          = 
| image size     = 
| caption        = 
| director       = Lino Brocka
| producer       = 
| writer         = Nick Joaquin Jose F. Lacaba Ricardo Lee
| starring       = Phillip Salvador
| music          = 
| cinematography = Conrado Baltazar
| editing        = Rene Tala
| distributor    = 
| released       =  
| runtime        = 100 minutes
| country        = Philippines
| language       = English
| budget         = 
}}

Jaguar is a 1979 Filipino drama film directed by Lino Brocka. It was entered into the 1980 Cannes Film Festival.   

==Cast==
* Phillip Salvador - Poldo
* Amy Austria - Cristy
* Menggie Cobarrubias - Sonny
* Anita Linda - Mother
* Johnny Delgado - Direk
* Mario Escudero
* Tonio Gutierrez
* Roi Vinzon

==References==
 

==External links==
* 

 
 
 
 
 


 
 