Ballad of Tara
{{Infobox film
| name           = Ballad of Tara
| image          =
| image size     =
| caption        =
| director       = Bahram Bayzai
| producer       = Bahram Bayzai
| writer         = Bahram Bayzai
| narrator       =
| starring       = Susan Taslimi
| music          =
| cinematography = Mehrdad Fakhimi
| editing        = Bahram Bayzai
| distributor    =
| released       =  
| runtime        =
| country        = Iran
| language       = Persian
| budget         =
}}
Ballad of Tara ( ) is a 1979 Iranian film directed by Bahram Bayzai. It competed in the Un Certain Regard section at the 1980 Cannes Film Festival.   

==Cast==
* Susan Taslimi - Tara
* Manuchehr Farid - Historical man
* Reza Babak - Ghalich
* Siamak Atlassi - Ashoob
* Mahin Deyham - Neighbors wife
* Mohammad Poursattar
* Sami Tahasuni
* Reza Fayyazi - Neighbour
* Sirrus Hassanpur

== References ==
 

==External links==
* 

 

 
 
 
 
 
 
 