Echo (2007 film)
 

 
{{Infobox Film
| name           = Echo
| image          = 
| caption        = 
| director       = Anders Morgenthaler
| producer       = 
| writer         = Mette Heeno
| starring       = Kim Bodnia Stine Fischer Christensen Villads Milthers Fritsche  Peter Stormare
| music          = 
| cinematography = 
| editing        = 
| distributor    = 
| released       = 7 December 2007
| runtime        = 80 min.
| country        = Denmark Danish
| budget         =  
| gross         = 
| preceded_by    = 
| followed_by    = 
}}
Echo is a Danish film.
Awards, 2007 Flanders International FILM Festival – Nominated: Grand Prix

== External links==
* 

 
 
 


 