À toute allure
{{Infobox film
| name           = À toute allure
| image          = 
| caption        = 
| director       = Robert Kramer
| producer       = 
| writer         = 
| narrator       = 
| starring       = William Cherino
| music          = 
| cinematography = 
| editing        = 
| distributor    = 
| released       = May, 1982
| runtime        = 61 minutes
| country        = France
| language       = French
| budget         = 
}}

À toute allure is a 1982 French drama film directed by Robert Kramer. It was entered into the 1982 Cannes Film Festival.   

==Cast==
* William Cherino - Serge
* Bernard Ballet - Felix
* Manuelle Lidsky - Manu
* Laure Duthilleul

==References==
 

==External links==
* 

 
 
 
 
 
 
 