The Admiral's Secret
{{Infobox film
| name           = The Admirals Secret
| image          =
| image size     =
| alt            =
| caption        =
| director       = Guy Newall
| producer       =
| writer         =
| screenplay     =
| story          =
| based on       =
| narrator       = Dorothy Black
| music          =
| cinematography =
| editing        =
| studio         =
| distributor    = Radio Pictures
| released       =  
| runtime        = 63&nbsp;minutes
| country        = United Kingdom
| language       = English
| budget         =
| gross          =
}} Dorothy Black. It was based on a play by Cyril Campion and filmed at Twickenham Studios. 

== Plot summary == Spanish criminals search for a trove of stolen gems hidden by a retired British Admiral. 

== References ==
 

== External links ==
*  


 

 
 
 
 
 
 
 
 
 


 