The Garden That Tilts
{{Infobox film
| name           = Le Jardin qui bascule
| image          =Le Jardin qui bascule.jpg
| image_size     =
| caption        = 
| director       = Guy Gilles
| producer       = 
| writer         =
| narrator       = 
| starring       =
| music          = 
| cinematography = 
| editing        = 
| distributor    =  1974
| runtime        =
| country        = France French
| budget         = 
| gross          = 
| preceded_by    = 
| followed_by    = 
| website        = 
}}
 1974 France|French drama film directed by Guy Gilles.

==Cast==
*Philippe Chemin	 ... 	Roland
*Guy Bedos	... 	Maurice Garcia
*Caroline Cartier	... 	Sophie
*Pierre Fabre	... 	Lhomme du banc
*Anouk Ferjac	... 	Nanou Garcia
*Sami Frey	... 	Michel
*Patrick Jouané	... 	Karl
*Ludovic Lutard	... 	Titi
*Jeanne Moreau	... 	Maria
*Jean-Marie Proslier	... 	Le patron du bistrot
*Delphine Seyrig	... 	Kate
*Howard Vernon	... 	Paul

==External links==
*  

 

 
 
 
 
 
 
 