A Letter to Freddy Buache
 
{{Infobox film
| name           = A Letter to Freddy Buache
| image          =
| caption        =
| director       = Jean-Luc Godard
| producer       =
| writer         = Jean-Luc Godard
| narrator       = Jean-Luc Godard
| starring       = Jean-Luc Godard
| music          =
| cinematography = Jean-Bernard Menoud
| editing        =
| distributor    =
| released       =  
| runtime        = 11 minutes
| country        = France
| language       = French
| budget         =
}}
 short documentary film directed by Jean-Luc Godard and addressed to the Swiss film critic Freddy Buache. It was screened in the Un Certain Regard section at the 1982 Cannes Film Festival.   

==See also==
* Jean-Luc Godard filmography

==References==
 

==External links==
* 

 

 
 
 
 
 
 
 
 
 
 


 
 