Gasp (2009 film)
 
{{Infobox film | name= Gasp
               | film name=  
               | image= Gasp.jpg
               | alt= Gasp ( ) DVD cover
               | director= Zheng Zhong
               | producer= Liu Xiaodian, Gao Jun
               | writer= Heiko Scherm, Zhong Zheng
               | starring= John Savage Kelly Lin Ge You
               | released=  
               | country= China
               | language= Mandarin
               | budget= $6 million
}}
Gasp ( ) is a 2009 Chinese film directed by Zheng Zhong (  ).

==Cast== John Savage
* Liang Tian
* Kelly Lin
* Ge You
* Wilson Chen
*  
* Zhang Qiufang
* Li Jing
* Ji Lianhai
* Kerry Berry Brogan

==References==
 

==External links==
*  
*   at the Hong Kong Movie Database

 
 
 
 
 

 
 