Pihalla
{{Infobox film
|  name           = Pihalla
|  image          = 
|  caption        = 
|  director       = Toni Laine
|  producer       = 
|  writer         = Petja Peltomaa Sanna Reinumägi
|  starring       = Sibel Kekilli Mikko Leppilampi Teemu Palosaari Sanna-June Hyde Matleena Kuusniemi Pihla Viitala Mari Perankoski Helene Grass
|  music          = 
|  cinematography = 
|  editing        = 
|  studio         = 
|  distributor    =  
|  released       =  
|  runtime        = 
|  country        = Finland Germany
|  language       = English Finnish German
|  budget         = 
|  gross          = 
}} 2009 film directed by Toni Laine. The release date for the film was 23 October 2009.

==External links==
*  
*  

 
 
 
 
 


 