Operation Concrete
{{Infobox film
| name           = Operation Concrete
| image          =
| image_size     =
| caption        =
| director       = Jean-Luc Godard
| producer       =
| writer         = Jean-Luc Godard
| narrator       = Jean-Luc Godard
| starring       =
| music          =
| cinematography = Adrién Porchet
| editing        = Jean-Luc Godard
| distributor    = Société des Etablissements L. Gaumont
| released       = 2 July 1958
| runtime        = 20 min.
| country        = Switzerland French
| budget         =
| gross          =
| preceded_by    =
| followed_by    =
}}
Operation Concrete ( ) (1955) is a documentary made by French filmmaker Jean-Luc Godard, preceding his work in narrative, fiction film.

==External links==
* 

 

 
 
 
 
 
 
 
 
 


 
 