The Troubled Month of Veresen
{{Infobox Film
| name           = The Troubled Month of Veresen
| image          = 
| image_size     = 
| caption        = 
| director       = Leonid Osyka
| producer       =  Viktor Smirnov
| narrator       = 
| starring       = Viktor Fokin Borislav Brondukov Ivan Mikolajchuk Antonina Leftiy Irina Bunina Fedir Panasenko
| music          = 
| cinematography = 
| editing        = 
| distributor    = 
| released       = 1976
| runtime        = 
| country        = Soviet Union (Ukrainian SSR) Russian
| budget         = 
| gross          = 
| preceded_by    = 
| followed_by    = 
}}
 Ukrainian drama. The film, which was produced at the Dovzhenko Film Studios.

== See also ==
*Zakhar Berkut (1971) - other works of Leonid Osyka
*Kaminnyi khrest (1968)

== References ==
*  at the Internet Movie Database

== External links ==
*  

 
 
 
 
 
 
 
 