The Swissmakers
{{Infobox film
|  name           = Die Schweizermacher
|  image          = 
|  caption        = 
|  writer         = Rolf Lyssy Christa Maerker
|  starring       = 
|  director       = Rolf Lyssy
|  producer       = 
|  distributor    = 
|  released       = 1978
|  runtime        = 
|  language       = Swiss Standard German
|  budget         = 
|  music          = 
}}
 Swiss nationality but are forced to deal with bureaucratic and cultural barriers.

Die Schweizermacher remains one of the most successful Swiss movies, reaching 940,145 admissions in a country of 6.5 million inhabitants.  It was also the highest grossing movie in Switzerland until it was overtaken by Titanic (1997 film)|Titanic in 1997.

==References==
 

==External links==
* 

 
 
 
 
 


 
 