Blood (2009 film)
 
{{Infobox film
| name           = Blood
| image size     = 
| image	=	Blood-2009-poster.jpg
| border         = 
| alt            = 
| caption        = 
| director       = Ten Shimoyama
| producer       = 
| writer         = 
| screenplay     = 
| story          = 
| based on       = 
| narrator       = 
| starring       = Aya Sugimoto   Kanji Tsuda   Jun Kaname
| music          = 
| cinematography = 
| editing        = 
| studio         = 
| distributor    = 
| released       =  
| runtime        = 
| country        = Japan
| language       = Japanese
| budget         = 
| gross          = 
}}

  is a 2009 Japanese supernatural action film directed by Ten Shimoyama.  

==Cast==
* Aya Sugimoto as Miyako Rozmberk 
* Kanji Tsuda as Detective Hoshino
* Jun Kaname as Ukyo Kuronuma

==References==
 

==External links==
*  

 
 
 
 
 
 
 


 
 