Hearts and Sparks
 
{{Infobox film
| name           = Hearts and Sparks
| image          = 
| caption        = 
| director       = Clarence G. Badger
| producer       = Mack Sennett (Keystone Studios)
| writer         = Roy Del Ruth
| starring       = Gloria Swanson
| music          = 
| cinematography = 
| editing        = 
| distributor    = Triangle Film Corporation
| released       =  
| runtime        = 2 reels
| country        = United States  Silent English intertitles
| budget         = 
}}
 silent comedy film directed by Clarence G. Badger and starring Gloria Swanson.   

==Cast==
* Billie Bennett
* Nick Cogley
* Albert T. Gillespie Tom Kennedy Joe Lee
* Hank Mann
* Slim Summerville
* Gloria Swanson
* Bobby Vernon - Bobby

==References==
 

==External links==
* 

 
 
 
 
 
 
 
 
 
 

 