De Danadan
 
{{Infobox film
| name           = De Danadan
| image          = De Danadan Marathi Movie Poster.jpg
| caption        = Official poster
| director       = Mahesh Kothare
| producer       =
| writer         = Narayan Deulgavkar
| starring       = Mahesh Kothare  Laxmikant Berde  Nivedita Joshi Prema Kiran Deepak Shirke
| music          = Anil Mohile
| cinematography =
| editing        =
| art director   =
| production_company =
| distributor    =
| released       = 1987
| runtime        =
| country        =  
| awards         = Marathi
| budget         =
| gross          =
| website        =
| preceded by   =
| followed by    =
}}
De Danadan ( ) is a Marathi film directed by Mahesh Kothare and released in India in 1987.

==External links==
*  

 
 
 


 