Le Chant du monde (film)
{{Infobox film
| name           = Le Chant du monde
| image          =
| image_size     =
| caption        =
| director       =Marcel Camus
| producer       =
| writer         =
| narrator       =
| starring       = Hardy Krüger Catherine Deneuve Charles Vanel Marilù Tolo Serge Marquand Reinhard Kolldehoff
| music          =
| cinematography =
| editor       =
| distributor    =
| released       = 1965
| runtime        =
| country        = Italy Italian
| budget         =
| gross          = $6,436,356 
}}
 1965 Italy|Italian film directed by Marcel Camus. It is based on the novel The Song of the World (Fr. Le Chant du monde, 1934) by French author Jean Giono.

== References ==
 

==External links==
*  

 
 
 
 
 
 
 
 


 