Les Deux orphelines
{{Infobox film
| name           = Les Deux orphelines
| image          =
| image_size     =
| caption        =
| director       =Riccardo Freda
| producer       =
| screenplay     = 
| based on       =   
| starring       =
| music          =
| cinematography =
| editor       =
| distributor    =
| released       = 1965
| runtime        =
| country        = Italy Italian
| budget         =
}}
 1965 Italy|Italian film directed by Riccardo Freda.

==Cast==
 

==External links==
*  

 
 
 
 
 
 
 
 
 

 