Desafío en Río Bravo
{{Infobox film
| name           = Desafío en Río Bravo
| image          =
| image_size     =
| caption        =
| director       =Tulio Dimicheli
| producer       =
| writer         =
| narrator       =
| starring       =
| music          =
| cinematography =
| editor       =
| distributor    =
| released       = 1965
| runtime        =
| country        = Italy Italian
| budget         =
}}
 1965 Italy|Italian film directed by Tulio Dimicheli.

==Cast==
 

==External links==
*  

 
 
 
 

 