La colpa e la pena
{{Infobox film
| name           = La colpa e la pena
| image          =
| image_size     =
| caption        =
| director       =Marco Bellochio
| producer       =
| writer         =
| narrator       =
| starring       =
| music          =
| cinematography =
| editor       =
| distributor    =
| released       = 1965
| runtime        =
| country        = Italy Italian
| budget         =
}}
 1961 Italy|Italian film directed by Marco Bellochio. The screenplay and the story were also was written by Marco Bellocchio.

==Cast==
Maria Pia Conte, Alberto Maravalle and Stefano Satta

==External links==
*  

 
 
 
 

 