Ces dames s'en mêlent
{{Infobox film
| name           = Ces dames s&#39;en mêlent
| image          =
| image_size     =
| caption        =
| director       =Raoul André
| producer       =
| writer         =
| narrator       =
| starring       =
| music          =
| cinematography =
| editor       =
| distributor    =
| released       = 1965
| runtime        =
| country        = Italy Italian
| budget         =
}}
 1965 Italy|Italian film directed by Raoul André.

==Cast==
*Eddie Constantine	 ... 	Jeff Gordon
*Patricia Viterbo	 ... 	Angelica
*Linda Vandal	 ...	(as Jacqueline Vandal)
*Carla Marlier	 ... 	Wanda
*Hubert de Lapparent ... 	Alfred
*Philippe Mareuil	 ... 	Ericson
*Dorothée Blank	 ... 	Isabelle
*Annie Cordy	 ... 	Lily
*Johnny Cacao 
*Yvan Chiffre
*Jany Clair
*Joé Davray
*Roger Dutoit	 ... 	Angelo
*Nino Ferrer
*Jean Gras         	 ... 	Tony
*Jean-Marie Leguen
*Guy Marly	         ... 	Mario
*Manuel Vargas	         ... 	Zacharoff

==External links==
*  

 
 
 
 

 