A Girl's Own Story
 
{{Infobox film
| name           = A Girls Own Story
| image          = 
| alt            =  
| caption        = 
| director       = Jane Campion
| producer       = 
| writer         = Jane Campion
| starring       = Gabrielle Shornegg
| music          = 
| cinematography = Sally Bongers
| editing        = Christopher Lancaster
| studio         = 
| distributor    = 
| released       =   
| runtime        = 27 minutes
| country        = Australia
| language       = English
| budget         = 
| gross          = 
}}
 short Australian drama film directed by Jane Campion. It was screened in the Un Certain Regard section at the 1986 Cannes Film Festival.   

==Cast==
* Gabrielle Shornegg as Pam
* Geraldine Haywood as Stella
* Marina Knight as Gloria
* John Godden as Graeme
* Joanne Gabbe as Sister Colleen Fitzpatrick as Mother
* Paul Chubb as Father
* Jane Edwards as Deidre
* Cynthia Turner as Nun 1
* Valda Diamond as Nun 2
* Katharine Cullen as Little Pam

==References==
 

==External links==
* 

 

 
 
 
 
 
 
 
 
 
 
 
 
 