Willowbee
{{Infobox Film
| name           = Willowbee
| director       = George Kenyon
| producer       = 
| writer         = George Kenyon
| starring       = Seth Binzer  Amy Smart 
| distributor    = 
| released       = 
| runtime        = 24 minutes
| country        = United States English
| budget         = 
| gross          = 
}}
 US Comedy Arts Festival. 

==Cast==
*Seth Binzer - Lead
*Amy Smart - Burglar

==References==
 

==External links==
*  

 
 
 
 


 