La ragazzola
{{Infobox film
| name           =La ragazzola
| image          =LA-RAGAZZOLA.JPG
| image_size     =
| caption        =
| director       =Giuseppe Orlandini
| producer       =
| writer         = Ottavio Alessi   Ugo Guerra  
| narrator       =
| starring       =
| music          =Romano Mussolini
| cinematography =
| editor       =
| distributor    =
| released       = 1965
| runtime        = 90 minutes
| country        = Italy Italian
| budget         =
}}
 1965 Italy|Italian film directed by Giuseppe Orlandini.

==Cast==
*Agnès Spaak	... 	Lola
*Giuliano Gemma	... 	Raoul
*Gabriella Giorgelli	... 	Ines
*Angelo Infanti	... 	Alberto
*Paola Borboni	... 	Elvira Margaret Lee	... 	Adriana
*Roberto De Simone	... 	The Wizard
*Sandro Dori	... 	Fabrizio
*Armando Carini
*Anna Lina Alberti
*Libero Grandi
*Lamberto Antinori
*Dony Baster

==External links==
*  

 
 
 
 

 