I predoni del Sahara
{{Infobox film
| name           =I predoni del Sahara
| image          =I predoni del Sahara.jpg
| image_size     =
| caption        =
| director       =Guido Malatesta
| producer       =
| writer         = Ambrogio Molteni (writer), Emilio Salgari (novel)
| narrator       =
| starring       =
| music          =Angelo Francesco Lavagnino
| cinematography =
| editor       =
| distributor    =
| released       = 1965
| runtime        = 92 minutes
| country        = Italy Italian
| budget         =
}}
 1965 Italy|Italian adventure film directed by Guido Malatesta.

==Cast==
*George Mikell	... 	Ronald Wayne
*Pamela Tudor	... 	Dorothy Flatters
*William Stockridge	... 	James Stanton John Drake	... 	Daniel Flatters
*Farida Fahmy	... 	Aisha 
*Carlo Tamberlani	... 	Lord Flatters
*Enzo Fiermonte
*Nello Pazzafini	... 	Hamid

==External links==
*  

 
 
 
 
 
 
 

 