Romanzo d'amore
{{Infobox film
| name           =Romanzo d&#39;amore
| image          =Romanzo damore.jpg
| image_size     =
| caption        =
| director       =Duilio Coletti
| producer       =
| writer         =
| narrator       =
| starring       =
| music          =
| cinematography =
| editor       =
| distributor    =
| released       = 1950
| runtime        =
| country        = Italy Italian
| budget         =
}}
 1950 Italy|Italian drama film directed by Duilio Coletti.

==Cast==
* Rossano Brazzi as Enrico Toselli
* Danielle Darrieux as Archduchess Louise of Austria
* Olinto Cristina
* Jone Morino
* Vira Silenti
* Elena Altieri
* Liana Del Balzo 

==External links==
*  

 
 
 
 
 
 
 

 