Jungle Adventurer
{{Infobox film
| name           =La montagna di luce
| image          =
| image_size     =
| caption        =
| director       =Umberto Lenzi
| producer       =
| writer         = Fulvio Gicca Palli
| narrator       =
| starring       =
| music          =
| cinematography =
| editor       =
| distributor    =
| released       = 1965
| runtime        =
| country        = Italy Italian
| budget         =
}}
 1965 Italy|Italian adventure film directed by Umberto Lenzi.

==Cast== Richard Harrison	... 	Alan Foster
*Luciana Gilli	... 	Lilamani
*Wilbert Bradley	... 	Sitama
*Daniele Vargas	... 	Rajah Sindar
*Andrea Scotti
*Nerio Bernardi
*Nazzareno Zamperla	... 	Sitamas Man #1
*Giovanni Cianfriglia	... 	Sergeant
*Dakar	... 	Sitamas Man #2

==External links==
*  

 

 
 
 
 
 
 


 
 