Je vous salue, mafia!
{{Infobox film
| name           =Je vous salue, mafia!
| image          =Je vous salue, mafia!.jpg
| image_size     =
| caption        =
| director       =Raoul Lévy
| producer       = Jean Cau (dialogue), Pierre Lesou (novel)
| narrator       =
| starring       =
| music          =
| cinematography =
| editor       =
| distributor    =
| released       = 1965
| runtime        =
| country        = France, Italy Italian
| budget         =
}}
 1965 France|French Italian film directed by Raoul Lévy.

==Cast==
*Eddie Constantine	... 	Rudy
*Henry Silva	... 	Schaft
*Jack Klugman	... 	Phil
*Elsa Martinelli	... 	Sylvia
*Micheline Presle	... 	Daisy
*Michael Lonsdale	... 	Secretary
*Carl Studer	... 	Ruidosa
*Ricky Cooper	... 	Ben
*Tener Eckelberry	... 	Hyman

==External links==
*  

 
 
 
 
 

 