Le Majordome
{{Infobox film
| name           =Le Majordome
| image          =
| image_size     =
| caption        =
| director       =Jean Delannoy
| producer       =
| writer         = Henri Jeanson
| narrator       =
| starring       =
| music          =
| cinematography =
| editor       =
| distributor    =
| released       = 1965
| runtime        = 93 minutes
| country        = France, Italy French
| budget         =
}}
 1965 France|French Italian comedy film directed by Jean Delannoy.

==Cast==
*Paul Meurisse	... 	Léopold
*Geneviève Page	... 	Agnès des Vallières
*Paul Hubschmid	... 	Docteur Ventoux / Le chat
*Micheline Luccioni	... 	Arlette
*Lutz Gabor	... 	Fernand
*Jacques Seiler	... 	Albert
*Henri Lambert	... 	La Quille
*Noël Roquevert	... 	De Royssac
*Fernand Berset	... 	Le géant
*Paul Préboist	... 	Le majordome de Ventoux
*André Weber	... 	Pellegrini
*Florence Blot	... 	Linfirmière
*Marcel Charvey	... 	Le maître dhôtel
*Louis Bugette	... 	Un truand (as Bugette)
*Béatrice Delange	... 	La bonne dAgnès

==External links==
*  

 
 
 
 
 
 


 
 