Johnny West il mancino
{{Infobox film
| name           =Johnny West il mancino
| image          =
| image_size     =
| caption        =
| director       =Gianfranco Parolini
| producer       =
| writer         = José Luis Jerez Aloza (writer), Gianfranco Parolini (story)
| narrator       =
| starring       =
| music          =Angelo Francesco Lavagnino
| cinematography =
| editor       =
| distributor    =
| released       = 1965
| runtime        = 109 minutes
| country        = Italy Italian
| budget         =
}}
 1965 Italy|Italian spaghetti western film directed by Gianfranco Parolini.

==Cast==
*Mimmo Palmara	... 	Jonny West (as Dick Palmer)
*Adriano Micantoni	... 	Jefferson (as Mike Anthony)
*Roger Delaporte	... 	Don Trent
*André Bollet	... 	Brad McCoy
*Mara Cruz	... 	Anne Rose
*Dada Gallotti	... 	Ginger (as Diana Garsón)
*Barta Barri
*Roberto Camardiel	... 	Dusty
*Bob Felton	... 	Jimmy

==External links==
*  

 
 
 
 
 
 
 


 
 