Ippodromi all'alba
{{Infobox film
| name           =Ippodromi all&#39;alba
| image          =
| image_size     =
| caption        =
| director       =Alessandro Blasetti
| producer       =
| writer         =
| narrator       =Arnoldo Foa 
| starring       =Arnoldo Foa 
| music          = Franco Casavola
| cinematography = John Ventimiglia
| editor       =
| distributor    =
| released       = 1950
| runtime        =
| country        = Italy Italian
| budget         =
}}
 1950 Italy|Italian short documentary film directed by Alessandro Blasetti. 

==External links==
*  
* 
 
 
 
 

 