Loca juventud
{{Infobox film
| name           =Loca juventud
| image          =
| image_size     =
| caption        =
| director       =Manuel Mur Oti
| producer       =
| writer         =
| narrator       =
| starring       =
| music          =
| cinematography =
| editor       =
| distributor    =
| released       = 1965
| runtime        = 93 minutes
| country        = Spain, Italy Spanish
| budget         =
}}
 1965 Spain|Spanish Italian film directed by Manuel Mur Oti.

==Cast==
*Alberto Alonso
*Io Apolloni
*José María Caffarel
*Carlo Campanini
*Giove Campuzano
*José María Escuer
*Joselito
*Marisa Merlini
*Antonio Moreno
*Joaquín Pamplona
*Luis Prendes
*Jesús Puente
*Emilio Rodríguez
*Ingrid Simon
*María Esther Vázquez

==External links==
*  

 
 
 
 
 


 