Kidnapped to Mystery Island
{{Infobox film
| name           =I misteri della giungla nera
| image          =
| image_size     =
| caption        =
| director       =Luigi Capuano
| producer       =
| writer         = Arpad DeRiso, Ottavio Poggi
| narrator       =
| starring       =
| music          =
| cinematography =
| editor       =
| distributor    =
| released       = 1965
| runtime        = 96 minutes
| country        = Italy Italian
| budget         =
}}
 1965 Italy|Italian adventure film directed by Luigi Capuano.

==Cast==
*Guy Madison	... 	Souyadhana
*Ingeborg Schöner	... 	Ada
*Giacomo Rossi-Stuart	... 	Tremal Naik
*Ivan Desny	... 	Maciadi
*Giulia Rubini	... 	Gundali
*Ferdinando Poggi	... 	Kammamuri
*Peter van Eyck	... 	Captain McPherson
*Aldo Bufi Landi
*Aldo Cristiani
*Romano Giomini

==External links==
*  

 
 
 
 
 
 
 
 
 

 
 