Il nido di Falasco
{{Infobox film
| name           =Il nido di falasco
| image          =Il nido di falasco.jpg
| image_size     =
| caption        =
| director       =Guido Brignone
| producer       =
| writer         = Luigi Ugolini (book)
| narrator       =
| starring       =
| music          =Ezio Carabella
| cinematography =
| editor       =
| distributor    =
| released       = 1950
| runtime        = 92 minutes
| country        = Italy Italian
| budget         =
}}
 1950 Italy|Italian drama film directed by Guido Brignone.

==Cast==
*Umberto Spadaro
*Liliana Tellini
*Ermanno Randi
*Gaetano Verna Carlo Lombardi
*Pina Piovani
*Checco Durante
*Maria Zanoli

==External links==
*  

 

 
 
 
 
 

 