L' Isola bianca
{{Infobox film
| name           =L&#39; Isola bianca
| image          =
| image_size     =
| caption        =
| director       = Dino Risi
| producer       =
| writer         =
| narrator       =
| starring       =
| music          =
| cinematography =
| editor       =
| distributor    =
| released       = 1950
| runtime        =
| country        = Italy Italian
| budget         =
}}
 1950 Italy|Italian short documentary film directed by Dino Risi.

==External links==
*  

 
 
 
 

 