OSS 77 – Operazione fior di loto
 
{{Infobox film
| name           =OSS 77 - Operazione fior di loto
| image          =Oss-77-operazione-fior-di-loto.jpg
| image_size     =
| caption        =
| director       =Bruno Paolinelli
| producer       =
| writer         =
| narrator       =
| starring       =
| music          = Luis Bacalov
| cinematography =
| editor       =
| distributor    =
| released       = 1965
| runtime        =
| country        = Italy Italian
| budget         =
}}
 1965 Italy|Italian Eurospy spy film directed by Bruno Paolinelli.

==Cast==
*Dominique Boschero
*Gaia Germani
*Sandro Moretti	(as Robert Kent)
*Yoko Tani
*Jean-Louis Trista

==External links==
*  

 
 
 
 
 


 