Location Hunting in Palestine
{{Infobox film
| name           =Sopralluoghi in Palestina per il vangelo secondo Matteo
| image          =
| image_size     =
| caption        =
| director       =Pier Paolo Pasolini
| producer       =
| writer         =
| narrator       =
| starring       =
| music          =
| cinematography =
| editor       =
| distributor    =
| released       = 1965
| runtime        = 55 minutes
| country        = Italy Italian
| budget         =
}}
 1965 Italy|Italian documentary film directed by Pier Paolo Pasolini.

==Cast==
 

==External links==
*  

 

 
 
 
 
 
 
 


 
 