Act Normal
 
{{Infobox film
| name           = Act Normal
| image          =
| caption        =
| director       = Olaf de Fleur
| producer       =
| writer         =
| starring       =
| cinematography =
| editing        =
| distributor    =
| released       = October 1, 2006
| runtime        = 80 min.
| country        = Iceland Icelandic
| budget         =
| gross          = 	
| followed_by    =
| preceded_by =
}}

Act Normal is a 2006 Icelandic documentary by Olaf de Fleur.

==Plot== Britain for disrobe and get married only to return later to Thailand to become a monk again  .

==External links==
*  
* 

 
 
 
 
 
 


 
 