Ha fatto tredici
{{Infobox film
| name           = Ha fatto tredici
| image          = 
| image_size     = 
| caption        = 
| director       =  Carlo Manzoni
| producer       = 
| writer         = 
| narrator       = 
| starring       = 
| music          = Giovanni Fusco
| cinematography = 
| editor         = 
| distributor    = 
| released       = 1951
| runtime        = 
| country        = Italy
| language       = Italian
| budget         = 
}}
 1951 Italy|Italian comedy film directed by Carlo Manzoni.

==Cast==
* Carlo Croccolo as 	Mario Rossi
* Riccardo Billi as 	Himself
* Mario Riva as 	Himself
* Antonella Lualdi as 	Mirella
* Virgilio Riento as Cav. Brusaglia
* Nyta Dover	
* Giulio Stival as 	Direttore dellhotel
* Nerio Bernardi		
* Anna Carena	
* Beniamino Maggio as 	Fattorino dellhotel
* Silvana Pampanini	
* Camillo Pilotto		
* Franca Rame	 	
* Marco Tulli

==External links==
*  

 
 
 
 

 