Vacanze col gangster
{{Infobox film
| name           =Vacanze col gangster
| image          =Vacanzecolgangster.jpg
| image_size     =160px
| caption        =
| director       = Dino Risi
| producer       =Mario Cecchi Gori
| writer         = Dino Risi Ennio de Concini
| narrator       =
| starring       =
| music          = Mario Nascimbene
| cinematography =
| editing       = Franco Fraticelli
| distributor    =
| released       = 1951
| runtime        =
| country        = Italy Italian
| budget         =
}}
 1951 Italy|Italian film directed by  Dino Risi. 

==Cast==
* Marc Lawrence: Jack Mariotti 
* Giovanna Pala: Amelia 
* Mario Girotti: Gianni
* Lamberto Maggiorani: Galeotto N. 5823
* Silvio Bagolini
* Carlo Pedersoli
* Dina Perbelini 

== References ==
 

==External links==
*  

 

 
 
 
 
 

 