Anna's Sin
{{Infobox film
| name           =Annas Sin
| image          = 
| image_size     =
| caption        =
| director       =Camillo Mastrocinque
| producer       =
| writer         =Camillo Mastrocinque Edoardo Anton Anna Vita 
| narrator       =
| starring       =
| music          =
| cinematography =Bitto Albertini
| editor       =
| distributor    =
| released       = 1952
| runtime        =
| country        = Italy Italian
| budget         =
}}
 1952 Italy|Italian drama film.

==Cast==
*Anna Vita as  Anna  Ben Johnson as John  
*William Demby as Sam  Paul Muller as Alberto 

==External links==
*  

 
 
 
 
 

 