Gli undici moschettieri
{{Infobox film
| name           =Gli Undici moschettieri
| image          =
| image_size     =
| caption        =
| director       =Ennio De Concini   Fausto Saraceni
| producer       =Dino De Laurentiis   Carlo Ponti
| writer         =
| narrator       =
| starring       =
| music          =Armando Trovajoli
| cinematography =
| editor       =
| distributor    =
| released       = 1952
| runtime        =
| country        = Italy Italian
| budget         =
}}
 1952 Italy|Italian documentary film directed by  Ennio De Concini and Fausto Saraceni..

==Cast==
* Silvio Piola: himself
* Giuseppe Meazza: himself
* Vittorio Pozzo: himself
* Fulvio Bernardini: himself
* Renzo De Vecchi: himself

== External links ==
*  

 
 
 
 

 