Miracolo a Viggiù
{{Infobox film
| name           =Miracolo a Viggiù
| image          =
| image_size     =
| caption        =
| director       =Luigi Giachino
| producer       =
| writer         =
| narrator       =
| starring       =
| music          =
| cinematography =
| editor       =
| distributor    =
| released       = 1952
| runtime        =
| country        = Italy Italian
| budget         =
}}
 1952 Italy|Italian comedy film by Luigi Giachino.

==Cast==
* Mario Carotenuto
* Antonella Lualdi
* Silvana Pampanini
* Nunzio Filogamo
* Teddy Reno 
* Beniamino Maggio
==External links==
*  

 
 
 
 

 