Il microfono è vostro
{{Infobox film
| name           =Il Microfono è vostro
| image          =Il Microfono è vostro.jpg
| image_size     =
| caption        =
| director       =Giuseppe Bennati
| producer       =
| writer         =
| narrator       =
| starring       =
| music          =
| cinematography =
| editor       =
| distributor    =
| released       = 1951
| runtime        =
| country        = Italy Italian
| budget         =
}}
 1951 Italy|Italian comedy film directed by Giuseppe Bennati.

==Cast==
* Aroldo Tieri
* Gisella Sofio
* Enrico Viarisio
* Guglielmo Inglese
* Enrico Luzi
* Ada Dondini
* Mario Siletti
* Rino Salviati
* Franco Pucci
* Nilla Pizzi
* Nunzio Filogamo
* Gorni Kramer
* Cinico Angelini
* Gisella Monaldi
* Giacomo Furia
* Quartetto Cetra

==External links==
*  

 
 
 
 

 