Meglio di ieri
{{Infobox film
| name           =Meglio di ieri
| image          =
| image_size     =
| caption        =
| director       =Romolo Marcellini
| producer       =
| writer         =
| narrator       =
| starring       =
| music          =
| cinematography =
| editor       =
| distributor    =
| released       = 1952
| runtime        =
| country        = Italy Italian
| budget         =
}}
 1952 Italy|Italian documentary film.
 

==External links==
*  

 
 
 
 
 

 