Fiorenzo, il terzo uomo
{{Infobox film
| name           =Fiorenzo, il terzo uomo
| image          =Fiorenzo, il terzo uomo.jpg
| image_size     =
| caption        =
| director       =Stefano Canzio
| producer       =
| writer         =
| narrator       =
| starring       =
| music          =
| cinematography =
| editor       =
| distributor    =
| released       = 1951
| runtime        =
| country        = Italy Italian
| budget         =
}}
 1951 Italy|Italian comedy film directed by Stefano Canzio.

==Cast==
* Aldo Fabrizi	 
* Renato Rascel		
* Nino Taranto		
* Mario Siletti		
* Silvio Gigli		
* Raffaele Pisu

==External links==
*  

 
 
 
 

 