Era lei che lo voleva
{{Infobox film
| name           =Era lei che lo voleva
| image          =
| image_size     =
| caption        =
| director       = Marino Girolami
| producer       =
| writer         =
| narrator       =
| starring       =
| music          =
| cinematography =
| editor       =
| distributor    =
| released       = 1952
| runtime        =
| country        = Italy Italian
| budget         =
}}
 1952 Italy|Italian comedy film directed by Marino Girolami.

==Cast==
* Walter Chiari: Walter Martini 
* Lucia Bosé: Nausicaa 
* Carlo Campanini: Antonio 
* Jone Morino: Donna Eva 
* Giuseppe Porelli: Comm. Invernaghi 
* Rolf Tasna: Dott. Rossi 
* Enzo Fiermonte: Un Puglie 
* Tiberio Mitri

==External links==
*  

 
 
 
 
 
 


 