Art. 519 codice penale
 
{{Infobox film
| name           =Art. 519 codice penale
| image          =Art. 519 codice penale.jpg
| image_size     =
| caption        =
| director       = Leonardo Cortese
| producer       =
| writer         =
| narrator       =
| starring       =
| music          =Carlo Innocenzi
| cinematography =Anchise Brizzi
| editor       =
| distributor    =
| released       = 1952
| runtime        =
| country        = Italy
| language       = Italian
| budget         =
}}
 Italian film directed by Leonardo Cortese.

==Cast==
* Henri Vidal	as		Renato Berti
* Cosetta Greco	as		Clara Martini
* Paolo Stoppa	as	 	Avv. Sardi
* Rosy Mazzacurati	as	 Luisa Berti
* Giorgio Albertazzi	as	Franco, Luisas fiancée
* Denise Grey	as	 	Claras mother
* Emilio Cigoli	as		Claras father

==External links==
*  

 
 
 
 
 


 