Gli uomini non guardano il cielo
{{Infobox film
| name           =Gli Uomini non guardano il cielo
| image          =
| image_size     =
| caption        =
| director       = Umberto Scarpelli
| producer       =
| writer         =
| narrator       =
| starring       =
| music          =
| cinematography =
| editor       =
| distributor    =
| released       = 1951
| runtime        =
| country        = Italy Italian
| budget         =
}}
 1951 Italy|Italian drama film.

==Cast==
*Henri Vidon: Pope Pius X
*Tullio Carminati: Cardinal Merry del Val
*Isa Miranda: The countess

== External links ==
*  

 
 
 
 
 

 