Il prezzo dell'onore
{{Infobox film
| name           =Il Prezzo dell&#39;onore
| image          =
| image_size     =
| caption        =
| director       =Ferdinando Baldi
| producer       =
| writer         =
| narrator       =
| starring       =
| music          =
| cinematography =Corrado Pintaldi 	
| editor       =
| distributor    =
| released       = 1952
| runtime        =
| country        = Italy  Italian
| budget         =
}}
 1952 Italy|Italian melodrama film directed by Ferdinando Baldi.

==Cast==
* Maria Frau as Maria 
* Mario Vitale as Antonio
* Vincenzo Musolino as Francesco
* Mino Doro as Don Nicola
* Armando Guarnieri as Michele
* Amedeo Trilli as Minutolo  
* Giovanna Ralli

==External links==
*  

 
 
 
 
 
 

 