Matrimonio alla moda
{{Infobox film
| name           =Matrimonio alla moda
| image          =
| image_size     =
| caption        =
| director       =Luciano Emmer
| producer       =
| writer         =
| narrator       =
| starring       =
| music          =
| cinematography =
| editor       =
| distributor    =
| released       = 1951
| runtime        =
| country        = Italy Italian
| budget         =
}}
 1951 Italy|Italian documentary short film.

The director and writer was Luciano Emmer.  

==External links==
*  

==References==
 

 
 
 
 

 