È colpa del sole
{{Infobox film
| name           = Colpa Del Sole
| image          = 
| image_size     = 
| caption        = 
| director       = Alberto Moravia
| producer       = 
| writer         = Alberto Moravia
| narrator       = 
| starring       = Strelsa Brown, Giancarlo Sbragia, Clotilde Scarpitta
| music          = 
| cinematography = 
| editor         = 
| distributor    = 
| released       = 1951
| runtime        = 
| country        = Italy
| language       = Italian
| budget         = 
}}
 1951 Italy|Italian film.

==Cast==
Strelsa Brown, Giancarlo Sbragia, Clotilde Scarpitta
==External links==
*  

 
 
 
 

 