La paura fa 90
{{Infobox film
| name           =La Paura fa 90
| image          =La paura fa 90.jpg
| image_size     =
| caption        =
| director       = Giorgio Simonelli
| producer       =
| writer         =
| narrator       =
| starring       =
| music          =
| cinematography = Tino Santoni
| editing      = Nino Baragli
| distributor    =
| released       = 1951
| runtime        =
| country        = Italy Italian
| budget         =
}}
 1951 Italy|Italian comedy film directed by Giorgio Simonelli.

==Cast==
* Silvana Pampanini: Luisa 
* Ugo Tognazzi: Anastasio/Duca Di Boffignac 
* Franca Marzi: Nanda 
* Carlo Croccolo: Pinotto 
* Virgilio Riento: Bargilio 
* Galeazzo Benti: Carlo Champignon 
* Luigi Pavese: Impresario 
* Anna Maria Bottini: Gipsy  
* Mario Castellani: Avvocato Lefevre  
* Alfredo Rizzo: Suggeritore

==External links==
*  

 
 
 
 
 

 