I due derelitti
{{Infobox film
| name           =I Due derelitti
| image          =
| image_size     =
| caption        =
| director       =Flavio Calzavara 
| producer       =
| writer         =
| narrator       =
| starring       =
| music          =Cesare A. Bixio Franco Casavola
| cinematography =Aldo Tonti
| editor       =
| distributor    =
| released       = 1951
| runtime        =
| country        = Italy Italian
| budget         =
}}
 1951 Italy|Italian drama film directed by Flavio Calzavara.

==Cast==
*Massimo Serato as Ramon  Yves Deniaud as Lumaca
*Lea Padovani as Elena 
*Marie Bizet as Lumacas wife 
*Enzo Cerusico

==External links==
*  

 
 
 
 
 
 


 