Noi due soli
{{Infobox film
| name           =Noi due soli
| image          =
| image_size     =
| caption        =
| director       = Marino Girolami
| producer       =
| writer         =
| narrator       =
| starring       =
| music          = Nino Rota
| cinematography = 	Mario Montuori
| editing       = Franco Fraticelli
| distributor    =
| released       = 1952
| runtime        =
| country        = Italy Italian
| budget         =
}}
 1952 Cinema Italian comedy film directed by Marino Girolami.

==Cast==
* Walter Chiari: Walter 
* Hélène Rémy: Gina 
* Carlo Campanini: Carlo 
* Anna Campori: Sig.ra Fillide 
* Raimondo Vianello: Vallini 
* Enrico Viarisio: Il presidente 
* Mario Feliciani  
* Gianrico Tedeschi

==External links==
*  
 
 
 
 
 
 
 