Il Capitano di Venezia
{{Infobox film
| name           =Il Capitano di Venezia
| image          =
| image_size     =
| caption        =
| director       = Gianni Puccini
| producer       =
| writer         =
| narrator       =
| starring       =
| music          =Mario Zafred
| cinematography =Gianni di Venanzo
| editor       =
| distributor    =
| released       = 1951
| runtime        =
| country        = Italy Italian
| budget         =
}}
 1951 Italy|Italian adventure film directed by Gianni Puccini.

==Cast==
* 	Leonardo Cortese	as	Rizzardo
* 	Mariella Lotti	as	Ginevra
* 	Andrea Checchi	as	Ezzelino da Romano
* 	Dante Maggio	as	Papele Scaramuzza
* 	Franco Balducci	as	Marin Soldero
* 	Xenia Valderi	as 	Gioia
* 	Pietro Tordi	as	Conte Gritti
* 	Gino Cavalieri	   
* 	Gino Latilla 

==External links==
*  

 
 
 
 

 