Ultimo perdono
{{Infobox film
| name           =Ultimo perdono
| image          =Ultimo_perdono_franca_marzi_renato_polselli_002_jpg_tfrm.jpg
| image_size     =
| caption        =
| director       =Renato Polselli
| producer       =
| writer         =
| narrator       =
| starring       =
| music          =
| cinematography =
| editor       =
| distributor    =
| released       = 1952
| runtime        =
| country        = Italy Italian
| budget         =
}}
 1952 Italy|Italian drama film directed by Renato Polselli.

==Cast==
* Franca Marzi		
* Adriano Rimoldi		
* Dante Maggio		
* John Kitzmiller		
* Silvio Bagolini		
* Renato Malavasi		
* Paola Borboni

==External links==
*  

 
 
 
 

 