Ombre sul Canal Grande
{{Infobox film
| name           =Ombre sul Canal Grande
| image          =
| image_size     =
| caption        =
| director       =Glauco Pellegrini
| producer       =Luigi Rovere
| writer         =
| narrator       =
| starring       =
| music          =Gino Gorini
| cinematography =
| editor       =
| distributor    =
| released       = 1951
| runtime        =
| country        = Italy Italian
| budget         =
}}
 1951 Italy|Italian film.

==Cast==
*Emilio Baldanello
*Vanda Baldanello
*Leony Bert
*Patrizia Caronti
*Gianni Cavalieri
*Antonia Centa
*Carlo Hinterman
*Isa Pola
*Cesira Vianello
*Elena Zareschi

==External links==
*  

 
 
 
 
 

 