Jeepers Creepers (1939 western film)
{{Infobox film
| name           =Jeepers Creepers
| image          =
| image_size     =
| caption        =
| director       =
| producer       =
| writer         =
| narrator       =
| starring       = Roy Rogers
| music          = James Wessel
| cinematography =
| editor       =
| distributor    =
| released       = 1939
| runtime        =
| country        = United States
| language       = English
| budget         =
}}

 Jeepers Creepers is a 1939 American film starring Roy Rogers.

==Cast==
 

==External links==
*  

 
 
 
 
 
 
 


 