Arkansas Judge
{{Infobox film
| name           =Arkansas Judge
| image          =
| image_size     =
| caption        =
| director       =
| producer       =
| writer         =
| narrator       =
| starring       = Roy Rogers
| music          =
| cinematography =
| editor       =
| distributor    =
| released       = 1941
| runtime        =
| country        = United States
| language       = English
| budget         =
}}
 American film starring Roy Rogers.

==Cast==
 

==External links==
*  

 
 
 
 
 
 


 