Susanna Pass
{{Infobox film
| name           =Susanna Pass
| image          =
| image_size     =
| caption        =
| director       =
| producer       =
| writer         =
| narrator       =
| starring       = Roy Rogers
| music          =
| cinematography =
| editor       =
| distributor    =
| released       = 1949
| runtime        =
| country        = United States English
| budget         =
}}
 1949 United American film starring Roy Rogers.

==Cast==
 

==External links==
*  

 
 
 
 
 
 


 