The Big Bonanza
{{Infobox film
| name           =The Big Bonanza
| image          =
| image_size     =
| caption        =
| director       = George Archainbaud
| producer       =
| writer         =
| narrator       =
| starring       = Jane Frazee Richard Arlen Gabby Hayes
| music          =
| cinematography =
| editor       =
| distributor    = Republic Pictures
| released       = 1944
| runtime        = 70 minutes
| country        = United States
| language       = English
| budget         =
}}
 1944 United American film starring Jane Frazee, Richard Arlen, Gabby Hayes, and Bobby Driscoll.

==Cast==
*Robert Livingston 
*lynne Roberts
*J.M. Kerrigan Rusell Simpson
*Frank Reicher
*Cordell Hickman
*Hayward Soo Hoo
*Roy Barcroft
*Fred Kohler Jr.
*Monte Hale.

==External links==
*  

 
 
 
 
 
 
 


 