Almost Married
{{Infobox film
| name           = Almost Married
| image          =
| image_size     =
| caption        =
| director       = Charles Lamont
| producer       =
| writer         =
| narrator       =
| starring       = Jane Frazee
| music          =
| cinematography =
| editor         =
| distributor    = Universal Pictures
| released       = 1942
| runtime        =
| country        = United States English
| budget         =
}}
 American film starring Jane Frazee.

==Cast==
*Jane Frazee	 ... 	Gloria Dobson
*Robert Paige	... 	James Manning,lll
*Eugene Pallette	... 	Doctor Dobson Elizabeth Patterson	... 	Aunt Matilda Manning Charles Coleman	... 	Michael, Mannings Butler
*Maude Eburne	... 	Mrs. Clayton

==External links==
*  

 

 
 
 
 
 
 
 
 
 
 


 
 