Swingin' on a Rainbow
{{Infobox film
| name           =Swingin on a Rainbow
| image          =
| caption        =
| director       =
| producer       =
| writer         =
| narrator       =
| starring       = Jane Frazee
| music          =
| cinematography =
| editor       =
| distributor    =
| released       =  
| runtime        =
| country        = United States
| language       = English
| budget         =
}}
 1945 United American film starring Jane Frazee.

==Cast==
 

==External links==
*  

 

 
 
 
 
 
 
 
 


 