Breakfast with Hunter
 
{{Infobox film
| name           = Breakfast with Hunter
| image          =
| image_size     =
| caption        =
| director       = Wayne Ewing
| producer       =
| writer         =
| narrator       =
| starring       = Hunter S. Thompson
| music          =
| cinematography =
| editing        =
| distributor    =
| released       =
| runtime        =
| country        =
| language       =
| budget         =
| preceded_by    =
| followed_by    =
| website        =
}}
 documentary about the everyday life of Gonzo journalism|gonzo-journalist Hunter S. Thompson by Wayne Ewing.

The film includes a variety of well-known figures involved with Thompson throughout his life, including P. J. ORourke, Ralph Steadman, Roxanne Pulitzer, Johnny Depp, Terry Gilliam and Benicio del Toro.

==External links==
* .
* .
* .
*  by the Viking Youth Power Hour.

 

 
 
 
 
 
 
 
 

 