Little Brother (1927 film)
{{Infobox film
| name           = Little Brother
| image          = 
| image_size     = 
| caption        = 
| director       = Grigori Kozintsev Leonid Trauberg
| producer       = 
| writer         = Grigori Kozintsev Leonid Trauberg
| narrator       = 
| starring       = Pyotr Sobolevsky
| music          = 
| cinematography = Andrei Moskvin	 	
| editing        = 
| distributor    =  Sovkino
| released       = 30 April 1927
| runtime        = 1,584 meters (67 minutes)
| country        = Soviet Union
| language       = Silent film Russian intertitles
| budget         = 
}}
 Soviet silent film directed by Grigori Kozintsev and Leonid Trauberg. Film is believed to be lost.

==Cast==
* Pyotr Sobolevsky - Driver
* Yanina Zhejmo - Girl
* Sergei Martinson
* Andrei Kostrichkin	 Sergei Gerasimov		
* Tatyana Guretskaya - Conductor
* Emil Gal - Worker of the port Valeri Plotnikov	

==External links==
* 

 

 
 
 
 
 
 
 
 

 