The Devil's Wheel
{{Infobox film
| name           = The Devils Wheel
| image          = 
| image_size     = 
| caption        = 
| director       = Grigori Kozintsev Leonid Trauberg
| producer       = 
| writer         = Adrian Piotrovsky Veniamin Kaverin (story)
| narrator       = 
| starring       = Pyotr Sobolevsky
| music          = 
| cinematography = Andrei Moskvin	 	
| editing        = 
| distributor    =  Leningradkino
| released       = 16 March 1926
| runtime        = 2,650 meters (112 minutes)
| country        = Soviet Union
| language       = Silent film Russian intertitles
| budget         = 
}}
 Soviet silent film directed by Grigori Kozintsev and Leonid Trauberg.

==Cast==
* Pyotr Sobolevsky - Vanya Shorin
* Lyudmila Semyonova - Valya Sergei Gerasimov	- Question Mark
* Emil Gal
* Sergei Martinson - Conductor
* Andrei Kostrichkin	
* Yanina Zhejmo

==External links==
* 

 

 
 
 
 
 
 
 
 


 