Difunta Correa (film)
{{Infobox film
| name           =Difunta Correa
| image          =
| image_size     =
| caption        =
| director       =Hugo Reynaldo Mattar
| producer       =
| writer         =
| narrator       =
| starring       =
| music          =
| cinematography =
| editor       =
| distributor    =
| released       = 1975
| runtime        =
| country        = Argentina Spanish
| budget         =
}}
 1975 Argentina|Argentine film directed by Hugo Reynaldo Mattar. It premiered in Buenos Aires on September 18, 1975.

==Cast==
 

==External links==
*  

 
 
 
 

 