Fotógrafo de señoras
{{Infobox film
| name           =Fotógrafo de señoras
| image          =Fotógrafo de señoras.jpg
| image_size     =
| caption        =
| director       =Hugo Moser
| producer       =
| writer         =
| narrator       =
| starring       =
| music          =
| cinematography =
| editor       =
| distributor    =
| released       = 1978
| runtime        =
| country        = Argentina Spanish
| budget         =
}}
 1978 Argentina|Argentine comedy film directed by Hugo Moser.

==Cast==

* Jorge Porcel
* Graciela Alfano
* Javier Portales
* Tristán Díaz Ocampo|Tristán
* Adolfo García Grau
* Adriana Quevedo
* César Bertrand
* Stella Maris Lanzani
* Carlos Gros
* Alberto Olmedo

==External links==
*  

 
 
 
 

 