Road to the Stage
{{Infobox Film
| name           = Road to the Stage / Путь на арену
| image          = 
| image_size     = 
| caption        = 
| director       = Henrik Malyan Levon Isahakyan
| producer       = 
| writer         = Aleksandr Yurovsky (writer)
| narrator       = 
| starring       = Leonid Yengibarov, Izabella Danzas, Hayk Danzas, Varduhi Varderesyan, Karp Khachvankyan
| music          = Konstantin Orbelyan 
| cinematography =   
| editing        = 
| distributor    = Armenfilm studios
| released       = October 1963
| runtime        = 88 minutes
| country        = Soviet Union Russian
| budget         = 
| preceded_by    = 
| followed_by    = 
}} Armenian film about a young circus artist (Leonid Yengibarov), who becomes a famous star.

The circus troupe of Armenian SSR took part in the shoot. 

==References==
 

==External links==
*  

 
 
 
 
 


 
 