El Fantástico mundo de María Montiel
 

{{Infobox film
| name           =El Fantástico mundo de la María Montiel
| image          =
| image_size     =
| caption        =
| director       =Jorge Zuhair Juri
| producer       =
| writer         =
| narrator       =
| starring       =
| music          =
| cinematography =
| editor       =
| distributor    =
| released       = 1978
| runtime        =
| country        = Argentina Spanish
| budget         =
}}
 1978 Argentina|Argentine film.

==Cast==
 

==External links==
*  

 
 
 
 


 