Proceso a la infamia
{{Infobox film
| name           = Proceso a la infamia
| image          =
| image_size     =
| caption        =
| director       = Alejandro Doria
| producer       =
| writer         =
| narrator       =
| starring       =
| music          =
| cinematography =
| editor         =
| distributor    =
| released       = 1974
| runtime        =
| country        = Argentina Spanish
| budget         =
}}
 1974 Argentina|Argentine film directed by Alejandro Doria.

==Cast==
 

==External links==
*  

 
 
 
 

 

 