Los Chicos crecen (1976 film)
{{Infobox film
| name           =Los Chicos crecen
| image          =
| image_size     =
| caption        =
| director       =Enrique Carreras
| producer       =
| writer         =
| narrator       =
| starring       =
| music          =
| cinematography =
| editor       =
| distributor    =
| released       = 1976
| runtime        =
| country        = Argentina
| language       = Spanish
| budget         =
}}
 1976 Argentina|Argentine film directed by Enrique Carreras.

==Cast==
 

==External links==
*  

 
 
 
 
 

 