The Middleton Family at the New York World's Fair
{{Infobox film
| name           = The Middleton Family at the New York Worlds Fair
| image          =
| image_size     =
| caption        =
| director       = Robert R. Snody
| producer       =
| writer         = Reed Drummond G.R. Hunter
| narrator       =
| starring       = 
| music          =
| cinematography = William O. Steiner
| editing        = Sol E. Feuerman
| distributor    =
| released       = 1939
| runtime        = 55 minutes
| country        = United States
| language       = English
| budget         =
| gross          =
| preceded_by    =
| followed_by    =
| website        =
}}
 Westinghouse for their exhibit at the 1939 New York Worlds Fair.

In 2012, the film was added to the National Film Registry. 

== Cast ==
*Marjorie Lord as Babs
*Jimmy Lydon as Bud
*Ruth Lee as Mother Harry Shannon as Father
*Adora Andrews as Grandma
*Douglas Stark as Jim Treadway
*George J. Lewis as Nicholas Makaroff
*Georgette Harvey as Maid

==References==
Notes
 

== External links ==
* 
* 

 
 
 
 
 
 
 
 
 


 