Night Out (film)
 
{{Infobox film
| name           = Night Out
| image          =
| image_size     =
| caption        = Lawrence Johnston
| producer       =
| writer         = Lawrence Johnston
| starring       = Colin Batrouney
| music          =
| cinematography = Brent Crockett
| editing        =
| distributor    =
| released       =  
| runtime        = 50 minutes
| country        = Australia
| language       = English
| budget         =
}}
 Lawrence Johnston.    It was screened in the Un Certain Regard section at the 1990 Cannes Film Festival.   

==Cast==
* Colin Batrouney as Tony
* David Bonney as Steve
* John Brumpton
* Luke Elliot
* Andrew Larkins Tom Sherlock Matthew Willis

==References==
 

==External links==
* 

 
 
 
 
 
 
 
 
 

 
 