The Chosen One (1990 film)
{{Infobox film
| name           = The Chosen One
| image          = 
| caption        = 
| director       = Aribam Syam Sharma
| producer       = 
| writer         = M. K. Binodini Devi
| starring       = Kiranmala
| music          = Aribam Syam Sharma
| cinematography = Girish Padhiar
| editing        = Ujjal Nandi
| distributor    = 
| released       =  
| runtime        = 121 minutes
| country        = India
| language       = Manipuri
| budget         = 
}} Indian film directed by Aribam Syam Sharma. It was screened in the Un Certain Regard section at the 1991 Cannes Film Festival.   

==Cast==
* Kiranmala as Tampha Tara

==References==
 

==External links==
*  

 
 
 
 
 
 