Kaasi
{{Infobox Film
| name           = Kaasi
| image          = 
| caption        = 
| director       =Lakshmi Srinivas
| producer       =Lakshmi Srinivas
| writer         = 
| starring       = J. D. Chakravarthy Keerti Chawla Brahmanandam
| music          =Sri Kommineni
| cinematography = 
| editing        = 
| distributor    =
| released       =2004
| country        = India Telugu
| budget         = 
| gross          = 
}}
 Telugu drama film, starring J. D. Chakravarthy and Keerti Chawla. 

==References==
 

==External links==
*http://www.idlebrain.com/movie/photogallery/kaasi.html

 
 
 

 