A Woman of No Importance (1921 film)
{{Infobox film
| name           = A Woman of No Importance
| image          = 
| caption        = 
| director       = Denison Clift
| producer       = 
| writer         = Oscar Wilde (play) Arthur Q. Walton Ward McAllister Lillian Walker Henry Vibart
| music          = 
| cinematography = 
| editing        = 
| studio         = Ideal Film Company
| distributor    = Ideal Film Company
| released       = July 1921
| runtime        = 
| country        = United Kingdom
| awards         =
| language       = English
| budget         =
| preceded_by    =
| followed_by    =
}}
 1921 Cinema British drama film directed by Denison Clift. It is based on the play A Woman of No Importance by Oscar Wilde. 

==Cast==
*Fay Compton as Rachel Arbuthnot
*Milton Rosmer as Lord Illingworth Ward McAllister as Gerald Arbuthnot
*Lillian Walker as Hester Hasley
*Henry Vibart as Farquhar

==References==
 

==External links==
*  
*  

 

 
 
 
 
 
 
 
 
 
 
 


 