Wharf Angel
{{Infobox film
| name           = Wharf Angel
| image          =Wharf Angel.jpg
| image_size     =
| caption        =
| director       = William Cameron Menzies and George Somnes
| producer       = 
| writer         = Stephen Morehouse Avery
| narrator       = David Landau  Preston Foster
| music          = 
| cinematography = Victor Milner
| editing        = 
| distributor    = Paramount Pictures
| released       = 16 March 1934
| runtime        = 65 minutes
| country        = United States
| language       = English
| budget         =
| gross          =
}} American drama David Landau, and Preston Foster.  Wharf Angel was the first screenplay of Stephen Morehouse Avery.

==Plot== stokers who saloon in Barbary Coast area of San Francisco. 

==References==
 

==External links==
* 

 

 

 
 
 
 
 


 