Victory (1938 film)
 

{{Infobox film
| name           = Victory
| image          = 
| image_size     = 
| caption        = 
| director       = Vsevolod Pudovkin Mikhail Doller
| producer       = 
| writer         = Nathan Zarkhi Vsevolod Vishnevsky
| narrator       = 
| starring       = 
| music          = Yuri Shaporin
| cinematography = Anatoli Golovnya
| editing        = 
| distributor    = 
| studio         = Mosfilm
| released       = 1938
| runtime        = 77 minutes
| country        = Soviet Union Russian
| budget         = 
}}
 Soviet film directed by Vsevolod Pudovkin and Mikhail Doller.
 
==Cast==
* Yekaterina Korchagina-Aleksandrovskaya - Mother Samoylova Vladimir Solovyov - Klim Samoylov, stratoplane pilot
* S. Ostroumov - Lomov
* N. Sanov - Gudiashvili
* Aleksandr Grechanyy - Gorelov
* L. Kalyuzhnaya - Liza, Klims wife
* Z. Karpova - Anya
* Luka Lyashenko - Fomin

==References==


 

==External links==
*  

 

 
 
 
 
 

 