Cousin Bobby
 
{{Infobox film
| name           = Cousin Bobby
| image          = 
| caption        = 
| director       = Jonathan Demme Valerie Thomas
| writer         = 
| starring       = Robert W. Castle
| music          = 
| cinematography = 
| editing        = David Greenwald
| distributor    = 
| released       =  
| runtime        = 70 minutes
| country        = United States
| language       = English
| budget         = 
}} Episcopalian minister in Harlem, New York.

It was screened in the Un Certain Regard section at the 1992 Cannes Film Festival.   

==Cast==
* Robert W. Castle

==References==
 

==External links==
* 

 

 
 
 
 
 
 
 
 
 
 
 
 