The Murderers are Coming
{{Infobox film
| name           = The Murderers are Coming
| image          = 
| image_size     = 
| caption        = 
| director       = Vsevolod Pudovkin Yuri Tarich
| producer       = 
| writer         = Manuel Bolshintsov Bertolt Brecht (play)
| narrator       = 
| starring       =  Nikolai Kryukov
| cinematography = Era Savelyeva Boris Volchek
| editing        = 
| distributor    = 
| studio         = Mosfilm TsOKS
| released       = 1942 
| runtime        = 64 minutes
| country        = Soviet Union
| language       = Russian
| budget         = 
}}
 Soviet film Soviet censors.

==Cast==
* Mikhail Astangov - Franz
* Boris Blinov - Theo	
* Sofiya Magarill
* Ada Vojtsik - Marta
* Oleg Zhakov
* Olga Zhiznyeva - Clara

==External links==
* 

 

 
 
 
 
 

 