Moving (1993 film)
 
{{Infobox film
| name           = Moving
| image          = 
| caption        = 
| director       = Shinji Sōmai
| producer       = Hirohisa Mukuju
| writer         = Satoshi Okonogi Satoko Okudera Hiko Tanaka
| starring       = Kiichi Nakai
| music          = 
| cinematography = Toyomichi Kurita
| editing        = Yoshiyuki Okuhara
| distributor    = 
| released       =  
| runtime        = 124 minutes
| country        = Japan
| language       = Japanese
| budget         = 
}}

Moving ( , Transliteration|translit.&nbsp;Ohikkoshi) is a 1993 Japanese drama film directed by Shinji Sōmai. It was screened in the Un Certain Regard section at the 1993 Cannes Film Festival.   

==Cast==
* Kiichi Nakai
* Junko Sakurada
* Tsurube Shôfukutei
* Mariko Sudo
* Tomoko Tabata - Renko
* Taro Tanaka

==References==
 

==External links==
* 

 

 
 
 
 
 

 