Beyond Bengal
 

{{Infobox film
| name           = Beyond Bengal
| image_size     =
| image	=	Beyond Bengal FilmPoster.jpeg
| caption        =
| director       = Harry Schenck
| producer       = Harry Schenck
| writer         = Harry Schenck (story)
| narrator       =
| starring       = See below
| music          =
| cinematography =
| editing        =
| distributor    =
| released       = 25 April 1934 (premiere)
| runtime        = 62 minutes
| country        = USA
| language       = English
| budget         =
| gross          =
| preceded_by    =
| followed_by    =
| website        =
}}

Beyond Bengal is a 1934 American film directed by Harry Schenck.

The film is also known as Bengal, Harry Schencks Beyond in the USA (complete title).

==Plot==
The record of an expedition deep into the Malayan jungle.

==Cast==
*Harry Schenck as Harry Scheneck
*Joan Baldwin as Joan John Martin as John Martin, Narrator
*Capt. Nain Sei as Captain Nain Sei
*Ali as Ali
*Bee as Bee
*Askader Shah as The Sultan of Perak

==Soundtrack==
 

==External links==
* 
* 

 

 
 
 
 
 
 


 