The Laser Man
 
 
 
{{Infobox film
| name           = The Laser Man
| image          =
| image_size     =
| caption        =
| director       = Peter Wang
| producer       =
| writer         =
| narrator       =
| starring       = Marc Hayashi   Maryann Urbano   Tony Leung Ka Fai   Peter Wang   Joan Copeland   George Bartenieff   David Chan   Sally Yeh   Neva Small   Christopher Curry
| music          =
| cinematography =
| editing        =
| distributor    = Film Workshop
| released       = 1988
| runtime        =
| country        = Hong Kong
| language       = Mandarin
| budget         =
| preceded_by    =
| followed_by    =
| website        =
}} 1988 Cinema Hong Kong film in the style of a crime drama parody.

==External links==
* 

 

 
 
 
 

 