Eye of the Eagle 2: Inside the Enemy
{{Infobox film
| name           = Eye of the Eagle 2: Inside the Enemy
| image          =
| caption        =
| director       = Carl Franklin
| writer         =
| narrator       =
| starring       = Todd Field
| music          =
| cinematography =
| editing        =
| distributor    =
| released       =  
| runtime        = 78 minutes
| country        = United States
| language       = English
| budget         =
| gross          =
| website        =
| amg_id         =
}} Eye of the Eagle.

It was shot in the Philippines. Chris Nashawaty, Crab Monsters, Teenage Cavemen and Candy Stripe Nurses - Roger Corman: King of the B Movie, Abrams, 2013 p 204-205 

==References==
 

==External links==
* 

 

 
 
 
 
 
 


 