Time Expired (1992 film)
 
{{Infobox Film
| name           = Time Expired
| image          = 
| image_size     = 
| caption        = 
| director       = Danny Leiner
| writer         = Danny Leiner
| narrator       = 
| starring       = Bob Gosse John Leguizamo
| music          = 
| cinematography = 
| editing        = 
| distributor    =  
| released       = 1992
| runtime        = 29 minutes
| country        = United States
| language       = English
| budget         = 
| gross          = 
| preceded_by    = 
| followed_by    = 
}}
Time Expired is a 1992 short film directed by Danny Leiner and stars Bob Gosse and John Leguizamo.

==External links==
* 

 

 
 
 


 