Layin' Low
{{Infobox Film
| name           = Layin Low
| image          = 
| image_size     = 
| caption        = 
| director       = Danny Leiner
| writer         = Danny Leiner
| narrator       = 
| starring       = Jeremy Piven
| music          = 
| cinematography = 
| editing        = 
| distributor    = Shooting Gallery 
| released       = 1996
| runtime        = 96 minutes
| country        = United States
| language       = English
| budget         = 
| gross          = 
| preceded_by    = 
| followed_by    = 
}}
Layin Low is a 1996 film directed by Danny Leiner and stars Jeremy Piven.

==External links==
* 

 

 
 
 
 
 
 


 