Hollyweird (film)
{{Infobox film
| name           = Hollyweird
| image          =
| image_size     =
| caption        =
| director       = Penelope Spheeris
| writer         =
| narrator       =
| starring       = Charles Band
| music          =
| cinematography =
| editing        =
| distributor    = Full Moon Entertainment
| released       =  
| runtime        =
| country        = United States
| language       = English
| budget         =
| gross          =
| website        =
| amg_id         =
}}
Hollyweird  is a 1999 film directed by Penelope Spheeris. It is a documentary focusing on the making of Blood Dolls and features interviews with many of the people involved with the film. The film has never been released on any video format, although a promotional trailer for the film can be seen on the DVD release of Blood Dolls.

==External links==
* 

 

 
 
 
 
 


 