Mr. Doctor (film)
{{Infobox film
| name           = Mr. Doctor
| image          =
| image_size     =
| caption        =
| director       = Michael Curtiz
| producer       =
| writer         =
| narrator       =
| starring       =
| music          =
| cinematography =
| editing        =
| distributor    =
| released       = 1916
| runtime        =
| country        = Hungary
| language       =
| budget         =
| gross          =
| preceded_by    =
| followed_by    =
| website        =
}} 1916 cinema Hungarian film directed by Michael Curtiz.

==External links==
* 
* 

 

 
 
 
 
 
 
 