General Babka
{{Infobox film
| name           = General Babka
| image          =
| image_size     =
| caption        =
| director       = Michael Curtiz
| producer       =
| writer         =
| narrator       =
| starring       =
| music          =
| cinematography =
| editing        =
| distributor    =
| released       = 1924
| runtime        =
| country        = Austria
| language       =
| budget         =
| gross          =
| preceded_by    =
| followed_by    =
| website        =
}} 1924 cinema Austrian film directed by Michael Curtiz.

==External links==
* 

 

 
 
 
 
 
 