Tormenta (film)
{{Infobox film
| name           = Tormenta
| image          =
| caption        =
| director       = John Guillermin
| writer         =
| narrator       =
| starring       = Linda Christian
| music          =
| cinematography =
| editing        =
| distributor    =
| released       =  
| runtime        = 84 min.
| country        = United States
| language       = English
| budget         =
| gross          =
| website        =
| amg_id         =
}}
Tormenta is a 1955 American film directed by John Guillermin.

==External links==
* 

 

 
 
 
 
 


 