A skorpió I.
{{Infobox film
| name           = A Skorpió I.
| image          =
| image_size     =
| caption        =
| director       = Michael Curtiz
| producer       =
| writer         = Iván Siklósi
| narrator       =
| starring       =
| music          =
| cinematography =
| editing        =
| distributor    =
| released       = 1918
| runtime        =
| country        = Hungary
| language       = Hungarian
| budget         =
| gross          =
| preceded_by    =
| followed_by    =
| website        =
}} 1918 cinema Hungarian film directed by Michael Curtiz.

==External links==
* 
* 

 

 
 
 
 
 
 
 