The Black Rainbow
 
 
{{Infobox film
| name           = The Black Rainbow
| image          =
| caption        =
| director       = Michael Curtiz
| producer       =
| writer         =
| starring       =
| music          =
| cinematography =
| editing        =
| distributor    =
| released       = 1916
| runtime        =
| country        = Austria-Hungary
| language       = Silent Hungarian intertitles
| budget         =
| gross          =
}}

The Black Rainbow ( ) is a 1916 Austro-Hungarian film directed by Michael Curtiz.

==External links==
* 

 

 
 
 
 
 
 