Crossover (1980 film)
{{Infobox film
| name           = Mr. Patman
| image_size     = 
| image	=	Mr. Patman FilmPoster.jpeg
| caption        = A poster with the films alternative title: Crossover
| director       = John Guillermin
| writer         = 
| narrator       = 
| starring       = James Coburn Kate Nelligan
| music          = Paul Hoffert
| cinematography = 
| editing        = 
| distributor    =  
| released       = April 22, 1981
| runtime        = 97 min.
| country        = Canada
| language       = English
| budget         = 
| gross          = 
| preceded_by    = 
| followed_by    = 
| website        = 
| amg_id         = 
}}
Mr. Patman (also known as Crossover) is a 1981 Canadian film directed by John Guillermin.

==External links==
* 

 

 
 
 
 