Prisoner of the Night (film)
{{Infobox film
| name           = Prisoner of the Night
| image          =
| image_size     =
| caption        =
| director       = Michael Curtiz|Mihály Kertész
| producer       =
| writer         = Iván Siklósi
| narrator       =
| starring       = Michael Curtiz
| music          =
| cinematography =
| editing        =
| distributor    =
| released       = 1914
| runtime        =
| country        = Hungary
| language       =
| budget         =
| gross          =
| preceded_by    =
| followed_by    =
| website        =
}} 1914 cinema Hungarian film directed by Michael Curtiz.

==External links==
* 
* 

 

 
 
 
 
 
 
 