The Borrowed Babies
 
{{Infobox film
| name           = The Borrowed Babies
| image          =
| caption        =
| director       = Michael Curtiz
| producer       =
| writer         = Jenő Janovics
| narrator       =
| starring       =
| music          =
| cinematography =
| editing        =
| distributor    =
| released       = 1914
| runtime        =
| country        = Austria-Hungary
| language       = Silent Hungarian intertitles
| budget         =
| gross          =
}}
The Borrowed Babies ( ) is a 1914 Austro-Hungarian film directed by Michael Curtiz.

==External links==
* 

 

 
 
 
 
 
 