A Penny's History
{{Infobox film
| name           = A Pennys History
| image          =
| image_size     =
| caption        =
| director       = Michael Curtiz
| producer       =
| writer         =
| narrator       =
| starring       =
| music          =
| cinematography =
| editing        =
| distributor    =
| released       = 1917
| runtime        =
| country        = Hungary
| language       = Hungarian
| budget         =
| gross          =
| preceded_by    =
| followed_by    =
| website        =
}} 1917 cinema Hungarian film directed by Michael Curtiz.

==External links==
* 

 

 
 
 
 
 
 
 