Imperfect Journey
{{Infobox film
| name           = Imperfect Journey
| image          =
| image_size     =
| caption        =
| director       = Haile Gerima
| producer       =
| writer         =
| narrator       =
| starring       = See below
| music          =
| cinematography =
| editing        =
| distributor    =
| released       = 1994
| runtime        =
| country        = Ethiopia, Italy, United States English
| budget         =
| gross          =
| preceded_by    =
| followed_by    =
}}

Imperfect Journey is a 1994 Ethiopian documentary film directed by Haile Gerima.

== Plot summary == red terror" of the military junta of Mengistu Haile Mariam. The filmmaker questions the direction of the succeeding government and the will of the people in creating institutions guaranteeing their liberation.

== Cast ==
 

== Awards and honors ==
 

== Soundtrack ==
 

== External links ==

 
 
 
 
 
 
 
 
 


 
 