Thundering Thompson
{{Infobox film
| name           = Thundering Thompson
| image          =
| caption        =
| director       = Ben F. Wilson
| producer       = Morris R. Schlank (executive producer)
| writer         = Robert Dillon (story and scenario)
| narrator       =
| starring       = See below
| music          =
| cinematography = Robert E. Cline Earl Turner
| distributor    =
| released       =  
| runtime        =
| country        = United States
| language       = English
| budget         =
| gross          =
| website        =
}}

Thundering Thompson is a 1929 American film directed by Ben F. Wilson.

== Plot summary ==
 

== Cast ==
*Cheyenne Bill as Deputy Sheriff Thundering Thompson
*Neva Gerber as Maria Valerian
*Al Ferguson as Bill Edwards Cliff Lyons as Efe
*Ed La Niece as George Morgan

== Soundtrack ==
 

== External links ==
* 
* 

 

 
 
 
 
 
 
 
 


 