Mountain Justice (1937 film)
{{Infobox film
| name           = Mountain Justice
| image          = Mountain Justice (1937).JPG
| image_size     =
| caption        =
| director       = Michael Curtiz
| producer       =
| writer         = Norman Reilly Raine Luci Ward
| narrator       = Margaret Hamilton
| cinematography = Ernest Haller
| editing        = George Amy
| distributor    = Warner Bros. Pictures
| released       =  
| runtime        = 83 minutes
| country        = United States
| language       = English
| budget         =
| gross          =
| website        =
}} 1937 film directed by Michael Curtiz.

==External links==
* 
* 

 

 
 
 
 
 