A Face of War
 
{{Infobox film
| name           = A Face of War
| image          = 
| caption        = 
| director       = Eugene S. Jones
| producer       = 
| writer         = 
| screenplay     = 
| story          = 
| based on       =  
| starring       =
| music          = 
| cinematography = Eugene S. Jones
| editing        = Jono Roberts
| studio         = 
| distributor    = 
| released       =  
| runtime        = 72 minutes
| country        = United States
| language       = English
| budget         = 
| gross          = 
}}
A Face of War is a 1968 documentary about the   called it a "heart-wrenching masterpiece". 

==References==
 

==External links==
*  
* 

 
 
 
 
 
 
 

 