Blind Beast vs. Dwarf
{{Infobox film
| name           = Blind Beast vs. Dwarf    
| image_size     = 
| image	=	Blind Beast vs. Dwarf FilmPoster.jpeg
| alt            = 
| caption        = 
| director       = Teruo Ishii
| producer       = Teruo Ishii
| writer         = Teruo Ishii Edogawa Rampo  (original story by novels) 
| narrator       = 
| starring       = Lily Franky Shinya Tsukamoto Tetsurō Tamba
| music          = 
| cinematography = Teruo Ishii
| editing        = 
| studio         = Teruo Ishii Production
| distributor    = Teruo Ishii Production / Slow Learner (Japan) Eleven Arts (U.S.)
| released       =  
| runtime        = 95 minutes
| country        = Japan
| language       = Japanese
| budget         = 
| gross          = 
}} 2001 film Japanese director Teruo Ishii. It is the last film he directed.
 Diet in the 2009 Japanese general election, appears in Blind Beast vs. Killer Dwarf in a role that includes a nude scene. This precipitated a surge in sales of the movie that year. 

==See also==
 
* Horrors of Malformed Men

==References==
 

== External links ==
*    
*   - Japanese Movie Database  
*  

 

 
 
 
 
 
 
 
 
 


 
 