The Red Blood of Courage
{{Infobox film
| name           = The Red Blood of Courage
| image          =
| caption        = John English
| producer       = Maurice Conn Sigmund Neufeld
| writer         = Barry Barringer (screenplay) James Oliver Curwood (story "Red Blood of Courage")
| narrator       =
| starring       = See below
| music          = Arthur Reed
| editing        = Richard G. Wray
| distributor    =
| released       =  
| runtime        = 55 minutes
| country        = United States
| language       = English
| budget         =
| gross          =
}}
 John English.

== Cast ==
*Kermit Maynard as Jim Sullivan
*Ann Sheridan as Beth Henry
*Reginald Barlow as Mark Henry / Pete Drago
*Ben Hendricks Jr. as Bart Slager
*George Regas as Frenchy
*Nat Carr as Doctor Meyer Charles King as Henchman Joe
*Rocky as Jims horse

== External links ==
* 
* 

 

 
 
 
 
 
 
 
 
 
 


 