Law of the Rio Grande
{{Infobox film
| name           = Law of the Rio Grande
| image          =
| image_size     =
| caption        =
| director       = Forrest Sheldon
| producer       = F.E. Douglas Harry S. Webb
| writer         = Betty Burbridge (story and scenario) Bennett Cohen (story and scenario)
| narrator       =
| starring       = See below
| music          =
| cinematography = Herbert Kirkpatrick
| editing        = Frederick Bain
| distributor    =
| released       = 9 August 1931
| runtime        = 57 minutes
| country        = United States
| language       = English
| budget         =
| gross          =
}}

Law of the Rio Grande is a 1931 American film directed by Forrest Sheldon.

== Cast ==
*Bob Custer as Jim
*Betty Mack as Judy Lanning
*Carlton S. King as Colonel Lanning
*Nelson McDowell as Wolf Hardy
*Harry Todd as Cookie
*Edmund Cobb as The Blanco Kid

== External links ==
* 
* 

 

 
 
 
 
 
 
 


 