La Vispa Teresa
 
 
{{Infobox film
| name           = La Vispa Teresa
| image          =
| image_size     =
| caption        =
| director       = Roberto Rossellini
| producer       =
| writer         =
| narrator       =
| starring       =
| music          =
| cinematography =
| editing        =
| distributor    = 1939
| runtime        = 7 minutes
| country        = Italy Italian
| budget         =
| preceded_by    =
| followed_by    =
| website        =
}}

La Vispa Teresa(English: Lively Teresa) is a 1939 Italian, black and white short film directed by Roberto Rossellini.

==External links==
* 

 

 
 
 
 


 
 