Bannada Gejje
{{Infobox Film name           = Bannada Gejje image          =  image_size     =  caption        =  director       = Rajendra Singh Babu producer       =  writer         =  narrator       =  starring  Ravichandran Amala Amala
|music          = Hamsalekha cinematography =  editing        =  distributor    =  released       =  runtime        =  country        =   India language       = Kannada budget         =  preceded_by    =  followed_by    = 
}}
 Ravichandran and Telugu as Prema Yuddham by same director.

==SoundTrack==

{{Infobox album  
| Name        = Bannada Gejje
| Type        = Soundtrack
| Artist      = Hamsalekha
| Cover       =
| Released    =  June 2007
| Recorded    = Feature film soundtrack
| Length      =
| Label       =
}}

{| border="2" cellpadding="4" cellspacing="0" style="margin: 1em 1em 1em 0; background: #f9f9f9; border: 1px #aaa solid; border-collapse: collapse; font-size: 95%;"
|- bgcolor="#CCCCCF" align="center"
| Track # || Song || Singer(s) || Duration
|-
| 1 || Swathi Muthina || S. P. Balasubramanyam, S. Janaki ||
|- Mano || 
|-
| 3 || Prema Geema Jaane Do || S. P. Balasubramanyam, S. Janaki ||
|-
| 4 || Yoga Yoga || S. P. Balasubramanyam, Lata Hamsalekha ||  
|-
| 5 || Jodisthinayya || S. P. Balasubramanyam, S. Janaki ||
|-
|}

 

 
 
 
 
 
 

 