Violent Cop (2000 Kant Leung film)
 
 
 
{{Infobox film
| name           = Violent Cop
| image          = ViolentCop.jpg
| caption        = DVD cover
| film name = {{Film name| traditional    = 火爆刑警
 | simplified     = 火爆刑警
 | pinyin         = Huò Bào Xíng Jǐng
 | jyutping       = Fo2 Baau3 Jing4 Ging2}}
| director       = Kant Leung Wang Fat
| producer       = Charles Tang
| writer         = Kant Leung Wang Fat Patrick Tam Pinky Cheung
| music          = Tommy Wai
| cinematography = Yuen Man Fung
| editing        = Angie Lam
| distributor    =
| released       =  
| runtime        = 88 minutes
| country        = Hong Kong
| language       = Cantonese
| budget         =
| gross          = HK $1,900
}} Hong Kong Patrick Tam.

==Cast== Patrick Tam as Ken Lam
* Pinky Cheung as Eva
* Chapman To as David Liu
* Anita Chan Wing Yin as Chang Wen Wen
* Tony Ho Wah Chiu as Big B
* Winnie Leung Man Yee as Sisi
* Cheung Shui-Chit as Willt
* Chung Kit-Yee as Madam Mandy
* Gabriel Harrison (Hoi Chun-Kit) as Hoi
* Lok Yung-Yung as Jane Chin
*William Tuen as Fatty
*Ben Wong Tin Dok as Ken Wong

==External links==
*  
*  
*  

 
 
 
 
 
 
 
 
 
 
 


 
 