Love Will Tear Us Apart (1999 film)
 
{{Infobox film
| name           = Love Will Tear Us Apart
| image	         = Love Will Tear Us Apart FilmPoster.jpeg
| caption        = Film poster
| director       = Yu Lik-wai
| producer       = Stanley Kwan Tony Leung Ka Fai
| writer         = Yu Lik-wai
| narrator       =
| starring       = Tony Leung Ka Fai
| music          =
| cinematography = Yiu-Fai Lai
| editing        = Keung Chow
| distributor    =
| released       =  
| runtime        = 114 minutes
| country        = Hong Kong
| language       = Cantonese
| budget         =
}}

Love Will Tear Us Apart ( ) is a 1999 Hong Kong drama film directed by Yu Lik-wai. It was entered into the 1999 Cannes Film Festival.   

==Cast==
* Tony Leung Ka-fai as Jian
* Liping Lü as Yan
* Ning Wong as Ying
* Rolf Chow as Chun

==References==
 

==External links==
* 

 
 
 
 
 
 
 