Heroes in Blue
{{Infobox film
| name           = Heroes in Blue
| image          =
| image_size     =
| caption        = William Watson
| producer       = T.R. Williams Charles Williams (story)
| narrator       =
| starring       = See below
| music          =
| cinematography = Harry Neumann
| editing        = Bruce Schoengarth
| distributor    =
| released       =  
| runtime        = 61 minutes
| country        = United States
| language       = English
| budget         =
| gross          =
}}
 William Watson.

==Cast==
*Dick Purcell as Terry Murphy
*Charles Quigley as Joe Murphy
*Bernadene Hayes as Daisy Edward Keane as Moran
*Julie Warren as Kathleen
*Lillian Elliott as Mrs. Murphy
*Frank Sheridan as Mike Murphy
*Sally Rand

==External links==
* 
* 

 

 
 
 
 
 
 
 
 


 