Sappy Birthday
{{Infobox film
| name           = Sappy Birthday
| image          =
| image_size     =
| caption        = Harry Edwards
| producer       = Del Lord Hugh McCollum
| writer         = John Grey (story and screenplay) and  Lloyd French (story and screenplay)
| narrator       =
| starring       =
| music          =
| cinematography = George Meehan
| editing        = Burton Kramer
| distributor    =
| released       = 5 February 1942
| runtime        = 17 minutes
| country        = United States
| language       = English
| budget         =
| gross          =
| preceded_by    =
| followed_by    =
}}
 Harry Edwards.

== Plot summary ==
 

== Cast ==
*Andy Clyde as Andy "Hole-in-One" Clyde
*Matt McHugh as Hector - Andys Brother-In-Law
*Olin Howland as Mr. Plantem, Cemetery Plot Salesman
*Esther Howard as Mrs. Andy "Martha" Clyde
*Vernon Dent as Neighbor Policeman

== Soundtrack ==
 

== External links ==
* 
* 

 

 
 
 
 
 
 
 
 


 