A Helpful Sisterhood
 

{{Infobox film
| name           = A Helpful Sisterhood
| image          =
| alt            =
| caption        =
| director       = Van Dyke Brooke
| producer       =
| writer         = Margaree P. Dryden (story)
| starring       = Norma Talmadge, Mary Maurice and Marie Weirman
| cinematography =
| editing        =
| studio         =
| distributor    =
| released       =  
| runtime        =
| country        = United States
| language       = English
| budget         =
| gross          =
}}

A Helpful Sisterhood is a 1914 American film directed by Van Dyke Brooke.

==Cast==
*Norma Talmadge as Mary
*Mary Maurice as Grandmother
*Marie Weirman as Sophie
*Marie Tener as Louise Mary Anderson as Alice
*Leo Delaney as Detective
*Van Dyke Brooke as Mr. Vardon
*Arthur Cozine as John
*Cortland Van Deusen as Bert
*Ernest Cozzens

==External links==
* 
* 

 

 
 
 
 
 
 
 
 
 


 