Pov Malis Lea
 
{{Infobox film| name           = Pov Malis Lea
| image          = 
| director       = 
| producer       = 
| writer         =
| starring       = Tep Rundaro Ampor Tevi Pisith Pilika Sok Sreymom Arun Reksmey
| music          = 
| cinematography = 
| editing        = 
| studio         = 
| distributor    = 
| released       = 1993
| runtime        = 
| country        = Cambodia
| language       = Khmer
| budget         = 
| gross          = 
| followed_by    = 
}} 1993 film starring  Arun Reksemy, Sok Sreymom, Tep Rundaro, Pisith Pilika, Kai Prasith, Ampor Tevi and other stars of the time.

==Cast==
*Arun Reksemy
*Sok Sreymom
*Tep Rundaro
*Pisith Pilika
*Kai Prasith
*Ampor Tevi
*Som Dara
*Neary Roth Kunthea

 
 
 


 