Sman Ta Kron
 
{{Infobox film| name           = Sman Ta Gron
| image          = 
| director       = 
| producer       = 
| writer         =
| starring       = Yuos Bovannak Tep Rundaro Keo Koliyan Ampor Tevi
| music          = 
| cinematography = 
| editing        = 
| studio         = 
| distributor    = 
| released       = 1993
| runtime        = 
| country        = Cambodia
| language       = Khmer
| budget         = 
| gross          = 
| followed_by    = 
}} 1993 comedy film starring Tep Rundaro, Yuos Bovannak, Keo Koliyan, and Ampor Tevi.

==Cast==
*Yuos Bovannak
*Tep Rundaro
*Keo Koliyan
*Ampor Tevi

==References==

 
 
 
 


 
 