Man Walking on Snow
 
{{Infobox film
| name           = Man Walking on Snow
| image          = ManWalkingOnSnow2001Poster.jpg
| caption        = Japanese poster Masahiro Kobayashi
| producer       = Kobayashi Masahiro
| writer         = Kobayashi Masahiro
| screenplay     = 
| story          = 
| based on       =  
| starring       = Ken Ogata
| music          = 
| cinematography = 
| editing        = 
| studio         = 
| distributor    = 
| released       =  
| runtime        = 103 minutes
| country        = Japan
| language       = Japanese
| budget         = 
| gross          = 
}} Masahiro Kobayashi. It was screened in the Un Certain Regard section at the 2001 Cannes Film Festival.   

==Cast==
* Ken Ogata - Nobuo Honma
* Yasufumi Hayashi - Yasuo
* Teruyuki Kagawa - Ryoichi
* Sayoko Ishii - Michiko (salmon girl)
* Nene Otsuka - Nobuko Shimizu
* Fusako Urabe - Keiko Noguchi

==References==
 

==External links==
* 

 

 
 
 
 
 
 


 