The Miracle Child
 Miracle Child}}
{{Infobox film
| name           = The Miracle Child
| image          = 
| image_size     = 
| alt            = 
| caption        = 
| director       = D.B. Maurice
| producer       = 
| writer         = Henri Diamant-Berger
| narrator       =  Henri Marchand Floryse Viviane Elder Marthe Mussine Pierre Larquey Ginette Leclerc
| music          = Jean Renoir
| cinematography = 
| editing        = 
| studio         = Films Diamant
| distributor    = Compagnie Universelle Cinématographique
| released       =  
| runtime        = 
| country        = France
| language       = French
| budget         = 
| gross          = 
| preceded_by    = 
| followed_by    = 
}} plot of inherit a Spiritualist séance and are subsequently believed to be ghosts.  Ginette Leclercs minor role in The Miracle Child was one of her first acting roles in a long and successful career. 

==References==
 

 
 
 
 
 
 
 
 


 