Steel Arena (film)
 
{{Infobox film
| name           = Steel Arena 
| image          = 
| image_size     = 
| caption        = 
| director       = Mark L. Lester
| writer         = 
| narrator       = 
| starring       = Dusty Russell
| music          = 
| cinematography = 
| editing        = 
| distributor    =  
| released       = September 1973
| runtime        = 98 min.
| country        = United States
| language       = English
| budget         = 
| gross          = 
| preceded_by    = 
| followed_by    = 
| website        = 
| amg_id         = 
}}
Steel Arena  is a 1973 film directed by Mark L. Lester.

==External links==
* 

 

 
 
 
 
 


 