Strategy of Terror
 
{{Infobox film
| name           = Strategy of Terror
| image          = 
| image_size     = 
| caption        = 
| director       = Jack Smight
| writer         = 
| narrator       = 
| starring       = Hugh OBrian
| music          = 
| cinematography = 
| editing        = 
| studio         =  Roncom Films
| distributor    = Universal Pictures 
| released       = January 1, 1969
| runtime        = 90 min.
| country        = United States
| language       = English
| budget         = 
| gross          = 
| preceded_by    = 
| followed_by    = 
| website        = 
| amg_id         = 
}}
Strategy of Terror is a 1969 film directed by Jack Smight, re-edited from a two-part 1965 Kraft Suspense Theatre episode, "In Darkness, Waiting".

==External links==
* 

 

 
 
 
 


 