Three Sad Tigers
 
{{Infobox film
| name           = Three Sad Tigers
| image          =
| caption        =
| director       = Raúl Ruiz (director)|Raúl Ruiz
| producer       =
| writer         = Raúl Ruiz Alejandro Sieveking
| starring       = Shenda Román
| music          =
| cinematography = Diego Bonacina
| editing        = Carlos Piaggio
| distributor    =
| released       =  
| runtime        = 100 minutes
| country        = Chile
| language       = Spanish
| budget         =
}}

Three Sad Tigers ( ) is a 1968 Chilean drama film directed by Raúl Ruiz (director)|Raúl Ruiz.    It won the Golden Leopard award at the Locarno International Film Festival in 1969.   

==Cast==
* Shenda Román as Amanda
* Nelson Villagra as Tito
* Luis Alarcón as Lucho
* Jaime Vadell as Rudy
* Delfina Guzmán as Alicia
* Fernando Colina
* Belén Allasio
* Alonso Venegas

==References==
 

==External links==
*  

 
 

 
 
 
 
 
 
 
 
 
 
 