Art & Copy
 
{{Infobox film
| name           = Art & Copy
| image          = Art & Copy Poster.jpg
| alt            =  
| caption        = 
| director       = Doug Pray
| producer       = Jimmy Greenway Michael Nadeau
| writer         = 
| screenplay     = 
| story          =  David Kennedy Rich Silverstein Jeff Goodby Mary Wells Cliff Freeman Jim Durfee
| music          = Jeff Martin
| cinematography = Peter Nelson
| editing        = Philip Owens
| studio         = 
| distributor    = 
| released       =  
| runtime        = 88 minutes
| country        = United States
| language       = English
| budget         = 
| gross          = 
}} Just Do I Love I Want My MTV", "Got Milk?", and "Think Different". 

Although reviews were generally favorable,  some reviewers chastised the film for presenting an uncritical view of advertising.   

==References==
 

==External links==
*  
*  
*  
*  
*   PBS

 
 
 
 
 
 

 