The Road to Corinthe
{{Infobox film
| name           = La route de Corinthe
| image          = 
| image_size     = 
| caption        = 
| director       = Claude Chabrol
| producer       = 
| writer         = 
| narrator       = 
| starring       = Jean Seberg Maurice Ronet Christian Marquand
| cinematography = Jean Rabier
| music          = 
| editing        = 
| distributor    = 
| released       = 
| runtime        = 90 minutes
| country        = France Italy Greece
| language       = French
| budget         = 
| gross          = 
}}
La route de Corinthe (The Road to Corinth, also released as Whos Got the Black Box?) is a 1967 spy film directed by Claude Chabrol.

==External links==
*  

 

 
 
 
 
 
 
 
 
 
 
 


 