City of Pirates
{{Infobox film
| name           = City of Pirates
| image          = Villedespirates.jpg
| caption        = Film poster
| director       = Raúl Ruiz (director)|Raúl Ruiz
| producer       = Paulo Branco
| writer         = Raúl Ruiz
| starring       = Hugues Quester
| music          = 
| cinematography = Acácio de Almeida
| editing        = Valeria Sarmiento
| distributor    = 
| released       =  
| runtime        = 111 minutes
| country        = France
| language       = French
| budget         = 
}}

City of Pirates ( ) is a 1983 French fantasy film directed by Raúl Ruiz (director)|Raúl Ruiz.   

==Cast==
* Hugues Quester as Toby
* Anne Alvaro as Isidore
* Melvil Poupaud as Malo, lenfant
* André Engel as Le pêcheur
* Duarte de Almeida as Le père
* Clarisse Dole as La mère
* André Gomes as Le carabinier

==References==
 

==External links==
* 

 

 
 
 
 
 
 
 
 
 
 