Crying for Love
 

{{Infobox film
| name           = Crying for Love
| image          = 
| image_size     = 
| alt            = 
| caption        = 
| director       = Christian E. Christensen
| producer       = 
| writer         = Christian E. Christensen
| starring       = 
| studio         = 
| distributor    = 
| released       =  
| runtime        = 
| country        = Denmark
| language       = Danish
| budget         = 
| gross          = 
| preceded_by    = 
| followed_by    = 
}}
Crying for Love (Danish: Dig og Mig) is a Danish feature film. 

Written and directed by Christian E. Christensen in 2008. It is based on the shortfilm At Night, which was nominated for an Oscar in 2008. 

==Notes==
 

 
 
 
 
 


 
 