Sleeping Betty
{{Infobox film
| name           = Sleeping Betty ( ) Credits,   at NFB.ca 
| image          = 
| caption        = 
| director       = Claude Cloutier 
| producer       = Marcel Jean 
| writer         = Marc Du Pontavice David Bean John Cohen
| starring       = Tim Whintall
| music          = Symphony No. 1 (Mahler)|Mahler, The Sleeping Beauty (ballet)|Tchaikovsky, Symphony No. 9 (Dvořák)|Dvořák   
| cinematography = Zack Woodles
| editing        = Tim Bevan
| distributor    = National Film Board of Canada 
| released       =  
| runtime        = 9 minutes 18 seconds 
| country        = Canada 
| language       =   
| budget         = 
}} Canadian short film. It won the Best Animated Short at the 29th Genie Awards. http://www.genieawards.ca/Genie29/main.cfm 

The film is a humorous retelling of the classic fairy tale, Sleeping Beauty.   

==References==
 

 

 
 
 
 
 
 
 
 
 
 
 


 