The Sweet Sex and Love
{{Infobox film
| name           = The Sweet Sex and Love
| image          = TheSweetSexAndLove2003Poster.jpg
| caption        = Film poster
| film name = {{Film name
 | hangul         = 맛있는 섹스 그리고 사랑
 | rr             = Masittneun sekseu geuriko sarang
 | mr             = Masinnŭn seksŭ kŭrigo sarang}}
| director       = Bong Man-dae
| writer         =  
| starring       =  
| editor         = Moon In-dae
| distributor    = Korea Pictures 
| released       =  
| runtime        = 90 minutes
| country        = South Korea
| language       = Korean
}} Kim Sung-soo. The entire score was based on a digitally remastered recording of the works of Bedřich Smetana.

== Cast ==
* Kim Seo-hyung Kim Sung-soo

== External links ==
*  
*  

 
 
 
 
 
 


 
 