The Man from Bitter Ridge
{{Infobox film
| name           = The Man from Bitter Ridge
| image          =
| caption        = Jack Arnold
| writer         =
| narrator       =
| starring       = Lex Barker
| music          =
| cinematography =
| editing        =
| distributor    =
| released       =  
| runtime        = 80 mins.
| country        = United States
| language       = English
| budget         =
| gross          =
| website        =
| amg_id         =
}} Jack Arnold.

==Plot==
A stranger comes to the town of Tomahawk to investigate whos behind a series of stagecoach holdups.

==Cast==
* Lex Barker as Jeff Carr
* Mara Corday as Holly Kenton
* Stephen McNally as Alec Black
* John Dehner as Rance Jackman

==External links==
* 

 

 
 
 
 
 


 