Miss Navajo (film)
{{Infobox film
| name           = Miss Navajo
| image          =
| image_size     = 
| caption        = 
| director       = Billy Luther
| producer       = Billy Luther Duanna C. Butler (executive producer) Fenton Bailey Randy Barbato
| writer         = 
| starring       = 
| music          = David Benjamin Steinberg
| cinematography = Gavin Wynn
| editing        = Mike Rysavy Tracee Morrison
| storyboard     = 
| distributor    = Independent Lens (United States|U.S.)
| released       = 2007
| runtime        = 58 minutes
| country        = United States Navajo
}} 2007 independent independent documentary film directed by Billy Luther. It tells the story of a 21-year-old Navajo woman, Crystal Frazier, who decides to compete in a beauty pageant for the title of Miss Navajo for 2005-2006.

==External links==
*  
*  
*  
*  

 
 
 
 
 
 
 
 
 
 
 


 
 
 