The Billion Dollar Bubble
{{Infobox film
| name           = The Billion Dollar Bubble
| image          =
| caption        = Brian Gibson
| writer         =
| narrator       =
| starring       = Sam Wanamaker James Woods Christopher Guest
| music          =
| cinematography =
| editing        =
| distributor    =
| released       =  
| runtime        = 60 min.
| country        = United Kingdom
| language       = English
| budget         =
| gross          =
| website        =
| amg_id         =
}} Horizon and Brian Gibson Equity Funding Corporation of America.  The movie stars James Woods in the role of the actuary.

==Cast==
* James Woods plays Art Lewis (a key player in the scam)

==See also==
* Fictional Actuaries

==External links==
* 
*   at Rotten Tomatoes

 

 
 
 
 
 
 


 