Honor Bound (film)
{{Infobox film
| name           = Honor Bound
| image          = Red End 1988.png
| image_size     = Home video cover under the title Red End
| caption        =
| producer       = Boris Dmitrovic Jean Gontier Daniel Marquet Michel Roy Tim Van Rellim Patrick Wells Eric Weymueller
| director       = Jeannot Szwarc
| writer         = Aiken Woodruff
| based on       = Recovery (Steven L. Thompson novel)|Recovery by Steven L. Thompson
| narrator       =
| starring       = Hana Baczynska
| music          = Mark Shreeve
| cinematography = Robert M. Steven
| editing        = John Jympson TCA
| distributor    = Ascot Video
| released       =  
| runtime        = 98 min.
| country        = United States Yugoslavia
| language       = English
| budget         =
| gross          =
| website        =
| amg_id         =
}}
Honor Bound (also known as Red End) is a 1988 film directed by Jeannot Szwarc.

==Production==
The movie was filmed in Berlin, Germany. 

==External links==
* 

==References==
 

 

 
 
 
 
 
 
 

 