Ecco fatto
{{Infobox Film
| name           = Ecco fatto
| image          = Ecco fatto.jpg
| image_size     = 
| caption        = 
| director       = Gabriele Muccino
| writer         = 
| narrator       = 
| starring       = Giorgio Pasotti
| music          = Paolo Buonvino
| cinematography = Arnaldo Catinari
| editing        = 
| distributor    =  
| released       = November 27, 1998
| runtime        = 90 minutes
| country        = Italy
| language       = Italian
| budget         = 
| gross          = 
| preceded_by    = 
| followed_by    = 
| website        = 
| amg_id         = 
}}
Ecco fatto is a 1998 Italian film directed by Gabriele Muccino.

==Cast==

* Giorgio Pasotti: Matteo
* Claudio Santamaria: Piterone
* Barbora Bobuľová: Margherita
* Enrico Silvestrin: Paolo
* Ginevra Colonna: Floriana
* Stefano Abbati: preside
* Gigio Alberti: Gigio
* Sergio Rubini: parcheggiatore abusivo

==External links==
* 

 

 
 
 
 


 