Malayan (film)
{{Infobox film
| name           = Malayan
| image          = 
| alt            =  
| caption        = 
| director       = Vaseegara Raja
| producer       = 
| writer         =  Karan Shammu Udhayathara Sarath Babu Ganja Karuppu Mayilsamy Dhina
| cinematography = 
| editing        = 
| studio         = 
| distributor    = 
| released       =  
| runtime        = 
| country        = India
| language       = Tamil
| budget         = 
| gross          = 
}} Karan and Shammu in the lead roles.  The film failed at the Box-office.

==Plot==
The tale of betrayal, that too, from the one we trust most isn’t new to Tamil cinema. And Malayan too, is one such tale of unbelievable devotion to the boss, played by Sarath Babu, by his employee in a fireworks factory, ‘Malayan’, played by Karan. The film failed at the Box-office

==References==
 

 
 
 
 


 