Gada Meilin (film)
{{Infobox film
| name           =Gada Meilin
| image          =Gada Meilin.jpg
| image_size     =
| caption        = 
| director       =Feng Xiaoning
| producer       = 
| writer         = Feng Xiaoning
| narrator       = 
| starring       = Ebusi Deligeer Hu Xiaoguang
| music          = San Bao
| cinematography = Feng Xiaoning Gang Qiang   
| editor         = Cheng Jie
| distributor    = 
| released       = 2002
| runtime        = 109 minutes
| country        = China
| language       = 
| budget         = 
}}
Gada Meilin is a 2002 film directed by Chinese director Feng Xiaoning. It deals with the story of Inner Mongolian hero Gada Meiren, who led a failed rebellion at the beginning of the 1930s against dispossession of Mongol banner lands by Zhang Zuolin and Zhang Xueliang.

==Cast==
*Deligeer		
*Ebusi		
*Hu Xiaoguang		
*Li Ming		
*Liu Wei	... 	Mu Dan
*Tu Men
		
== External links ==
*  
*  

 
 
 
 

 