Begging for Billionaires
 
{{Infobox film
| name           = Begging for Billionaires
| image          = 
| alt            =  
| caption        = 
| director       = Phil Klein
| producer       = Phil Klein Daniel Polsfuss
| writer         = Todd Messelt
| starring       = 
| music          = 
| cinematography = 
| editing        = Daniel Polsfuss
| studio         = 
| distributor    = 
| released       =   
| runtime        = 
| country        = United States
| language       = English
| budget         = 
| gross          = 
}}
Begging for Billionaires is a 2009 American documentary film exposing abuses of eminent domain. The film is directed by Philip Klein. The music for the film was written and performed by Tom Goodkind of the Washington Squares.

==External links==
*  
*  
*  

 
 
 
 
 
 
 
 
 


 