Holiday in Seoul
{{Infobox film
| name           = Holiday in Seoul
| image          = Holiday_in_Seoul_-_movie_poster.jpg
| caption        = Theatrical poster
| film name = {{Film name
 | hangul         =      
 | rr             = Hollidei in Seoul
 | mr             = Hollidei in Sŏul}}
| starring       = Choi Jin-sil
| released       =  
| country        = South Korea
| language       = Korean
}} 1997 South Korean film starring Choi Jin-sil. The film is two stories of four different people intertwine in Seouls urban jungle.

== External links ==
*  

 
 
 


 