Je, tu, il, elle
{{Infobox Film
| name           = Je, tu, il, elle
| image          = 
| director       = Chantal Akerman
| producer       = 
| writer         = 
| starring       = Chantal Akerman Niels Arestrup Claire Wauthion
| cinematography = Bénédicte Delesalle
| editing        = Luc Freche
| distributor    = 
| released       = 1974
| runtime        = 86 min
| country        = Belgium France
| language       = French
}}

Je, tu, il, elle ( ) is a 1974 film by the Belgian film director Chantal Akerman.

==Cast==
* Chantal Akerman as Julie
* Niels Arestrup as truck driver
* Claire Wauthion as friend of Julie

== External links ==
*  

 

 
 
 
 
 


 