Raktha Sindhuram
{{Infobox film
| name           = Raktha Sindhuram
| image          =
| caption        = 
| director       = A. Kodandarami Reddy
| producer       = A. Shesha Ratnam
| writer         = Yandamuri Veerendranath
| starring       = Chiranjeevi Radha Kaikala Satyanarayana
| music          = K. Chakravarthy
| cinematography = Lok Singh
| editing        = Kotagiri Venkateswara Rao
| distributor    =
| released       = August 24, 1985
| runtime        =
| country        = India Telugu
| budget         =
}} Telugu film Radha and Kaikala Satyanarayana in important roles.

==External links==
* 

 
 
 
 
 

 