Sangre (film)
{{Infobox film
| name           = Sangre
| image          = 
| caption        = 
| director       = Amat Escalante
| producer       = Jaime Romandia
| writer         = Amat Escalante
| starring       = Cirilo Recio Dávila
| music          = 
| cinematography = Alex Fenton
| editing        = Amat Escalante
| distributor    = Mantarraya Producciones
| released       = 11 May 2005
| runtime        = 90 minutes
| country        = Mexico
| language       = Spanish
| budget         = 
}}

Sangre ("Blood") is a 2005 Mexican drama film directed by Amat Escalante. It was screened in the Un Certain Regard section at the 2005 Cannes Film Festival.   

==Cast==
* Cirilo Recio Dávila - Diego
* Claudia Orozco - Karina
* Martha Preciado - Martita
* Laura Saldaña Quintero - Blanca

==References==
 

==External links==
* 

 
 
 
 
 


 
 