C'est pas tout à fait la vie dont j'avais rêvé
{{Infobox Film
| name           = Cest pas tout à fait la vie dont javais rêvé
| image          = 
| image size     = 
| caption        = 
| director       = Michel Piccoli
| producer       = Paulo Branco
| writer         = Michel Piccoli
| narrator       = 
| starring       = Roger Jendly
| music          = 
| cinematography = Sabine Lancelin
| editing        = Catherine Quesemand
| distributor    = 
| released       = 19 May 2005
| runtime        = 75 minutes
| country        = France
| language       = French
| budget         = 
| preceded by    = 
| followed by    = 
}}

Cest pas tout à fait la vie dont javais rêvé is a 2005 French drama film directed by Michel Piccoli. It was screened out of competition at the 2005 Cannes Film Festival.   

==Cast==
* Roger Jendly - Le mari
* Michèle Gleizer - La femme
* Elisabeth Margoni - La maîtresse
* Monique Éberlé - La gouvernante
* Nicolas Barbot - Le petit garçon

==References==
 

==External links==
* 

 
 
 
 
 
 
 