His Friend's Wife
{{Infobox film
| name           = His Friends Wife
| image          = 
| image_size     = 
| caption        = 
| director       = R.E. Baker
| producer       = 
| writer         = 
| narrator       = 
| starring       = Francis X. Bushman Lottie Briscoe Dorothy Phillips
| music          = 
| cinematography = 
| editing        = 
| distributor    = General Film Company
| released       = June 6, 1911
| runtime        = 
| country        = United States
| language       = Silent film English intertitles
| budget         = 
| gross          = 
}}
 1911 American short Silent silent romantic drama starring  Lottie Briscoe and Dorothy Phillips, directed by R.E. Baker.  It is the film debut of Francis X. Bushman.

==External links==
* 

 
 
 
 
 
 
 


 
 