Simhapuri Simham
{{Infobox film
| name           = Simhapuri Simham
| image          =
| caption        =
| director       = Kodi Ramakrishna
| producer       =
| writer         = Madhavi Radhika Gollapudi Maruthi Rao
| music          = J. V. Raghavulu
| cinematography =
| editing        =
| distributor    =
| released       = October 20, 1983
| runtime        =
| country        = India Telugu
| budget         =
}} Telugu film directed by Kodi Ramakrishna. The film stars Chiranjeevi, Madhavi (actress)|Madhavi, Radhika, and Gollapudi Maruthi Rao in important roles.

==External links==
* 

 
 
 


 