Jebu Donga
{{Infobox film
| name           = Jebu Donga
| image          =
| caption        =
| director       = A. Kodandarami Reddy
| producer       =
| writer         = Radha Shanmukha Srinivas
| music          = K. Chakravarthy 
| cinematography =
| editing        =
| distributor    =
| released       = December 25, 1987
| runtime        =
| country        = India Telugu
| budget         =
}} Telugu film Radha in important roles.

==External links==
* 

 
 
 
 
 


 