Agni Gundam
{{Infobox film
| name           = Agni Gundam
| image          =
| caption        =
| director       = Kranthi Kumar
| producer       =
| writer         =
| starring       = Chiranjeevi Sumalatha Silk Smitha
| music          = K. Chakravarthy 
| cinematography =
| editing        =
| distributor    =
| released       = April 22, 1984
| runtime        =
| country        = India Telugu
| budget         =
}} Telugu film directed by Kranthi Kumar. The film stars Chiranjeevi, Sumalatha, and Silk Smitha in important roles.

==External links==
* 

 
 
 
 


 