It Was Not in Vain
 
 
{{Infobox film
| name           = It Was Not in Vain
| image          = 
| caption        = 
| director       = Nikola Tanhofer
| producer       = 
| writer         = Nikola Tanhofer Pero Budak
| starring       = Boris Buzančić
| music          = 
| cinematography = Slavko Zalar
| editing        = Radojka Tanhofer
| distributor    = 
| released       =  
| runtime        = 97 minutes
| country        = Yugoslavia
| language       = Serbo-Croatian
| budget         = 
}}

It Was Not in Vain ( ,  ) is a 1957 Yugoslavian drama film directed by Nikola Tanhofer. It was entered into the 7th Berlin International Film Festival.     

==Cast==
* Boris Buzančić
* Mira Nikolić
* Mia Oremović
* Zlata Perlić
* Zvonimir Rogoz
* Vjera Simic
* Ivan Šubić
* Ljuba Tadić (as Ljubo Tadić)
* Antun Vrdoljak

==References==
 

==External links==
* 

 
 
 
 
 
 
 
 
 