The Las Vegas Hillbillys
{{multiple issues|
 
 
}}

{{Infobox Film
| name           = The Las Vegas Hillbillys
| image          = The Las Vegas Hillbillys.jpg
| image size     = 
| caption        = 
| director       = Arthur C. Pierce
| producer       = 
| writer         = Larry Jackson
| starring       = Jayne Mansfield Mamie Van Doren
| music          =
| cinematography = 
| editing        = 
| distributor    = Woolner Brothers
| released       =  
| runtime        = 90 minutes
| country        = United States
| language       = English
}}
 The Canned Film Festival in the summer of 1986.

==Cast==
*Ferlin Husky	 ... 	Woody
*Jayne Mansfield	... 	Tawny
*Mamie Van Doren	... 	Boots Malone Don Bowman	... 	Jeepers
*Billie Bird     ...    Ma	 Bill Anderson	... 	Himself		
*Wilma Burgess	... 	Herself				
*Roy Drusky	... 	Himself			
*Sonny James	... 	Himself			
*Duke of Paducah	... 	Himself		
*Del Reeves	... 	Himself
*Connie Smith	... 	Herself
*Robert V. Barron	... 	Donald	
*Louis Quinn
*Richard Kiel John Harmon
*Helen Clark
*Bennett King
*Tony Posey

==External links==
*  
*  

 
 
 
 
 
 


 