Desmond's Trashed Apple Tree
{{Infobox film
| name           = Desmonds Trashed Apple Tree
| image          =
| caption        = Magnus Carlsson
| producer       = Magnus Carlsson
| writer         = Magnus Carlsson
| starring       =
| music          =
| cinematography =
| editing        = Magnus Carlsson
| distributor    =
| released       =
| runtime        = 13 minutes
| country        = Sweden
| language       = Swedish
| budget         =
| gross          =
}}
 Magnus Carlsson. 

== Cast ==
*Anna Blomberg as Bittan Ko / Fru Krokodil (voice)
*Sten Ljunggren as Narrator
*Måns Nathanaelson as Sebastian Hare (voice)
*Ola Rapace as Wille (voice)
*Shanti Roney as Desmond (voice)
*Rikard Wolff as Helmut Sebaot (voice)

== References ==
 

== External links ==
* 

 
 
 
 
 
 
 


 
 