Deceit (1989 film)
 
{{Infobox film
| name           = Deceit
| image          = 
| image_size     = 
| alt            = 
| caption        = 
| director       = Albert Pyun
| producer       = Tom Karnowski
| writer         = Kitty Chalmers
| narrator       =  Sam Phillips Norbert Weisser Scott Paulin Diane Defoe Christian Andrews
| music          = Anthony Riparetti
| cinematography = Philip Alan Waters
| editing        = 
| studio         = 
| distributor    = 
| released       =  
| runtime        = 
| country        = United States English
| budget         = 
| gross          = 
| preceded_by    = 
| followed_by    = 
}} minimalist science sexual relations with some of the women on the planet. 

==References==
 

==External links==
 
 

 
 
 
 
 


 