Tokarefu
{{Infobox film
| name           = Tokarefu
| image          = 
| caption        = 
| film name =  
| director       = Junji Sakamoto
| producer       = 
| writer         = 
| starring       = 
| music          = 
| cinematography = 
| editing        = 
| studio         = 
| distributor    = 
| released       =  
| runtime        = 
| country        = Japan
| language       = Japanese
| budget         = 
| gross          = 
}} Japanese film directed by Junji Sakamoto.

==Awards and nominations==
16th Yokohama Film Festival  
*Won: Best Film
*Won: Best Director - Junji Sakamoto
*Won: Best Supporting Actor - Kōichi Satō

==References==
 

 
 

 
 
 
 


 