The Road to Ruin (1928 film)
{{Infobox film
| name           = The Road to Ruin
| image          =
| image_size     =
| caption        =
| director       = Norton S. Parker
| producer       = Willis Kent
| writer         = Willis Kent
| narrator       = Helen Foster
| music          =
| cinematography = Henry Cronjager
| editing        = Edith Wakeling
| distributor    = True-Life Photoplays
| released       = March 23, 1928
| runtime        =
| country        = United States
| language       = English
| budget         =
| gross          = $2,500,000
| preceded_by    =
| followed_by    =
}}
 silent black-and-white top grossing remade as talkie in 1934.

==Cast== Helen Foster as Sally Canfield
*Grant Withers as Don Hughes
*Florence Turner as Mrs. Canfield
*Charles Miller as Mr. Canfield
*Virginia Roye as Eve Terrell
*Thomas Carr as Jimmy Canfield
*Don Rader as Al
*Eddie Dunn as Strip Poker Player

==External links==
* 
* 

 
 
 
 
 
 
 
 


 