Rock yo shizukani nagareyo
{{Infobox film
| name           = All Under the Moon
| image          = 
| caption        = 
| film name = {{Film name| kana           = ロックよ、静かに流れよ
| romaji         = Rock yo shizukani nagareyo}}
| director       = Shunichi Nagasaki
| producer       = 
| writer         = 
| starring       = 
| music          = 
| cinematography = 
| editing        = 
| studio         = 
| distributor    = 
| released       =  
| runtime        = 
| country        = Japan
| language       = Japanese
| budget         = 
| gross          = 
}} Japanese film directed by Shunichi Nagasaki.

==Awards and nominations==
10th Yokohama Film Festival  
*Won: Best Film
*Won: Best Director - Shunichi Nagasaki

==References==
 

 

 
 
 
 


 