Babiy Yar (film)
{{Infobox film
| name           = Babiy Yar
| image          =
| image_size     =
| caption        =
| director       = Jeff Kanew
| writer         =
| narrator       =
| starring       = Michael Degen
| music          =
| cinematography =
| editing        =
| distributor    =
| released       =  
| runtime        = 112 mins.
| country        = United States
| language       = English
| budget         =
| gross          =
| website        =
| amg_id         =
}}

Babiy Yar (also known as Babij Jar) is a 2003 film directed by Jeff Kanew. 
 German SS Divisions in the title location, a ravine in Kiev (the capital of Ukraine). 

==See also==
*Babi Yar

==References==
 

==External links==
* 

 

 
 
 


 