Hot Tomorrows
{{Infobox Film
| name           = Hot Tomorrows
| image          = 
| image_size     = 
| caption        = 
| director       = Martin Brest
| producer       = Martin Brest
| writer         = 
| narrator       = 
| starring       = Ken Lerner Hervé Villechaize Ray Sharkey Victor Argo
| music          = 
| cinematography = Jacques Haitkin
| editing        = Martin Brest
| studio         = American Film Institute
| distributor    = American Film Institute
| released       = April 1, 1977
| runtime        = 73 mins.
| country        = United States
| language       = English
| budget         = 
| gross          = 
| preceded_by    = 
| followed_by    = 
| website        = 
| amg_id         = 
}}
 The Mystic Knights of the Oingo Boingo, and is the only filmed example of a performance from the troupe, aside from the film Forbidden Zone. 

==Overview==
A young New York City writer that has moved to Los Angeles spends his days exploring his obsession with death.

==References==
 

==External links==
* 

 
 

 
 
 
 