The Inugamis (1976 film)
{{Infobox film
| name           = The Inugamis
| image          = 
| caption        = 
| film name      =  
| director       = Kon Ichikawa
| producer       = 
| writer         = Norio Nagata Shinya Hidaka Kon Ichikawa
| starring       = Kōji Ishizaka
| music          = 
| cinematography = 
| artdirector    = 
| editing        = 
| studio         = 
| distributor    = Toho
| released       =  
| runtime        = 
| country        = Japan
| language       = Japanese
| budget         = 
| gross          =
}} Japanese film in 2006.

==Cast==
*Kōji Ishizaka as Kosuke Kindaichi
*Yoko Shimada
*Teruhiko Aoi
*Mieko Takamine
*Mitsuko Kusabue
*Kyōko Kishida
*Eitaro Ozawa
*Rentarō Mikuni

==Awards and nominations==
1st Hochi Film Award 
* Won: Best Film

==References==
 

==External links==
*  

 
 

 
 
 
 
 
 
 


 