Third Base
{{Infobox film
| name           = Third Base
| image          = 
| caption        = 
| film name =  
| director       = Yōichi Higashi
| producer       = 
| writer         = 
| starring       = Toshiyuki Nagashima
| music          = 
| cinematography = 
| artdirector    = 
| editing        = 
| studio         = 
| distributor    = 
| released       =  
| runtime        = 
| country        = Japan
| language       = Japanese
| budget         = 
| gross          = 
}} Japanese sports film directed by Yōichi Higashi.

==Awards and nominations==
3rd Hochi Film Award 
* Won: Best Film

==References==
 

==External links==
* 

 
{{Navboxes title = Awards list =
 
 
 
}}
 
 
 
 
 


 