Comic Magazine
{{Infobox film
| name           = Comic Magazine
| image          = 
| caption        = 
| film name = {{Film name| kanji          = コミック雑誌なんかいらない!
| romaji         = Komikku zasshi nanka iranai!}}
| director       = Yojiro Takita
| producer       = 
| writer         = 
| starring       = Yuya Uchida
| music          = 
| cinematography = 
| editing        = 
| studio         = 
| distributor    = 
| released       =  
| runtime        = 
| country        = Japan
| language       = Japanese
| budget         = 
| gross          = 
}} Japanese film directed by Yojiro Takita.

==Awards and nominations==
11th Hochi Film Award 
* Won: Best Film
* Won: Best Actor - Yuya Uchida

==References==
 

==External links==
* 

 
 

 
 
 
 


 