A Dedicated Life
{{Infobox film
| name           = A Dedicated Life
| image          = 
| caption        = 
| film name = {{Film name| kanji          = 全身小説家
| romaji         = Zenshin shōsetsuka}}
| director       = Kazuo Hara
| producer       = 
| writer         = 
| starring       = 
| music          = 
| cinematography = 
| editing        = 
| studio         = 
| distributor    = 
| released       =  
| runtime        = 
| country        = Japan
| language       = Japanese
| budget         = 
| gross          = 
}} Japanese documentary directed by Kazuo Hara about the novelist Mitsuharu Inoue.

==Awards and nominations==
19th Hochi Film Award 
* Won: Best Film

==References==
 

==External links==
* 
{{Navboxes title = Awards list =
 
 
 
}}

 
 
 
 
 
 


 