Something Like It
{{Infobox film
| name           = Something Like It
| image          = 
| caption        = 
| film name = {{Film name| kana           = の・ようなもの
| romaji         = No Yōna Mono}}
| director       = Yoshimitsu Morita
| producer       = 
| writer         = 
| starring       = Kumiko Akiyoshi
| music          = 
| cinematography = 
| editing        = 
| studio         = 
| distributor    = 
| released       =  
| runtime        = 
| country        = Japan
| language       = Japanese
| budget         = 
| gross          = 
}} Japanese film directed by Yoshimitsu Morita.

==Awards and nominations==
3rd Yokohama Film Festival 
* Won: Best Film
* Won: Best New Director - Yoshimitsu Morita

==References==
 

 
 

 
 
 
 
 


 