During One Night
{{Infobox film
| name           = During One Night
| image          = 
| image_size     = 
| caption        = 
| director       = Sidney J. Furie
| writer         = 
| narrator       = 
| starring       = Don Borisenko
Susan Hampshire
| music          = 
| cinematography = 
| editing        = Antony Gibbs
| distributor    =  
| released       = December 1, 1961
| runtime        = 84 min.
| country        = United Kingdom
| language       = English
| budget         = 
| gross          = 
| preceded_by    = 
| followed_by    = 
| website        = 
| amg_id         = 
}}
During One Night is a 1961 British drama film directed by Sidney J. Furie and starring Don Borisenko and Susan Hampshire.

==External links==
* 

 

 
 
 
 
 


 