Fanci's Persuasion
{{Infobox Film
| name           =  Fancis Persuasion
| image          = 
| image_size     = 
| caption        = 
| director       = Charles Herman-Wurmfeld
| writer         = 
| narrator       =  Boa
| music          = 
| cinematography = 
| editing        = 
| distributor    =  
| released       = 1995
| runtime        = 80 min.
| country        = United States
| language       = English
| budget         = 
| gross          = 
| preceded_by    = 
| followed_by    = 
| website        = 
| amg_id         = 
}}
Fancis Persuasion is a 1995 film directed by Charles Herman-Wurmfeld.

==External links==
* 

 

 
 
 

 