Lullaby of the Earth
{{Infobox film
| name           = Lullaby of the Earth
| image          = 
| caption        = 
| film name =  
| director       = Yasuzo Masumura
| producer       = 
| writer         = 
| starring       = Mieko Harada Meiko Kaji
| music          = 
| cinematography = 
| editing        = 
| studio         = Kodosha/Kimura Pro 
| distributor    = Shochiku 
| released       =  
| runtime        = 111 minutes   
| country        = Japan
| language       = Japanese
| budget         = 
| gross          = 
}}
  is a 1976 Japanese film directed by Yasuzo Masumura. 

==Cast==
* Mieko Harada - Rin
* Eiji Okada
* Meiko Kaji
* Kinuyo Tanaka

==Awards and nominations==
19th Blue Ribbon Awards 
* Won: Best Film
* Won: Best Newcomer - Mieko Harada

==References==
 

== External links ==
* 
 
 

 
 
 
 


 