Out of the Rain
{{Infobox film
| name           = Out of the Rain
| image          = 
| image_size     = 
| caption        = 
| director       = Gary Winick
| writer         = 
| narrator       = 
| starring       = Bridget Fonda Michael OKeefe Mary Mara
| music          = 
| cinematography = 
| editing        = 
| distributor    =  
| released       = May 23, 1991
| runtime        = 95 minutes
| country        = United States
| language       = English
| budget         = 
| gross          = 
| preceded_by    = 
| followed_by    = 
| website        = 
| amg_id         = 
}}
Out of the Rain is a 1991 film directed by Gary Winick.

==External links==
* 

 

 
 
 
 
 


 