Tokyo Trial (1983 film)
 
{{Infobox film
| name           = Tokyo Trial
| image          = 
| caption        = 
| film name = {{Film name
| kanji          = 東京裁判}}
| director       = Masaki Kobayashi
| producer       = 
| writer         = Masaki Kobayashi Kiyoshi Ogasawara Shun Inagaki (story)
| starring       = 
| music          = 
| cinematography = 
| editing        = 
| studio         = 
| distributor    = 
| released       =  
| runtime        = 
| country        = Japan
| language       = Japanese
| budget         = 
| gross          = 
}} Japanese film directed by Masaki Kobayashi. It is a documentary film which deals with the Tokyo Trials at the end of the second world war.

==Awards and nominations==
26th Blue Ribbon Awards 

* Won: Best Film

==References==
 

 
 

 
 
 
 
 
 
 
 
 


 