Boys Be Ambitious
{{Infobox film
| name           = Boys Be Ambitious
| image          = 
| caption        = 
| film name = {{Film name| kanji          = 岸和田少年愚連隊 BOYS BE AMBITIOUS
| romaji         = Kishiwada shōnen gurentai}}
| director       = Kazuyuki Izutsu
| producer       = 
| writer         =  Takashi Okamura, Hiroyuki Yabe
| music          = 
| cinematography = 
| editing        = 
| studio         = 
| distributor    = 
| released       =  
| runtime        = 
| country        = Japan
| language       = Japanese
| budget         = 
| gross          = 
}} Japanese film Takashi Okamura and Hiroyuki Yabe from the comedy duo Ninety-nine (owarai)|Ninety-nine.

==Awards==
39th Blue Ribbon Awards 
* Won: Best Film

==References==
 

 
 

 
 
 
 


 

 