The Geisha (film)
{{Infobox film
| name           = The Geisha
| image          = 
| caption        = 
| film name =  
| director       = Hideo Gosha
| producer       = 
| writer         = 
| starring       = Mitsuko Baisho Noriko Hayami
| music          = 
| cinematography = 
| editing        = 
| studio         = 
| distributor    = 
| released       =  
| runtime        = 
| country        = Japan
| language       = Japanese
| budget         = 
| gross          = 
}} Japanese film directed by Hideo Gosha.

==Awards and nominations==
8th Hochi Film Award  
* Won: Best Supporting Actress - Mitsuko Baisho

==References==
 

 

 
 
 
 
 
 

 