Izakaya Chōji
{{Infobox film
| name           = Izakaya Chōji
| image          = 
| caption        = 
| film name =  
| director       = Yasuo Furuhata
| producer       = 
| writer         = 
| starring       = Juzo Itami Kunie Tanaka
| music          = 
| cinematography = 
| editing        = 
| studio         = 
| distributor    = 
| released       =  
| runtime        = 
| country        = Japan
| language       = Japanese
| budget         = 
| gross          = 
}} Japanese film directed by Yasuo Furuhata.

==Awards and nominations==
26th Blue Ribbon Awards 
* Won: Best Supporting Actor - Kunie Tanaka
8th Hochi Film Award  
* Won: Best Supporting Actor - Juzo Itami

==References==
 

 

 
 
 
 
 
 

 