Towards the Sun (film)
 
Towards the Sun is the English title for Idę do słońca, a documentary film about Xawery Dunikowski released in 1955, directed by Andrzej Wajda.

== Tracklist ==
*01. Towards The Sun (04:40)
*02. At Your Door (02:53)
*03. Some Day Soon (05:10)
*04. Slow Revolution (05:53)
*05. Through The Dark (05:41)
*06. Her Hands Were Leaves (04:48)
*07. Crinan Wood (08:43)

==External links==
*  

 

 
 
 
 
 
 
 

 
 