Ilamai
{{Infobox film
| name           = Ilamai
| image          = Ilamai.jpg
| caption        =
| director       = Rama Narayanan
| producer       = Charuchithra
| writer         =
| screenplay     = Arjun Anand Manorama
| music          = Shankar Ganesh
| cinematography =
| editing        =
| studio         =
| distributor    =
| released       =  
| country        = India Tamil
}}
 1985 Cinema Indian Tamil Tamil film, Manorama in lead roles. The film had musical score by Shankar Ganesh.  

==Cast== Arjun
*Anand Babu
*Jeevitha Manorama
*Sreekanth

==References==
 

 
 
 
 
 

 
 