Deceit (1999 film)
{{Infobox film
| name           = Deceit
| image          = 
| image_size     = 
| alt            = 
| caption        = 
| director       = Claudia Florio
| producer       = Sergio Castellani Carlos Pasini Hansen
| writer         = David Ambrose Roger Deutsch Claudia Florio
| narrator       = 
| starring       = Jonathan Pryce Susan Lynch Claudia Gerini 
| music          = Luis Bacalov
| cinematography = Luciano Tovoli
| editing        = Claudio M. Cutry
| studio         = Cinecitta
| distributor    = Adriana Chiesa Enterprises
| released       =  
| runtime        = 90 min.
| country        = Italy Italian
| budget         = 
| gross          = 
| preceded_by    = 
| followed_by    = 
}}
Deceit ( . The working title was Commedia.

==Cast==
* Jonathan Pryce 	as Mark
* Susan Lynch 	as Corinna
* Claudia Gerini 	as Michela
* Enrico Silvestrin 	as Tino
* Alessandra Acciai 	as Fiammetta 
* Brian Protheroe    
* Fionnula Flanagan  

==External links==
 

 
 
 
 
 
 
 


 
 