Kaitō Ruby
{{Infobox film
| name           = Kaitō Ruby
| image          = 
| caption        = 
| film name =  
| director       = Makoto Wada
| producer       = 
| writer         = Henry Slesar Makoto Wada
| starring       = Hiroyuki Sanada Kyōko Koizumi
| music          = 
| cinematography = Osame Maruike
| editing        = Isao Tomita
| studio         = 
| distributor    = 
| released       =  
| runtime        = 96 min.
| country        = Japan
| language       = Japanese
| budget         = 
| gross          = 
}} Japanese film directed by Makoto Wada.
==Cast==
*Kyōko Koizumi - Rumi Kato (Ruby)
*Hiroyuki Sanada - Toru Hayashi
*Kumi Mizuno - Torus mother
*Hideyo Amamoto
*Takanori Jinnai

==Awards and nominations==
13th Hochi Film Award  
* Won: Best Actor - Hiroyuki Sanada
10th Yokohama Film Festival  
* Won: Best Actor - Hiroyuki Sanada
* Won: Best Actress - Kyōko Koizumi
*6th Best Film 

==References==
 

 
 
 
 
 


 