Ohan (film)
{{Infobox film
| name           = Ohan
| image          = 
| image_size     = 
| caption        = 
| director       = Kon Ichikawa
| producer       = 
| writer         = Chiyo Uno (novel) Kon Ichikawa (screenplay)
| narrator       = 
| starring       = Sayuri Yoshinaga
| music          = 
| cinematography = Yukio Isohata 	
| artdirector    = 
| editing        = Chizuko Osada 
| studio         = 
| distributor    = Toho
| released       =  
| runtime        = 
| country        = Japan
| language       = Japanese
| budget         = 
| gross          =
}}
  is a 1984 Japanese film directed by Kon Ichikawa. It is based upon a same titled novel by Chiyo Uno.

==Awards and nominations==
9th Hochi Film Award  
* Won: Best Actress - Sayuri Yoshinaga

==References==
 
==External links==
*  
 

 
 
 
 
 
 
 


 