Chaplinesque, My Life and Hard Times
{{Infobox film
| name           = Chaplinesque, My Life and Hard Times
| image          =
| image_size     =
| alt            =
| caption        =
| director       = Harry Hurwitz
| producer       = Harry Hurwitz
| writer         =   Harry Hurwitz
| narrator       = Gloria Swanson
| starring       = Charlie Chaplin
| music          = Stuart Oderman
| cinematography =
| editing        =
| studio         =
| distributor    =
| released       =  12 April 1972
| runtime        =  56 minutes
| country        =   English
| budget         =
| gross          =
| preceded_by    =
| followed_by    =
}}

Chaplinesque, My Life and Hard Times aka The Eternal Tramp (video title) is a 1972 documentary film directed by Harry Hurwitz.  The film was frequently shown on American Public Television.   

==Plot==
 
Gloria Swanson narrates this documentary about the early life of Charlie Chaplin. 

==References==
 

== External links ==
* 
* 

 
 
 

 
 
 
 
 
 
 
 
 
 


 