Delivered
{{Infobox film
| name           = Delivered
| image          =
| image_size     =
| caption        =
| director       = Guy Ferland
| writer         =
| narrator       =
| starring       = Ron Eldard
| music          =
| cinematography =
| editing        =
| distributor    =
| released       = 1999
| runtime        = 93 min.
| country        = United States
| language       = English
| budget         =
| gross          =
| preceded_by    =
| followed_by    =
| website        =
| amg_id         =
}}
Delivered is a 1999 thriller/crime film directed by Guy Ferland. A pizza boy finds a murdered man at his next delivery and becomes the murderers next intended victim.

==External links==
* 

 

 
 
 
 
 


 