Last Man Running (film)
 
{{Infobox Film
| name           = Last Man Running 
| image          = 
| image_size     = 
| caption        = 
| director       = Damon Santostefano
| writer         = 
| narrator       = 
| starring       = David Wheir
| music          = 
| cinematography = 
| editing        = 
| distributor    =  
| released       = 2003
| runtime        = 88 mins.
| country        = United States
| language       = English
| budget         = 
| gross          = 
| preceded_by    = 
| followed_by    = 
| website        = 
| amg_id         = 
}}
Last Man Running is a 2003 film directed by Damon Santostefano.

==External links==
* 

 

 
 
 
 
 


 