Last Foxtrot in Burbank
{{Infobox film
| name           = Last Foxtrot in Burbank
| image          =
| caption        =
| director       = Charles Band
| writer         = Bill Haggard Sam Vaughn
| narrator       =
| starring       = Michael Pataki
| music          =
| cinematography = Tom Cecato
| editing        =
| distributor    = Federated Film Corporation
| released       =  
| runtime        = 65 min.
| country        = United States
| language       = English
| budget         =
| gross          =
| website        =
| amg_id         =
}}
Last Foxtrot in Burbank is a 1973 film directed by Charles Band. It is a spoof of Last Tango in Paris.

==External links==
* 

 

 
 
 
 
 
 


 