Burning Down the House (film)
{{Infobox film
| name           = Burning Down the House
| image          = Burning Down the House.jpg
| caption        = 
| director       = Philippe Mora
| writer         =  John Savage
| music          = 
| cinematography = 
| editing        = 
| distributor    =
| released       =  
| runtime        = 84 minutes
| country        = United States
| language       = English
| budget         = 
| gross          = 
}}
Burning Down the House is a 2001 film directed by Philippe Mora.

==External links==
*  

 

 
 
 
 
 
 
 


 