Outlaws of the Orient
{{Infobox film
| name           = Outlaws of the Orient
| image          = Outlaworient.jpg
| caption        = Film poster
| director       = Ernest B. Schoedsack
| producer       = Larry Darmour
| writer         = Ralph Graves (story) Charles F. Royal  Paul Franklin 
| narrator       = Jack Holt
| music          =
| cinematography =
| editing        =
| distributor    = Columbia Pictures
| released       =  
| runtime        = 61 mins.
| country        = United States
| language       = English
| budget         =
| gross          =
| website        =
| amg_id         =
}}
Outlaws of the Orient is a 1937 film directed by Ernest B. Schoedsack.

==Cast== Jack Holt ... Chet Eaton
*Mae Clarke	... Joan Manning
*Harold Huber ... Gen. Ho-Fang Ray Walker ... Lucky Phelps James Bush ... Johnny Eaton
*Joseph Crehan ... Snyder
*Beatrice Roberts 	... Alice

==External links==
* 

 

 
 
 
 
 
 
 

 