Wife Number 13
 
{{Infobox film
| name           = Wife Number 13
| image          = 
| caption        = 
| director       = Fatin Abdel Wahab
| producer       = 
| writer         = Abo El Seoud El Ebiary
| starring       = Rushdy Abaza
| music          = 
| cinematography = Kamal Korayem
| editing        = 
| distributor    = 
| released       =  
| runtime        = 97 minutes
| country        = Egypt
| language       = Arabic
| budget         = 
}}

Wife Number 13 ( , Transliteration|translit.&nbsp;Al zouga talattashar) is a 1962 Egyptian film, written by Abo El Seoud El Ebiary and directed by Fatin Abdel Wahab. It was entered into the 12th Berlin International Film Festival.   

==Cast==
* Rushdy Abaza
* Shadia
* Abdel Moneim Ibrahim
* Shouweikar
* Hassan Fayek
* Wedad Hamdy

==References==
 

==External links==
* 

 
 
 
 
 
 


 
 