Apart Together
{{Infobox film
| name           = Apart Together
| image          = Apart Together.jpg
| caption        = Film poster
| director       = Wang Quanan
| producer       = 
| writer         = Wang Quanan Na Jin Lu Yan
| music          = 
| cinematography = 
| editing        = 
| distributor    = 
| released       =  
| runtime        = 97 minutes
| country        = China
| language       = Chinese
| budget         = 
}}
Apart Together ( ) is a 2010 Chinese drama film directed by Wang Quanan. It was nominated for the Golden Bear at the 60th Berlin International Film Festival    and won the Best Screenplay award. 

==Cast== Lu Yan as Qiao Yu-e
* Xu Caigen as Qiao Yu-es husband 
* Mo Xiaotian
* Ling Feng as Liu Yangsheng    

==Plot== Lu Yan) has a new common law husband and he has never met his son before. 

==References==
 

==External links==
* 

 

 
 
 
 
 
 

 