Deli Yürek: Bumerang Cehennemi
 
{{Infobox film
| name           = Deli Yürek: Bumerang Cehennemi
| image          = Deli yurek.jpg
| image_size     = 
| caption        = Theatrical film poster
| director       = Osman Sınav
| producer       = Osman Sınav Mustafa Şevki Doğan
| writer         = Osman Sınav Raci Şaşmaz
| narrator       = Zara
| cinematography = Tevfik Şenol
| music          = Aria
| editing        = 
| distributor    = 
| released       = 7 December 2001
| runtime        = 120 mins
| country        = Turkey
| language       = Turkish
| budget         = 
| gross          = 
| preceded_by    = 
| followed_by    =
}} 2001 Cinema Turkish action film, written and directed by Osman Sınav. It is spun off from the TV series Deli Yürek.   

==Plot== PKK and other terrorist groups in the area.

==Cast==
*Kenan İmirzalıoğlu (Yusuf Miroğlu)
*Melda Bekcan (Zeynep)
*Oktay Kaynarca (Cemal)
*Selçuk Yöntem (Bozo) Zara (Leyla)

==References==
 

==External links==
* 

 
 
 
 
 
 
 
 
 


 
 