Big Timers
{{Infobox film
| name           = Big Timers
| image          =
| image_size     =
| caption        =
| director       = Bud Pollard
| producer       = E.M. Glucksman (producer)
| writer         =
| starring       = See below
| music          =
| cinematography = Lester Lang
| editing        = Bud Pollard
| distributor    =
| released       =
| runtime        = 36 minutes
| country        = United States
| language       = English
| budget         =
| gross          =
}}

Big Timers is a 1945 American musical comedy race film directed by Bud Pollard.

==Plot==
 

==Cast==
*Duke Williams
*Lou Swarz
*Gertrude Saunders
*Stepin Fetchit
*Tarzana as The Whoopie Dancer
*Francine Everett

==Soundtrack==
 

==External links==
* 
* 
* 

 
 
 
 
 


 