The Classic for Girls
{{Infobox film
| name           = The Classic for Girls
| image          =
| image_size     =
| caption        =
| director       = Cheng Bugao Chen Kengran Li Pingqian Shen Xiling Xu Yinfu Yao Sufeng Zhang Shichuan Zheng Zhengqiu
| producer       =
| writer         =
| music          =
| cinematography =
| editing        =
| distributor    =
| released       = 9 October 1934
| runtime        = China
| language       = Mandarin
| budget         =
| gross          =
| preceded_by    =
| followed_by    =
| website        =
}}

The Classic for Girls ( ) is a 1934 Chinese film directed by Cheng Bugao, Chen Kengran, Li Pingqian, Shen Xiling, Xu Yinfu, Yao Sufeng, Zhang Shichuan and Zheng Zhengqiu.

== Plot summary ==
 

== External links ==
* 
* 

 

 
 
 
 
 

 