Russia 88
{{Infobox film
| name           = Russia 88
| image          = Russia 88 FilmPoster.jpeg
| alt            = 
| caption        = 
| director       = 
| producer       = 
| writer         = 
| starring       = 
| music          = 
| cinematography = 
| editing        = 
| studio         = 
| distributor    = 
| released       =  
| runtime        = 
| country        = Russia
| language       = 
| budget         = 
| gross          = 
}} Southern Caucasian man. This family drama develops into a tragedy.

The movie has no ending credits, but a list of people killed by skinheads in Russia in 2008 at the end, playing over silence.

== External links ==
*  
*  
*  

 
 
 
 
 


 
 