Owd Bob (1938 film)
{{Infobox film
| name           = Owd Bob
| image          = 
| image_size     = 
| caption        =  Robert Stevenson
| writer         = 
| narrator       = 
| starring       = Will Fyffe
| music          = 
| cinematography = 
| editing        = 
| distributor    =  
| released       = 12 April 1938
| runtime        = 78 min.
| country        = United Kingdom
| language       = English
| budget         = 
| gross          = 
| preceded_by    = 
| followed_by    = 
| website        = 
| amg_id         = 
}} British drama Robert Stevenson. John Loder. 

==Partial cast==
*Will Fyffe as Adam McAdam John Loder as David Moore
*Margaret Lockwood as Jeannie McAdam
*Graham Moffatt as Tammas
*Moore Marriott as Samuel
* Elliott Mason as Mrs. Winthrop 
* Leonard Sharp as Bookmakers Assistant

==References==
 

==External links==
* 

 

 
 
 
 
 

 