Deathrow Gameshow
{{Infobox Film
| name           = Deathrow Gameshow
| image          = 
| image_size     = 
| caption        =  Mark Pirro
| producer       = 
| writer         = Mark Pirro Alan Gries
| narrator       =  John McCafferty Robyn Blythe
| cinematography = 
| music          = 
| editing        = 
| distributor    = 
| released       = 1987
| runtime        = 
| country        = United States
| language       = English
| budget         = 
| gross          = 
}}

Deathrow Gameshow is a 1987 black comedy film in which condemned prisoners are given opportunities to be granted reprieves for their sentences by participating in a television game show. 

==References==
 

==External links==
*  

 
 
 
 
 
 
 

 