Colonel Bogey (film)
 
 
{{Infobox film
| name           = Colonel Bogey 
| image          = 
| image_size     = 
| caption        = 
| director       = Terence Fisher
| writer         = 
| narrator       = 
| starring       = Jack Train
| music          = 
| cinematography = 
| editing        = 
| distributor    =  
| released       = September 1948
| runtime        = 51 min.
| country        = United Kingdom
| language       = English
| budget         = 
| gross          = 
| preceded_by    = 
| followed_by    = 
| website        = 
| amg_id         = 
}}
Colonel Bogey is a 1948 fantasy film directed by Terence Fisher. It stars Jack Train and Mary Jerrold. 

==Cast==
*Jack Train as Uncle James
*Mary Jerrold as Aunt Mabel
*Jane Barrett as Alice Graham John Stone as Wilfred Barriteau
*Ethel Coleridge as Emily

==References==
 

==External links==
* 

 

 
 
 
 

 