Son İstasyon
{{Infobox film
| name           = Son İstasyon
| image          = SonIstasyonFilmPoster.jpg
| alt            = 
| caption        = Film poster
| director       = Oğulcan Kırca
| producer       = Oğulcan Kırca
| writer         = Oğulcan Kırca
| narrator       = 
| starring       =  
| music          = Cenk Celebioglu
| cinematography = 
| editing        = Oğulcan Kırca
| studio         = Kirca Yapim
| distributor    = Pinema
| released       =  
| runtime        =  
| country        = Turkey
| language       = Turkish
| budget         = $700,000
| gross          = 
}}
Son İstasyon is a 2010 Turkish drama film written and directed by Oğulcan Kırca and starring the directors father Levent Kırca.   

==Production==
The film was shot on location in Istanbul and Uşak, Turkey.   

== See also ==
* 2010 in film
* Turkish films of 2010

==References==
 

==External links==
*   (Turkish)
*  

 
 
 
 
 
 
 