Liberation (film)
 
:For the Soviet-Italian-Polish-Yugoslavian-East German film series, see Liberation (film series)
{{Infobox film
| name           = Liberation
| image          = 
| image size     = 
| alt            = 
| caption        = 
| director       = Michael Younesi
| producer       = 
| writer         = 
| screenplay     = 
| story          = 
| narrator       = 
| starring       = 
| music          = 
| cinematography = 
| editing        = 
| studio         = 
| distributor    = 
| released       =  
| runtime        = 21 min.
| country        = 
| language       = 
| budget         = 
| gross          = 
| preceded by    = 
| followed by    = 
}}

Liberation is a 2009 docudrama about the Shah of Iran. Centered on his exile in Cuernavaca, Mexico, the film features actual archival footage from the Iranian Revolution of 1979 as well the Shahs interview with David Frost.
 The Queen and I. At its 2011 screening at the Noor Iranian Film Festival, star Navid Negahban won Best Actor. 

==References==
 

==External links==
*  
*  
*  
*  

 
 
 
 
 
 

 