Le Parti des Choses
{{Infobox Film
| name           = Le Parti Des Choses
| image          =
| image_size     = 
| caption        = 
| director       = Jacques Rozier
| producer       = 
| writer         = 
| narrator       = Jean Lescot David Tonelli
| starring       = Brigitte Bardot Jean-Luc Godard Fritz Lang
| music          = 
| cinematography = 
| editing        = 
| distributor    = 
| released       = 1964
| runtime        = 9 minutes
| country        = France
| language       = French 
| budget         = 
| preceded_by    = 
| followed_by    = 
}}
 Le Mépris. It is included on the Criterion Collection DVD of Le Mépris.

==Cast==
*Brigitte Bardot
*Jean-Luc Godard
*Fritz Lang
*Jack Palance
*Michel Piccoli

==External links==
 

 
 
 

 
 