The Stolen Jewels (1908 film)
 
{{Infobox film
| name           = The Stolen Jewels
| image          = 
| caption        = 
| director       = D. W. Griffith
| producer       = 
| writer         = D. W. Griffith
| starring       = Harry Solter
| music          = 
| cinematography = G. W. Bitzer
| editing        = 
| distributor    = 
| released       =  
| runtime        = 11 minutes (one Reel#Motion picture terminology|reel)
| country        = United States
| language       = Silent
| budget         = 
}}
 silent short short drama film directed by D. W. Griffith.   

==Cast==
* Harry Solter as Mr. Jenkins
* Florence Lawrence as Mrs. Jenkins
* Linda Arvidson as The Nurse
* John R. Cumpson as Smithson / Man at Brokers
* Gladys Egan as Child
* George Gebhardt as The Detective / The Mover
* D. W. Griffith as Crowd Member at Exchange
* Charles Inslee as Man at Brokers

==References==
 

==External links==
*  

 

 
 
 
 
 
 
 
 
 
 