Klann – grand guignol
{{Infobox Film
| name           = Klann – grand guignol
| image          = 
| image size     = 
| caption        = 
| director       = Patrick Ledoux
| producer       = Henry Lange Pierre Levie
| writer         = Jean Ferry Nathan Grigorieff Eric Uytborck Patrick Ledoux
| narrator       = 
| starring       = Gabriel Cattand
| music          = 
| cinematography = William Lubtchansky
| editing        = 
| distributor    = 
| released       = 1969
| runtime        = 90 minutes
| country        = France Belgium
| language       = French
| budget         = 
}}

Klann – grand guignol is a 1969 French-Belgian mystery film directed by Patrick Ledoux. It was entered into the 20th Berlin International Film Festival.   

==Cast==
* Gabriel Cattand
* Ursula Kubler
* Marie Signe Ledoux
* David McNeil - Poitou
* Nathalie Vernier

==References==
 

==External links==
* 

 
 
 
 
 
 
 
 
 