Out of It (film)
{{Infobox film
| name           = Out of It
| image	         = Out of It FilmPoster.jpeg
| caption        = Film poster Paul Williams
| producer       = Edward R. Pressman
| writer         = Paul Williams
| starring       = Barry Gordon
| music          = 
| cinematography = John G. Avildsen
| editing        = Ed Orshan
| distributor    = 
| released       =  
| runtime        = 95 minutes
| country        = United States
| language       = English
| budget         = 
}}
 Paul Williams. It was entered into the 20th Berlin International Film Festival.   

==Cast==
* Barry Gordon - Paul
* Jon Voight - Russ
* Lada Edmund Jr. - Christine
* Gretchen Corbett - Barbara
* Peter Grad - Steve Martin Gray - Draft Board
* Oliver Berry
* Leonard Gelber - Draft Board Richard Coyle 

==References==
 

==External links==
* 

 
 
 
 
 
 
 