To Love Again (film)
 
{{Infobox film
| name           = To Love Again
| image          = 
| image size     = 
| caption        = 
| director       = Kon Ichikawa
| producer       = Sanezumi Fujimoto
| writer         = Shuntaro Tanikawa
| narrator       = 
| starring       = Renaud Verley Ruriko Asaoka
| music          = 
| cinematography = Kiyoshi Hasegawa
| editing        = Ume Takeda
| distributor    = 
| released       =  
| runtime        = 93 minutes
| country        = Japan
| language       = Japanese
| budget         = 
}}

  is a 1971 Japanese drama film directed by Kon Ichikawa. It was entered into the 21st Berlin International Film Festival.   

==Cast==
* Renaud Verley - Niko
* Ruriko Asaoka - Miya
* Tetsuo Ishidate - Kee chan
* Yôko Kosono
* Graciela López Colombres - Maria
* Seiji Miyaguchi - Miyas father
* Kaori Momoi - Momoyo, Miyas sister Thomas Ross - Charbonnier

==References==
 

==External links==
* 

 

 
 
 
 
 
 
 


 
 