He Who Loves in a Glass House
 
{{Infobox film
| name           = He Who Loves in a Glass House
| image          = 
| image size     = 
| caption        = 
| director       = Michael Verhoeven
| producer       = Michael Verhoeven
| writer         = Michael Verhoeven
| narrator       = 
| starring       = Senta Berger
| music          = 
| cinematography = Igor Luther
| editing        = Michael Verhoeven
| distributor    = 
| released       =  
| runtime        = 85 minutes
| country        = West Germany
| language       = German
| budget         = 
}}

He Who Loves in a Glass House ( ) is a 1971 West German film directed by Michael Verhoeven. It was entered into the 21st Berlin International Film Festival.   

==Cast==
* Senta Berger
* Marianne Blomquist
* Hartmut Becker

==References==
 

==External links==
* 

 
 
 
 
 


 