Strangers' Meeting
{{Infobox film
| name           = Strangers Meeting
| image          = 
| image_size     = 
| caption        =  Robert Day
| writer         = 
| narrator       = 
| starring       = Peter Arne
| music          = 
| cinematography = 
| editing        = 
| distributor    =  
| released       = October 1957
| runtime        = 64 min.
| country        = United Kingdom
| language       = English
| budget         = 
| gross          = 
| preceded_by    = 
| followed_by    = 
| website        = 
| amg_id         = 
}} Robert Day. It stars Peter Arne and Delphi Lawrence.  

==Cast==
*Peter Arne as Harry Belair
*Delphi Lawrence as Margot Sanders
*Conrad Phillips as David Sanders
*Barbara Archer as Rosie Foster
*Victor Maddern as Willie Fisher
*David Ritch as Giovanni  
*Doris Hare as Nellie  
*John Kelly as Michael OHara   David Lodge as Fred  
*Norman Rossington as Barrow Boy

==References==
 

==External links==
* 

 

 
 
 
 
 

 