The Big Game (1972 film)
{{Infobox film
| name           = The Big Game
| image          = 
| image_size     = 
| caption        =  Robert Day
| writer         = 
| narrator       = 
| starring       = Stephen Boyd
| music          = 
| cinematography = 
| editing        = 
| distributor    =  
| released       = May 6, 1974
| runtime        = 95 min.
| country        = United Kingdom
| language       = English
| budget         = 
| gross          = 
| preceded_by    = 
| followed_by    = 
| website        = 
| amg_id         = 
}} Robert Day. It stars Stephen Boyd and Max Bygraves.  

==Cast==
*Stephen Boyd as Leyton Van Dyk
*France Nuyen as Atanga
*Ray Milland as Prof. Handley Cameron Mitchell as Bruno Carstens
*Brendon Boone as Jim Handley

==References==
 

==External links==
* 

 

 
 
 
 
 
 

 