Dard (1947 film)
{{Infobox film
| name           =Dard
| image          =
| image_size     =
| caption        =
| director       =Abdul Rashid Kardar
| producer       =
| writer         =
| narrator       =
| starring       =
| music          = Naushad
| cinematography =
| editor       =
| distributor    =
| released       =1947
| runtime        =
| country        = India Hindi
| budget         =
}}
 1947 Bollywood Uma Devi, which remains popular even today, 65 years later. Another notable song is "Hum dard ka afasana duniya ko suna denge."

The film was a big musical hit which catapulted the music director Naushad to great heights, and promoted the career of Shakeel Badayuni, who wrote the lyrics of the hit songs.

==Cast==
*Shyam Nusrat
*Munawar Sultana
*Suraiya 
*Badri Prasad
*Husn Banu
*Pratima Devi

==External links==
*  

 

 
 
 
 
 
 


 