The Witching Hour (1934 film)
{{Infobox film
| name           = The Witching Hour 
| image          = 
| image_size     = 
| caption        = 
| director       = Henry Hathaway
| writer         = 
| narrator       = 
| starring       = Guy Standing
| music          = 
| cinematography = 
| editing        = 
| distributor    =  
| released       =  
| runtime        = 69 minutes
| country        = United States
| language       = English}}
 John Halliday.   

==Cast==
*Guy Standing as Judge Martin Prentice John Halliday as Jack Brookfield
*William Frawley as Jury Foreman Tom Brown as Clay Thorne
*Gertrude Michael as Margaret Price

==References==
 

==External links==
* 

 

 
 
 
 
 
 
 
 
 
 