The White Gorilla
{{Infobox film
| name           = The White Gorilla
| image          =
| image_size     =
| caption        =
| director       = Harry L. Fraser
| producer       = Louis Weiss (executive producer) Harry L. Fraser (producer)  (uncredited) George M. Merrick (producer)  (uncredited)
| writer         = Harry L. Fraser (story)
| narrator       =
| starring       = See below
| music          = Lee Zahler
| cinematography = Robert E. Cline Bert Longenecker William C. Thompson
| editing        = Adrian Weiss
| distributor    =
| released       = 1945
| runtime        = 62 minutes
| country        = USA
| language       = English
| budget         =
| gross          =
| preceded_by    =
| followed_by    =
| website        =
}}
 Perils of the Jungle, and adding new footage as a framing plot. This was done without regard to differences in film quality or speed. 

== Plot summary ==
 

== Cast ==
*Ray Corrigan as Steve Collins / Konga, the White Gorilla / Narrator
*Lorraine Miller as Ruth Stacey
*Clyde Beatty as Bradford

==References==
 
== External links ==
* 
* 


 
 
 
 
 
 
 


 