Sorobanzuku
{{Infobox film
| name           = Sorobanzuku
| image          = 
| caption        = 
| film name =  
| director       = Yoshimitsu Morita
| producer       = 
| writer         = Yoshimitsu Morita Kaoru Kobayashi
| music          = 
| cinematography = 
| editing        = 
| studio         = 
| distributor    = 
| released       =  
| runtime        = 
| country        = Japan
| language       = Japanese
| budget         = 
| gross          = 
}} Japanese film directed by Yoshimitsu Morita.

==Awards==
8th Yokohama Film Festival  
*Won: Best Screenplay - Yoshimitsu Morita
*Won: Best Actress - Narumi Yasuda Kaoru Kobayashi
*10th Best Film

==References==
 

 

 
 
 
 


 