Tsuribaka Nisshi 14
 
{{Infobox film
| name           = Tsuribaka Nisshi 14
| image          = 
| caption        = 
| film name = {{Film name| kanji          = 釣りバカ日誌14 お遍路大パニック!
| romaji         = Tsuribaka Nisshi 14: O-Henro Dai Panic!}}
| director       = Yūzō Asahara
| producer       = 
| writer         = 
| starring       = Toshiyuki Nishida
| music          = 
| cinematography = 
| editing        = 
| studio         = 
| distributor    = 
| released       =  
| runtime        = 
| country        = Japan
| language       = Japanese
| budget         = 
| gross          = 
}} Japanese film directed by Yūzō Asahara.

==Awards== Blue Ribbon Award 
*Won: Best Actor - Toshiyuki Nishida

==References==
 

 

 
 
 
 
 


 