Mobs, Inc.
{{Infobox film
| name           = Mobs, Inc.
| image          = Mobincpos.jpg
| image_size     = 
| caption        = Film poster
| director       = William Asher
| writer         = 
| narrator       = 
| starring       = Reed Hadley
| music          = 
| cinematography = 
| editing        = 
| distributor    =  
| released       = March 21, 1956
| runtime        = 62 min.
| country        = United States
| language       = English}}

Mobs, Inc. is a 1956 film directed by William Asher. It stars Reed Hadley and Lisa Howard.  It was composed of three episodes from the American television series Racket Squad.

==Cast==
*Reed Hadley as Capt. John Braddock
*Lisa Howard as Ronnie Miles
*Marjorie Reynolds as Mary Hale Browne
*Douglass Dumbrille as Leland Cameron James

==References==
 

==External links==
* 

 

 
 
 
 
 
 
 

 