Tsuribaka Nisshi 19: Yokoso! Suzuki Kensetsu Goikko Sama
{{Infobox film
| name           = Tsuribaka Nisshi 19: Yokoso! Suzuki Kensetsu Goikko Sama
| image          = 
| director       = Yūzō Asahara
| producer       = 
| writer         = 
| starring       = Toshiyuki Nishida Miyoko Asada
| music          = 
| cinematography = 
| artdirector    = 
| editing        = 
| studio         = 
| distributor    = 
| released       =  
| runtime        = 
| country        = Japan
| language       = Japanese
| budget         = 
| gross          = 
}} Japanese film directed by Yūzō Asahara. 

==References==
 

 

 
 
 
 
 

 