A Foundling
{{multiple issues|
 
 
}}

{{Infobox film
| name           = A Foundling
| image          = A Foundling.jpg
| alt            =
| caption        =
| director       = Carly Lyn
| producer       = Colin Barton Richard J. Dubin
| screenplay     = Carly Lyn
| starring       = Cindy Chiu
| music          = Pierpaolo Tiano
| cinematography = David C. Smith
| editing        =
| studio         = Charming Films
| distributor    =
| released       =  
| runtime        = 90 minutes
| country        = United States
| language       = English
| budget         =
| gross          =
| preceded by    =
| followed by    =
}}
A Foundling, also known as The Mojave Experiment, is an American feature film which premiered at the 13th Annual Dances With Films film festival in 2010. Directed by Carly Lyn, the film stars Cindy Chiu as a Chinese-American woman in the Old West who finds the wreckage of a mysterious aircraft in the California desert.

==External links==
*  
*  
*  
*  
*  
*  
*  

 
 
 
 


 