The Crooked Road
{{Infobox film
| name           = The Crooked Road
| image          = 
| image_size     = 
| caption        = 
| director       = Don Chaffey
| writer         = 
| narrator       = 
| starring       = Robert Ryan
| music          = 
| cinematography = Stephen Dade
| editing        = 
| studio         = 
| distributor    = 
| released       = September 19, 1965
| runtime        = 92 min.
| country        = United Kingdom
| language       = English
| budget         = 
| gross          = 
| preceded_by    = 
| followed_by    = 
| website        = 
| amg_id         = 
}}
The Crooked Road is a 1965 British film directed by Don Chaffey. It stars Robert Ryan and Janet Munro. 

==Cast==
*Robert Ryan as Richard Ashley
*Stewart Granger as Duke of Orgagna
*Nadia Gray as Cosima Katherine Woodville as Elena
*Marius Goring as Harlequin
*Robert Rietty as the Chief of Police

==References==
 

==External links==
*  
*  

 

 
 
 
 
 
 


 