Yes, Mr Brown
{{Infobox film
| name           = Yes Mr Brown
| image          = 
| image_size     = 
| caption        = 
| director       = Herbert Wilcox
| producer       = Herbert Wilcox
| writer         = Douglas Furber
| story          = 
| based on       =  
| narrator       = 
| starring       = Jack Buchanan Hartley Power Elsie Randolph Margot Grahame
| music          = 
| cinematography = 
| editing        = 
| studio         = British & Dominions Film Corporation
| distributor    = United Artists (USA)
| released       =  
| runtime        = 94 minutes
| country        = United Kingdom
| language       = English
| budget         = 
| gross          = 
}} musical comedy 75 Most Wanted" lost films. 

==Cast==
* Jack Buchanan - Nicholas Baumann
* Hartley Power - Mr Brown
* Elsie Randolph - Anne Weber
* Margot Grahame - Clary Baumann
* Vera Pearce - Franzi
* Clifford Heatherley - Carlos
* David Bane - Head waiter
* Muriel George - Cook

==References==
 

==External links==
*  , with extensive notes
*  

 

 
 
 
 
 
 
 
 
 

 
 