The Big Delirium
{{Infobox film
| name           = The Big Delirium
| image          = 
| image size     = 
| caption        =  Dennis Berry
| producer       = 
| writer         = Dennis Berry
| starring       = Jean Seberg
| music          = 
| cinematography = Pierre Lhomme
| editing        = Renée Lichtig
| distributor    = 
| released       = 30 April 1975
| runtime        = 90 minutes
| country        = France
| language       = French
| budget         = 
}}
 Dennis Berry.   

==Cast==
* Jean Seberg - Emily
* Pierre Blaise - Pierre
* Wolfgang Preiss - Artmann
* Isabelle Huppert - Marie
* Yves Beneyton - John
* Georges Adet
* Gladys Berry
* Stefania Casini
* Jacques Debary
* Antonia Lotito
* Danièle Nègre

==See also==
* Isabelle Huppert filmography

==References==
 

==External links==
* 

 
 
 
 
 
 