The Captive: The Longest Drive 2
{{Infobox film
| name           = The Captive: The Longest Drive 2
| image          = 
| image_size     = 
| caption        = 
| director       = Lee H. Katzin
| writer         = 
| narrator       = 
| starring       = Joaquin Garay III
| music          = 
| cinematography = 
| editing        = 
| studio         = 
| distributor    = 
| released       = 1976
| runtime        = 80 minutes
| country        = United States
| language       = English
| budget         = 
| gross          = 
| preceded_by    = 
| followed_by    = 
}}
The Captive: The Longest Drive 2 is a 1976 film directed by Lee H. Katzin. It stars Joaquin Garay III and Tim Matheson.  

==Cast==
*Joaquin Garay III as Son
*Tim Matheson as Quinton Bodeen
*Kurt Russell as Morgan Two Persons Bodeen

==References==
 

==External links==
* 

 

 

 
 