The Fall of Italy
{{Infobox film
| name           = The Fall of Italy
| image          = 
| image size     = 
| alt            = 
| caption        = 
| director       = Lordan Zafranović
| producer       =  Mirko Kovač Lordan Zafranović Miodrag Krivokapić Dragan Maksimović
| music          = Alfi Kabiljo
| cinematography = Božidar Nikolić
| editing        = Josip Remenar
| studio         = Jadran Film Centar Film
| distributor    = 
| released       = 1981
| runtime        = 114 minutes Yugoslavia
| language       = Serbo-Croatian language|Serbo-Croatian
| budget         = 
| gross          = 
}}
 1981 Cinema Yugoslav war directed by Lordan Zafranović.

It won the Big Golden Arena for Best Film at the 1981 Pula Film Festival.   

==References==
 

==External links==
* 
* 
*  at Filmski-Programi.hr  

  

 
 
 
 
 
 
 
 


 
 