The Abductors
{{Infobox film
| name           = The Abductors
| image_size     = 
| image	=	The Abductors FilmPoster.jpeg
| caption        = 
| director       = Andrew McLaglen
| writer         = 
| narrator       = 
| starring       = Victor McLaglen
| music          = 
| cinematography = Joseph LaShelle
| editing        = 
| studio         = 
| distributor    = 
| released       =  
| runtime        = 80 minutes
| country        = United States
| language       = English
| budget         = 
| gross          = 
}} Gavin Muir.  It was produced by Regal Films.

==Cast==
* Victor McLaglen as Tom Muldoon Gavin Muir as Herbert Evans
* George Macready as Jack Langley
* Fay Spain as Sue Ellen
* Carl Thayler as Jed

==References==
 

==External links==
*  

 

 
 
 