The Flaming Teen-Age
 
{{Infobox film
| name           = The Flaming Teen-Age
| image_size     = 
| image	=	The Flaming Teen-Age FilmPoster.jpeg
| caption        = 
| director       = Irvin Yeaworth
| writer         = 
| narrator       = 
| starring       = Noel Reyburn
| music          = 
| cinematography = 
| editing        = 
| studio         = 
| distributor    = 
| released       = 1956
| runtime        = 55 minutes
| country        = United States
| language       = English
| budget         = 
| gross          = 
| preceded_by    = 
| followed_by    = 
}}
The Flaming Teen-Age is a 1956 film directed by Irvin Yeaworth. It stars Noel Reyburn and Ethel Barrett. 

==References==
 

==External links==
* 

 

 

 
 
 


 