Don't Lean Out the Window
{{Infobox film
| name           = Dont Lean Out the Window
| image          = 
| image size     = 
| alt            = 
| caption        = 
| director       = Bogdan Žižić
| producer       = 
| writer         = Krunoslav Quien Bogdan Žižić
| starring       = Ivo Gregurević Fabijan Šovagović Mira Banjac Jadranka Stilin Zdenko Jelčić Inge Appelt
| music          = Ozren Depolo
| cinematography = Branko Blažina
| editing        = Martin Tomić
| studio         = Jadran Film Croatia Film
| distributor    = 
| released       = 1977
| runtime        = 103 minutes
| country        = Yugoslavia
| language       = Serbo-Croatian
| budget         = 
| gross          = 
}}
 1977 Cinema Yugoslav drama directed by Bogdan Žižić.
 Best Film and for Best Supporting Actress (Mira Banjac).   

==References==
 

==External links==
* 
* 
*  at Filmski-Programi.hr  

  

 
 
 
 
 
 
 
 