Cul-de-sac (2010 film)
{{Infobox film
| name           = Cul-de-sac
| image          = Cul-de-sac (2010 film).jpg
| alt            = 
| caption        = 
| director       = Ramin Goudarzi Nejad Mahshad Torkan
| producer       = Ramin Goudarzi Nejad Mahshad Torkan
| writer         = Ramin Goudarzi Nejad Mahshad Torkan
| starring       = Kiana Firouz
| music          = Roy Todd
| cinematography = Ramin Goudarzi Nejad
| editing        = Ramin Goudarzi Nejad
| studio         = 
| distributor    = 
| released       =  
| runtime        = 98 minutes
| country        = United Kingdom
| language       = Persian
| budget         = 
| gross          = 
}}
Cul-de-sac is a feature film produced by Ramin Goudarzinejad and Mahshad Torkan, Iranian human rights activists and filmmakers based in London. It premiered on 20 May 2010. The film is focused on the plight of homosexuals — in this case, lesbians — in Iran.

==Overview== asylum in the United Kingdom. 

==Reception==
The film was largely well received by critics. 

==References==
 

==External links==
*  
*  

 
 
 
 
 
 
 
 
 
 
 


 
 