Clubbed to Death (film)
{{Infobox film
| name           = Clubbed to Death
| image          = 
| image size     = 
| alt            = 
| caption        = 
| director       = Yolande Zauberman
| producer       = 
| writer         = Yolande Zauberman Noémie Lvovsky
| starring       = Élodie Bouchez Roschdy Zem Béatrice Dalle
| music          = Philippe Cohen-Solal
| cinematography = Denis Lenoir
| editing        = 
| studio         = 
| distributor    = 
| released       =  
| runtime        = 90 minutes
| country        = 
| language       = French
| budget         = 
| gross          = 
}} French film starring Élodie Bouchez,  directed by Yolande Zauberman, and co-written by Zauberman and Noémie Lvovsky.    The film concerns a love triangle that forms between 20-year-old Lola (Bouchez) and the couple she encounters at an all-night rave.

== References ==
 

== Further reading ==
* 

== External links ==
*  

 
 


 