Priests Ćira and Spira
{{Infobox film
| name           = Priests Ćira and Spira
| image          = 
| image size     = 
| alt            = 
| caption        = 
| director       = Soja Jovanović
| producer       = 
| writer         = Rodoljub Andrić Soja Jovanović Stevan Sremac ( )
| starring       = Ljubinka Bobić Nevenka Mikulić Jovan Gec Milan Ajvaz Renata Ulmanski Dubravka Perić Slobodan Perović
| music          = Borivoje Simić
| cinematography = Nenad Jovičić
| editing        = Milanka Nanović
| studio         = 
| distributor    = 
| released       = 1957
| runtime        = 82 minutes
| country        = Yugoslavia
| language       = Serbo-Croatian
| budget         = 
| gross          = 
}}
 1957 Cinema Yugoslav film directed by Soja Jovanović.

==External links==
* 

 

 
 
 
 


 