Neela Parbat
{{Infobox film
| name           = Neela Parbat
| image          = 
| image_size     = 
| caption        = 
| director       = Ahmad Bashir
| producer       = Ahmad Bashir
| writer         = 
| narrator       =  Mohammad Ali Komal Kamal Irani
| music          = Pia Qadir & Akhtar Hussain
| cinematography = 
| editing        = 
| distributor    = 
| released       =  
| runtime        = 
| country        =  
| language       = Urdu
| budget         = 
}}

Neela Parbat ( }}) is a 1969 Pakistani Urdu film directed by Ahmad Bashir. It was Pakistans one of earliest experimental feature films. 
 

==References==

 

 
 
 
 

 