Teach Me!
{{Infobox Film
| name           = Teach Me!
| image          = 
| image_size     = 
| caption        = 
| director       = Mike Nichols
| producer       = 
| writer         = 
| narrator       = 
| starring       = 
| music          = 
| cinematography = 
| editing        = 
| distributor    = Leo-Todd Pictures
| released       =  
| runtime        = 20 minutes
| country        = United States
| language       = English
| budget         = 
}}
Teach Me! is a short film (20 minutes) written and directed by Mike Nichols.  Released in 1968, it stars Sandy Dennis. 
==References==
 
==External links==
*  

 
 
 
 

 