Goebbels und Geduldig
{{Infobox film
| name           = Goebbels und Geduldig
| image          = 
| alt            = 
| caption        =  Kai Wessel  
| producer       = 
| writer         = Peter Steinbach
| starring       = 
| music          = 
| cinematography = 
| editing        = 
| studio         = 
| distributor    = 
| released       =   
| runtime        = 90 minutes
| country        = Germany
| language       = German
| budget         = 
| gross          = 
}} Kai Wessel and written by Peter Steinbach.

==Cast==
*  / Harry Geduldig
* 
*Götz Otto: Brenneisen
* 
* 
* 
*Tobias Schenke

==External links==
* 

 
 
 
 
 
 
 
 