Al-Darga Al-Thalitha
{{Infobox film
| name           = Al-Darga Al-Thalitha
| image          = 
| image size     = 
| border         = 
| alt            = 
| caption        = 
| director       = Sherif Arafa
| producer       = Arab Egyptian Films
| writer         = Maher Awad
| screenplay     = 
| story          = 
| based on       = 
| narrator       =  Ahmed Zaki
| music          = 
| cinematography = 
| editing        = 
| studio         = 
| distributor    = 
| released       = 1988
| runtime        = 
| country        = Egypt
| language       = Arabic
| budget         = 
| gross          = 
}}
 Ahmed Zaki.

==Plot==
 

==Cast==
* "Souad Hosni" as Naanaa. Ahmed Zaki"
* "Gamil Ratib"
* "Sanaa’ Younis"
* "Abdel Azim Abdel Hak"

==References==
*(Al Daraga Al Thalesa): 
*"الدرجة الثالثة (فيلم(" 
 
 
 

 