Al-Mashbouh
{{Infobox film
| name           = Al-Mashbouh  المشبوه The Suspect
| image          = 
| image size     = 
| alt            = 
| caption        = 
| director       = Samir Seif
| producer       = Wasef Faiez
| writer         = Ibrahim Al Mougi
| narrator       = 
| starring       = Souad Hosni, Adel Emam 
| music          = Hani Shenouda
| cinematography = 
| editing        = 
| studio         = 
| distributor    = 
| released       = July 20, 1981 
| runtime        = 125 minutes
| country        = Egypt
| language       = Arabic
| budget         = 
| gross          = 
| preceded by    = 
| followed by    = 
}}

Al-Mashbouh,  (“The Suspect”),  , is a 1981 Egyptian romance movie, starring Souad Hosni and Adel Emam. It tells the story of a burglar, a belly dancer, a policeman and a friend of them.

==Cast==
*Souad Hosni as Batta.
* Adel Emam  as Maher.
* Farouk Al Fishawy as Tarek.
* Said Saleh

==References==
* 

 
 


 