Long Live the Island Frogs
 
{{Infobox film
| name           = Long Live the Island Frogs
| image          = Long Live the Island Frogs poster.jpg
| caption        = Film poster
| film name      = {{Film name
 | hangul         =  
 | hanja          = 섬 개구리  
 | rr             = Seom gaeguli manse
 | mr             = Sŏm kaeguri manse}}
| director       = Jin-woo Jeong
| producer       = Jin-woo Jeong
| writer         = In-kyung Seo Dong-hun Yu
| starring       = Seon-tae Ju
| music          = 
| cinematography = Jae-hyung Yoo
| editing        = Hui-su Kim
| distributor    = 
| released       =  
| runtime        = 98 minutes
| country        = South Korea
| language       = Korean
| budget         = 
}}
Long Live the Island Frogs ( ) is a 1972 South Korean drama film directed by Jin-woo Jeong. It was entered into the 23rd Berlin International Film Festival.   

==Cast==
* Seon-tae Ju
* Il-ryong Shin

==References==
 

==External links==
* 

 
 
 
 
 