Falešný hráč
 
 
{{Infobox film
| name           = Falešný hráč
| image          = 
| alt            = 
| caption        = 
| director       = Jaroslav Hurt
| producer       = 
| writer         = Jirí Dimmer
| starring       = Anna Sedlácková
| music          = 
| cinematography = Max Urban
| editing        = 
| studio         = 
| distributor    = 
| released       = 2 February 1913
| runtime        = 
| country        = Austria-Hungary
| language       = Silent Czech intertitles
| budget         = 
| gross          = 
}}

Falešný hráč is a 1913 Austro-Hungarian drama film directed by Jaroslav Hurt.

==Cast==
* Anna Sedlácková
* Rudolf Kafka
* Jaroslav Hurt
* Jára Sedlácek
* Vilém Rittershain
* Jirí Dimmer
* Alois Sedlácek

==External links==
*  

 
 
 
 
 
 
 