Oorummadi Brathukulu
{{Infobox film
| name           = Oorummadi Bratukulu
| image          = 
| image_size     =
| caption        =
| director       =B. S. Narayana
| producer       =
| writer         = 
| narrator       = Rallapalli Satyendra Madhavi
| music          = M. B. Srinivas
| cinematography =
| editing        =
| studio         =
| distributor    =
| released       = 1976
| runtime        =
| country        = India Telugu
| budget         =
}}

Oorummadi Bratukulu ( ) is a 1976 Telugu film directed by B. S. Narayana. The film won National Film Award for Best Feature Film in Telugu 

==Soundtrack==
*Sramaika Jeevana Soundaryaniki Samanamainadi Lene Ledoyi  (Lyrics:  )

==Awards==
*National Film Award for Best Feature Film in Telugu 
*Nandi Award for Best Feature Film

==References==
 

 

 
 
 


 