Twin Husbands (1933 film)
{{Infobox film
| name           = Twin Husbands
| image          =
| image_size     =
| caption        =
| director       = Frank R. Strayer
| producer       = Maury M. Cohen (producer)
| writer         = Robert Ellis (original story) Anthony Coldeway (screenplay)
| narrator       =
| starring       =
| music          =
| cinematography = M.A. Anderson
| editing        = Roland D. Reed
| distributor    =
| released       = 30 November 1933
| runtime        = 68 minutes
| country        = United States
| language       = English
| budget         =
| gross          =
| preceded_by    =
| followed_by    =
}}

Twin Husbands is a 1933 American film directed by Frank R. Strayer.

== Plot summary ==
 

== Cast ==
*John Miljan as Jerry Van Trevor and Jerry Werrenden
*Shirley Grey as Chloe Werrenden
*Monroe Owsley as Colton Drain
*Hale Hamilton as Colonel Gordon Lewis Robert Elliott as Sergeant Kerrigan
*Maurice Black as Feets
*William Franklin as Chuck
*Wilson Benge as Greyson the Butler

== Soundtrack ==
 

== External links ==
* 
* 

 

 
 
 
 
 
 
 
 

 