Priya O Priya
{{multiple issues|
 
 
}}

{{Infobox film
| name           = Priya O Priya
| Genre          =
| image          =
| caption        =
| director       = Muppalaneni Shiva
| producer       =
| writer         =
| Story          =
| Screenplay     = Abbas Simran Simran Chandra Chandra Mohan Lakshmi Brahmanandam Subbaraya Sharma Gangadhar Pandey Koti
| cinematography =
| choreography   =
| lyrics         =
| released       = 1997
| runtime        =
| country        = India Telugu
| budget         =
| gross          =
}}
 Tollywood film Simran and Naveen in lead roles.   It was dubbed in Tamil as Ithuthan Kadhal. It is a remake of the 1994 Bollywood film Yeh Dillagi.

 

 
 
 
 

 