The Old Bachelor's Dream
 
{{Infobox film
| name           = The Old Bachelors Dream
| image          = 
| alt            = 
| caption        = 
| director       = Josef Kricenský
| producer       = 
| writer         = Josef Kricenský
| starring       = Josef Kricenský
| music          = 
| cinematography = Jan Krízenecký
| editing        = 
| studio         = 
| distributor    = 
| released       =  
| runtime        = 
| country        = Austria-Hungary
| language       = Silent Czech intertitles
| budget         = 
| gross          = 
}}
The Old Bachelors Dream ( ) is a 1913 Austro-Hungarian comedy film directed by Josef Kricenský. It was produced in 1910 and released on 7 February 1913. 

==Cast==
* Josef Kricenský as Tobiás
* Ferry Seidl as Oskar
* Berta Friedrichová as Lilly
* Marie Demartiniová-Hradcanská as Landlady
* Otto Zahrádka as Forester
* Bohumil Kovár as Landlord

==References==
 

==External links==
*  

 
 
 
 
 
 

 
 