Held einer Nacht
 
{{Infobox film
| name           = Held einer Nacht
| image          = 
| image size     = 
| alt            = 
| caption        = 
| director       = Martin Frič
| producer       = Emil Meißner
| writer         = Hanns H. Fischer Peter Francke
| starring       = Vlasta Burian
| music          = 
| cinematography = Jan Stallich
| editing        = 
| studio         = 
| distributor    = 
| released       = 1935
| runtime        = 
| country        = Czechoslovakia Nazi Germany
| language       = German
| budget         = 
| gross          = 
}}
 German comedy film directed by Martin Frič.    It was released in 1935.

==Cast==
* Vlasta Burian - Florian Kerzl
* Else Lord - Plaschek, Schneidermeisterin
* Betty Bird - Elvira Thompson & Hanni, ihr Double
* Theo Lingen - Oberlehrer Schneemilch
* Erik Ode - Jantschi, Reklamezeichner
* Max Liebl - Der Bürgermeister

==References==
 

==External links==
*  

 

 
 
 
 
 
 
 
 
 
 