An Uncertain Season
 
 

<!-- Hide infobox until needed
{{Infobox film
| name           =
| image          = 
| alt            = 
| caption        = 
| director       = 
| producer       = 
| writer         = 
| starring       = 
| music          = 
| cinematography = 
| editing        = 
| studio         = 
| distributor    = 
| released       =
| runtime        = 
| country        = 
| language       = 
| budget         = 
| gross          = 
}}
--->  Czechoslovak comedy film directed by Ladislav Smoljak.

==External links==
*  

 
 
 
 
 
 


 
 