Hutch the Honeybee
{{Infobox film
| name           = Hutch the Honeybee
| film name      =  
| image          = 
| alt            = 
| caption        = 
| director       = Tetsurō Amino
| producer       = 
| writer         = Bochibochi Uchida Juri Takeda Kundō Koyama
| starring       = Ayaka Saitō Ayaka Wilson Naoki Tanaka Jun Komori Eiji Bandō
| music          = Kōichi Tsutaya
| cinematography = 
| editing        =  Tatsunoko Pro
| distributor    = Shochiku
| released       =  
| runtime        = 101 minutes
| country        = Japan
| language       = Japanese
| budget         = 
| gross          = 
}}
  is a remake of the 1970s show The Adventures of Hutch the Honeybee; it was released on 
31 July 2010.    Hutch debuted at number 6 at the Japanese box office. 

==Plot==
 

==Cast==
* Ayaka Saitō
* Ayaka Wilson
* Naoki Tanaka
* Jun Komori
* Eiji Bandō
* Kōichi Tsutaya
* Yui Aragaki

==References==
 

==External links==
*    
*  

 

 
 
 
 
 
 
 
 
 


 