Román pro ženy
 
{{Infobox film
| name           =
| image          = 
| image size     = 
| alt            = 
| caption        = 
| director       = Filip Renč
| producer       = Pavel Cechak
| writer         = 
| narrator       = 
| starring       = 
| music          = 
| cinematography = 
| editing        = 
| studio         = 
| distributor    = 
| released       =
| runtime        = 95 minutes
| country        = 
| language       = 
| budget         = 
| gross          = 
| preceded by    = 
| followed by    = 
}} Czech comedy film. It was released in 2005.

==Cast==
* Zuzana Kanocz
* Marek Vasut
* Simona Stasova
* Miroslav Donutil
* Ladislav Nergesova
* Stella Zazvorkova

==External links==
*  

 
 
 
 


 