ROMing
 
{{Infobox film
| name           = Roming
| image          = 
| image size     = 
| alt            = 
| caption        = 
| director       = Jirí Vejdelek
| producer       = Rudolf Biermann Andrei Boncea Tomás Hoffman Mișu Predescu
| writer         = Marek Epstein
| narrator       = 
| starring       = 
| music          = 
| cinematography = Jakub Simunek
| editing        = Jan Danhel
| studio         = 
| distributor    = 
| released       = 2007
| runtime        = 120 minutes
| country        = Czech Republic Czech
| budget         = CZK 28,000,000 (estimated)
| gross          = 
| preceded by    = 
| followed by    = 
}} Czech comedy Roma (Gypsies), but with an extra story within the story.

==Cast==
* Jean Constantin - Somáli
* Marián Labuda - Roman
* Bolek Polívka - Stano Zaječí
* Vítezslav Holub - Jura
* Corina Moise - Bebetka
* Oldrich Vlach - the priest
* Jean Surmaj senior - Mihajli
* Florentina Emanoil - Somáliová
* Vladimír Javorský - the postman, the devil, God

==External links==
*  

 
 
 
 


 