Steam Above a Pot
{{Infobox film
| name           = Steam Above a Pot
| image          = 
| alt            = 
| caption        = 
| film name      = 
| director       =Miroslav Cikán
| producer       = 
| writer         = 
| screenplay     = 
| story          = 
| based on       =  
| starring       =  Vladimír Ráz, Eva Marie Kavanova, and Robert Vrchota. 
| narrator       = 
| music          = 
| cinematography = 
| editing        = 
| studio         = Ceskoslovenský Státní Film 
| distributor    = 
| released       =1950  
| runtime        =84 minutes
| country        =Czechoslovakia
| language       = 
| budget         = 
| gross          = 
}}
Steam Above a Pot ( ) is a 1950 Czechoslovak comedy film, directed by Miroslav Cikán.  It stars  Vladimír Ráz, Eva Marie Kavanova, and Robert Vrchota. 

==References==
 

==External links==
*  at the Internet Movie Database

 
 
 
 
 
 
 