Oil Gobblers
 
{{Infobox film
| name           =Oil Gobblers
| image          = 
| image size     = 
| alt            = 
| caption        = 
| director       = Jan Svěrák
| producer       = 
| writer         = 
| narrator       = 
| starring       = 
| music          = 
| cinematography = 
| editing        = 
| studio         = 
| distributor    = 
| released       = 1988
| runtime        = 
| country        = Czechoslovakia
| language       = 
| budget         = 
| gross          = 
| preceded by    = 
| followed by    = 
}}
 Czech comedy film directed by Jan Svěrák. It was released in 1988. 

==References==
 

==External links==
*  

 

 
 
 
 
 


 
 