Provdám svou ženu
 
{{Infobox film
| name           = Provdám svou ženu
| image          = 
| alt            = 
| caption        = 
| film name      = 
| director       =Miroslav Cikán
| producer       = 
| writer         = 
| screenplay     = 
| story          = 
| based on       =  
| starring       =  Vlasta Burian, Svetla Svozilová, and Jaroslav Marvan. 
| narrator       = 
| music          = 
| cinematography = 
| editing        = 
| studio         = Slaviafilm 
| distributor    = 
| released       =1941  
| runtime        =
| country        =Czechoslovakia
| language       = 
| budget         = 
| gross          = 
}}
Provdám svou ženu is a 1941 Czechoslovak comedy film, directed by Miroslav Cikán.  It stars Vlasta Burian, Světla Svozilová, and Jaroslav Marvan. 

==References==
 

==External links==
*  at the Internet Movie Database

 
 
 
 
 
 
 
 