Admission Free
{{Infobox Film
| name           = Admission Free
| image          = 
| image_size     = 
| caption        = 
| director       = Dave Fleischer
| producer       = Max Fleischer
| animator       = Rudolph Eggeman
| writer         = 
| narrator       = 
| starring       = Mae Questel
| music          = 
| cinematography = 
| editing        = 
| distributor    = Paramount Publix Corporation
| released       = June 10, 1932
| runtime        = 7 min
| country        = United States
| language       = English
| budget         = 
| preceded_by    = 
| followed_by    = 
}}
Admission Free is a 1932 Fleischer Studios Talkartoon animated short film starring Betty Boop.

==Synopsis==
Betty Boop works at a  . Betty and Bimbo then ride into the sky on a firework Rocket.

==External links==
* 
* 

 
 
 
 


 