Snow White (1916 film)
{{Infobox film
| name           = Snow White
| image          = Snow White 1916.jpg
| image_size     =
| caption        = Advertisement (1917)
| director       = J. Searle Dawley
| producer       = H. Lyman Broening (uncredited)
| writer         = Winthrop Ames
| based on       =  
| starring       = Marguerite Clark Creighton Hale
| cinematography = H. Lyman Broening
| studio         = Famous Players Film Company
| distributor    = Paramount Pictures
| released       =  
| runtime        = 63 minutes (18 frame/s)
| country        = United States
| language       = Silent English intertitles
}}
  1937 animated film is an adaptation.

==Primary cast==
*Marguerite Clark as Snow White
*Creighton Hale as Prince Florimond  Queen Brangomar/Mary Jane
*Lionel Braham as Berthold, the Huntsman

==Home media==
Snow White (  (2000), Disc 4. 

==See also==
* List of rediscovered films

==References==
 

== External links ==
*  
*  

 

 
 
 
 
 
 
 
 
 
 
 
 
 


 
 