Last Plane Out
{{Infobox film
| name           = Last Plane Out
| image          = Last Plane Out.jpg
| image_size     = 
| alt            = 
| caption        = Theatrical poster David Nelson
| producer       = Jack Cox David Nelson
| writer         = Ernest Tidyman
| narrator       = 
| starring       = Jan-Michael Vincent Julie Carmen David Huffman Dennis McCarthy
| cinematography = Jacques Haitkin
| editing        = 
| studio         = 
| distributor    = New World Pictures
| released       = 23 September 1983
| runtime        = 92 minutes
| country        =   English
| budget         = 
| gross          = $115,475 (USA) 
| preceded_by    = 
| followed_by    = 
}} 1983 film David Nelson, Ozzie and insurgents during the Nicaraguan Revolution. 

==Plot== Sandinista rebel.

==Principal cast==
{| class="wikitable" style="width:50%;"
|- "
! Actor !! Role
|-
| Jan-Michael Vincent || Jack Cox
|-
| Julie Carmen|| Maria Cardena
|-
| Mary Crosby || Elizabeth Rush
|-
| David Huffman  || Jim Conley
|-
| Lloyd Battista || Anastasio Somoza Debayle
|-
| Tonyo Meléndez || Ernesto
|}
 Anthony Feijoo  Ramon

==References==
 

==External links==
* 
* 
 
 
 
 
 
 
 
 
 
 
 
 