The Teacher (1977 film)
{{Infobox film
| name           = The Teacher
| image          = 
| image size     = 
| caption        = 
| director       = Octavio Cortázar
| producer       = 
| writer         = Octavio Cortázar
| starring       = René de la Cruz
| music          = 
| cinematography = Pablo Martínez
| editing        = Roberto Bravo
| distributor    = 
| released       = 1977
| runtime        = 113 minutes
| country        = Cuba
| language       = Spanish
| budget         = 
}}
 Silver Bear for an outstanding artistic contribution.   

==Cast==
* René de la Cruz Javier González
* Adela Legrá
* Luis Rielo
* Maribel Rodríguez
* Patricio Wood
* Salvador Wood

==References==
 

==External links==
* 

 
 
 
 
 
 
 