Tankový prapor (film)
 
{{Infobox film
| name           = Tankový prapor
| image          = 
| image size     = 
| alt            = 
| caption        = 
| director       = Vít Olmer
| producer       =
| writer         =
| story          = Josef Škvorecký
| based on       =
| narrator       = 
| starring       = 
| music          =
| cinematography = 
| editing        = 
| studio         = 
| distributor    = 
| released       = 1991
| runtime        = 83 minutes
| country        = Czechoslovakia
| language       = Czech
| budget         = 
| gross          = 
}} Czech comedy film. It was released in 1991.

==External links==
*  

 
 
 
 
 
 


 
 