Sestřičky
{{Infobox film
| name           = Sestřičky
| image          = 
| image size     = 
| alt            = 
| caption        = 
| director       = Karel Kachyňa
| producer       = 
| writer         = 
| narrator       = 
| starring       = Jiřina Jirásková
| music          = 
| cinematography = 
| editing        = 
| studio         = 
| distributor    = 
| released       =
| runtime        = 
| country        = 
| language       = 
| budget         = 
| gross          = 
| preceded by    = 
| followed by    = 
}}
 Czech comedy film. It was released in 1983.

==External links==
*   at the Internet Movie Database

 
 
 
 
 


 
 