Second Half
 

{{Infobox film
| name           = Second Half
| image          = 
| image size     =
| caption        = 
| director       = Hilde Heier
| producer       = 
| writer         = Kim Fupz Aakeson
| narrator       =
| starring       = Johannes Joner   Espen Reboli Bjerke   Baard Owe
| music          = 
| cinematography = 
| editing        = 
| distributor    = 
| released       = 19 January 2007
| runtime        = 84 minutes 
| country        = Norway
| language       = Norwegian
| budget         = 
| gross          =
| preceded by    =
| followed by    =
}}
 Norwegian comedy relegated this year.

==External links==
*  
*   at Filmweb.no (Norwegian)
*   at the Norwegian Film Institute

 
 
 


 