1996: Pust på meg!
{{Infobox film
| name           = 1996: Pust på meg!
| image          = 
| image size     =
| caption        = 
| director       = Eva Dahr   Oddvar Einarson   Mona J. Hoel   Marius Holst   Eva Isaksen
| producer       = 
| writer         = Arne Berggren   Terje Holtet Larsen   Klaus Rifbjerg   Gunnar Staalesen   Marit Tusvik
| narrator       =
| starring       = Krister Henriksson   Frits Helmuth   Stina Ekblad   Erik Hivju   Bjørn Sundquist
| music          = 
| cinematography = 
| editing        = 
| distributor    = 
| released       = 31 January 1997
| runtime        = 106 minutes 
| country        = Norway
| language       = Norwegian
| budget         = 
| gross          =
| preceded by    =
| followed by    =
}}
 Norwegian drama film directed by Eva Dahr, Oddvar Einarson, Mona J. Hoel, Marius Holst and Eva Isaksen, and starring Krister Henriksson, Frits Helmuth, Stina Ekblad, Erik Hivju and Bjørn Sundquist. Four different scenes are being played out in an apartment in Oslo one day in April 1996.

==External links==
*  
*   at Filmweb.no

 

 
 
 
 
 


 