Bare et liv – Historien om Fridtjof Nansen
{{Infobox film
| name           = Bare et liv – Historien om Fridtjof Nansen
| image          = 
| image size     =
| caption        = 
| director       = Sergei Mikaelyan
| producer       = 
| writer         = Odd Bang-Hansen   Yuli Dunsky
| narrator       =
| starring       = Knut Wigert   Veslemøy Haslund   Rolf Sand   Joachim Calmeyer   Jack Fjeldstad 
| music          = 
| cinematography = 
| editing        = 
| distributor    = 
| released       = 10 October 1968 (Norway)
| runtime        = 89 minutes (Norway) 85 minutes (Soviet Union)
| country        = Norway
| language       = Norwegian
| budget         = 
| gross          =
| preceded by    =
| followed by    =
}}
 famine in Ukrainian Soviet Socialist Republic|Ukraine.

==External links==
*  
*   at Filmweb.no (Norwegian)

 
 
 
 
 


 