Ballen i øyet
{{Infobox film
| name           = Ballen i øyet
| image          = 
| image size     =
| caption        = 
| director       = Catrine Telle
| producer       = 
| writer         = Beate Grimsrud
| narrator       =
| starring       = Laila Goody 
| music          = 
| cinematography = 
| editing        = 
| distributor    = 
| released       = 18 February 2000
| runtime        = 81 minutes 
| country        = Norway
| language       = Norwegian
| budget         = 
| gross          =
| preceded by    =
| followed by    =
}}
 Norwegian comedy short sighted, but still plays Association football|football. One day she is hit in the eye by a ball, and loses consciousness. When she wakes up, it seems that everyone else has an identical twin.

==External links==
*  
*   at Filmweb.no (Norwegian)
*   at the Norwegian Film Institute

 
 
 
 


 