Lucie (film)
 
{{Infobox film
| name           = Lucie
| image          = 
| caption        = 
| director       = Karel Steklý
| producer       = 
| writer         = 
| starring       = Josef Bek
| music          = 
| cinematography = 
| editing        = 
| distributor    = 
| released       =  
| runtime        = 90 minutes
| country        = Czechoslovakia
| language       = Czech
| budget         = 
}} Czechoslovak film directed by Karel Steklý.    The film starred Josef Kemr. 

==Cast==
* Josef Bek
* Karel Höger
* Václav Kankovský
* Waldemar Matuska
* Július Vasek

==References==
 

==External links==
*  

 

 
 
 
 
 
 
 