Studujeme za školou
{{Infobox film
| name           = Studujeme za školou
| image          = 
| alt            = 
| caption        = 
| film name      = 
| director       =Miroslav Cikán
| producer       = 
| writer         = 
| screenplay     = 
| story          = 
| based on       =  
| starring       =  Svatopluk Benes, Frantisek Filipovský, Natasa Gollová 
| narrator       = 
| music          = 
| cinematography = 
| editing        = 
| studio         = 
| distributor    = 
| released       =1939  
| runtime        =
| country        =Czechoslovakia
| language       = 
| budget         = 
| gross          = 
}}
Studujeme za školou is a 1939 Czechoslovak comedy film, directed by Miroslav Cikán.  It stars Svatopluk Benes, Frantisek Filipovský, Natasa Gollová 

==References==
 

==External links==
*  at the Internet Movie Database

 
 
 
 
 
 
 
 