Chléb a písně

{{Infobox film
| name           = Chléb a písně
| image          = 
| image size     = 
| alt            = 
| caption        = 
| director       = 
| producer       = 
| writer         = 
| narrator       = 
| starring       = Josef Kemr
| music          = 
| cinematography = 
| editing        = 
| studio         = 
| distributor    = 
| released       =
| runtime        = 
| country        = Czechoslovakia
| language       = 
| budget         = 
| gross          = 
}}
 Czechoslovak film. The film starred Josef Kemr. 

==References==
 

==External links==
*  

 
 
 
 
 


 