Golet v údolí
 
{{Infobox film
| name           = Golet v údolí
| image          = 
| image size     = 
| alt            = 
| caption        = 
| director       = 
| producer       = 
| writer         = 
| narrator       = 
| starring       = 
| music          = 
| cinematography = 
| editing        = 
| studio         = 
| distributor    = 
| released       = 11 May 1995
| runtime        = 90 min
| country        = Czech Republic Czech
| budget         = 
| gross          = 
| preceded by    = 
| followed by    = 
}}
 Czech comedy-drama film. The film starred Josef Kemr. 

==References==
 

==External links==
*  

 
 
 
 


 