The Rag-Picker
{{Infobox film
| name           = Le Chiffonnier
| image          =
| caption        =
| director       = Georges Méliès
| producer       =
| writer         =
| narrator       =
| starring       =
| cinematography =
| editing        =
| distributor    =
| released       =  
| runtime        = 20 meters/65 feet   
| country        = France Silent
| budget         =
| gross          =
}}

The Rag Picker ( ), also released as A Good Joke ( ), was an 1896 French silent film directed by Georges Méliès. It was released by Mélièss company Star Film and is numbered 9 in its catalogues.  The film is currently presumed Lost film|lost. 

==References==
 

== External links ==
*  

 

 
 
 
 
 
 
 
 


 
 