Maratón (film)
:For other uses, see Maraton (disambiguation) and Marathon (disambiguation)
{{Infobox film
| name           = Maratón
| image          = 
| image size     = 
| alt            = 
| caption        = 
| director       =  Ivo Novák
| producer       =  Jan Procházka
| starring       = Jaromír Hanzlík   Jana Brejchová  Vladimír Menšík 
| music          = Zdeněk Liška
| cinematography = Václav Hanus
| editing        = Jirina Lukesová
| studio         = 
| distributor    = 
| released       = 1968
| runtime        = 100 minutes
| country        = Czechoslovakia
| language       = 
| budget         = 
| gross          =  
}} Czechoslovak film. The film was directed by Ivo Novák starring Jaromír Hanzlík, Jana Brejchová and Vladimír Menšík. 

==References==
 

==External links==
*  

 
 
 
 
 


 