Škola základ života
{{Infobox film
| name           = Škola základ života
| image          = 
| image size     = 
| caption        = 
| director       = Martin Frič
| producer       = 
| writer         = Václav Wasserman Jaroslav Zák Theodor Pištěk
| music          = 
| cinematography = Jan Stallich
| editing        = Jan Kohout
| distributor    = 
| released       =  
| runtime        = 92 minutes
| country        = Czechoslovakia
| language       = Czech
| budget         = 
}}
 Czechoslovak comedy film directed by Martin Frič.   

==References==
 

==External links==
*  

 

 
 
 
 
 
 
 
 


 
 