A Serpentine Dance
{{Infobox film
| name           = Danse Serpentine
| image          = 
| caption        = 
| director       = Georges Méliès
| producer       = 
| writer         = 
| starring       = 
| music          = 
| cinematography = 
| editing        = 
| distributor    = 
| released       =  
| runtime        = 20 meters/65 feet   
| country        = France
| language       = Silent
| budget         = 
| gross          =
}}
A Serpentine Dance ( ) was an 1896 French silent film directed by Georges Méliès. It was released by Mélièss company Star Film and is numbered 44 in its catalogues.  The film is currently presumed Lost film|lost. 

== References ==
 

== External links ==
*  
 

 
 
 
 
 
 
 
 

 
 