White Heat (1926 film)
{{Infobox film
| name           = White Heat
| image          =
| image_size     =
| caption        =
| director       = Thomas Bentley
| producer       = 
| writer         = Eliot Stannard
| narrator       = George Bellamy   Vesta Sylva
| music          =  
| cinematography = 
| editing        = 
| studio         = Graham-Wilcox Productions
| distributor    = Graham-Wilcox Productions
| released       = 1 September 1926
| runtime        = 
| country        = United Kingdom English
| budget         =
| gross          =
| preceded_by    =
| followed_by    =
| website        =
}} British drama George Bellamy.  A dancer becomes romantically involved with a producer.

==Cast==
* Juliette Compton – Helen 
* Wyndham Standing – Gilbert Gillman 
* Vesta Sylva – Eve Storer 
* Walter Butler  – Julian Jefferson 
* Bertram Burleigh – Phil Storer  George Bellamy – Mr. Storey 
* Wellington Briggs – Hall 
* Estelle Brody – Ninon 
* Alf Goddard – Apache

==References==
 

==External links==
* 

 

 
 
 
 
 
 
 


 