Paklíč
{{Infobox film
| name           = Paklíč 
| image          = 
| alt            = 
| caption        = 
| film name      = 
| director       =Miroslav Cikán
| producer       = 
| writer         = 
| screenplay     = 
| story          = 
| based on       =  
| starring       =  Oldrich Nový, Jirina Steimarová, and Jaroslav Marvan. 
| narrator       = 
| music          = 
| cinematography = 
| editing        = 
| studio         = Nationalfilm 
| distributor    = 
| released       =1944  
| runtime        =
| country        =Czechoslovakia
| language       = 
| budget         = 
| gross          = 
}}
Paklíč  is a 1944 Czechoslovak criminal comedy film, directed by Miroslav Cikán.  It stars Oldřich Nový, Jiřina Steimarová, Josef Kemr  and Jaroslav Marvan. 

==References==
 

==External links==
*  at the Internet Movie Database

 
 
 
 
 
 
 
 
 