Karamay (film)
{{Infobox film
| name           = Karamay
| image          = Karamay2010Poster.jpg
| caption        = Chinese poster Xu Xin ( )
| producer       = 
| writer         = 
| starring       = 
| music          = 
| cinematography = 
| editing        = 
| studio         = 
| distributor    = 
| released       =  
| runtime        = 356 minutes
| country        = China
| language       = Mandarin
| budget         = 
| gross          = 
}} Xu Xin about the 1994 Karamay fire.  It is largely black-and-white.

==References==
 

==External links==
*   at the 34th Hong Kong International Film Festival
*  

 
 
 
 
 
 
 
 
 


 
 