Bra mennesker
{{Infobox film
| name           = Bra mennesker
| image          = 
| image size     =
| caption        = 
| director       = Leif Sinding
| producer       = 
| writer         = Leif Sinding   Oskar Braaten (play)
| narrator       =
| starring       = Sonja Wigert   Georg Løkkeberg   Harald Steen
| music          = 
| cinematography = 
| editing        = 
| distributor    = 
| released       = 25 October 1937
| runtime        = 91 minutes 
| country        = Norway
| language       = Norwegian
| budget         = 
| gross          =
| preceded by    =
| followed by    =
}}
 Norwegian drama film directed by Leif Sinding, starring Sonja Wigert, Georg Løkkeberg and Harald Steen. The script was also written by Sinding, based on a play by Oskar Braaten.

==External links==
*  
*   at Filmweb.no (Norwegian)

 
 
 
 