El Espíritu de mi Mamá
 
{{Infobox film
| name           = El Espíritu de mi Mamá
| image          = El Espíritu de mi Mamá.jpg
| caption        = DVD cover
| director       = Ali Allie
| producer       = Ali Allie
| writer         = Ali Allie
| starring       = Johana Martinez
| released       = 1999
| runtime        = 78 minutes
| country        = Honduras
| language       = Spanish
}}
 Garifuna womans journey home to Honduras to embrace her cultural roots. It premiered at SXSW in 1999 and later at Dawn Breakers International Film Festival. It has been released on DVD.

==External links==
*  
*  
*  
*  

 
 
 
 
 

 