Kaya (film)
{{Infobox film
| name           = Kaya
| image          = 
| image size     = 
| alt            = 
| caption        = 
| director       = Vatroslav Mimica
| producer       = 
| writer         = Kruno Quien Vatroslav Mimica
| narrator       = 
| starring       = Zaim Muzaferija Uglješa Kojadinović Antun Nalis Jolanda Ðačić Izet Hajdarhodžić Husein Čokić
| music          = 
| cinematography = Frano Vodopivec
| editing        = 
| studio         = Jadran Film
| distributor    = 
| released       =
| runtime        = 
| country        = Yugoslavia
| language       = Serbo-Croatian
| budget         = 
| gross          = 
| preceded by    = 
| followed by    = 
}}

Kaya, also known as Kaya, Ill Kill You ( ) is a 1967 Yugoslav feature film directed by Vatroslav Mimica.

In 1999, a poll of Croatian film critics found it to be one of the best Croatian films ever made. 

==References==
 

==External links==
* 
*  at Filmski-Programi.hr  

 

 
 
 
 
 
 


 