The House (1975 film)
{{Infobox film
| name           = The House
| image          = 
| image size     = 
| alt            = 
| caption        = 
| director       = Bogdan Žižić
| producer       = 
| writer         = Željko Senečić Bogdan Žižić
| narrator       = 
| starring       = Fabijan Šovagović Jagoda Kaloper Rade Marković Ana Karić
| music          = Tomica Simović
| cinematography = Tomislav Pinter
| editing        = Radojka Tanhofer
| studio         = Croatia Film Jadran Film
| distributor    = 
| released       = 10 July 1975
| runtime        = 91 minutes
| country        = Yugoslavia
| language       = Serbo-Croatian
| budget         = 
| gross          = 
| preceded by    = 
| followed by    = 
}}

The House ( ) is a 1975 Yugoslav film directed by Bogdan Žižić.

==External links==
* 
*  at Filmski-Programi.hr  

  

 
 
 
 
 
 
 


 