Don't Look Back, My Son
{{Infobox film
| name           = Dont Look Back, My Son
| image          = 
| image size     = 
| alt            = 
| caption        = 
| director       = Branko Bauer
| producer       = 
| writer         = Branko Bauer Arsen Diklić
| narrator       = 
| starring       = Bert Sotlar Zlatko Lukman
| music          = Bojan Adamič
| cinematography = Branko Blažina
| editing        = 
| studio         = Jadran Film
| distributor    = 
| released       = 16 July 1956
| runtime        = 111 minutes
| country        = Yugoslavia
| language       = Serbo-Croatian
| budget         = 
| gross          = 
| preceded by    = 
| followed by    = 
}}
  Croatian film directed by Branko Bauer.

In 1999, a poll of Croatian film critics found it to be one of the best Croatian films ever made. 

==References==
 

==External links==
* 
*  at Filmski-Programi.hr  

 
 
 
 
 
 
 
 
 
 