Gun Crazy 3: Traitor's Rhapsody
 
{{Infobox film
| name           = Gun Crazy 3: The Big Gundown
| image          = Gun Crazy 3 The Big Gundown.png
| image size     =
| alt            =
| caption        =
| released       =  
| director       = Atsushi Muroga
| producer       = Shochiku
| writer         =
| starring       = Kasumi Nakane
| music          = Goro Yasukawa
| cinematography = Haruhisa Taguchi
| Distributed    =Pioneer LDC
| running time   = 71 min.
| country        = Japan
| language       = Japanese
| gross          =
}}

  is a 2003 Japanese action movie, starring  , it was also directed by Atsushi Muroga.

==Cast==

* Kasumi Nakane
* Mitsuho Otani
* Hiroshi Fuse
* Yasukaze Motomiya
* Jin Nakayama

==References==
 

== External links ==
* 

 
 
 
 
 


 