Marigolds in August (film)
{{Infobox film
| name           = Marigolds in August
| image          = 
| caption        = 
| director       = Ross Devenish
| producer       = Mark Forstater
| writer         = Athol Fugard
| starring       = Athol Fugard
| music          = 
| cinematography = Michael J. Davis
| editing        = 
| distributor    = 
| released       = February 1980
| runtime        = 86 minutes
| country        = South Africa
| language       = English
| budget         = 
}}
 same name by Athol Fugard. It was entered into the 30th Berlin International Film Festival, where it won the Berlin Bear Anniversary Prize.   

==Cast==
* Athol Fugard
* Joyce Hesha
* John Kani
* Mabel Ntshinga
* Winston Ntshona

==References==
 

==External links==
* 

 
 
 
 
 
 
 