Brudeferden i Hardanger
{{Infobox film
| name           = Brudeferden i Hardanger
| image          = 
| image size     =
| caption        = 
| director       = Rasmus Breistein
| producer       = 
| writer         = Rasmus Breistein   Kristofer Janson (novel)
| narrator       =
| starring       = Aase Bye
| music          = 
| cinematography = 
| editing        = 
| distributor    = 
| released       = 26 December 1926
| runtime        = 104 minutes 
| country        = Norway
| language       = Norwegian
| budget         = 
| gross          =
| preceded by    =
| followed by    =
}}
 Norwegian silent silent drama national romanticism in Norwegian film. 

==References==
 

==External links==
*  
*   at Filmweb.no (Norwegian)

 
 
 
 


 
 