Farewell, My Love
 
 
 
{{Infobox Film
| name           = Farewell, My Love
| image          = Farewell, My Love.png
| image_size     =
| caption        =
| director       = Randall Fontana
| producer       =
| writer         = Randall Fontana
| narrator       =
| starring       = Gabrielle Fitzpatrick Phillip Rhys Robert Culp
| music          =
| cinematography =
| editing        =
| distributor    =
| released       = 2001
| runtime        =
| country        =  
| language       =
| budget         =
| preceded_by    =
| followed_by    =
}}
Farewell, My Love is a 2001 action film by Randall Fontana starring Gabrielle Fitzpatrick, Phillip Rhys, and Robert Culp.

==Cast==
* Gabrielle Fitzpatrick as Brigit
* Phillip Rhys as Luc
* Robert Culp as Michael Reilly

==External links==
*  

 
 
 
 
 
 
 


 
 