Thundering Mountains
{{Infobox film
| name           = Thundering Mountains (Nevesinjska puška)
| image          = Nevesinjska Puska Poster.jpg
| image size     = 
| alt            = 
| caption        = 
| director       = 
| producer       = 
| writer         = 
| narrator       = 
| starring       = 
| music          = 
| cinematography = 
| editing        = 
| studio         = 
| distributor    = 
| released       = 1963
| runtime        = 
| country        =  
| language       = Serbo-Croatian
| budget         = 
| gross          = 
| preceded by    = 
| followed by    = 
}}

Nevesinjska puška (English title: "Thundering Mountains") is a 1963 Yugoslav film by Žika Mitrović. It was released in 1963.

==External links==
*  

 
 
 
 

 