Love Letters with Intent
{{Infobox film
| name           = Love Letters with Intent
| image          = 
| image size     = 
| alt            = 
| caption        = 
| director       = Zvonimir Berković
| producer       = 
| writer         = Zvonimir Berković
| narrator       = 
| starring       = Zlatko Vitez Irina Alfyorova Kruno Šarić Mustafa Nadarević Relja Bašić Siniša Popović Eliza Gerner Vera Zima
| music          = 
| cinematography = Goran Trbuljak
| editing        = Maja Virag-Rodica
| studio         = Croatia Film
| distributor    = 
| released       = 27 June 1985
| runtime        = 95 minutes
| country        = Yugoslavia
| language       = Serbo-Croatian
| budget         = 
| gross          = 
| preceded by    = 
| followed by    = 
}}

Love Letters with Intent ( ) is a 1985 Yugoslav film directed by Zvonimir Berković.

==External links==
* 
*  at Filmski-Programi.hr  

 

 
 
 
 


 