God Forbid a Worse Thing Should Happen
{{Infobox film
| name           = God Forbid a Worse Thing Should Happen
| image          = 
| image size     = 
| caption        = 
| director       = Snježana Tribuson
| producer       = 
| writer         = Goran Tribunson
| narrator       = 
| starring       = Luka Dragić Mirjana Rogina Ivo Gregurević Goran Navojec Semka Sokolović-Bertok 
| music          = Darko Rundek
| cinematography = 
| editing        = 
| studio         = 
| distributor    = 
| released       =
| runtime        = 107 min
| country        =   Croatia Croatian
| budget         = 
| gross          = 
| preceded by    = 
| followed by    = 
}} Croatian film directed by Snježana Tribuson. It is based on a novel of the same name by Goran Tribuson. 

==References==
 

==External links==
*  

 
 
 
 

 