Find a Way, Comrade
 
<!-- Hide infobox until needed
{{Infobox film
| name           = Find a Way, Comrade
| image          =
| image size     =
| alt            =
| caption        =
| director       =
| producer       =
| writer         =
| narrator       =
| starring       =
| music          =
| cinematography =
| editing        =
| studio         =
| distributor    =
| released       =
| runtime        =
| country        =
| language       =
| budget         =
| gross          =
| preceded by    =
| followed by    =
}}
--->  Croatian film directed by Berislav Makarović. It is based on Mačak pod šljemom, a novel by Joža Horvat. 

==References==
 

==External links==
*  

 
 
 
 
 
 
 
 