Here (2003 film)
{{Infobox film
| name           = Here
| image          = 
| image size     = 
| alt            = 
| caption        = 
| director       = Zrinko Ogresta
| producer       = Ivan Maloca
| writer         = Zrinko Ogresta Josip Mlakic
| narrator       = 
| starring       = Jasmin Telalovic
| music          = 
| cinematography = Davorin Gecl
| editing        = Josip Podvorac
| studio         = 
| distributor    = 
| released       = 2003
| runtime        = 90 minutes
| country        = Croatia
| language       = Croatian
| budget         = 
| gross          = 
| preceded by    = 
| followed by    = 
}} Croatian film directed by Zrinko Ogresta. It was released in 2003.

==Cast==
* Jasmin Telalovic - Kavi
* Marija Tadic - Duda Zlatko Crnkovic - Josip
* Ivo Gregurevic - Boris Ivan Herceg - Karlo
* Nikola Ivosevic - Lala

==External links==
*  

  

 
 
 
 