Dok nitko ne gleda
 
<!-- Hide infobox until needed
{{Infobox film
| name           = Dok nitko ne gleda
| image          =
| image size     =
| alt            =
| caption        =
| director       =
| producer       =
| writer         =
| narrator       =
| starring       =
| music          =
| cinematography =
| editing        =
| studio         =
| distributor    =
| released       =
| runtime        =
| country        =
| language       =
| budget         =
| gross          =
| preceded by    =
| followed by    =
}}
--->  Croatian TV film directed by Lukas Nola, starring Dragan Despot, Nataša Dorčić and Ivo Gregurević. It was released in 1992.

==External links==
*  

 
 
 
 


 