Nemir (film)
<!-- Hide infobox until needed
{{Infobox film
| name           = Nemir
| image          =
| image size     =
| alt            =
| caption        =
| director       =
| producer       =
| writer         =
| narrator       =
| starring       =
| music          =
| cinematography =
| editing        =
| studio         =
| distributor    =
| released       =
| runtime        =
| country        =
| language       =
| budget         =
| gross          =
| preceded by    =
| followed by    =
}}
--->  Croatian film. It was released in 1982.

==External links==
*  

 
 
 
 
 