When the Dead Start Singing
{{Infobox film
| name           =Kad mrtvi zapjevaju
| image          = 
| image size     = 
| alt            = 
| caption        = 
| director       = Krsto Papic
| producer       = 
| writer         =Krsto Papic 
| narrator       = 
| starring       = 
| music          = 
| cinematography = 
| editing        = 
| studio         = 
| distributor    = 
| released       =
| runtime        = 
| country        = 
| language       = 
| budget         = 
| gross          = 
| preceded by    = 
| followed by    = 
}}

When the Dead Start Singing (Kad mrtvi zapjevaju) is a Croatian feature film directed by Krsto Papić. It was released in 1998.

==Cast==
*Ivo Gregurević – Cinco Kapulica
*Ivica Vidović – Marinko
*Mirjana Majurec – Maca Kapulica
*Ksenija Pajić – Stana
*Matija Prskalo – Cincos daughter
*Boris Miholjević – Dr. Lučić

==External links==
*  

  

 
 
 
 
 
 