Celestial Body
{{Infobox film
| name           = Celestial Body
| image          =
| caption        =
| director       = HRT Banfilm
| writer         =
| starring       = Filip Nola Barbara Nola Filip Šovagović Ivo Gregurević Lucija Šerbedžija Rene Bitorajac Leona Paraminski
| music          =
| cinematography =
| editing        = HRT
| released       = 2001
| runtime        = 85 minutes
| country        = Croatia
| language       = Croatian
| budget         =
}} Croatian film directed by Lukas Nola. It was released in 2001.

==External links==
*  

 
 
 
 
 


 