What Iva Recorded
 
 
{{Infobox film
| name           = What Iva Recorded
| image          = 
| image size     = 
| alt            = 
| caption        = 
| director       = Tomislav Radić
| producer       = 
| writer         = Tomislav Radić Ognjen Sviličić
| narrator       = 
| starring       = Anja Šovagović-Despot
| music          = 
| cinematography = Vedran Šamanović
| editing        = Kruno Kušec
| studio         = 
| distributor    = 
| released       =  
| runtime        = 92 minutes
| country        = Croatia
| language       = Croatian
| budget         = 
| gross          = 
| preceded by    = 
| followed by    = 
}} Croatian comedy-drama film directed by Tomislav Radić. It was released in 2005.

==Cast==
* Anja Šovagović-Despot - Željka
* Ivo Gregurević - Božo
* Boris Svrtan - Darko
* Masha Mati Prodan - Iva
* Barbara Prpić - Nina
* Karl Menrad - Hoffner
* Adam Končić - Konobar

==External links==
*  

 

 
 
 
 


 
 