Pont Neuf (film)
 
<!-- Hide infobox until needed
{{Infobox film
| name           = Pont Neuf
| image          =
| image size     =
| alt            =
| caption        =
| director       =
| producer       =
| writer         =
| narrator       =
| starring       =
| music          =
| cinematography =
| editing        =
| studio         =
| distributor    =
| released       =
| runtime        =
| country        =
| language       =
| budget         =
| gross          =
| preceded by    =
| followed by    =
}}
---> 
Pont Neuf is a 1997 Croatian biographical film directed by Željko Senečić. It is a film about the life of Croatian painter Josip Račić.

==External links==
*  

 
 
 
 
 
 
 


 