Washed Out (film)
 
{{Infobox film
| name           = Washed Out
| image          = 
| image size     = 
| alt            = 
| caption        = 
| director       = Zrinko Ogresta
| producer       = 
| writer         = 
| narrator       = 
| starring       = Katarina Bistrović-Darvaš Josip Kučan
| music          = 
| cinematography = 
| editing        = 
| studio         = Jadran Film/Croatian Radiotelevision
| distributor    = Jadran Film/Croatian Radiotelevision
| released       = 1995
| runtime        = 87 minutes
| country        = Croatia
| language       = Croatian
| budget         = 
| gross          = 
| preceded by    = 
| followed by    = 
}}
Washed Out (Isprani) is a Croatian film. It was released in 1995.

==External links==
*  

  

 
 
 
 
 

 