A Mess in the House
 
<!-- Hide infobox until needed
{{Infobox film
| name           = A Mess in the House
| image          = 
| image size     = 
| alt            = 
| caption        = 
| director       = 
| producer       = 
| writer         =
| narrator       = 
| starring       = 
| music          = 
| cinematography = 
| editing        = 
| studio         = 
| distributor    = 
| released       =
| runtime        = 
| country        = 
| language       = 
| budget         = 
| gross          = 
| preceded by    = 
| followed by    = 
}}
--->  Croatian film directed by Ljubiša Ristić. It was released in 1980.

==External links==
*  

 
 
 
 
 
 
 