Družba Pere Kvržice (film)
 
{{Infobox film
| name           = Družba Pere Kvržice
| image          = 
| image size     = 
| alt            = 
| caption        = 
| director       = Vladimir Tadej
| producer       =  of the same name by Mato Lovrak
| narrator       = 
| starring       = Mladen Vasary, Adem Ćejvan, Boris Dvornik, Inge Appelt, Antun Nalis, Predrag Vuković, Boris Vujović, Antun Vrdoljak
| music          = Živan Cvitković
| cinematography = 
| editing        = 
| studio         = Croatia Film
| distributor    = 
| released       = 
| runtime        = 
| country        = Croatia Croatian
| budget         = 
| gross          = 
| preceded by    = 
| followed by    = 
}}
Družba Pere Kvržice is a Croatian Childrens film directed by Vladimir Tadej. It was released in 1970.
 of the same name by Mato Lovrak. 

==References==
 

==External links==
*  
*  

 
 
 
 
 
 


 