Cecilia (1954 film)
{{Infobox film
| name           = Cecilia
| image          = 
| image size     =
| caption        = 
| director       = Solvejg Eriksen
| producer       = 
| writer         = Solvejg Eriksen
| narrator       =
| starring       = Anne-May Nilsen   Grethe Lill   Atle Merton   Harald Haugen   Sonny Berg 
| music          = 
| cinematography = 
| editing        = 
| distributor    = 
| released       = 15 November 1954
| runtime        = 85 minutes 
| country        = Norway
| language       = Norwegian
| budget         = 
| gross          =
| preceded by    =
| followed by    =
}}
 Norwegian drama film written and directed by Solvejg Eriksen, starring Anne-May Nilsen. A scream and a shot is heard from an apartment in a large city. When the police break in, they find the body of a young woman.

==External links==
*  
*  
*   at the Filmgrid.no

 
 
 
 