Pink Eye (film)
{{Infobox film
| name           =Pink Eye
| image          = Pink Eye 2008.jpg
| image size     = 
| alt            = 
| caption        =  James Tucker Samuel Benedict, Jessica Nelson, Joshua Nelson, Matt Pizzolo, Jeff Spinner	 Joshua Nelson
| narrator       = 
| starring       = 
| music          = Frank Garfi
| cinematography = Brian Fass
| editing        = 
| studio         = Lost Angeles Films
| distributor    = 
| released       =
| runtime        = 
| country        = United States
| language       = 
| budget         = 
| gross          = 
| preceded by    = 
| followed by    = 
}}
 James Tucker. The film is set in 
a run-down asylum where drugs are tested in a small town in upstate New York. 

==Cast==
*Melissa Bacelar	... 	Delilah Joshua Nelson	... 	Brandon Joshua James	... 	Edgar
*Ed Avila	... 	Dr. Galen
*Emma Hinz	... 	Daisy James E. Smith	... 	Dr. Grahm
*J. Scott Green	... 	Technician #2
*Bridget Megan Clark	... 	Holly
*Frank Franconeri	... 	Martino
*Alan Rowe Kelly	... 	Schlitze
*Raine Brown	... 	Nikki
*Jeff Spinner	... 	Rabbit
*Jocelyn Barker	... 	Tessa
Ken Smoleki- Pink Eye
*JessAnn Smith	... 	Heather
*Nathan Faudree	... 	Matt

==References==
 

==External links==
*  

 
 
 
 
 