Nour Minel Samaa
{{Infobox Film
| name           = Nour Minel Samaa
| image          = 
| caption        = 
| director       = Hassan Hilmy
| producer       = 
| writer         = Hassan Hilmy Mahmoud Ismail
| starring       = Faten Hamama Mahmoud Ismail 
| music          = 
| cinematography = 
| distributor    = 
| released       =  
| runtime        = 100 minutes
| country        = Egypt
| language       = Arabic
| budget         = 
}}

 
{{Multiple issues|
 
 
 
}}

Nour Minel Samaa (Nour min al sama), known in English as Light from Heaven and in French as Lumière du ciel, is a 1947 Arabic short film directed by Hassan Hilmy.

==External links==
* 
* 

 
 
 
 
 


 