Bo (film)
{{Infobox film
| name           = Bo
| image          = 
| alt            =  
| caption        = 
| director       = Hans Herbots
| producer       = Bert Hamelinck Frank Van Passel
| writer         = Dirk Bracke Nele Meirhaeghe Christian Vervaet
| starring       = Ella-June Henrard Kalina Malehounova Ina Geerts Thomas Ryckewaert
| music          = Senjan Jansen
| cinematography = 
| editing        = Dieter Diependaele
| studio         = 
| distributor    = 
| released       =  
| runtime        = 90 minutes
| country        = Belgium
| language       = Dutch
| budget         = 
| gross          = 
}}
Bo is a 2010 Belgian film directed by Hans Herbots based on the novel  ), who, in an attempt to escape from the triviality of her life in the suburbs of Antwerp, becomes involved in high-end prostitution.

==Awards==
Giffoni Film Festival 2010: 
* CIAL Aluminium Award
* Crystal Gryphon Award province Salerno

== References ==
 

== External links ==
*  
*  

 
 
 
 

 