The Rape of the Sabine Women (1962 film)
{{Infobox film
| name           = The Rape of the Sabine Women
| image          = 
| image size     = 
| border         = 
| alt            = 
| caption        = 
| director       = Alberto Gout
| producer       = 
| writer         = Alberto Gout
| screenplay     = 
| story          = 
| based on       =  
| narrator       =  Victor Ruiz
| music          = 
| cinematography = 
| editing        = 
| studio         = 
| distributor    = 
| released       =   
| runtime        = 
| country        = Italy
| language       = 
| budget         = 
| gross          = 
}} historical drama myth about Sabine women Romans shortly after the foundation of the city of Rome (probably in the 750s BC).

The film was written and directed by Alberto Gout.

==Cast==
*Lorena Velázquez as "Hersilia"
*Tere Velázquez as "Rhea Silvia"
*Wolf Ruvinskis as "Romulus"
*Luis Induni as "Titus Tacius" Victor Ruiz as "Remus"

==See also==
*List of historical drama films
*List of films set in ancient Rome

==External links==
*  

 
 
 
 
 
 
 
 


 