Desperacja
{{Multiple issues|
 
 
}}

{{Infobox film
| name           =Desperację
| image          = 
| image size     = 
| alt            = 
| caption        = 
| director       = Zbigniew Kuźmiński 
| producer       = Jacek Szeligowski 
| writer         = Kazimierz Radowicz, Zbigniew Kuźmiński 
| narrator       = 
| starring       = 
| music          = Piotr Marczewski 
| cinematography = Zbigniew Hałatek 
| editing        = 
| studio         = Studio Filmowe Profil 
| distributor    = 
| released       =
| runtime        = 
| country        = 
| language       = 
| budget         = 
| gross          = 
| preceded by    = 
| followed by    = 
}} Polish historical film, released in 1988. 

Set in 1862, Colonel Huber, of the Warsaw Tsarist police investigates the Polish underground. 

==References==
 

==External links==
*  

 
 
 
 


 