Wierna rzeka (1983 film)
<!-- Hide infobox until needed
{{Infobox film
| name           =
| image          = 
| image size     = 
| alt            = 
| caption        = 
| director       = 
| producer       = 
| writer         = 
| narrator       = 
| starring       = 
| music          = 
| cinematography = 
| editing        = 
| studio         = 
| distributor    = 
| released       =
| runtime        = 
| country        = 
| language       = 
| budget         = 
| gross          = 
| preceded by    = 
| followed by    = 
}}
--->  Polish historical film directed by Tadeusz Chmielewski. It was produced in 1983 and released in 1987. 

==References==
 

==External links==
*  

 
 
 
 
 


 