Yrrol
{{Infobox film
| name           = Yrrol: An Enormously Well Thought Out Movie
| image          = 
| image size     = 
| alt            = 
| caption        = 
| director       = Peter Dalle
| producer       = Christer Abrahamsen
| writer         = Peter Dalle Rolf Börjlind
| screenplay     = 
| story          = 
| narrator       = 
| starring       = Suzanne Reuter Ulla Skoog Peter Dalle Claes Månsson Johan Ulveson Stefan Sauk Lena Endre Gunnel Fred Gunilla Röör
| music          = 
| cinematography = Olof Johnson
| editing        = 
| studio         = 
| distributor    = 
| released       =  
| runtime        = 88 minutes
| country        = Sweden
| language       = Swedish
| budget         =  SEK 28,803,941  (Sweden)  
| preceded by    = 
| followed by    = 
}} Lorry    and some characters from the TV show are in the movie.

==Awards== Best Screenplay Best Actress in a Leading Role. 

==References==
 

==External links==
* 
* 

 


 