Shinya Shokudō
{{Infobox animanga/Header
| name            = 
| image           = 
| caption         = 
| ja_kanji        = 深夜食堂
| ja_romaji       = 
| genre           = 
}}
{{Infobox animanga/Print
| type            = manga
| author          = Yarō Abe
| publisher       = Shogakukan
| demographic     = 
| magazine        = 
| first           = 2006
| last            = 
| volumes         = 
| volume_list     = 
}}
{{Infobox animanga/Video
| type            = drama
| director        = 
| producer        = 
| writer          = 
| music           = 
| studio          = 
| network         = 
| first           = October 10, 2009
| last            = December 11, 2009
| episodes        = 10
| episode_list    = 
}}
 
  is a Japanese manga series by Yarō Abe. It won the 55th Shogakukan Manga Award for general manga  and it was nominated for the 2nd Manga Taishō.  It was adapted into a 10-episode live-action television drama in 2009, followed by second season in 2011.

==References==
 

 
 

 
 
 
 
 
 
 

 