Les joueurs
{{Infobox film
| name           = Les joueurs
| image          = 
| caption        = 
| director       = Claude Barma
| producer       = 
| writer         = Nikolai Gogol
| starring       = Louis de Funès
| music          = Paul Misraki
| cinematography = 
| editing        = 
| distributor    = 
| released       = 20 December 1950 (France)
| runtime        = 53 minutes
| country        = France
| awards         = 
| language       = French
| budget         = 
}}
 French Comedy comedy film The Gamblers  (1836). 

== Cast ==
* Louis de Funès: Piotr Petrovitch Shvokhniev Jacques Morel: Uteshitelny Stepan Ivanovich
* Pierre Gallon: Alexandr Mikhailovich Glov jr.
* Jacques Grello
* Daniel Lecourtois: Ikhariev
* Alexandre Rignault: Krugel
* Henri Rollan: Mikhail Alexandrovich Glov sr.
* Jean-Marc Tennberg

== References ==
 

== External links ==
*  
*   at the Films de France

 
 
 
 
 
 
 
 


 