Mystics (film)
 
 
{{Infobox Film
| name           = Mystics
| image          = 
| caption        =  David Blair
| producer       = 
| screenplay     = Wesley Burrowes Mark OSullivan  (story) 
| based on       =  David Kelly Maria Doyle Kennedy Liam Cunningham Stanley Townsend Ronnie Drew
| music          = Stephen Warbeck
| cinematography = Donal Gilligan Mark Day Sean Barton
| studio         = 
| distributor    = 
| released       = 12 December 2003
| runtime        = 90 minutes
| country        = United Kingdom Ireland English
| budget         = 
| gross          = 
}}
 David Kelly, David Blair. 

==References==
 

 
 

 