Chandaal
 
{{Infobox film
| name           = Chandaal
| Genre          = Action
| image          = Chandaal.jpg
| caption        =
| director       = T L V Prasad
| producer       = Rajiv Babbar
| writer         =
| Story          =
| Screenplay     = Sneha Rami Rami Reddy
| music          =
| cinematography =
| choreography   =
| lyrics         =
| released       = March 13, 1998
| runtime        =
| country        = India
| language       = Hindi
| budget         =
| gross          =
}}
 1998 Hindi Indian feature directed by T L V Prasad, starring Mithun Chakraborty, Sneha (actress)|Sneha, Avtar Gill, Puneet Issar and Hemant Birje

==Plot==

Mithun Chakraborty helps victims of crimes and takes revenge on the wrong doers.

==Cast==
* Mithun Chakraborty Sneha
* Rami Reddy
*Hemant Birje
*Avtar Gill
*Puneet Issar
* Prashant Shinde
*Eswari Pillai (actress)
*Ashwin Kaushal
*Jack Gaud
*kajal


==References==
 

==External links==
* http://www.bollywoodhungama.com/movies/cast/6313/index.html

 
 
 
 
 
 


 