Timber Tramps
{{Infobox film
| name           = Timber Tramps
| image          = 
| image_size     = 
| caption        = 
| director       = Tay Garnett
| writer         = 
| narrator       =  Leon Ames
| music          = 
| cinematography = 
| editing        = 
| studio         = 
| distributor    = 
| released       = December 31, 1975
| runtime        = 88 min.
| country        = United States
| language       = English
| budget         = 
| gross          = 
| preceded_by    = 
| followed_by    = 
| website        = 
| amg_id         = 
}} Leon Ames. 
 The Postman Always Rings Twice.

==Cast==
*Claude Akins as Matt Leon Ames as Deacon
*Eve Brent as Corey
*Joseph Cotten as Greedy sawmill mogul
*Cesar Romero as Greedy sawmill mogul

==References==
 

==External links==
* 

 

 
 
 
 


 