De forældreløse
 

{{Infobox film
| name           = De forældreløse
| image          = 
| image size     =
| caption        = 
| director       = Peter Lykke-Seest
| producer       = 
| writer         = Peter Lykke-Seest
| narrator       =
| starring       = Esben Lykke-Seest   Lullu Hansteen 
| music          = 
| cinematography = 
| editing        = 
| distributor    = 
| released       = 21 November 1917
| runtime        = 63 minutes 
| country        = Norway
| language       = Norwegian
| budget         = 
| gross          =
| preceded by    =
| followed by    =
}}
 Norwegian drama film written and directed by Peter Lykke-Seest, starring Esben Lykke-Seest and Lullu Hansteen. The siblings Beate and Jens Coldevin are heirs to a great fortune, and their warden Robertson is trying to get his hands on the money. The film is today considered lost.   

==References==
 

==External links==
*  
*  

 
 
 
 

 