De blå ulvene
 
{{Infobox film
| name           = De blå ulvene
| image          = 
| image size     =
| caption        = 
| director       = Morten Kolstad
| producer       = 
| writer         = Ingvar Ambjørnsen (book)   Axel Hellstenius (screenplay)
| narrator       = Petronella Barker
| music          = 
| cinematography = 
| editing        = 
| distributor    = 
| released       = Norway 1993
| runtime        = 155 minutes 
| country        = Norway
| language       = Norwegian
| budget         = 
| gross          =
}}

De blå ulvene ( ) is a 1993 Norwegian crime film directed by Morten Kolstad, starring Håvard Bakke, Tommy Karlsen and Viggo Jønsberg.

==Synopsis==
Pelles (Bakke) father (Jønsberg) is behaving strangely, and together with Proffen (Karlsen), Pelle decides to investigate.

==External links==
*  

 
 
 
 


 
 