De kalte ham Skarven
{{Infobox film
| name           = De kalte ham Skarven
| image          = 
| image size     =
| caption        = 
| director       = Wilfred Breistrand   Erik Folke Gustavson
| producer       = 
| writer         = Erik Folke Gustavson   Roar Petersen
| narrator       =
| starring       = Per Christensen   Liv Ullmann
| music          = 
| cinematography = 
| editing        = 
| distributor    = 
| released       = 4 February 1965
| runtime        = 85 minutes 
| country        = Norway
| language       = Norwegian
| budget         = 
| gross          =
| preceded by    =
| followed by    =
}}
 Norwegian drama film directed by Wilfred Breistrand and Erik Folke Gustavson, starring Per Christensen and Liv Ullmann. The film is about a fisherman who has to face judgement on his life after an accident. 

==External links==
*  
*  

 
 
 
 