Tub Girls
{{Infobox film
| name           = Tub Girls
| image          = 
| image size     = 
| border         = 
| alt            = 
| caption        = 
| director       = Andy Warhol
| producer       = 
| writer         = 
| screenplay     = 
| story          = 
| based on       =  
| narrator       =  Viva Brigid Brigid Polk
| music          = 
| cinematography = 
| editing        = 
| studio         = 
| distributor    = Andy Warhol Films
| released       = 1967
| runtime        = 90 mins.
| country        = United States
| language       = English
| budget         = 
| gross          =
}}
 1967 American avant garde film directed by Andy Warhol.

==Synopsis==
The film stars Viva (actress)|Viva, one of the Warhol Superstars, who sat naked in a bathtub talking with some of the other regulars found inside The Factory, like Brigid Berlin (credited as Brigid Polk).

==See also==
*Andy Warhol filmography

==External links==
* 


 
 


 
 
 
 
 