Fraternité (film)
{{Infobox film
| name           = Fraternité
| image          = 
| caption        = 
| director       = René Lucot
| producer       = 
| writer         = Fernand Fleuret Georges Girard
| starring       = Julien Carette Louis de Funès
| music          =  
| cinematography = 
| editing        = 
| distributor    = 
| released       = 4 March 1954 (France)
| runtime        = 
| country        = France
| awards         = 
| language       = French
| budget         = 
| preceded_by    = 
| followed_by    = 
}}
 French Comedy comedy Television TV film from 1954, directed by René Lucot, written by Fernand Fleuret, starring Julien Carette and Louis de Funès. 

== Cast ==
* Julien Carette 
* Louis de Funès 
* Hubert Deschamps

== References ==
 

== External links ==
*  

 
 
 
 
 
 
 


 