Sword Fishing
{{Infobox film
| name           = Sword Fishing
| image          =
| image size     =
| caption        =
| director       = 
| producer       = Howard Hill
| writer         = De Leon Anthony
| narrator       = Ronald Reagan
| music          =
| cinematography = Albert Wetzel
| editing        = De Leon Anthony
| distributor    =
| released       = 21 October 1939
| runtime        = 10 minutes
| country        = United States
| language       = English
| budget         =
}}
 1939 short short documentary 1940 for Best Live Action Short Film, One-Reel.       It is narrated by Ronald Reagan.

==Cast==
* Howard Hill as himself
* Ronald Reagan as the narrator

==See also==
* Ronald Reagan filmography

==References==
 

==External links==
* 

 
 
 
 
 
 
 
 


 