Swingtime in the Movies
 
{{Infobox film
| name           = Swingtime in the Movies
| image          =
| image size     =
| caption        =
| director       = Crane Wilbur
| producer       = 
| writer         = Crane Wilbur
| starring       = Fritz Feld
| music          =
| cinematography = Wilfred M. Cline
| editing        = Everett Dodd
| distributor    =
| released       =  
| runtime        = 20 minutes
| country        = United States
| language       = English
| budget         =
}}
 short comedy 1939 for Best Live Action Short Film, Two-Reel.      

==Cast==
* Fritz Feld as Mr. Nitvitch
* Kathryn Kane as Joan Mason (as Katherine Kane) John Carroll as Rick Arden
* Charley Foy as Sammy Jerry Colonna as The Texas Tornado
* Helen Lynd as Lorna, an Actress
* Irene Franklin as Kate, Head Waitress
* Humphrey Bogart as Himself (uncredited)

==References==
 

==External links==
* 

 
 
 
 
 
 
 
 
 


 