Murder Is News
 

{{Infobox film
| name           = Murder Is News
| image          =
| image_size     =
| caption        =
| director       = Leon Barsha
| producer       = Kenneth J. Bishop (producer)
| writer         = Edgar Edwards (writer)
| narrator       =
| starring       = See below
| music          =
| cinematography = George Meehan William Austin
| distributor    =
| released       = December 1937 (UK)  1 March 1939 (USA) (premiere)
| runtime        = 55 minutes
| country        = Canada USA
| language       = English
| budget         =
| gross          =
| preceded_by    =
| followed_by    =
| website        =
}}

Murder Is News is a 1937 Canadian / American film directed by Leon Barsha.

== Plot summary ==
 

== Cast ==
*John Gallaudet as Jerry Tracy
*Iris Meredith as Ann Leslie George McKay as Brains McGillicuddy John Hamilton as David Corning
*Frank C. Wilson as Tony Peyden William McIntyre as Edgar Drake
*Doris Lloyd as Pauline Drake
*John Graham Spacey as Fred Hammer
*Colin Kenny as Insp. Fitzgerald
*Fred Baes as R.A. Snyder

== Soundtrack ==
 

== External links ==
* 
* 
 

 
 
 
 
 
 
 
 


 