Mendiants et orgueilleux
{{Infobox film
| name           =Mendiants et orgueilleux
| image          =
| image_size     =
| caption        =
| director       =Jacques Poitrenaud
| producer       =
| writer         =
| narrator       =
| starring       =Georges Moustaki
| music          =
| cinematography =
| editor       =
| distributor    =
| released       = 1971
| runtime        =
| country        = France
| language       =
| budget         =
}} 1971 France|French  film. It stars actor Gabriele Ferzetti. 

==References==
 

==External links==
* 

 
 
 

 