Gli anni struggenti
{{Infobox film
| name           =Anni struggenti
| image          =
| image_size     =
| caption        =
| director       =
| producer       =
| writer         =
| narrator       =
| starring       =
| music          =
| cinematography =
| editor       =
| distributor    =
| released       = 1979
| runtime        =
| country        = Italy Italian
| budget         =
}} 1979 Italy|Italian  film. It stars actor Gabriele Ferzetti. 

==References==
 

==External links==
* 

 
 
 
 
 

 