Porci con la P 38
{{Infobox film
| name           =Porci con la P 38
| image          =Porci con la p38.jpg
| image_size     =
| caption        =
| director       =  Gianfranco Pagani
| producer       =
| writer         =
| narrator       =
| starring       =
| music          =Pippo Caruso
| cinematography =
| editor       =
| distributor    =
| released       = 1979
| runtime        =
| country        = Italy Italian
| budget         =
}} 1979 Italy|Italian "poliziottesco" film directed by Gianfranco Pagani. It stars actor Gabriele Ferzetti. 

==Cast==
* Marc Porel	as 	Morris
* Laura Belli	as 	Gloria
* Raymond Pellegrin	as 	Olden
* Luciano Pigozzi	as 	John (as Alan Collins)
* Gabriele Ferzetti	as 	Max Astarita
* Lea Lander	as	Astaritas Lover

==References==
 

==External links==
* 

 
 
 
 

 