Desideri d'estate
{{Infobox film
| name           =Desideri d&#39;estate
| image          =
| image_size     =
| caption        =
| director       =Silvio Amadio	 	
| producer       =
| writer         =
| narrator       =
| starring       =
| music          =Gino Peguri
| cinematography =Franco Villa
| editor       =
| distributor    =
| released       = 1964
| runtime        =
| country        = Italy Italian
| budget         =
}} 1964 Italy|Italian  comedy film. It stars actor Gabriele Ferzetti. 

==Cast==
*Gabriele Ferzetti
*Rosemary Dexter
*Jodine Remond
*Cristina Kustermann

==References==
 

==External links==
* 

 
 
 
 

 