Incontro con gli umanoidi
{{Infobox film
| name           =Incontro con gli umanoidi
| image          =Incontro con gli umanoidi.jpg
| image_size     =
| caption        =
| director       = Tonino Ricci
| producer       =
| writer         =
| narrator       =
| starring       =
| music          =Stelvio Cipriani
| cinematography =
| editor       =
| distributor    =
| released       = 1979
| runtime        =
| country        = Italy Italian
| budget         =
}} 1979 Italy|Italian  film. It stars actor Gabriele Ferzetti. 

==Cast==
* Andrés García: Scott
* Gianni Garko: Mike 
* Gabriele Ferzetti: Miles 
* Manuel Zarzo: Peters 
* Alfredo Mayo: Pop 
* Carole André: Mary 

==References==
 

==External links==
* 

 
 
 
 
 
 

 