L'amica
{{Infobox film
| name           =L&#39;amica
| image          =Lamica.jpg
| image_size     =
| caption        =
| director       =Alberto Lattuada
| producer       =
| writer         =
| narrator       =
| starring       =Gabriele Ferzetti
| music          =Luis Enríquez Bacalov
| cinematography =
| editor       = Sergio Montanari
| distributor    =
| released       = 1969
| runtime        =
| country        = Italy Italian
| budget         =
}} 1969 Italy|Italian  film. It stars actor Gabriele Ferzetti. 

==Cast==
*Lisa Gastoni: Lisa Marchesi
*Gabriele Ferzetti: Mario Marchesi
*Elsa Martinelli: Carla Nervi
*Jean Sorel: Franco Raimondi Frank Wolff: Guido Nervi Ray Lovelock: Claudio Nervi
*Marina Coffa: Giovanna

==References==
 

==External links==
* 

 
 
 
 
 
 

 