Parola di ladro
{{Infobox film
| name           =Parola di ladro
| image          =
| image_size     =
| caption        =
| director       =Gianni Puccini   Nanni Loy
| producer       =
| writer         =
| narrator       =
| starring       =Gabriele Ferzetti Abbe Lane Andrea Checchi Nadia Gray Memmo Carotenuto Nando Bruno Enrico Glori Marisa Traversi Ciccio Barbi
| music          =Mario Nascimbene
| cinematography =Roberto Gerardi 
| editor       =
| distributor    =
| released       = 1957
| runtime        =
| country        = Italy Italian
| budget         =
}} 1957 Italy|Italian best supporting actor. 

==References==
 

==External links==
* 
 

 
 
 
 
 
 

 