Topaze (1951 film)
{{Infobox film
| name           =Topaze 
| image          =
| image_size     =
| caption        =
| director       =
| producer       =
| writer         =
| starring       =
| music          =
| cinematography =
| editor       =
| distributor    =
| released       = 1951
| runtime        =
| country        = France French
| budget         =
}} 1951 France|French film directed by Marcel Pagnol, based his play of the same name. It stars Yvette Etiévant.

==External links==
* 

 

 
 
 
 
 

 