Qui comincia l'avventura
{{Infobox film
| name           =Qui comincia l&#39;avventura 
| image          =Qui comincia lavventura.jpg
| image_size     =
| caption        =
| director       =Carlo Di Palma
| producer       =
| writer         =
| narrator       =
| starring       =Claudia Cardinale
| music          = Riz Ortolani
| cinematography =Dario Di Palma
| editing      =Ruggero Mastroianni
| distributor    =
| released       = 1975
| runtime        =
| country        = Italy Italian
| budget         =
}} 1975 Italy|Italian  film. It stars  Claudia Cardinale. 

==Cast==
* Monica Vitti: Miele
* Claudia Cardinale: Laura
* Ninetto Davoli: the acrobat / the angel / the devil
* Guido Leontini: Lauras husband

==References==
 

==External links==
* 

 
 
 
 

 