Le Point du jour
{{Infobox film
| name           =Le Point du jour
| image          =
| image_size     =
| caption        =
| director       =Louis Daquin
| producer       =
| writer         =
| narrator       =
| starring       =
| music          =
| cinematography =
| editor       =
| distributor    =
| released       = 1949
| runtime        =
| country        = France French
| budget         =
}} 1949 France|French  film directed by Louis Daquin. It stars Yvette Etiévant.

==External links==
* 

 
 
 
 
 
 