Blu elettrico
{{Infobox film
| name           =Blu elettrico 
| image          =
| image_size     =
| caption        =
| director       = Elfriede Gaeng
| producer       =
| writer         =
| narrator       =
| starring       =Claudia Cardinale
| music          =
| cinematography =
| editor       =
| distributor    =
| released       = 1988
| runtime        =
| country        = Italy Italian
| budget         =
}} 1988 Italy|Italian William Berger. 

==References==
 

==External links==
* 

 
 
 

 