Luchino Visconti (film)
{{Infobox film
| name           = Luchino Visconti 
| image          = Luchino_Visconti_(1999_film).jpg
| image_size     =
| caption        =
| director       = Carlo Lizzani
| producer       = Laura Pettini Silvia Pettini
| writer         = Luigi Filippo DAmico Carlo Lizzani
| narrator       = Carlo Lizzani
| starring       =Claudia Cardinale
| music          = Franco Mannino
| cinematography = Bruno Di Virgilio
| editor       = Danilo Perticara
| distributor    =
| released       = 1999
| runtime        = 60
| country        = Italy Italian
| budget         =
}} 1999 Italy|Italian  documentary film directed by Carlo Lizzani. It stars  Claudia Cardinale. 

==References==
 

==External links==
*  
*  

 

 
 
 

 