Prime Times
 

{{Infobox film
| name           =Prime Times
| image          =
| image_size     =
| caption        =
| director       =
| producer       =
| writer         =
| narrator       =
| starring       =Leslie Nielsen
| music          =
| cinematography =
| editor       =
| distributor    =
| released       = 1983
| runtime        =
| country        = United States English
| budget         =
}} American film. It stars  Leslie Nielsen.

==External links==
* 

 
 
 
 
 


 