The Butterfly Affair
{{Infobox film
| name           =Popsy Pop 
| image          =Popsy Pop.jpg
| image_size     =
| caption        =
| director       =Jean Herman
| producer       =
| writer         =
| narrator       =
| starring       =Claudia Cardinale
| music          =
| cinematography =
| editor       =
| distributor    =
| released       = 1970
| runtime        =
| country        = Italy Italian
| budget         =
}} 1970 Italian film produced by Sofracima. It stars  Claudia Cardinale. 

==Cast==
* Claudia Cardinale - Popsy Pop
* Stanley Baker - Silva
* Henri Charrière - Marcou
* Marc Mazza - Tormenta
* Georges Aminel - Father Lagba
* Ginette Leclerc - Mrs. Irma Joachim Hansen - Freddy
* Leroy Haynes - Blanchette
* Moune de Rivel - Sister Marie-Galante

==References==
 

==External links==
* 

 
 
 
 
 
 

 