Marcello: A Sweet Life
 
{{Infobox film
| name           =Marcello: A Sweet Life 
| image          =
| caption        =
| director       =Annarosa Morri, Mario Canale
| producer       =
| writer         =
| starring       =
| music          =
| cinematography =
| editor       =
| distributor    =
| released       =  
| runtime        =98 Minutes
| country        = Italy
| language       = Italian
| budget         =
}}
Marcello: A Sweet Life is a 2006 Italian documentary film about actor Marcello Mastroianni. 

==References==
 

==External links==
* 

 
 
 


 