Foxfire Light
{{Infobox film
| name           =Foxfire Light
| image          =
| image_size     =
| caption        =
| director       =
| producer       =
| writer         =
| narrator       =
| starring       =Leslie Nielsen, Tippi Hedren
| music          =
| cinematography =
| editor       =
| distributor    =
| released       = 1982
| runtime        =
| country        = United States English
| budget         =
}} American film. It stars  Leslie Nielsen and Tippi Hedren.  It is based on a romance novel by Janet Dailey.

==External links==
* 

 
 
 
 
 


 