Blade in Hong Kong
{{Infobox film
| name           =Blade in Hong Kong
| image          =
| image_size     =
| caption        =
| director       =
| producer       =
| writer         =
| narrator       =
| starring       =Leslie Nielsen
| music          =
| cinematography =
| editor       =
| distributor    =
| released       = 1985
| runtime        =
| country        = United States
| language       = English
| budget         =
}}
Blade in Hong Kong is a 1985 American TV film. It stars  Leslie Nielsen.

==External links==
* 

 
 
 
 