Wishful Thinking (1997 film)
{{Infobox film
| name           = Wishful Thinking
| image          = 
| image size     = 
| alt            = 
| caption        = 
| director       = Adam Park
| producer       = Stuart Burkin
| writer         = Adam Park
| starring       = Jennifer Beals Drew Barrymore Jon Stewart James LeGros
| music          = Paul Rabjohns
| cinematography = Ellery Ryan
| editing        = Sue Blainey
| studio         = 
| distributor    = 
| released       =1997
| runtime        = 91 min.
| country        =   USA
| language       = English
| budget         = 
| gross          = 
}}
Wishful Thinking is a 1997 romantic comedy starring Jennifer Beals, Drew Barrymore, Jon Stewart, and James LeGros.   

==References==
 

==External links==
* 

 
 
 
 
 
 


 