Boreas (film)
{{Infobox film
| name           = Boreas
| image          = BoreasTheatricalPoster.jpg
| image size     = 180px
| caption        = Theatrical release poster
| director       = Belma Baş
| producer       =  
| writer         = Belma Baş
| starring       =   
| music          = Erdem Helvacıoğlu
| cinematography = Mehmet Zengin
| editing        = Berke Baş
| studio         = FiLMiK Produksiyon
| distributor    = 
| released       =  
| runtime        = 13 mins.
| country        = Turkey
| language       = Turkish
| budget         =
| gross          =
}}
 59th Cannes Zephyr (2010).

==Production==
The film was shot on location in Ordu, Turkey.   

==References==
 

==External links==
*  

 
 
 
 
 

 
 