The Little Savage
{{Infobox film
| name           = The Little Savage
| image          =
| image_size     =
| caption        =
| director       = Byron Haskin
| writer         =
| starring       = Pedro Armendáriz
| music          =
| cinematography =
| editing        = Regal Films
| distributor    =
| released       = March 1959
| runtime        = 73 min.
| country        = United States
| language       = English
| budget         =
| gross          =
}}
The Little Savage is a 1959 film directed by Byron Haskin. It stars Pedro Armendáriz and Christiane Martel.  It is loosely based on an 1848 novel of the same name by Frederick Marryat.

==Cast==
*Pedro Armendáriz as El Tiburon
*Christiane Martel as Nanoa Riboud
*Rodolfo Hoyos Jr. as Captain Taursus
*Terry Rangno as Frank Henniger - as a boy
*Robert Palmer as Frank Henniger - as a man

==References==

 

==External links==
* 

 

 
 
 
 
 
 
 


 