Buruuba
{{Infobox film
| name           = Buruuba
| image          = 
| image size     =
| caption        =
| director       = Shigeyoshi Suzuki
| producer       = 
| writer         = Hideo Oguni
| starring       = Yoshihiro Hamaguchi, Osamu Maruyama and Woody Strode
| music          =
| cinematography = 
| editing        = 
| distributor    =
| released       = 25 October 1955
| runtime        = 88 minutes
| country        = Japan
| language       = Japanese
| budget         =
}} 1955 adventure Olympic swimming 1952 Summer Olympics.

==Cast==
* Yoshihiro Hamaguchi as Buruba
* Osamu Maruyama
* Woody Strode as Native Chief

==External links==
*  

 

 
 
 
 
 
 
 


 
 