Den nye lægen
{{Infobox film
| name           = Den nye lægen
| image          = 
| image size     =
| caption        = 
| director       = Rasmus Breistein
| producer       = 
| writer         = B.V. Holbæk-Hansen (play)   Rasmus Breistein
| narrator       =
| starring       = Jon Lennart Mjøen
| music          = 
| cinematography = 
| editing        = 
| distributor    = 
| released       = 26 December 1943
| runtime        = 91 minutes 
| country        = Norway
| language       = Norwegian
| budget         = 
| gross          =
| preceded by    =
| followed by    =
}}
 Norwegian drama film directed by Rasmus Breistein, starring Jon Lennart Mjøen. The film is based on a play by B.V. Holbæk-Hansen.

==External links==
*  
*  

 
 
 
 


 

 