Sayonara Midori-chan
{{Infobox animanga/Header
| name            = Sayonara Midori-chan
| image           = 
| caption         = 
| ja_kanji        = さよならみどりちゃん
| ja_romaji       = 
| genre           = 
}}
{{Infobox animanga/Print
| type            = manga
| author          = Kyūta Minami
| publisher       = Shodensha
| demographic     = Josei
| magazine        = Feel Young
| first           = 1996
| last            = 1997
| volumes         = 
| volume_list     = 
}}
{{Infobox animanga/Video
| type            = live film
| title           = 
| director        = Tomoyuki Furumaya
| producer        = 
| writer          = 
| music           = 
| studio          = 
| licensor        = 
| released        = August 27, 2005
| runtime         = 
}}
 
  is a Japanese manga by Kyūta Minami. It was adapted into a live-action film in 2005. 

==Awards==
27th Yokohama Film Festival 
* 10th Best Film

==References==
 

==External links==
* 
*  

 
 
 
 
 
 
 

 
 