Hakujasho
{{Infobox film
| name           = Hakujasho
| image          = 
| image size     = 
| alt            = 
| caption        = 
| director       = Shunya Itō
| producer       = 
| writer         = 
| screenplay     =
| story          =
| based on       =  
| narrator       = 
| starring       = Rumiko Koyanagi
| music          = 
| cinematography = 
| editing        = 
| studio         = 
| distributor    = 
| released       = 1983
| runtime        = 
| country        = Japan
| language       = Japanese
| budget         = 
| gross          = 
| preceded by    = 
| followed by    = 
}}
  is a 1983 Japanese film directed by Shunya Itō.

==Awards== Japan Academy Prize  
* Won: Best Actress - Rumiko Koyanagi

==References==
 

 
 

 
 
 