The Mountain of the Lord
 
{{Infobox Film
 | name           = The Mountain of the Lord
 | image          =
 | caption        =
 | writer         = 
 | director       = Peter N. Johnson
 | producer       = Nicholas J. Gasdik
 | starring       = Cory Dangerfield Scot Silver  Michael Audley 
 | music          =  Kurt Bestor Arlen Card Reed Smoot
 | editing        = Peter G. Czerny
 | distributor    = The Church of Jesus Christ of Latter-day Saints
 | released       = 1993
 | runtime        = 72 min
 | country        = United States
 | language       = English
 | budget         = $3,000,000
|}} General Conference. 

==References==
 

*  

==External links==
 
*  
*  
*   on YouTube from the Mormon Channel

 

 
 
 
 
 


 