Shikake-nin Baian
{{Infobox film
| name           = Shikake-nin Baian
| image          = 
| image size     = 
| alt            = 
| caption        = 
| director       = Yasuo Furuhata
| producer       = 
| writer         = 
| screenplay     =
| story          =
| based on       = 
| narrator       = 
| starring       = Katsuo Nakamura
| music          = 
| cinematography = Yoshi Miyajima
| editing        = 
| studio         = 
| distributor    = 
| released       = 1981
| runtime        = 
| country        = Japan
| language       = Japanese
| budget         = 
| gross          = 
| preceded by    = 
| followed by    = 
}}
  is a 1981 Japanese film directed by Yasuo Furuhata.

==Awards and nominations== Japan Academy Prize 
*Won: Best Supporting Actor - Katsuo Nakamura
*Nominated: Best Director - Yasuo Furuhata
6th Hochi Film Award 
*Won: Best Supporting Actor - Katsuo Nakamura

==References==
 

==External links==
*  

 
 

 
 
 

 