Ima Hitotabi no
{{Infobox film
| name           = Ima Hitotabi no
| image          = 
| image size     = 
| alt            = 
| caption        = 
| director       = Heinosuke Gosho
| producer       = 
| writer         = 
| screenplay     =
| story          =
| based on       = 
| narrator       = 
| starring       = 
| music          = 
| cinematography = 
| editing        = 
| studio         = 
| distributor    = 
| released       = 1947
| runtime        = 
| country        = Japan
| language       = Japanese
| budget         = 
| gross          = 
| preceded by    = 
| followed by    = 
}}
  is a 1947 Japanese film directed by Heinosuke Gosho.

==Awards==
2nd Mainichi Film Award  Best Film

==References==
 

==External links==
*  

 
 

 
 
 
 


 