Guldasta
 
 

{{Infobox film
| name           = Guldasta
| image          = Guldasta (Marathi movie 2011).jpg
| alt            = 
| caption        = 
| director       = Hemant Deodhar
| producer       = 
| writer         = Arvind Jagtap Jitendra Joshi Tejaswini Lonari
| music          = Tyagraj Khadilkar
| cinematography = Suresh Suvarna
| editing        = Vijay Khochikar
| studio         = 
| distributor    =  Zee Talkies
| released       =  
| runtime        = 
| country        = India
| language       = Marathi
| budget         = 
| gross          = 
}} Marathi film Jitrenda Joshi and their hilarious attempt to find their individual love, which turns into an ultimate mess.  , Marathi Movie World, Retrieved 15 May 2012  (12 January 2011).  , Marathi Movie World, Retrieved 15 May 2012 

The budget for the film was around 12.5&nbsp;million, considered a large figure for a Marathi film. (27 February 2011).  , The Times of India 

==References==
 

 
 
 


 