Dawn (1985 film)
 
{{Infobox film
| name           = Dawn
| image          = 
| image size     = 
| caption        = 
| director       = Miklós Jancsó
| producer       = Yannick Bernard
| writer         = Miklós Jancsó Elie Wiesel
| starring       = Serge Avedikian
| music          = 
| cinematography = Armand Marco
| editing        = Jean Paul Vauban
| distributor    = 
| released       = February 1985
| runtime        = 92 minutes
| country        = France Hungary
| language       = French
| budget         = 
}}

Dawn ( ,  ) is a 1985 French-Hungarian drama film directed by Miklós Jancsó. It was entered into the 36th Berlin International Film Festival.   

==Cast==
* Serge Avedikian
* Paul Blain
* Christine Boisson as Llana
* Philippe Léotard as Gad
* Redjep Mitrovitsa as Elisha Michael York as John Dawson

==References==
 

==External links==
* 

 

 
 
 
 
 
 
 
 
 

 
 