Cosmos (2010 film)
 
{{Infobox film
| name           = Cosmos
| image          = CosmosTheatricalPoster.jpg
| caption        = Theatrical Poster
| director       = Reha Erdem
| producer       = Ömer Atay
| writer         = Reha Erdem
| narrator       = 
| starring       =  
| music          = 
| cinematography =  
| editing        = Reha Erdem
| studio         = Atlantik Film
| distributor    = Tiglon
| released       =  
| runtime        = 122 minutes
| country        = Turkey  Bulgaria
| language       = Turkish
| budget         = 
}}
Cosmos ( ) is a 2010 Turkish-Bulgarian  , Armenia, for Best Feature Film.

==Production==
The film was shot on location in Kars, Turkey.   

==References==
 

== External links ==
*  
*  

 

 
 
 
 
 
 
 

 