Dusty Bates
Dusty directed by produced by presented by the Rank Organisation. The story was filmed in four parts.    

==DVD release== Region 0 DVD-R by Alpha Video on January 28, 2014. 

==References==
 

==External links==
*  
*  
*  
*  
*  

 
 
 
 
 
 
 
 
 


 
 