Expedition: Bismarck
{{Infobox film
| name           = Expedition: Bismarck
| image          = dvd_bismarck.jpg
| caption        =
| director       = James Cameron Gary Johnstone
| producer       = James Cameron Andrew Wight
| writer         =
| narrator       = Lance Henriksen
| starring       =
| music          = Jeehun Hwang
| cinematography = Christopher Titus King Vince Pace D.J. Roller
| editing        =
| distributor    = Discovery Channel
| released       =  
| runtime        = 92 min
| country        = United States
| awards         =
| language       =
| budget         =
}} 2002 documentary 2003 the Outstanding Sound Editing for Non-Fiction Programming.

==External links==
* 
*  
*  

 
 

 
 
 
 
 
 

 