Karate for Life
{{Infobox Film
| name           = Karate for Life
| image          = 
| image_size     =
| caption        = 
| director       = Kazuhiko Yamaguchi
| producer       = 
| writer         = 
| narrator       = 
| starring       = Sonny Chiba
| music          = 
| cinematography = 
| editing        = 
| distributor    = Toei Company
| released       = 
| runtime        = 87 minutes
| country        = Japan Japanese
| budget         = 
| gross          = 
}}
Karate for Life ( ) is a 1977 Japanese martial arts film about the martial arts master Mas Oyama starring Sonny Chiba. 

==Plot==
 

==Cast==
*Sonny Chiba as Mas Oyama
*Kôjirô Hongo as Shuzô Fujita
*Hideo Murota as Great Yamashita
*Yôko Natsuki as Reiko
*Asao Uchida as Ryu Hô Gen(Chinese)
*Masashi Ishibashi as Gôzô Yonashima

==References==
 

== External links ==
*  

 

 
 
 
 
 
 
 
 

 
 