Teo el pelirrojo
{{Infobox film
| name           = Teo el pelirrojo
| image          = 
| image size     = 
| caption        = 
| director       = Paco Lucio
| producer       = 
| writer         = 
| starring       = María Botto
| music          = 
| cinematography = 
| editing        = Luis Manuel del Valle
| distributor    = 
| released       =  
| runtime        = 
| country        = Spain
| language       = Spanish
| budget         = 
}}

Teo el pelirrojo is a 1985 Spanish drama film directed by Paco Lucio. It was entered into the 36th Berlin International Film Festival.   

==Cast==
* Nur Al Levi
* Juan Diego Botto
* María Botto
* Álvaro de Luna (actor)|Álvaro de Luna
* Luis Escobar Kirkpatrick
* Concha Leza
* Ovidi Montllor
* María Luisa San José

==References==
 

==External links==
* 

 
 
 
 
 
 