Sister Street Fighter – Fifth Level Fist
{{Infobox Film
| name           = Sister Street Fighter - Fifth Level Fist
| image          = 
| image_size     =
| caption        = 
| director       = Shigehiro Ozawa
| producer       = 
| writer         = 
| narrator       = 
| starring       = Etsuko Shihomi
| music          = 
| cinematography = 
| editing        = 
| distributor    = Toei Company
| released       = 1976
| runtime        = 87 minutes
| country        = Japan
| language       = Japanese
| budget         = 
| gross          = 
}}

Sister Street Fighter – Fifth Level Fist is a 1976 Japanese martial arts film sequel to The Return of the Sister Street Fighter. 

==Plot==
 

==Cast==
*Etsuko Shihomi - Kiku Nakagawa

==References==
 

== External links ==
*  

 

 
 
 
 
 
 
 


 
 