My Love Story (film)
{{Infobox film name           = My Love Story tagline        =  image          =  alt            = caption        =  director       = Deepak Panda  producer       =  screenplay     =  story          =  narrator       = starring       = Deepaak Panda, Katrine Kovi, Riya Sen  music          =  editing        =  studio         = distributor    =  released       =   runtime        =  country        = India language  Oriya
|budget         = 
}} Oriya film released on 1 March 2013. Riya Sen got her first appearance in this film. She appeared in an item song. 

==References==

 

 
 


 