Akai Tsuki
{{Infobox film
| name           = Akai Tsuki
| image          = 
| caption        = 
| director       = Yasuo Furuhata
| producer       = 
| writer         = 
| screenplay     = 
| story          = 
| based on       =  
| starring       = Takako Tokiwa Teruyuki Kagawa
| music          = 
| cinematography = 
| editing        = 
| studio         = 
| distributor    = 
| released       =   
| runtime        = 
| country        = Japan
| language       = Japanese
| budget         = 
| gross          = 
}}
  is a 2004 Japanese film directed by Yasuo Furuhata.

== Accolades == Japan Academy Prize 
*Nominated: Best Actress - Takako Tokiwa
*Nominated: Best Supporting Actor - Teruyuki Kagawa

==References==
 

 

 
 
 
 
 

 