Kali Ghata (1951 film)
{{Infobox Film
| name           = Kali Ghata
| image          = 
| image_size     = 
| caption        = 
| director       = Kishore Sahu
| producer       = Hindhustan Chitra
| writer         = 
| narrator       = 
| starring       = Kishore Sahu Bina Rai Asha Mathur
| music          = 
| cinematography = 
| editing        = 
| distributor    = 
| released       = 1951
| runtime        = 
| country        = India
| language       = Hindi 
| budget         = 
| preceded_by    = 
| followed_by    = 
}} Hindi film directed by Kishore Sahu and starring Kishore Sahu, Bina Rai and Asha Mathur.

==Cast==

* Asha Mathur    
* Bina Rai    
* Kishore Sahu

==External links==
*  

 

 
 
 
 


 