Warning (1946 film)
{{Infobox film
| name           = Warning
| image          = 
| caption        = 
| director       = Martin Frič Paľo Bielik
| producer       = 
| writer         = Martin Frič
| starring       = Paľo Bielik
| music          = 
| cinematography = Karol Krska
| editing        = 
| distributor    = 
| released       =  
| runtime        = 85 minutes
| country        = Slovakia
| language       = Slovak
| budget         = 
}}

Warning ( ) is a 1946 Slovak drama film directed by Martin Frič and Paľo Bielik.   

==Cast==
* Paľo Bielik as Ondrej Muranica
* Július Pántik as Miso
* Andrej Bagar
* Mikulás Huba as Ing. Gregor
* Ondrej Jariabek
* Frantisek Zvarík

==References==
 

==External links==
*  

 

 
 
 
 
 
 
 
 
 