Wolves (1999 film)
{{Infobox film
| name           = Wolves
| image          = Wolves IMAX.jpg
| caption        = 
| director       = David Douglas
| producer       = 
| writer         = 
| narrator       = Robbie Robertson
| music          = Michel Cusson, Robbie Robertson
| cinematography = 
| distributor    = IMAX
| released       =  
| runtime        = 41 minutes
| country        = United States
| language       = English
}}
Wolves is a documentary short film produced for IMAX and released in 1999.   The film documents the re-introduction of a pack of wolves to a remote region of Idaho.   It was narrated by The Bands Robbie Robertson.

== References ==
 

==External links==
* 

 
 
 
 
 
 
 
 