The Guidance of Reason
{{Infobox film
| name           = The Guidance of Reason
| image          = LcdlR P1 (english).png
| caption        = 
| director       = Aliocha
| producer       = 
| writer         = Aliocha
| narrator       = 
| starring       = Jean-François Brunier Athos
| music          = 
| cinematography = Alessio Rigo de Righi
| editing        =
| released       =  
| runtime        = 21 minutes
| country        = France
| language       = French
| budget         = 
| gross          = 
}}
The Guidance of Reason ( ) is a short film written and directed by Aliocha. It has been selected to be part of the Directors Fortnight of the 2011 Cannes Film Festival.

==Plot==
A man and his dog go for a walk in the woods.

==Cast==
* Jean-François Brunier - Jean-François Brunier
* Athos - Dog
* Jean-Pierre Dalaise - Jean-Pierre Dalaise

==External links==
*  
*   on Facebook
*   at CinemaItaliano.info

 
 
 
 
 


 