Inniyenkilum
{{Multiple issues|
 
 
}}

{{Infobox Film
| name           = Inniyenkilum
| image          = 
| caption        = 
| director       = I.V. Sasi
| producer       = 
| writer         = T. Damodaran
| based on       = 
| starring       = T.G. Ravi Mohanlal Mammootty Ratheesh
| music          = 
| cinematography = 
| editing        = 
| studio         = 
| distributor    =  
| released       =  
| runtime        = 
| country        = India
| language       = Malayalam
| budget         =  
| gross          = 
}}

Inniyenkilum is a 1983 Malayalam film directed by I.V. Sasi. It stars T.G. Ravi, Mohanlal, Mammootty, Ratheesh, Lalu Alex, Ravindran, Seema (actress)|Seema, Rani Padmini, Balan K. Nair, Captain Raju, Vincent (actor)|Vincent, Sankaradi. Dialogue and Screenplay are by T. Damodaran.

== External links ==
*  

 
 


 