The Naked Truth (1914 film)
{{Infobox film
| name           = The Naked Truth
| image          = 
| image size     = 
| caption        = 
| director       = Carmine Gallone
| producer       = 
| writer         = Henry Bataille Carmine Gallone
| starring       = Lyda Borelli
| music          = 
| cinematography = Domenico Grimaldi
| editing        = 
| distributor    = 
| released       =  
| runtime        = 60 minutes
| country        = Italy
| language       = Silent
| budget         = 
}}
 silent Italian drama film directed by Carmine Gallone.   

==Cast==
* Lyda Borelli as Lolette
* Ruggero Capodaglio
* Wanda Capodaglio as Principessa
* Lamberto Picasso as Pierre Bernier
* Ugo Piperno as Rouchard

==References==
 

==External links==
*  

 
 
 
 
 
 
 
 
 