The Thirteenth Man
 
{{Infobox film
| name           = The Thirteenth Man
| image          = 
| caption        = 
| director       = Carmine Gallone
| producer       = 
| writer         = Lucio DAmbra Honoré de Balzac
| starring       = Lyda Borelli
| music          = 
| cinematography = Giovanni Grimaldi
| editing        = 
| distributor    = 
| released       =  
| runtime        = 
| country        = Italy
| language       = Silent
| budget         = 
}}
 silent Italian drama film directed by Carmine Gallone.   

==Cast==
* Lyda Borelli
* Ugo Piperno
* Sandro Salvini

==References==
 

==External links==
*  

 
 
 
 
 
 
 
 
 
 
 