Hombres de mar
{{Infobox film
| name           =Hombres de mar
| image          = 
| image size     =
| caption        =
| director       =Chano Urueta
| producer       =
| writer         = 
| narrator       =
| starring       = Vilma Vidal, Arturo de Cordova
| music          = 
| cinematography = 
| editing        =
| distributor    = 
| released       = 1938
| runtime        =
| country        = Mexico Spanish
| budget         =
| gross          =
| preceded by    =
| followed by    =
}} 1938 Mexico|Mexican film. It was directed by 
Chano Urueta.

==Cast==

*Vilma Vidal
*Arturo de Cordova
*Esther Fernandez
*Domingo Soler
*Antonio R. Frausto
*Ramon Vallarino

==External links==
* 

 
 
 
 


 