Pescadores de perlas
{{Infobox film
| name           = Pescadores de perlas
| image          = 
| caption        = 
| director       = 
| producer       = 
| writer         = 
| starring       = Sara García
| music          = 
| cinematography = 
| editing        = 
| distributor    = 
| released       =  
| runtime        = 
| country        = Mexico
| language       = Spanish
| budget         = 
| gross          = 
}}
Pescadores de perlas ( ), also known as Sol de gloria is a 1938 Mexican film starring Sara García.

==External links==
*  

 
 
 


 