Noche de recién casados
{{Infobox film
| name           =Noche de recién casados
| image          = 
| caption        =
| director       =
| producer       =
| writer         = 
| narrator       =
| starring       =Carlos Orellana
| music          = 
| cinematography = 
| editing        =
| distributor    = 
| released       = 1941
| runtime        =
| country        = Mexico
| language       = Spanish
| budget         =
| gross          =
}} 1941 Mexico|Mexican film. It stars Carlos Orellana.

==External links==
*  

 
 
 
 


 