Mi candidato
{{Infobox film
| name           =Mi candidato
| image          = 
| image size     =
| caption        =
| director       =Chano Urueta
| producer       =
| writer         = 
| narrator       =
| starring       =
| music          = 
| cinematography = 
| editing        =
| distributor    = 
| released       = 1938
| runtime        =
| country        = Mexico Spanish
| budget         =
| gross          =
| preceded by    =
| followed by    =
}} 1938 Mexico|Mexican film. It was directed by 
Chano Urueta.

==Cast==

*Esther Fernandez
*Pedro Armendariz
*Joaquin Pardave
*Elena DOrgaz
*Domingo Soler

==External links==
* 

 
 
 
 


 