Por mis pistolas
{{Infobox film
| name           = Por mis pistolas
| image          = 
| caption        = 
| director       = 
| producer       = 
| writer         = 
| starring       = Sara García
| music          = 
| cinematography = 
| editing        = 
| distributor    = 
| released       =  
| runtime        = 
| country        = Mexico
| language       = Spanish
| budget         = 
| gross          = 
}}
Por mis pistolas ("For my Pistols") is a 1938 Mexican film starring Sara García.

==External links==
*  

 
 
 


 