Bahaghari
{{Infobox film
| name           = Bahaghari
| image          = 
| image size     =
| caption        =
| director       =Don Dano
| producer       =
| writer         = 
| narrator       =
| starring       =
| music          = 
| cinematography = 
| editing        =
| distributor    = 
| released       = 1940
| runtime        =
| country        = Philippines Tagalog
| budget         =
| gross          =
| preceded by    =
| followed by    =
}} 1940 Philippines|Filipino film directed by Don Dano
and starring Rosa Aguirre, Miguel Anzures and Narding Anzures.

==External links==
*  

 
 
 
 

 