Secuestro diabólico
{{Infobox film
| name           =Secuestro diabólico
| image          = 
| image size     =
| caption        =
| director       =Chano Urueta
| producer       =
| writer         = 
| narrator       =
| starring       =  Crox Alvarado, Martha Elena Cervantes, Manuel Dondé 
| music          = 
| cinematography = 
| editing        =
| distributor    = 
| released       = 1957
| runtime        = 87 min 
| country        = Mexico Spanish
| budget         =
| gross          =
| preceded by    =
| followed by    =
}} 1957 Mexico|Mexican film. It was directed by 
Chano Urueta.

==Cast==
* Crox Alvarado		
* Martha Elena Cervantes		
* Manuel Dondé		
* Rodolfo Landa		
* Miguel Manzano		
* Arturo Martínez		
* Elvira Quintana		
* Emma Roldán		
* Wolf Ruvinskis

==External links==
*  

 
 
 
 
 


 