El anónimo
{{Infobox film
| name           =El anónimo
| image          = 
| image size     =
| caption        =
| director       =Fernando de Fuentes
| producer       =
| writer         = 
| narrator       =
| starring       = Gloria Iturbe
| music          = Manuel Sereijo
| cinematography = Ross Fisher
| editing        = Aniceto Ortega
| distributor    = 
| released       = 1933
| runtime        =
| country        = Mexico Spanish
| budget         =
| gross          =
| preceded by    =
| followed by    =
}} 1933 Mexico|Mexican film. It was directed by Fernando de Fuentes.

==Plot==

A drama based on the life of a Doctor (Carlos Orellana), who leads a decent life and whose wife (Gloria Iturbe) is an adultress. 

==Cast==

*Gloria Iturbe
*Carlos Orellana
*Julio Villareal
*Gloria Rubio
*Luis G. Barreito
*Elena Valdes 

==References==
 

==External links==
*  

 
 
 
 
 


 