Terror y encajes negros
{{Infobox film
| name           = Terror y encajes negros
| image          = 
| caption        = 
| director       = Luis Alcoriza
| producer       = 
| writer         = 
| starring       = 
| music          = 
| cinematography = 
| editing        = 
| distributor    = 
| released       =  
| runtime        = 
| country        = Mexico
| language       = Spanish
| budget         = 
| gross          = 
}}
Terror y encajes negros ("Terror and Black Lace") is a 1985 Mexican film directed by Luis Alcoriza.

==External links==
*  

 
 
 
 


 