No matarás
{{Infobox film
| name           =No matarás
| image          = 
| image size     =
| caption        =
| director       =Chano Urueta
| producer       =
| writer         = 
| narrator       =
| starring       =
| music          = 
| cinematography = 
| editing        =
| distributor    = 
| released       =  
| runtime        =
| country        = Mexico Spanish
| budget         =
| gross          =
}}
No matarás ("Do Not Kill") is a 1943 Mexican film. It was directed by 
Chano Urueta.

==External links==
*  

 
 
 
 
 


 