La canción del milagro
{{Infobox film
| name           =La canción del milagro
| image          = 
| image size     =
| caption        =
| director       = Rolando Aguilar
| producer       = Promex
| writer         = Eduardo Enrique Rios (adaptation), Eduardo Enrique Rios (screenplay)
| narrator       =
| starring       =Carlos Orellana, José Lupita Gallardo and Estela Inda 
| music          = 
| cinematography = 
| editing        =
| distributor    = 
| released       = 10 May 1940 (USA)
| runtime        = 85 min
| country        = Mexico Spanish
| budget         =
| gross          =
| preceded by    =
| followed by    =
}} 1940 Mexico|Mexican film. It stars Carlos Orellana.

==External links==
*  

 
 
 
 


 