Stray Bullet (1960 film)
{{Infobox film
| name           = Stray Bullet
| image          = 
| caption        =
| director       = Chano Urueta
| producer       =
| writer         = 
| starring       =
| music          = 
| cinematography = 
| editing        =
| distributor    = 
| released       =  
| runtime        =
| country        = Mexico
| language       = Spanish
| budget         =
| gross          = 
}}
Stray Bullet ( ) is a 1960 Mexican film. It was directed by Chano Urueta.
 
==External links==
*  

 
 
 
 
 

 