La Torre de los suplicios
{{Infobox film
| name           =La Torre de los suplicios
| image          = 
| image size     =
| caption        =
| director       =
| producer       =
| writer         = 
| narrator       =
| starring       =
| music          = 
| cinematography = 
| editing        =
| distributor    = 
| released       = 1941
| runtime        =
| country        = Mexico Spanish
| budget         =
| gross          =
| preceded by    =
| followed by    =
}} 1941 Mexico|Mexican film. It stars Luis Alcoriza.

==External links==
*  

 
 
 
 


 