La Santa del barrio
{{Infobox film
| name           =La Santa del barrio
| image          = 
| image size     =
| caption        =
| director       =Chano Urueta
| producer       =
| writer         = 
| narrator       =
| starring       =
| music          = 
| cinematography = 
| editing        =
| distributor    = 
| released       = 1948
| runtime        =
| country        = Mexico Spanish
| budget         =
| gross          =
| preceded by    =
| followed by    =
}} 1948 Mexico|Mexican film. It was directed by 
Chano Urueta.

==External links==
*  

 
 
 
 
 


 