¡Mis abuelitas... nomás!
{{Infobox film
| name           =¡Mis abuelitas... nomás!
| image          = 
| image size     =
| caption        =
| director       =
| producer       =
| writer         = 
| narrator       =
| starring       =Sara García
| music          = 
| cinematography = 
| editing        =
| distributor    = 
| released       = 1959
| runtime        =
| country        = Mexico Spanish
| budget         =
| gross          =
| preceded by    =
| followed by    =
}} 1959 Mexico|Mexican film. It stars Sara García.

==External links==
*  

 
 
 
 


 