El Camino de los gatos
{{Infobox film
| name           =El Camino de los gatos
| image          = 
| image size     =
| caption        =
| director       =Chano Urueta
| producer       =
| writer         = 
| starring       =
| music          = 
| cinematography = 
| editing        =
| distributor    = 
| released       = 1944
| runtime        =
| country        = Mexico Spanish
| budget         =
| gross          =
}} 1944 Mexico|Mexican film. It was directed by Chano Urueta. It is based on a novel by Hermann Sudermann.

==Cast==

*Emilio Tuero		
*Carmen Montejo		
*Tony Díaz		
*Paco Fuentes		
*Esther Luquín		
*Alfredo del Diestro		
*José Morcillo		
*Víctor Velázquez		
*Ángel T. Sala		
*Lauro Benítez		
*Agustín Sen		
*Enrique Cancino		
*Chel López		
*Salvador Lozano		
*Carlos Aguirre

==External links==
* 
* 

 
 
 
 
 
 

 