Por el mismo camino
{{Infobox film
| name           = Por el mismo camino
| image          = 
| caption        = 
| director       = 
| producer       = 
| writer         = 
| starring       = Sara García
| music          = 
| cinematography = 
| editing        = 
| distributor    = 
| released       =  
| runtime        =
| country        = Mexico
| language       = Spanish
| budget         = 
| gross          = 
}}
Por el mismo camino ("On the Same Road") is a 1953 Mexican film starring Sara García.

==External links==
*  

 
 
 


 