Si me viera don Porfirio
{{Infobox film
| name           =Si me viera don Porfirio
| image          = 
| image size     =
| caption        =
| director       =
| producer       =
| writer         = Luis Alcoriza
| narrator       =
| starring       =
| music          = 
| cinematography = 
| editing        =
| distributor    = 
| released       = 1950
| runtime        =
| country        = Mexico Spanish
| budget         =
| gross          =
| preceded by    =
| followed by    =
}} 1950 Mexico|Mexican film. It was written by Luis Alcoriza.

==Cast==
	 
* Sara García	 ...	Doña Martirio
* 	 Ángel Garasa		
* 	 Domingo Soler		 Eduardo Noriega		
* 	 Esperanza Issa		
* 	 Silvia Derbez		
* 	 Ramón Gay		
* 	 Alfredo Varela	 ...	(as Alfredo Varela Varelita)
* 	 Queta Lavat		
* 	 José Pidal		
* 	 Dolores Camarillo	 ...	(as Dolores Camarillo Fraustita)
* 	 Miguel Manzano		
* 	 Pepe Nava		
* 	 Ramón Sánchez		
* 	 Rodolfo Castillo

==External links==
*  

 
 
 


 