A paso de cojo
{{Infobox film
| name           = A paso de cojo
| image          = 
| caption        =
| director       = Luis Alcoriza
| producer       =
| writer         = 
| starring       =
| music          = 
| cinematography = 
| editing        =
| distributor    = 
| released       =  
| runtime        =
| country        = Mexico
| language       = Spanish
| budget         =
| gross          = 
}}
A paso de cojo ( ) is a 1980 Mexican film. It was directed by Luis Alcoriza.
 
==External links==
*  

 
 
 
 

 