Lihim ng Lumang Simbahan
{{Infobox film
| name           = Lihim ng Lumang Simbahan
| image          = 
| image size     =
| caption        =
| director       =Tor Villano
| producer       =
| writer         = 
| narrator       =
| starring       =
| music          = 
| cinematography = 
| editing        =
| distributor    = 
| released       = 1940
| runtime        =
| country        = Philippines Tagalog
| budget         =
| gross          =
| preceded by    =
| followed by    =
}} 1940 Philippines|Filipino film directed by Tor Villano
and starring Tita Duran, Reynaldo Dante and Luningning.

==External links==
*  

 
 
 
 

 