Arriba las mujeres
{{Infobox film
| name           = Arriba las mujeres
| image          = 
| caption        =
| director       = Carlos Orellana, 
| producer       = José Rodríguez Granada
| writer         = Carlos Orellana(script), Teodoro J. Remírez	 	(play), Joselito Rodríguez (uncredited)
| starring       = Carlos Orellana
| music          = Raúl Lavista
| cinematography = José Ortiz Ramos
| editing        =
| distributor    = 
| released       =  
| runtime        =
| country        = Mexico
| language       = Spanish
| budget         =
| gross          = 
}}
Arriba las mujeres ( ) is a 1943 Mexican film. It stars Carlos Orellana.
 
==External links==
*  
* 

 
 
 

 