Negra consentida
{{Infobox film
| name           =Negra consentida
| image          = 
| caption        =
| director       =
| producer       =
| writer         = Luis Alcoriza
| starring       =
| music          = 
| cinematography = 
| editing        =
| distributor    = 
| released       =  
| runtime        =
| country        = Mexico
| language       = Spanish
| budget         =
| gross          =
}} 1949 Mexico|Mexican film. It was written by Luis Alcoriza.

==External links==
*  

 
 
 


 