Rosa de las nieves
{{Infobox film
| name           =Rosa de las nieves
| image          = 
| image size     =
| caption        =
| director       =
| producer       =
| writer         = 
| narrator       =
| starring       =
| music          = 
| cinematography = 
| editing        =
| distributor    = 
| released       = 1944
| runtime        =
| country        = Mexico Spanish
| budget         =
| gross          =
| preceded by    =
| followed by    =
}} 1944 Mexico|Mexican film. It stars Luis Alcoriza.

==External links==
*  

 
 
 


 