Sucedió en La Habana
{{Infobox film
| name           =Sucedió en La Habana
| image          = 
| image size     =
| caption        =
| director       =  Ramon Peon
| producer       =
| writer         = 
| narrator       =
| starring       =Carlos Orellana
| music          = 
| cinematography = 
| editing        =
| distributor    = 
| released       = 1938
| runtime        = 113 min 
| country        = Mexico, Cuba Spanish
| budget         =
| gross          =
| preceded by    =
| followed by    =
}} 1938 Mexico|Mexican-Cuban film. It stars Carlos Orellana.One of the must successful and ambitious Cuban film during the 1930s. The film its a combination of music, romance and comedy in a guided tour in Havanas hottest night spots.

==External links==
*  
* 

 
 
 
 


 