Del can-can al mambo
{{Infobox film
| name           =Del can-can al mambo
| image          = 
| image size     =
| caption        =
| director       =Chano Urueta
| producer       =
| writer         = 
| narrator       =
| starring       =
| music          = 
| cinematography = 
| editing        =
| distributor    = 
| released       = 1951
| runtime        =
| country        = Mexico Spanish
| budget         =
| gross          =
| preceded by    =
| followed by    =
}} 1951 Mexico|Mexican film. It was directed by 
Chano Urueta.

==Cast==

* 	 Joaquín Pardavé		
* 	 Abel Salazar		
* 	 Rosita Fornés		
* 	 Rosario Gutiérrez		
* 	 Maruja Grifell		
* 	 Arturo Martínez		
* 	 José María Linares-Rivas		
* 	 Gloria Mange		
* 	 Pepita Morillo		
* 	 Nicolás Rodríguez (actor)|Nicolás Rodríguez		
* 	 Dámaso Pérez Prado	 ...	Himself (as Perez Parado y su Orquestra)
* 	 Pedro Vargas		
* 	 Los Diamantes	 ...	Themselves
* 	 Waldo Custodio	 ...	(as Waldo Custodio Chanssonier Française)
* 	 Gloria Mestre

==External links==
*  

 
 
 
 


 