Resurrection (1943 film)
{{Infobox film
| name           =Resurrection 
| image          = 
| image size     =
| caption        =
| director       =
| producer       =
| writer         = 
| narrator       =
| starring       =Sara García
| music          = 
| cinematography = 
| editing        =
| distributor    = 
| released       =  
| runtime        =
| country        = Mexico Spanish
| budget         =
| gross          =
}}
Resurrection  is a 1943 Mexican film. It stars Sara García.

==External links==
*  

 
 
 


 