El Misterioso señor Marquina
{{Infobox film
| name           =El Misterioso señor Marquina
| image          = 
| image size     =
| caption        =
| director       =Chano Urueta
| producer       =
| writer         = 
| narrator       =
| starring       =
| music          = 
| cinematography = 
| editing        =
| distributor    = 
| released       =  
| runtime        =
| country        = Mexico Spanish
| budget         =
| gross          =
}} 1943 Mexico|Mexican film. It was directed by 
Chano Urueta.

==External links==
*  

 
 
 
 
 


 