Such Is Woman
 
{{Infobox film
| name           = Such Is Woman
| image          = 
| caption        =
| director       = José Bohr
| producer       =
| writer         = José Bohr
| starring       = Sara García, José Bohr, Barry Norton, René Cardona
| music          = 
| cinematography = 
| editing        =
| distributor    = 
| released       = 30 July 1938 (Mexico)
| runtime        = 80 min
| country        = Mexico
| language       = Spanish
| budget         =
| gross          = 
}}
Such Is Woman ( ) is a 1936 Mexican film. It stars Sara García.

==Cast==

* José Bohr		
* Barry Norton		
* René Cardona		
* Sara García
* Carmelita Bohr		
* Roberto Cantú Robert		
* Clifford Carr		
* Carmen Conde		
* Manuel Noriega

==External links==
*  

 
 
 
 

 