La vida no vale nada
{{Infobox film
| name           =La vida no vale nada
| image          = 
| image size     =
| caption        =
| director       = Rogelio A. González
| producer       = Óscar Dancigers	
| writer         = Luis Alcoriza  Janet Alcoriza
| narrator       =
| starring       =  Pedro Infante, Rosario Granados, Domingo Soler, Lilia Prado
| music          = Manuel Esperón	 	
| cinematography = José Ortiz Ramos
| editing        = Carlos Savage	
| distributor    = 
| released       = 4 May 1955 (Mexico)
| runtime        = 100 min
| country        = Mexico Spanish
| budget         =
| gross          =
}} 1955 Mexico|Mexican film. It was written by Luis Alcoriza and directed by Rogelio A. González.

==External links==
*  

 
 
 
 
 


 