Miente y serás feliz
{{Infobox film
| name           =Miente y serás feliz
| image          = 
| image size     =
| caption        =
| director       =
| producer       =
| writer         = 
| narrator       =
| starring       =Carlos Orellana
| music          = 
| cinematography = 
| editing        =
| distributor    = 
| released       = 1940
| runtime        =
| country        = Mexico Spanish
| budget         =
| gross          =
| preceded by    =
| followed by    =
}} 1940 Mexico|Mexican film. It stars Carlos Orellana.

==External links==
*  

 
 
 
 


 