Toña, nacida virgen (Del oficio)
{{Infobox film
| name           =Toña, nacida virgen (Del oficio)
| image          = 
| image size     =
| caption        =
| director       =Gustavo Alatriste
| producer       =
| writer         = 
| narrator       =
| starring       =
| music          = 
| cinematography = 
| editing        =
| distributor    = 
| released       = 1982
| runtime        =
| country        = Mexico Spanish
| budget         =
| gross          =
| preceded by    =
| followed by    =
}} 1982 Mexico|Mexican film. It was directed by Gustavo Alatriste.

==External links==
*  

 
 
 
 
 


 