La Bestia magnifica (Lucha libre)
{{Infobox film
| name           =La Bestia magnifica (Lucha libre)
| image          = 
| image size     =
| caption        =
| director       =Chano Urueta
| producer       =
| writer         = Neftali Beltrán and Chano Urueta
| narrator       =
| starring       =
| music          = 
| cinematography = 
| editing        =
| distributor    = 
| released       = 22 May 1953 (México)
| runtime        =
| country        = Mexico Spanish
| budget         =
| gross          =
| preceded by    =
| followed by    =
}} 1953 Mexico|Mexican film. It was directed by 
Chano Urueta.

==Cast==

*Crox Alvarado: David
*Wolf Ruvinskis: Carlos
*José Elías Moreno:Maravilla López
*Irma Dorantes: Teresita
*Miguel Manzano: Benjamín Aguilar
*José Luis Rojas: Luis Rojas
*Ismael Pérez: Poncianito
*Enrique Llanes: Wrestler
*Rito Romero: Wrestler
*Miroslava (actress)|Miroslava: Meche

==External links==
*  

 
 
 
 
 


 