El deseo (1948 film)
{{Infobox film
| name           =El deseo 
| image          = 
| image size     =
| caption        =
| director       =Chano Urueta
| producer       =
| writer         = 
| starring       =
| music          = 
| cinematography = 
| editing        =
| distributor    = 
| released       = 1948
| runtime        =
| country        = Mexico Spanish
| budget         =
| gross          =
}} 1948 Mexico|Mexican film. It was directed by 
Chano Urueta. It is based on a novel by Hermann Sudermann.

==External links==
* 

 
 
 
 
 
 


 