Magbalik ka, Hirang
{{Infobox film
| name           = Magbalik ka, Hirang
| image          = 
| image size     =
| caption        =
| director       =Lorenzo P. Tuells
| producer       =
| writer         = 
| narrator       =
| starring       =
| music          = 
| cinematography = 
| editing        =
| distributor    = 
| released       = 1940
| runtime        =
| country        = Philippines Tagalog
| budget         =
| gross          =
| preceded by    =
| followed by    =
}} 1940 Philippines|Filipino film directed by Lorenzo P. Tuells
and starring Rosa Aguirre, Nemesio E. Caravana and Justina David.
 
==External links==
*  

 
 
 

 