Sólo para maridos
  }}
{{Infobox film
| name           = Sólo para maridos
| image          = 
| caption        = 
| director       = 
| producer       = 
| writer         = 
| starring       = Sara García
| music          = 
| cinematography = 
| editing        = 
| distributor    = 
| released       =  
| runtime        = 
| country        = Mexico
| language       = Spanish
| budget         = 
| gross          = 
}}
Sólo para maridos ("Only for Husbands") is a 1955 Mexican film starring Sara García.  

==References==
 

==External links==
*  

 
 
 
 


 