Se solicitan modelos
{{Infobox film
| name           =Se solicitan modelos
| image          = 
| image size     =
| caption        =
| director       =Chano Urueta
| producer       =
| writer         =  Ernesto Cortázar, Eduardo Galindo
| narrator       =
| starring       =  Eduardo Alcaraz, Amparo Arozamena, León Barroso
| music          = Gonzalo Curiel Ignacio Torres
| editing        = José W. Bustos
| distributor    = 
| released       = 1954
| runtime        =
| country        = Mexico Spanish
| budget         =
| gross          =
| preceded by    =
| followed by    =
}} 1954 Mexico|Mexican film. It was directed by 
Chano Urueta.

==Cast==
	
* Eduardo Alcaraz		
* 	 Amparo Arozamena		
* 	 León Barroso		
* 	 Lorraine Chanel		
* 	 Antonio Espino		
* 	 Eufrosina García		
* 	 Maruja Grifell		
* 	 Raúl Martínez		
* 	 Sara Montiel		
* 	 Chula Prieto		
* 	 Beatriz Saavedra		
* 	 Eliana Silly		
* 	 Carlota Solares		
* 	 Domingo Soler

==External links==
*  

 
 
 
 


 