Serenata en Acapulco
{{Infobox film
| name           =Serenata en Acapulco
| image          = 
| image size     =
| caption        =
| director       =Chano Urueta
| producer       = Pedro Galindo
| writer         =  Eduardo Galindo
| narrator       =
| starring       =  Arturo Castro Bigotón, Joaquín García Vargas, Glòria Martí 
| music          = Jorge Pérez
| cinematography = Víctor Herrera
| editing        = José W. Bustos
| distributor    = 
| released       = 23 February 1951 (Mexico)
| runtime        =
| country        = Mexico Spanish
| budget         =
| gross          =
| preceded by    =
| followed by    =
}} 1951 Mexico|Mexican film. It was directed by 
Chano Urueta.

==Cast==
* Arturo Castro Bigotón		
* 	 Joaquín García Vargas		
* 	 Glòria Martí		
* 	 Raúl Martínez		
* 	 Óscar Pulido		
* 	 Dámaso Pérez Prado		
* 	 Roberto Romana		
* 	 Martha Roth		
* 	 Andrés Soler		
* 	 María Victoria
==External links==
*  

 
 
 
 


 