El oficio más antiguo del mundo
{{Infobox film
| name           =El oficio más antiguo del mundo
| image          = 
| image size     =
| caption        =
| director       =Luis Alcoriza
| producer       =
| writer         = 
| narrator       =
| starring       =
| music          = 
| cinematography = 
| editing        =
| distributor    = 
| released       = 1970
| runtime        =
| country        = Mexico Spanish
| budget         =
| gross          =
| preceded by    =
| followed by    =
}} 1970 Mexico|Mexican film. It was directed by Luis Alcoriza.

==External links==
*  

 
 
 
 
 
 


 