Presagio
{{Infobox film
| name           = Presagio
| image          = 
| caption        = 
| director       = 
| producer       = 
| writer         = Luis Alcoriza
| starring       = 
| music          = 
| cinematography = 
| editing        = 
| distributor    = 
| released       =  
| runtime        = 
| country        = Mexico
| language       = Spanish
| budget         = 
| gross          = 
}}
Presagio ("Omen") is a 1975 Mexican film directed and written by Luis Alcoriza.

==External links==
*  

 
 
 
 


 