No me defiendas compadre
{{Infobox film
| name           =No me defiendas compadre
| image          = 
| image size     =
| caption        =
| director       =
| producer       =Fernando de Fuentes
| writer         = 
| narrator       =
| starring       =
| music          = 
| cinematography = 
| editing        =
| distributor    = 
| released       = 1949
| runtime        =
| country        = Mexico Spanish
| budget         =
| gross          =
| preceded by    =
| followed by    =
}} 1949 Mexico|Mexican film. It was produced by 
Fernando de Fuentes.

==External links==
*  

 
 
 


 