Los de abajo (film)
{{Infobox film
| name           =Los de abajo 
| image          = 
| image size     =
| caption        =
| director       =Chano Urueta
| producer       =
| writer         = 
| narrator       =
| starring       =
| music          = 
| cinematography = 
| editing        =
| distributor    = 
| released       = 1940
| runtime        =
| country        = Mexico Spanish
| budget         =
| gross          =
| preceded by    =
| followed by    =
}} 1940 Mexico|Mexican film. It was directed by 
Chano Urueta.

==External links==
* 

 
 
 
 


 