No basta ser madre
{{Infobox film
| name           =No basta ser madre
| image          = 
| caption        =
| director       =
| producer       =
| writer         = 
| starring       =Carlos Orellana
| music          = 
| cinematography = 
| editing        =
| distributor    = 
| released       = 1937
| runtime        =
| country        = Mexico
| language       = Spanish
| budget         =
| gross          =
}} 1937 Mexico|Mexican film. It stars Carlos Orellana.

==External links==
*  

 
 
 


 