On with the Motley
 
{{Infobox film
| name           = On with the Motley
| image          = 
| caption        = 
| director       = Carmine Gallone
| producer       = 
| writer         = Lucio DAmbra
| starring       = Soava Gallone
| music          = 
| cinematography = Emilio Guattari
| editing        = 
| distributor    = 
| released       =  
| runtime        = 
| country        = Italy
| language       = Silent
| budget         = 
}}
 silent Italian drama film directed by Carmine Gallone.   

==Cast==
* Soava Gallone as Alessandra di Tranda
* Elisa Severi as Sua madre
* Maurice De Grunewald
* Angelo Gallina
* Tatiana Gorka
* Luciano Molinari as Frere Ivre
* Renato Piacentini
* Umberto Zanuccoli

==References==
 

==External links==
*  

 
 
 
 
 
 
 
 


 
 