La noche de los mayas
{{Infobox film
| name           =La noche de los mayas
| image          = 
| image size     =
| caption        =
| director       = Chano Urueta
| producer       = Francisco Cabrera Mauricio de la Serna
| writer         = Archibaldo Burns Alfredo B. Crevenna Antonio Mediz Bolio Chano Urueta
| narrator       =
| starring       = Arturo de Córdova Stella Inda Isabela Corona
| music          = Silvestre Revueltas
| cinematography = Gabriel Figueroa
| editing        = Emilio Gómez Muriel
| distributor    = Fama Films
| released       = 1939
| runtime        = 101 min
| country        = Mexico
| language       = Spanish
| budget         =
| gross          =
| preceded by    =
| followed by    =
}}
 1939 Mexican suite from Orquesta Sinfónica de Jalapa, conducted by Luis Herrera de la Fuente, and released by Catalyst Records in 1994. 

==Cast==
* Arturo de Córdova .... Uz
* Stella Inda .... Lol
* Isabela Corona .... Zeb
* Luis Aldás .... Miguel
* Miguel Ángel Ferriz Sr. .... Yum Balam

==References==
 

==External links==
* 
*    

 
 
 
 
 

 