Del rancho a la televisión
{{Infobox film
| name           =Del rancho a la televisión
| image          = 
| image size     =
| caption        =
| director       = Ismael Rodriguez
| producer       =
| writer         = Carlos Orellana
| narrator       =
| starring       =Luis Aguilar
| music          = Manuel Esperón
| cinematography = Jack Draper
| editing        =
| distributor    = 
| released       = 1953
| runtime        = 100 min
| country        = Mexico Spanish
| budget         =
| gross          =
| preceded by    =
| followed by    =
}} 1953 Mexico|Mexican film. It stars Luis Aguilar.

==Plot==

A young country boy moves to Mexico City to become a singer.  A young girl and her father support him and help him on his road to fame.  Unfortunately, his success is boycotted by a jealous woman. 

==Cast==

*Luis Aguilar
*Maria Victoria
*Chela Campos
*Carlos Orellana
*Andrés Soler
*Emma Rodriguez

==References==
 

==External links==
*  

 
 
 
 


 