Eterna agonía
{{Infobox film
| name           =Eterna agonía
| image          = 
| image size     =
| caption        =
| director       =
| producer       =
| writer         = 
| narrator       =
| starring       =Sara García
| music          = 
| cinematography = 
| editing        =
| distributor    = 
| released       = 1949
| runtime        =
| country        = Mexico Spanish
| budget         =
| gross          =
| preceded by    =
| followed by    =
}} 1949 Mexico|Mexican film. It stars Sara García.

==External links==
*  

 
 
 
 


 