Blue Demon contra las diabólicas
{{Infobox film
| name           =Blue Demon contra las diabólicas
| image          = Blue demon 68.jpg
| image size     =
| caption        =
| director       =Chano Urueta
| producer       =
| writer         = 
| narrator       =
| starring       =
| music          = 
| cinematography = 
| editing        =
| distributor    = 
| released       = 1967
| runtime        =
| country        = Mexico Spanish
| budget         =
| gross          =
| preceded by    =
| followed by    =
}} 1966 (various Mexican horror film.    It was directed by Chano Urueta and stars David Reynoso, Ana Martín and the wrestler Blue Demon.

==References==
 

==External links==
*  

 
 
 
 
 
 
 


 
 