Anillo de compromiso
{{Infobox film
| name           = Anillo de compromiso
| image          = 
| image size     =
| caption        =
| director       = Emilio Gómez Muriel
| producer       = 
| writer         = Luis Alcoriza, Janet Alcoriza, and Edmundo Báez
| narrator       =
| starring       =  David Silva, Martha Roth and Carmen Montejo
| music          = 
| cinematography = 
| editing        =
| distributor    = 
| released       = 1 November 1951 (Mexico)
| runtime        = 100 min
| country        = Mexico Spanish
| budget         =
| gross          =
| preceded by    =
| followed by    =
}} 1951 Mexico|Mexican film. It was written by Luis Alcoriza.

==Cast==
*David Silva	 	
*Martha Roth	 	
*Carmen Montejo	 	
*Andrés Soler	
*Miguel Manzano		
*Felipe de Alba	
*José María Linares-Rivas	
*Nicolás Rodríguez (actor)|Nicolás Rodríguez	
*Cuco Sánchez	
*Beatriz Ramos	
*Armando Arriola	
*Francisco Reiguera	
*Olga Donoso		
*Juan Pulido	 	
*Diana Ochoa

 

==References==
 

==External links==
*  

 
 
 


 