Qué hombre tan simpático
{{Infobox film
| name           =Qué hombre tan simpático
| image          = 
| image size     =
| caption        =
| director       =
| producer       =
| writer         = 
| narrator       =
| starring       =Carlos Orellana
| music          = 
| cinematography = 
| editing        =
| distributor    = 
| released       =  
| runtime        =
| country        = Mexico Spanish
| budget         =
| gross          =
}}
Qué hombre tan simpático is a 1943 Mexican film. It stars Carlos Orellana.

==External links==
*  

 
 
 
 


 