Aarani Mantalu
{{Infobox film
| name           = Aarani Mantalu
| image          = 
| image_size     = 
| caption        = 
| director       = 
| producer       = 
| writer         = 
| narrator       = 
| starring       = Chiranjeevi
| music          = 
| editing        = 
| studio         = 
| distributor    = 
| released       = 1980
| runtime        = 
| country        = India
| language       = Telugu
| budget         = 
}}
 Telugu film starring Chiranjeevi.   It was the first Tamil dubbed movie of Chiranjeevi dubbed by editor Mohan, who is the well known producer and father of Jayam Ravi.

==References==
 

==External links==
*  

 
 
 


 