Sitadevi
 
{{Infobox Film
| name           = Sitadevi
| image          =
| image_size     =
| caption        =
| director       =
| producer       =
| writer         =
| narrator       =
| starring       = Chiranjeevi
| music          =
| editing        =
| studio         =
| distributor    =
| released       = 1982
| runtime        =
| country        = India
| language       = Telugu
| budget         =
}}
 Telugu film starring Chiranjeevi.

==External links==
*  

 
 
 


 