Kirayi Rowdylu
{{Infobox film
| image          = 
| image_size     = 
| caption        = 
| director       = A. Kodandarami Reddy
| producer       = 
| writer         = 
| narrator       = 
| starring       = Chiranjeevi
Mohan Babu
| music          = 
| editing        = 
| studio         = 
| distributor    = 
| released       = 1981
| runtime        = 
| country        = India Telugu
| budget         = 
}}

Kirayi Rowdylu is a 1981 Telugu language|Telugu-language film directed by A. Kodandarami Reddy. It features Chiranjeevi, Mohan Babu, and Raadhika Sarathkumar.

 
 
 
 


 