Tommy Atkins (film)
{{Infobox film
| name           = Tommy Atkins 
| image          =
| image_size     =
| caption        =
| director       = Norman Walker 
| producer       = 
| writer         = Arthur Shirley (play)   Ben Landeck (play)   Eliot Stannard   Ian Hay
| narrator       = Walter Byron  Shayle Gardner
| music          = 
| cinematography = Claude Friese-Greene   René Guissart (cinematographer)|René Guissart
| editing        = Sam Simmonds
| studio         = British International Pictures
| distributor    = Wardour Films 
| released       = June 1928
| runtime        = 80 minutes
| country        = United Kingdom English
| budget         =
| gross          =
| preceded_by    =
| followed_by    =
| website        =
}}
  British silent silent drama Norman Walker Walter Byron. British intervention The Sudan in the 1880s.

==Cast==
* Lillian Hall-Davis - Ruth
* Henry Victor -  Victor Walter Byron - Harold
* Shayle Gardner - Mason
* Jerrold Robertshaw -Earl
* Pat Courtney - Ruth as a Child
* Leslie Tomlinson - Victor as a Child
* Alfred Leonard - Harold as a Child

==References==
 

==External links==
* 

 

 
 
 
 
 
 
 
 
 
 
 
 
 
 
 


 
 