Billoo Badshah
 
{{Infobox Film
| name           = Billoo Badshah
| image          = 
| image_size     = 
| caption        = 
| director       = Sisir Misra
| producer       = Suresh Sinha
| writer         = 
| narrator       =  Govinda Neelam Neelam Anita Raj Kader Khan Shatrughan Sinha
| music          = Jagjit Singh
| Lyricist       =   
| cinematography = 
| editing        = 
| distributor    = 
| released       = 28 April 1989
| runtime        = 
| country        = India Hindi
| budget         = 
}} Indian film. Starring Govinda, Shatrughan Sinha, Neelam, Anita Raaj. The movie has famous song "Jawaan Jawaan" which was a copied version of "Hawa Hawa" by Hassan Jahangir

==Cast== Govinda - Vijay   Neelam
*Anita Raj
*Kader Khan - Than-Than Tiwari 
*Shatrughan Sinha - Billu

 
 
 


 