Karujaht Pärnumaal
{{Infobox film
| name           = Karujaht Pärnumaal
| image          = 
| caption        =  
| director       = Johannes Pääsuke
| producer       = Aleksander Tippo, Estonia Film
| writer         = Karl August Hindrey
| starring       = 
| music          = 
| cinematography = 
| editing        = 
| distributor    = 
| released       = 1914
| runtime        = 11 minutes
| country        = Estonia
| language       = 
| budget         = 
| gross          = 
}}
 narrative film 1914 in film|1914, directed by Johannes Pääsuke.

 
 

==External links==
* 

 
 
 
 
 
 
 


 
 