Poonthalir
{{Infobox film
| name           = Poonthalir
| image          = Poonthalirfilm.png
| image size     =
| caption        = LP Vinyl Records Cover
| director       = Devaraj Mohan
| producer       = S.M.Creations
| writer         = 
| narrator       = Sujatha
| music          = Ilayaraja
| cinematography = 
| editing        =
| distributor    = 
| released       = 1979
| runtime        =
| country        = India
| language       = Tamil
| budget         =
| gross          =
| preceded by    =
| followed by    =
}}
 1979 Tamil Tamil  Indian feature directed by Devaraj Mohan starring Sivakumar and Sujatha (actress)|Sujatha.  

==Cast==

*Sivakumar Sujatha

==Songs==

*1. Vaa Pon Mayile - S. P. Balasubrahmanyam - 3:19
*2. Manathil Enna - S. P. Balasubrahmanyam, S. P. Sailaja - 4:27
*3. Gnan Gnan Paadanum - Jency Anthony - 4:20
*4. Raaja Chinna Raaja - P. Susheela - 4:31
*5. Kannin Mani Ennai - S. P. Sailaja
*6. English Song

==References==
 

 
 
 
 
 


 