Njan Salperu Ramankutty
{{Infobox film
| name           =Njan Salperu Ramankutty
| image          = 
| image size     =
| caption        =
| director       = Anil Babu
| producer       = B. Rakesh
| writer         = 
| starring       = Jayaram Gayatri Jayaraman
| music          = Raveendran
| cinematography = 
| editing        =
| distributor    = Universal Cinema
| released       = 2004
| runtime        =
| country        = India Malayalam
| budget         =
| gross          =
| preceded by    =
| followed by    = screenplay = Kalavoor Ravikumar}}
Njan Salperu Ramankutty is a Malayalam language film. It was released in 2004. 

==References==
 

 
 
 


 