Naale (film)
{{Infobox film
| name           = Naale
| image          =
| caption        =
| director       =
| producer       =
| writer         =
| starring       =
| music          =
| cinematography =
| editing        =
| distributor    =
| released       =  
| runtime        =
| country        = India
| language       = Malayalam
| budget         =
| gross          =
}}
Naale  is a Malayalam language film. It was released in 2008. 

==Cast==
*Shobna
*Sukumari Dileep
*Saikumar Saikumar

==References==
 

 
 
 


 