Susie (film)
{{Infobox film
| name           =Susie 
| image          = 
| image size     =
| caption        =
| director       =Kunchacko
| producer       =  Kunchacko
| writer         = Thoppil Bhasi
| narrator       =
| starring       =
| music          = Vayalar, G Devarajan
| cinematography = 
| editing        =
| distributor    = 
| released       = 05-04-1969
| runtime        =
| country        = India Malayalam
| budget         =
| gross          =
| preceded by    =
| followed by    =
}}
Susie  is a 1969 Malayalam language film. It was directed by Kunchacko. 
 
==References==
 

 
 
 
 


 