Santham
{{Infobox film
| name           =Santham
| image          = 
| image size     =
| caption        =
| director       =
| producer       =
| writer         = 
| narrator       =
| starring       =
| music          = 
| cinematography = 
| editing        =
| distributor    = 
| released       = 2000
| runtime        =
| country        = India Malayalam
| budget         =
| gross          =
| preceded by    =
| followed by    =
}}
Santham is a Malayalam language film. It was released in 2000. 


== Cast ==
* I M Vijayan
* KPAC Lalitha
* Seema Biswas

==References==
 

 
 
 

 