Vasanthamalika
{{Infobox film
| name           =Vasanthamalika
| image          = 
| image size     =
| caption        =
| director       =
| producer       =
| writer         = 
| narrator       =
| starring       =
| music          = 
| cinematography = 
| editing        =
| distributor    = 
| released       = 2002
| runtime        =
| country        = India Malayalam
| budget         =
| gross          =
| preceded by    =
| followed by    =
}}
Vasanthamalika is a Malayalam language film. It was released in 2002.Mukesh acted in lead role. This was a comedy movie. 

==References==
 

 
 
 

 