Valkkannadi
{{Infobox film
| name           =Valkkannadi
| image          =Valkkannadi.jpg
| image size     =
| caption        =
| director       = Anil Babu
| producer       = Santhosh Damodar
| writer         = T. A. Razaq
| narrator       =
| starring       = Kalabhavan Mani, Thilakan, Geethu Mohandas
| music          = M. Jayachandran
| cinematography = Shaji
| editing        = P. C. Mohanan
| distributor    = Calton Release
| released       = 2002
| runtime        =
| country        = India
| language       = Malayalam
| budget         =
| gross          =
| preceded by    =
| followed by    =
}}
Valkkannadi is a Malayalam language film. It was released in 2002.  

==References==
 

 
 
 

 