Kodungalluramma
{{Infobox film
| name           =Kodungalluramma
| image          = 
| image size     =
| caption        =
| director       =Kunchacko
| producer       =
| writer         = 
| narrator       =
| starring       =
| music          = 
| cinematography = 
| editing        =
| distributor    = 
| released       = 1968
| runtime        =
| country        = India Malayalam
| budget         =
| gross          =
| preceded by    =
| followed by    =
}}
Kodungalluramma is a 1968 Malayalam language film. It was directed by Kunchacko. 
 
==References==
 

 
 
 
 


 