Sahayathrikakku Snehapoorvam
{{Infobox film
| name           = Sahayathrikakku Snehapoorvam
| image          = Sahayathrikakku Snehapoorvam.gif
| image size     =
| caption        =
| director       = M. Shankar
| producer       =
| writer         = Sathrughnan
| narrator       =
| starring       =
| music          = Mohan Sithara
| cinematography = Prakash Kutti
| editing        = P. C. Mohan
| distributor    = 
| released       = 2000
| runtime        =
| country        = India Malayalam
| budget         =
| gross          =
| preceded by    =
| followed by    =
}}
Sahayathrikakku Snehapoorvam is a 2000 Malayalam language film directed by M. Shankar.  It stars Kunchacko Boban and Kavya Madhavan.

== Cast ==
* Kunchacko Boban
* Kavya Madhavan
* Jagadish

==References==
 

 
 
 

 