Martín Romero El Rápido
{{Infobox film
| name           =Martín Romero El Rápido
| image          = 
| image size     =
| caption        =
| director       =
| producer       =
| writer         = 
| narrator       =
| starring       = Fernando Casanova Armando Silvestre María Duval Ofelia Montesco
| music          = 
| cinematography = 
| editing        =
| distributor    = 
| released       = 1966
| runtime        =
| country        = Mexico Spanish
| budget         =
| gross          =
| preceded by    =
| followed by    =
}}
Martín Romero El Rápido is a 1966 Mexican western film. It stars Fernando Casanova.

==Cast==
*Fernando Casanova as Martín Romero
*Armando Silvestre as El Cuervo
*María Duval as Andrea Garza
*Ofelia Montesco as Rosita
*Armando Soto La Marina as Pinole
*Víctor Alcocer as Artemio Velasco

==External links==
*  

 
 
 
 


 