Hitting a New High
{{Infobox film
| name           = Hitting a New High
| image          = 
| caption        = 
| director       = Raoul Walsh
| writer         = 
| starring       = Lily Pons
| music          = 
| cinematography = 
| editing        = 
| studio         = 
| distributor    = 
| released       = December 24, 1937
| runtime        = 85 minutes
| country        = United States
| language       = English
| budget         = $727,000 Richard Jewel, RKO Film Grosses: 1931-1951, Historical Journal of Film Radio and Television, Vol 14 No 1, 1994 p58  
| gross          = $488,000 
}} Best Sound (John Aalberg).   

==Cast==
* Lily Pons as Suzette, aka Oogahunga, the Bird-Girl 
* Jack Oakie as Corny Davis
* John Howard as Jimmy James
* Eric Blore as Cedric Cosmo, aka Captain Braceridge Hemingway 
* Edward Everett Horton as Lucius B Blynn

==Reception==
The film lost a reported $431,000. 

==References==
 

==External links==
*  

 

 
 
 
 
 
 
 


 