Die goldene Gans
{{Infobox film
| name           =Die goldene Gans 
| image          = 
| image size     =
| caption        =
| director       =
| producer       =
| writer         = 
| narrator       =
| starring       =
| music          = 
| cinematography = 
| editing        =
| distributor    = 
| released       = 1964
| runtime        =
| country        = East Germany
| language       = German
| budget         =
| gross          =
| preceded by    =
| followed by    =
}} East German film. It was released in List of East German films|1964. 
 
==External links==
*  

 
 
 
 

 