Kapitäne bleiben an Bord
{{Infobox film
| name           =Kapitäne bleiben an Bord
| image          = 
| image size     =
| caption        =
| director       = Jürgen Lenz
| producer       = Paul Ramacher
| writer         = Martin Hellberg
| narrator       =
| starring       =
| music          = Wolfgang Pietsch
| cinematography = Walter Fehdmer, Günter Marczinkowsky 
| editing        = Lieselotte Johl
| distributor    = 
| released       = 1959
| runtime        = 89
| country        = East Germany German
| budget         =
| gross          =
| preceded by    =
| followed by    =
}} East German film. It was released in List of East German films|1959.

==Cast==
* Johannes Arpe: Hannes Tiedeböhl
* Christel Bodenstein: Karin
* Otto Erich Edenharter: Fünning
* Albert Hetterle: Geelhaar
* Erika Müller-Fürstenau: Hanna Kars
* Rudolf Ulrich: Kurt Kars 

==External links==
*  

 
 
 
 

 