18 Minutes
{{Infobox film
| name           = 18 Minutes
| image          = 
| caption        = 
| director       = Monty Banks
| producer       = Gregory Ratoff
| writer         = Fred Thompson
| screenplay     = 
| story          = 
| based on       =  
| starring       = Gregory Ratoff John Loder Benita Hume Kathryn Sergava
| music          = Alexis Arkhangelsky
| cinematography = Geoffrey Faithfull
| editing        = 
| studio         = 
| distributor    = 
| released       =  
| runtime        = 88 minutes
| country        = United Kingdom
| language       = English
| budget         = 
| gross          = 
}} John Loder and Benita Hume.  Its plot concerns a lion tamer who adopts an orphaned girl.

==Cast==
* Gregory Ratoff - Nikita  John Loder - Trelawney 
* Benita Hume - Lady Phyllis Pilcott 
* Kathryn Sergava - Lida  Richard Bennett - Korn 
* Hugh Wakefield - Lord Pilcott 
* Paul Graetz - Pietro 
* Rosamund Barnes - Lida as a Child 
* Carl Harbord - Jacques 
* Margaret Yarde - Marie 
* Hal Gordon - Osso 

==References==
 

==External links==
*  

 

 
 
 
 
 
 

 