Brücke zwischen gestern und morgen
{{Infobox film
| name           = Brücke zwischen gestern und morgen
| image          = 
| image size     =
| caption        =
| director       = Fred Mahr
| producer       =
| writer         = Kurt Bortfeldt Hans Müncheberg
| starring       = Antje Ruge
| music          = 
| cinematography = 
| editing        =
| distributor    = 
| released       =  
| runtime        =
| country        = East Germany
| language       = German
| budget         =
| gross          =
}}
 East German television film directed by Fred Mahr. It was released in List of East German films|1959.

==Cast==
* Antje Ruge as Frau Wermann 
* Rudolf Ulrich as Hans Gutweil 
* Ellinor Vogel as Herta Gutweil 
* Hans Knötzsch as Flüchting 
* Peter A. Stiege as Willi Rückert

==External links==
*  

 
 
 
 
 


 