Die Störenfriede
{{Infobox film
| name           =Die Störenfriede
| image          = Fotothek df roe-neg 0006440 2 026 Hermann Werner Kubsch (Mitte) und Edgar Benner.jpg
| image size     =180px
| caption        =Hermann Werner Kubsch and Edgar Bennert
| director       =
| producer       =
| writer         = 
| narrator       =
| starring       =
| music          = 
| cinematography = 
| editing        =
| distributor    = Deutsche Film-Aktiengesellschaft
| released       = 1953
| runtime        =
| country        = East Germany German
| budget         =
| gross          =
| preceded by    =
| followed by    =
}} East German film. It was released in List of East German films|1953.

==External links==
 
*  

 
 
 
 


 