Einheit SPD-KPD
{{Infobox film
| name           =Einheit SPD-KPD
| image          = 
| image size     =
| caption        =
| director       =Kurt Maetzig
| producer       =
| writer         = 
| narrator       =
| starring       =
| music          = 
| cinematography = 
| editing        =
| distributor    = 
| released       = 1946
| runtime        =
| country        = East Germany German
| budget         =
| gross          =
| preceded by    =
| followed by    =
}} East German film, directed by Kurt Maetzig. It was released in List of East German films|1946. 
 
==External links==
*  
 

 
 
 
 
 