Abenteuer in Bamsdorf
{{Infobox film
| name           =Abenteuer in Bamsdorf
| image          = 
| image size     =
| caption        =
| director       = Konrad Petzold
| producer       =
| writer         = Konrad Petzold 
| starring       = Charlotte Küter
| music          = 
| cinematography = 
| editing        =
| distributor    = 
| released       =  
| runtime        = 60 minutes
| country        = East Germany
| language       = German
| budget         =
| gross          =
}}
 East German adventure film directed by Konrad Petzold. It was released in List of East German films|1958.

==Cast==
* Charlotte Küter as Oma
* Bernd Kuss as Toni Peter Schmidt as Klaus
* Petra Kyburg as Rita
* Klaus Böhme as Rolf
* Günter Wolf as Stippel
* Hans-Joachim Pfeil as Michel
* Sylvia Hunger as Bärbel
* Claudia Seidel as Reni

==External links==
* 

 
 
 
 


 
 