Street Acquaintances
{{Infobox film
| name           = Street Acquaintances
| image          = 
| caption        =
| director       = Peter Pewas
| producer       =
| writer         = 
| starring       = Gisela Trowe   Alice Treff
| music          = 
| cinematography = 
| editing        =
| distributor    = 
| released       =  
| runtime        =
| country        = East Germany
| language       = German
| budget         =
| gross          =
}} East German film. It was released in 1948, and sold 6,469,626 tickets. 

==References==
 
 
==External links==
*  

 
 
 

 