An der Via Egnatia – Historisches und Heutiges über Stadt und Messe
{{Infobox film
| name           = An der Via Egnatia - Historisches und Heutiges über Stadt und Messe
| image          = 
| caption        =
| director       =
| producer       =
| writer         = 
| starring       =
| music          = 
| cinematography = 
| editing        =
| distributor    = 
| released       =  
| runtime        =
| country        = East Germany
| language       = German
| budget         =
| gross          = 
}} East German film.
 
==External links==
*  

 
 
 
 

 