Hellas ohne Götter
{{Infobox film
| name           =Hellas ohne Götter
| image          = 
| image size     =
| caption        =
| director       =Karl Gass
| producer       =
| writer         = Hermann Schuch, Klaus Schehufer
| narrator       =Otto Mellies
| starring       =Otto Mellies
| music          =Wolfgang Hohensee
| cinematography =Ernst Laude
| editing        =Waltraud Hartmann
| distributor    = 
| released       = 1957
| runtime        =
| country        = East Germany German
| budget         =
| gross          =
| preceded by    =
| followed by    =
}} East German film directed by Karl Gass. It was released in List of East German films|1957. {{cite web
| url=http://www.imdb.com/title/tt0474715/
| title=Hellas ohne Götter (1957)
| publisher=Imdb.com, Inc.
| work=The Internet Movie Database
| year=2011}}
 

==External links==
*  

==References==
 

 
 
 
 
 
 


 