Ein Mädchen von 16 ½
{{Infobox film
| name           =Ein Mädchen von 16 ½
| image          = 
| image size     =
| caption        =
| director       = Carl Balhaus
| producer       =
| writer         = 
| narrator       =
| starring       =
| music          = 
| cinematography = 
| editing        =
| distributor    = 
| released       = 1958
| runtime        =
| country        = East Germany German
| budget         =
| gross          =
| preceded by    =
| followed by    =
}} East German film. It was released in List of East German films|1958.

==External links==
*  

 

 
 
 
 
 


 