Les Aventures de Till L'Espiègle
{{Infobox film
| name           =Les Aventures de Till L&#39;Espiègle
| image          = 
| image size     =
| caption        =
| director       = Gérard Philipe Joris Ivens
| producer       =
| writer         = 
| narrator       =
| starring       = Gérard Philipe Nicole Berger
| music          = 
| cinematography = 
| editing        =
| distributor    = 
| released       = 1956
| runtime        =
| country        = GDR, France French
| budget         =
| gross          =
| preceded by    =
| followed by    =
}} East German-French film. It was released in List of East German films|1956.

==External links==
*  

 
 
 
 
 


 