Rauschende Melodien
{{Infobox film
| name           =Rauschende Melodien
| image          = 
| image size     =
| caption        =
| director       = Ernst Wilhelm Fiedler
| producer       =
| writer         = 
| narrator       =
| starring       =
| music          = 
| cinematography = 
| editing        =
| distributor    = 
| released       = 1955
| runtime        =
| country        = East Germany
| language       = German
| budget         =
| gross          =
| preceded by    =
| followed by    =
}} East German film. It was released in List of East German films|1955, and sold 4,968,582 tickets. 

==References==
 

==External links==
*  

 
 


 