Die Schönste
{{Infobox film
| name           =Die Schönste
| image          = 
| image size     =
| caption        =
| director       =
| producer       =
| writer         = 
| narrator       =
| starring       =
| music          = 
| cinematography = 
| editing        =
| distributor    = 
| released       = 1957
| runtime        =
| country        = East Germany German
| budget         =
| gross          =
| preceded by    =
| followed by    =
}} East German film. It was completed in List of East German films|1957, but was never shown publicly due to censorship.

==Plot==
Two boys in West Berlin stash their own motherss jewellery to find out whether the ladies are still admirable or not.

==External links==
*  

 
 
 
 
 
 

 