Desperate Acquaintances
 

{{Infobox film
| name           = Desperate Acquaintances
| image          = 
| image size     =
| caption        = 
| director       = Svend Wam
| producer       = 
| writer         = Svend Wam
| narrator       = Anders Dale   Janic Heen   Bjarte Hjelmeland 
| music          = 
| cinematography = 
| editing        = 
| distributor    = 
| released       = 
| runtime        = 
| country        = Norway
| language       = Norwegian
| budget         = 
| gross          =
| preceded by    =
| followed by    =
}}
 Norwegian drama Anders Dale, Janic Heen and Bjarte Hjelmeland. It is about three men in their mid-twenties – Anders (Dale), Mefistofeles (Heen) and Yngve (Hjelmeland) – who are struggling to fit in.

==External links==
*  
*  
*   at the Norwegian Film Institute

 
 
 


 