The Luck of the Navy (film)
 
{{Infobox film
| name           = The Luck of the Navy
| image          =
| caption        =
| director       = Fred Paul
| producer       = 
| writer         =   Robert Cunningham
| music          =
| cinematography = 
| editing        = 
| studio         = Graham-Wilcox Productions
| distributor    = Graham-Wilcox Productions
| released       = November 1927 
| runtime        = 8,000  
| country        = United Kingdom 
| awards         =
| language       = English
| budget         = 
| preceded_by    =
| followed_by    =
}} British silent silent comedy comedy thriller The Luck of the Navy by Mrs Clifford Mills.

==Partial cast==
* Evelyn Laye - Cynthia Eden
* Henry Victor - Lieutenant Clive Stanton
* Hayford Hobbs - Louis Peel Robert Cunningham - Admiral Maybridge
* Norma Whalley - Mrs Peel
* H. Agar Lyons - Colonel Dupont
* William Freshman - Wing Eden
* Basil Griffen - Anna
* Zoe Palmer - Dora Green

==References==
 

==External links==
* 

 

 
 
 
 
 
 
 
 
 
 
 


 
 