Dumb Dicks
{{Infobox film
| name           = Dumb Dicks
| image          =
| image_size     =
| caption        =
| director       = Ralph Ceder
| producer       =
| writer         =
| narrator       =
| starring       = See below
| music          =
| cinematography =
| editing        =
| distributor    = RKO Radio Pictures
| released       = 21 March 1932
| runtime        = 19 min.
| country        = USA
| language       = English
| budget         =
| gross          =
| preceded_by    =
| followed_by    =
| website        =
}}
Dumb Dicks (1932) is an American comedy film directed by Ralph Ceder and starring Benny Rubin.

==Plot summary==
Two incompetent private detectives pose as swamis in order to infiltrate a gang of bank robbers.   

==Cast==
*Benny Rubin as Detective Rubin
*Heinie Conklin
*Billy Franey
*Harry Gribbon

==References==
 

==External links==
* 
* 

 
 
 
 
 
 
 


 