The Hunter (2011 Russian film)
 
{{Infobox film
| name           = The Hunter
| image          = The Hunter film.jpg
| caption        = 
| director       = Bakur Bakuradze
| producer       = 
| writer         = 
| starring       = 
| music          = 
| cinematography = 
| editing        = 
| distributor    = 
| released       =  
| runtime        = 110 minutes
| country        = Russia
| language       = Russian
| budget         = 
}}
The Hunter ( ) is a 2011 Russian drama film directed by Bakur Bakuradze. It premiered in the Un Certain Regard section at the 2011 Cannes Film Festival.      

==Cast==
* Gera Avdochenok as Kolya
* Mikhail Barskovich as Ivan Dunaev
* Vladimir Degilev as Viktor
* Oksana Semenova as Wife
* Tatyana Shapovalova as Lyuba 

==References==
 

==External links==
* 

 
 
 
 
 
 