The Man Outside (1913 film)
 
{{Infobox film
| name           = The Man Outside
| image          =
| caption        =
| director       =
| producer       =
| writer         =
| starring       = Jean Acker
| cinematography =
| editing        =
| distributor    =
| released       =  
| runtime        = 1 reel (approximately 10 minutes)
| country        = United States Silent
| budget         =
| website        =
}}
 1913 Comedy film

==Cast==
{| class="wikitable"
|- 
! Actor/Actress || Role
|-
| William E. Shay || Reginald Jones  
|-
| Jean Acker || Helen Lattimore    
|- William Welsh || Professor Lattimore  
|}

== External links ==
*  

 
 
 
 
 
 
 
 


 