Treasure Island (1982 film)
{{multiple issues|
 
 
}}

{{Infobox film
| name           = Treasure Island
| image          =
| image_size     =
| alt            =
| caption        =
| director       = Vladimir Vorobyov
| producer       =
| writer         = Yuri Klavdiyev, Aleksandr Rodionov
| narrator       = Fyodor Stukov Oleg Borisov as Long John Silver
| studio         =
| distributor    =
| released       =    1982
| runtime        =
| country        =   Russian
| budget         =
| gross          =
| preceded_by    =
| followed_by    =
}} Robert Stevenson Treasure Island|novel. It was released in 1982 directed by Vladimir Vorobyov and acted by Fyodor Stukov, Oleg Borisov.

==Notes==
 

 

 
 

 