Spiders on a Web
{{Infobox film
| name           = Spiders on a Web
| image          = SpidersonaWeb.jpg
| image_size     =
| caption        = Screencap from the film George Albert Smith
| producer       =
| writer         =
| starring       =
| cinematography =
| editing        =
| distributor    =
| released       =  
| runtime        =
| country        = United Kingdom Silent
| budget         =
}}
 1900 UK|British short  silent documentary George Albert Percy Smiths insect studies by a decade."      

==References==
 

 
 
 
 
 

 
 