Uravadum Nenjam
{{Infobox film
| name           = Uravadum Nenjam
| image          = 
| image size     = 
| alt            = 
| caption        = 
| director       = Devaraj Mohan
| producer       = V. Kanthasamy Devaraj Mohan
| writer         = 
| narrator       = 
| starring       = Sivakumar Chandrakala
| music          = Ilaiyaraaja
| cinematography = 
| editing        = 
| studio         = Sri Vishnupriya Creations
| distributor    = 
| released       =  
| runtime        = 
| country        = India
| language       = Tamil
| budget         = 
| gross          =
}} Tamil drama film directed by Devaraj Mohan with Sivakumar and Chandrakala in the lead.  It was dubbed and released in Malayalam as Aaru Manikkoor (Malayalam: ആറു മണിക്കൂർ, meaning: Six Hours) in 1978.  

==References==
 

 
 
 
 
 


 