Hemavin Kadhalargal
{{Infobox film
| name           = Hemavin Kadhalargal
| image          =
| image size     =
| alt            =
| caption        =
| director       = T. V. Chandran
| producer       = Gangadharan D, Krishnan Kutty
| writer         =
| narrator       =
| starring       = Delhi Ganesh Anuradha
| music          = Raveendran
| cinematography =
| editing        =
| studio         =
| distributor    =
| released       =  
| runtime        =
| country        = India
| language       = Tamil
| budget         =
| gross          =
}} Tamil film directed by T. V. Chandran. It is T. V. Chandrans first widely released film, first Tamil film and overall second film.  Actress Anuradha made her debut with this film.

==Cast==
* Delhi Ganesh
* Anuradha
* J. R. Balaiah
* Kumar
* M. S. Moorthy
* R. K. Raman
* Ramki
* Sudheesh
* Vijai Mohan
* Sabitha Anand
* Sujatha Rao

==References==
 

 

 
 
 
 
 


 