Charam
 
{{Infobox Film
| name           = Charam
| image          = 
| caption        = 
| director       = P. A. Backer
| producer       = P. A. Backer
| writer         = Raghunath Paleri
| starring       = Prem Nazir
| music          = Devarajan
| cinematography = Hemachandran
| editing        = Ravi Kiran
| studio         = Chithramandir
| distributor    =  
| released       =  
| runtime        = 
| country        = India
| language       = Malayalam
| budget         =  
| gross          = 
}}
Charam is a 1983 Malayalam thriller film directed by P. A. Backer and starring Prem Nazir, Vijayakumar (actor)|Vijayakumar, Meena Menon and Urmila.  {{cite book|author=Ashish Rajadhyaksha, Paul Willemen|title=Encyclopaedia of Indian cinema
|publisher=British Film Institute|year=1999|page=50|isbn=978-0-85170-455-5}} 

==References==
 

==External links==
*  

 
 
 
 


 
 