Unarthupattu
{{Infobox Film
| name           = Unarthupattu
| image          = 
| caption        = 
| director       = P. A. Backer
| producer       = 
| writer         = 
| starring       = 
| music          = 
| cinematography =  
| editing        = 
| studio         = 
| distributor    =  
| released       =  
| runtime        = 
| country        = India
| language       = Malayalam
| budget         =  
| gross          = 
}}
Unarthupattu ( ) is a 1980 Malayalam film directed by P. A. Backer.  {{cite book|author=Ashish Rajadhyaksha, Paul Willemen|title=Encyclopaedia of Indian cinema
|publisher=British Film Institute|year=1999|page=50|isbn=978-0-85170-455-5}} 

==References==
 

==External links==
*  

 
 
 

 