Red Dragonflies
{{Infobox film
| name           = Red Dragonflies
| image          = Red Dragonflies movie poster.jpg
| alt            = 
| caption        = movie poster
| writer         = 
| starring       = Jason Hui, Ng Xuan Ming, Oon Yee Jeng, Thow Xin Wei
| music          = 
| cinematography = 
| editing        = 
| studio         = 
| director       = Liao Jiekai
| producer       = 
| distributor    = 
| released       =  
| runtime        = 96 minutes
| country        = Singapore
| language       = English
| budget         = 
| gross          = 
}}

Red Dragonflies  is a Singapore film directed by Liao Jiekai. It was released in Singapore cinemas on 5 May 2011. 

==References==
 

 
 


 