The Caribbean Mystery
{{Infobox film
| name           = The Caribbean Mystery
| image          = 
| image_size     = 
| caption        = 
| director       = Robert D. Webb
| writer         = 
| narrator       =  James Dunn
| music          = 
| cinematography = 
| editing        = 
| studio         = 
| distributor    = 
| released       = June 1945
| runtime        = 65 mins.
| country        = United States
| language       = English
}} James Dunn and Sheila Ryan. 

==Cast== James Dunn as Mr. Smith
*Sheila Ryan as  Mrs. Jean Gilbert
*Edward Ryan as Gerald McCracken Jr.
*Jackie Paley as Linda Lane
*Reed Hadley as Dr. Rene Marcel

==References==
 

==External links==
* 

 

 
 
 
 