Remember Me? (film)
 
 
{{Infobox film
| name           = Remember Me?
| image          = 
| image_size     = 
| caption        = 
| director       = Nick Hurran
| writer         = 
| narrator       = 
| starring       = Imelda Staunton
| music          = 
| cinematography = 
| editing        = 
| studio         = 
| distributor    = 
| released       = 28 July 1987
| runtime        = 
| country        = United Kingdom
| language       = English
| preceded_by    = 
| followed_by    = 
| website        = 
| amg_id         = 
| budget         = 
| gross          = 
}} Robert Lindsay. 

==Cast==
*Imelda Staunton as Lorna Robert Lindsay as Jamie 
*Natalie Walter as Georgina
*Rik Mayall as Ian
*Emily Bruni as Jessica 
*Olegar Fedoro as Gangster
==References==
 

==External links==
* 

 

 
 
 
 
 
 

 