Ruby Fruit
{{Infobox film
| name           = Ruby Fruit
| image          =
| director       = Takumi Kimizuka
| producer       = Hisao Nabeshima
| writer         = 
| starring       = Kaho Minami
| music          = Yuki Kajiura 
| cinematography = Motoyoshi Hasegawa
| editing        = Yoshinori Ota
| distributor    = Toei Company
| released       = 21 January 1995
| runtime        = 96 minutes
| country        = Japan
| language       = Japanese
| budget         =
| gross          =
}}

  is a 1995 Japanese film directed by Takumi Kimizuka based on the 1992 novel by Ayako Saito. 

==Cast==
*Kaho Minami as Matsunaga Maiko
*Tsugumi Arimura as Sirani(Yaoyo Takahashi)
*Jun Togawa as Yoshimi
*Reiko Takashima as Kyoko
*Haruko Mabuchi as Sayuri
*Jinpachi Nezu as Hisao Kagami

==References==
 

== External links ==
* 
* 

 
 
 
 
 
 
 


 
 