Karma Aur Holi
{{Infobox film
| name           = Karma Aur Holi
| image          = Karma_Aur_Holi.jpg
| alt            =  
| caption        = 
| director       = Manish Gupta
| producer       = Drena De Niro Prashanth Shah
| writer         = 
| screenplay     = 
| story          = 
| starring       = Randeep Hooda Sushmita Sen Naomi Campbell Suresh Oberoi Suchitra Krishnamoorthy
| music          = Vishal Bhardwaj Raju Singh
| cinematography = 
| editing        = 
| studio         = 
| distributor    = 
| released       =  
| runtime        = 
| country        = India
| language       = Hindi
| budget         = 
| gross          = 
}}
Karma Aur Holi is a Bollywood drama film written and directed by débutante Manish Gupta.

== Plot == NRI couple, desperate to have a biological child.  The couple host a party to celebrate Holi, with Indian and American guests. The plot deals with the events happening further.

== Box office and reviews ==

The movie was a box office and critical failure. 

== References ==
 

== External links ==
* 
* 
* 
* 
* 

 
 
 

 