El revoltoso
 
{{Infobox film
| name           = El revoltoso
| image          = 
| image_size     = 
| border         = 
| alt            = 
| caption        = 
| director       = Gilberto Martínez Solares
| producer       = Óscar J. Brooks   Ernesto Enríquez   Felipe Mier
| writer         = Gilberto Martínez Solares   Juan García
| screenplay     = 
| story          = 
| based on       =  
| narrator       = 
| starring       = Germán Valdés   Rebeca Iturbide   Perla Aguiar
| music          = Luis H. Breton
| cinematography = Jorge Stahl Jr.
| editing        = José W. Bustos
| studio         = 
| distributor    = 
| released       =  
| runtime        = 90 min
| country        = Mexico Spanish
| budget         = 
| gross          = 
}} 1951 Mexico|Mexican shining shoes.  He has a girlfriend who is also poor. After many adventures, Tin Tan finally makes enough money and he is able to get married to Lupita.

==References==
 

== External links ==
*  

 
 
 
 


 