Saptasajya
{{Infobox film
| name           = Saptasajya
| image          =
| caption        =
| director       = Kalyan Gupta
| writer         =
| starring       =
| producer       = Ratikant Nayak
| cinematography =
| released       = 1950
| country        = India
| runtime        = Oriya
| music          = Udaya Nath Sahu
| website        =
| amg_id         =
}}
 Ollywood / Oriya film directed by Kalyan Gupta.

==Cast==
* Giridhari
* Pankaj Nanda
* Ratikant Nayak
* Anima Pedini
* Kishori Rajendra
* Kamala Sen
* Byomkesh Tripathi
* Tunia

==References==
 

 
 
 
 


 