Amari Gann Jhia
{{Infobox film
| name           = Amari Gann Jhia
| image          =
| caption        =
| director       = Binaya Banarjee
| writer         = Louis Blackwell
| starring       =
| producer       = 
| cinematography =
| released       = 1953
| country        = India
| runtime        = Oriya
| music          = 
| website        =
| amg_id         =

}}
 Ollywood / Oriya film directed by Binaya Banarjee.

==Cast==
* Gopal Banarjee
* Durlabh
* Gaura Ghosh
* Chapala Nayak

==References==
 
*http://www.bollywoodtourism.com/bollywood-history

 
 
 


 