Den starkaste
 
{{Infobox film
| name           = Den starkaste
| image          = 
| caption        = 
| director       = Axel Lindblom Alf Sjöberg
| producer       = 
| writer         = Axel Lindblom Alf Sjöberg
| starring       = Sivert Brækemo
| music          = 
| cinematography = Axel Lindblom
| editing        = 
| distributor    = 
| released       =  
| runtime        = 97 minutes
| country        = Sweden
| language       = Silent
| budget         = 
}} debut film as a director.

==Cast==
* Sivert Brækemo as Olsen
* Bengt Djurberg as Gustaf
* Gösta Gustafson as Jens
* Anders Henrikson as Ole
* Gun Holmqvist as Ingeborg Larsen
* Kare Pederson as Kare
* Hjalmar Peters as Larsen
* Maria Röhr as Grandmother

==References==
 

==External links==
*  

 

 
 
 
 
 
 
 
 
 
 
 