Allie & Me
{{Infobox film
| name           = Allie & Me
| image          = 
| image_size     = 
| caption        = 
| director       = Michael Rymer
| writer         = 
| narrator       = 
| starring       = Lyndie Benson
| music          = 
| cinematography = 
| editing        = 
| studio         = 
| distributor    = 
| released       = 1997
| runtime        = 85 mins.
| country        = United States
| language       = English
| budget         = 
| gross          = 
| preceded_by    = 
| followed_by    = 
| website        = 
| amg_id         = 
}}
Allie & Me is a 1997 film directed by Michael Rymer. It stars Lyndie Benson and Linda Darnell.  It won an award at the 1997 RiverRun International Film Festival. 

==Cast==
*Lyndie Benson as Michelle Halaburton
*Joanne Baron as Allie Dadadad
*James Wilder as Rodney Alexander 
*Steven Chester Prince as Detective Simon Burke
*Ed Lauter as Detective Frank Richards

==References==
 

==External links==
* 

 

 
 
 
 
 
 


 