Beach Chair (film test)
 

{{Infobox film
| name           = beach chair
| image          = 
| image size     = 
| alt            = 
| caption        = 
| director       = Eben Ostby
| producer       = Eben Ostby
| writer         = Eben Ostby
| screenplay     = 
| story          =
| based on       = 
| narrator       = 
| starring       = 
| music          = 
| cinematography = 
| editing        = 
| studio         = 
| distributor    = 
| released       = 1986
| runtime        =
| country        =
| language       =
| budget         = 
| gross          = 
}}
 rendering software. Bill Reeves. 

==Trivia== Easter egg in Pixar Short Films Collection – Volume 1.

==References==
 

 

 
 
 
 
 


 