Upside Down; or, the Human Flies
{{Infobox film
| name           = Upside Down; or, the Human Flies
| image          = Upside Down ot The Human Flies (1899) - yt.webm
| image_size     = 
| caption        = 
| director       = Walter R. Booth
| producer       = Robert W. Paul
| writer         = 
| narrator       =
| starring       =
| music          =
| cinematography =
| editing        =
| studio         = Pauls Animatograph Works
| distributor    =
| released       =  
| runtime        = 47 secs
| country        = United Kingdom Silent
| budget         =
}}

Upside Down; or, the Human Flies is an   used the same technique in   (1968)." The conjuror was reputedly played by Booth himself.   

==References==
 

==External links==
* 
* 

 
 
 
 
 
 
 


 
 