King Khan (film)
{{Infobox film
| name           = King Khan
| image          = 
| alt            =  
| caption        = 
| director       = Mohammad Hossain Jaimy
| producer       = Mohammad Korshad Alam
| writer         = Mohammad Hossain Jaimy
| starring       = Shakib Khan Apu Biswas Mimo Misa Shoudhar  Uzzal  Shugirita
| music          = Ali Akram Shuvo Annan
| cinematography = 
| editing        = 
| studio         = 
| distributor    = TOT Films
| released       =  
| runtime        = 
| country        = Bangladesh
| language       = Bengali
| budget         = 
| gross          = 
}} action and romantic film Red Camera.

==Cast==
* Shakib Khan as King Khan/Rakesh
* Apu Biswas
* Mimo
* Misa Shoudhar - King Khan(Fake)
* Uzzal
* Shugirita
* Don
* Kabila
*nirob khan

==Accolades== Meril Prothom Alo Award 2011
*Winner: Best Actor Shakib Khan 
; Uro-CJFB Performance Award 2011
*Winner: Best Actor Shakib Khan

==References==
 

==External links==
*  

 
 
 
 
 
 
 
 


 
 
 