The Beckoning Silence
{{Infobox film
| name           = The Beckoning Silence
| image          = BeckoningSilence2007FilmPoster.jpg
| image size     = 
| caption        = 
| director       = Louise Osmond
| based on       =  
| narrator       = Steven Mackintosh
| starring       = Joe Simpson
| editing        = Ben Lester
| distributor    = Channel 4
| released       =  
| runtime        = 75 min
| country        = United Kingdom
| language       = English
}}
 Joe Simpson, whose book of the same name inspired the film.

In 2008 it won an International Emmy Award.

==External links==
* 

 

 

 

 