The Window Over the Way
 
{{Infobox film
| name           = The Window Over the Way
| image          = 
| caption        = 
| director       = Jesús Garay (director)|Jesús Garay Isona Passola
| writer         = Georges Simenon Jesús Garay
| starring       = Juanjo Puigcorbé
| music          = 
| cinematography = Carles Gusi
| editing        = 
| distributor    = 
| released       =  
| runtime        = 95 minutes
| country        = Spain
| language       = Spanish
| budget         = 
}}
 Spanish drama film directed by Jesús Garay (director)|Jesús Garay. It was entered into the 44th Berlin International Film Festival.   

==Cast==
* Juanjo Puigcorbé as Adil Bey
* Estelle Skornik as Sonia
* Ben Gazzara as John
* Carme Elias

==References==
 

==External links==
* 

 
 
 
 
 
 
 