Granny Get Your Gun
{{Infobox film
| name           = Granny Get Your Gun
| image          = 
| image_size     = 
| caption        = 
| director       = George Amy
| writer         = 
| narrator       = 
| starring       = May Robson
| music          = 
| cinematography = 
| editing        = 
| studio         = 
| distributor    = 
| released       = February 10, 1940
| runtime        = 56 mins.
| country        = United States
| language       = English
| budget         = 
| gross          = 
| preceded_by    = 
| followed_by    = 
| website        = 
| amg_id         = 
}} Harry Davenport. It is an adaptation of the Perry Mason novels. 

==Cast==
*May Robson as Minerva Hildegarde Hatton  Harry Davenport as Nathaniel Nate Paulson 
*Margot Stevenson as Julie Westcott
*Hardie Albright as Phillip Phil Westcott
*Clem Bevans as Smokey
*Ann E. Todd as Charlotte
*Vera Lewis as Carrie

==References==
 

==External links==
* 

 

 
 
 
 
 
 
 


 