Boden's Boy
{{Infobox film
| name           = Bodens Boy
| image          = 
| alt            = 
| caption        = 
| film name      =  Henry Edwards
| producer       = 
| writer         = 
| screenplay     = 
| story          = 
| based on       = A novel by Tom Gallon
| starring       = Henry Edwards Chrissie White Francis Lister
| narrator       = 
| music          = 
| cinematography = 
| editing        = 
| studio         = Hepworth Picture Plays
| distributor    = 
| released       = October 1923 
| runtime        = 
| country        = United Kingdom Silent
| budget         = 
| gross          = 
}}
 British romance Henry Edwards and starring Edwards, Chrissie White and Francis Lister.  It was based on a novel by Tom Gallon.

==Cast== Henry Edwards - Enery Boden 
* Chrissie White - Barbara Pilgrim 
* Francis Lister - David Wayne 
* Henry Vibart - Flower 
* Stephen Ewart - Christopher Pilgrim 
* Judd Green - Swaddell 
* Bob Russell - Tickner

==References==
 

==External links==
* 

 

 
 
 
 
 
 
 
 


 