Dear Brat
{{Infobox film
| name           = Dear Brat
| image          = 
| image_size     = 
| caption        = 
| director       = William A. Seiter
| writer         = 
| narrator       = 
| starring       = Mona Freeman
| music          = 
| cinematography = John F. Seitz
| editing        = 
| studio         = 
| distributor    = 
| released       = May 30, 1951
| runtime        = 82 minutes
| country        = United States
| language       = English
| budget         = 
| gross          = 
}}
Dear Brat is a 1951 film directed by William A. Seiter. It stars Mona Freeman and Billy De Wolfe.  

==Cast==
* Mona Freeman as Miriam Wilkins
* Billy De Wolfe as Albert Edward Arnold as Senator Wilkins
* Lyle Bettger as Mr. Baxter
* Natalie Wood as Pauline

==References==
 

==External links==
*  

 

 
 
 