Journalist (1993 film)
 
{{Infobox Film
| name           = Journalist
| image          = 
| caption        = 
| director       = Viji Thampi
| producer       = K.B Sasidharan
| Executive Producer = K.B Dileep
| writer         = Kaloor Dennis
| based on       =  Siddique
| music          = 
| cinematography = 
| editing        = 
| studio         = 
| distributor    =  
| released       =  
| runtime        = 
| country        = India
| language       = Malayalam
| budget         =  
| gross          = 
}}
Journalist is a 1993 Malayalam film directed by Viji Thampi and starring Jagadish and Siddique (actor)|Siddique.

 
 

 