The Harbour Lights (1923 film)
{{Infobox film
| name           = The Harbour Lights
| image          =
| caption        =
| director       = Tom Terriss
| producer       = 
| writer         = George R. Sims (play)  Eliot Stannard Tom Moore Gerald McCarthy   Gibson Gowland
| music          = 
| cinematography = 
| editing        = 
| studio         = Ideal Film Company
| distributor    = Ideal Film Company
| released       = 1923
| runtime        = 60 minutes
| country        = United Kingdom 
| awards         =
| language       = English
| budget         =
| preceded_by    =
| followed_by    =
}} Tom Moore, Gerald McCarthy. The Harbour made into a film in 1914.

==Cast== Tom Moore ...  Lieutenant David Kingsley 
* Isobel Elsom ...  Dora Nelson  Gerald McCarthy ...  Frank Morland 
* Gibson Gowland ...  Mark Helstone 
* Annette Benson ...  Lina Nelson 
* A.B. Imeson ...  Inspector Wood 
* Percy Standing ...  Nicholson 
* Mary Rorke ...  Mrs. Helstone 
* Judd Green ...  Old Tom 
* Gordon Begg ...  Captain Nelson

==References==
 

==External links==
* 

 
 
 
 
 
 
 
 
 


 