Hey Rube!
 
 
 
{{Infobox film
| name           = Hey Rube!
| image          = 
| caption        =  Thomas Atkins (assistant)
| producer       = 
| writer         = Wyndham Gittens Louis Sarecky
| starring       = Hugh Trevor
| music          =  Robert Martin
| editing        = Ann McKnight
| distributor    = 
| released       =  
| runtime        = 60 minutes
| country        = United States
| language       = Silent
| budget         = 
}}

Hey Rube! is a 1928 American silent drama film directed by George B. Seitz.   

==Cast==
* Hugh Trevor as String
* Gertrude Olmstead as Lutie
* Ethlyne Clair as Zelda
* Bert Moorhouse as Moffatt (as Bert Moorehouse)
* Walter McGrail as Duke
* James Eagles as Andy (as James Eagle)

==References==
 

==External links==
* 

 

 
 
 
 
 
 
 
 
 