The Skipper Surprised His Wife
{{Infobox film
| name           = The Skipper Surprised His Wife
| image          = 
| image_size     = 
| caption        = 
| director       = Elliott Nugent
| writer         = 
| narrator       =  Robert Walker
| music          = 
| cinematography = 
| editing        = 
| studio         = MGM
| distributor    = 
| released       = 1950
| runtime        = 85 mins.
| country        = United States
| language       = English
| budget         = $753,000  . 
| gross          = $926,000 
| preceded_by    = 
| followed_by    = 
| website        = 
| amg_id         = 
}} Robert Walker and Joan Leslie. 

==Cast== Robert Walker as Cmdr. William J. Lattimer
*Joan Leslie as Daphne Lattimer Edward Arnold as Adm. Homer Thorndyke
*Spring Byington as Agnes Thorndyke Leon Ames as Dr. Phillip Abbott

==Reception==
According to MGM records the film earned $733,000 in the US and Canada and $193,000 overseas, leading to a loss of $181,000. 

==References==
 

==External links==
* 

 

 
 
 
 
 
 
 


 