Loyalty of Love
{{Infobox film
| name           = Loyalty of Love
| image          =
| image_size     =
| caption        =
| director       = Guido Brignone
| producer       = Angelo Besozzi
| writer         = Tomaso Smith
| narrator       =
| starring       = Marta Abba Nerio Bernardi
| music          = Gennaro Avitablle
| cinematography =
| editing        =
| distributor    =
| released       = 1934 - Venice Film Festival   28 February 1937 - USA
| runtime        = 90 minutes
| country        = Italy
| language       = Italian
| budget         =
| gross          =
}} Italian drama film from 1934, directed by Guido Brignone.

==Plot==
 

==Cast==
* Marta Abba - Teresa Confalonieri
* Giovanni Barella - Bolchesi
* Nerio Bernardi - Federico Confalonieri
* Lilla Brignone - Her Ladyship
* Mercedes Brignone - The Marquise

==External links==
 
 

 

 
 
 
 
 
 

 