Premalekhanam (film)
{{Infobox film
| name           =Premalekhanam
| image          = 
| image size     =
| caption        =
| director       =P. A. Backer
| producer       = 
| screenplay     = P. A. Backer
| based on       =  
| narrator       = Soman Swapna Meena Captain Raju Vincent Mala Aravindan
| music          = G. Devarajan
| cinematography = Hemachandran
| editing        = Ravi
| distributor    = 
| released       = 1985
| runtime        =
| country        = India
| language       = Malayalam
| budget         =
| gross          =
| preceded by    =
| followed by    =
}}
 novel of the same name by Vaikom Muhammad Basheer. The cast includes M. G. Soman|Soman, Swapna, Meena, Captain Raju, Vincent and Mala Aravindan.

==Cast== Soman as Kesavan Nair
* Swapna as Saramma Thomas
* Meena as Aliyama
* Captain Raju as Babu
* Vincent as Joykutty
* Mala Aravindan as Kunchan

==External links==
*  
 

 
 
 
 
 


 