Tamami: The Baby's Curse
{{Infobox film
| name           = Tamami: The Babys Curse
| image          = Tamami-film-poster.jpg
| image size     = 
| border         = 
| alt            = 
| caption        = 
| director       = Yūdai Yamaguchi
| producer       = 
| writer         = 
| screenplay     = 
| story          = 
| based on       =  
| narrator       = 
| starring       = 
| music          = 
| cinematography = 
| editing        = 
| studio         = 
| distributor    = 
| released       =  2008
| runtime        = 
| country        = Japan
| language       = Japanese
| budget         = 
| gross          = 
}}
  is a 2008 Japanese horror movie based on a Kazuo Umezu manga directed by Yūdai Yamaguchi.

==External links==
*  

 

 
 
 
 
 
 

 
 