Dharmaa
{{Infobox film
| name           =  Dharmaa
| image          =
| caption        = 
| director       = Dipendra K. Khanal
| producer       = Dr. Durga Pokharel
| writer         = Ugesh Raimajhi
| released       =   
| language       = Nepali
| country        = Nepal
}} Nepali film Indian films. 

== Cast ==
*Manisha Koirala
*Rajesh Hamal
*Nikhil Upreti
*Rejina Upreti

==See also==
*List of Nepalese films

==References==
 

 
 
 
 


 