Hunter (film)
 

{{Infobox film
| name           = Hunter
| image          =
| image_size     =
| caption        =
| director       = Leonard Horn
| producer       =
| writer         = Cliff Gould
| narrator       =
| starring       = John Vernon Ed Flanders
| music          =
| cinematography =
| editing        =
| distributor    =
| released       = 1973
| runtime        =
| country        =
| language       =
| budget         =
| preceded_by    =
| followed_by    =
| website        =
}}
 The Wizard A Clockwork Orange, giving rise to the now-famous pop-culture catch phrase "Please, stop the monkeys!"

==External links==

* 

 
 
 

 

 