Five Scouts
 
{{Infobox film
| name           = Five Scouts
| image          =
| caption        =
| director       = Tomotaka Tasaka
| producer       =
| writer         = Yoshio Aramaki
| starring       = Hikaru Hoshi Ichirō Izawa
| music          =
| cinematography = Saburo Isayama
| editing        =
| distributor    = Nikkatsu
| released       =  
| runtime        = 73 minutes
| country        = Japan
| language       = Japanese
| budget         =
| gross          =
}}
  is a 1938 Japanese war film directed by Tomotaka Tasaka. It won best film at the 1939 Kinema Junpo Awards and was nominated best film at the 1938 Venice International Film Festival.

==Cast==
* Hikaru Hoshi
* Ichirō Izawa ... Pvt. Koguchi
* Shirō Izome ... Cpl. Nakamura
* Isamu Kosugi ... Platoon Leader

==External links==
*  
*  
*  
 
 

 
 
 
 
 
 

 