Together Brothers
{{Infobox film
| name           = Together Brothers
| image          = Together Brothers.jpg
| image_size     = 
| caption        =  William A. Graham
| writer         = Jack DeWitt Joe Greene
| narrator       = 
| starring       = Ahmad Nurradin
| music          = Barry White
| cinematography = Philip H. Lathrop Charles Rosher Jr. 
| editing        = Stanley E. Johnson
| studio         = 20th Century Fox
| distributor    = 20th Century Fox
| released       = August 7, 1974
| runtime        = 93 mins.
| country        = United States
| language       = English
| budget         = $400,000
| gross          = $1,160,000
| preceded_by    = 
| followed_by    = 
| website        = 
| amg_id         = 
}} William A. Anthony Wilson. 

==Plot==
When Mr. Cool (Ed Bernard), a popular police officer is killed in a Galveston, TX neighborhood, A teenager (Ahmad Nurradin) and his friends begin a manhunt to track down his killer.

==Cast==
*Ahmad Nurradin as H.J. Anthony Wilson as Tommy
*Nelson Sims as A.P.
*Kenneth Bell as Mau Mau
*Owen Pace as Monk
*Kim Dorsey as Gri Gri
*Ed Bernard as Mr. Kool
*Lincoln Kilpatrick as Billy Most
*Glynn Turman as Dr. Johnson

== References ==
 

==External links==
* 
* 
* 

 

 
 
 


 