Der Arzt von Bothenow
{{Infobox film
| name           =Der Arzt von Bothenow
| image          = 
| image size     =
| caption        =
| director       =Johannes Knittel
| producer       =
| writer         = 
| narrator       =
| starring       =
| music          = 
| cinematography = 
| editing        =
| distributor    = 
| released       = 1961
| runtime        =
| country        = East Germany German
| budget         =
| gross          =
| preceded by    =
| followed by    =
}} East German film directed by Johannes Knittel. It was released in List of East German films|1961. 
 
==External links==
*  

 
 
 
 
 

 