Daß ein gutes Deutschland blühe
{{Infobox film
| name           =Daß ein gutes Deutschland blühe
| image          = 
| image size     =
| caption        =
| director       =Joop Huisken
| producer       =
| writer         = 
| narrator       =
| starring       =
| music          = 
| cinematography = 
| editing        =
| distributor    = 
| released       = 1959
| runtime        =
| country        = East Germany German
| budget         =
| gross          =
| preceded by    =
| followed by    =
}} East German documentary film directed by Joop Huisken. It was released in List of East German films|1960.

==External links==
*  

 
 
 
 


 