Spur des Falken
{{Infobox film
| name           =Spur des Falken
| image          = 
| image size     =
| caption        =
| director       = Gottfried Kolditz
| producer       =
| writer         = 
| narrator       =
| starring       =
| music          = 
| cinematography = 
| editing        =
| distributor    = 
| released       = 1968
| runtime        =
| country        = East Germany German
| budget         =
| gross          =
| preceded by    =
| followed by    =
}} East German film. It was released in List of East German films|1968. 

==Cast==
* Gojko Mitić: Weitspähender Falke
* Hannjo Hasse: Joe Bludgeon
* Barbara Brylska: Catherine Emerson
* Lali Meszchi: Blauhaar
* Rolf Hoppe: James Bashan
* Hartmut Beer: Fletcher
* Helmut Schreiber: Samuel Blake
* Fred Delmare: Peter Hille
* Milan Jablonsky: Bad Face
* Holger Mahlich: Pat
* Fred Ludwig: Emmerson
* Horst Kube: Chat
 
==External links==
*  

 
 
 

 