A Chess Dispute
{{Infobox film
| name           = A Chess Dispute
| image          = A Chess Dispute.jpg
| image_size     = 
| caption        = Screenshot from the film
| director       = Robert W. Paul
| producer       = Robert W. Paul
| writer         =
| narrator       =
| starring       =
| music          =
| cinematography = Robert W. Paul
| editing        =
| studio         = Pauls Animatograph Works
| distributor    =
| released       =  
| runtime        = 1 min
| country        = United Kingdom Silent
| budget         =
}}
 1903 UK|British short black-and-white silent comedy film, directed by Robert W. Paul, featuring two gentlemen in a comedic fight following a disputed chess move. It is included on the BFI DVD R.W. Paul: The Collected Films 1895-1908.      

==References==
 

==External links==
* 

 
 
 
 
 
 
 
 
 
 
 