Die schöne Lurette
{{Infobox film
| name           =Die schöne Lurette
| image          = 
| image size     =
| caption        =
| director       = Gottfried Kolditz
| producer       =
| writer         = 
| narrator       =
| starring       =
| music          = 
| cinematography = 
| editing        =
| distributor    = 
| released       = 1960
| runtime        =
| country        = East Germany German
| budget         =
| gross          =
| preceded by    =
| followed by    =
}} East German film. It was released in List of East German films|1960, and sold 3,267,070 tickets. 

==References==
 

==External links==
*  

 
 
 
 

 