Flitterwochen ohne Ehemann
{{Infobox film
| name           =Flitterwochen ohne Ehemann
| image          = 
| image size     =
| caption        =
| director       =
| producer       =
| writer         = 
| narrator       =
| starring       =
| music          = 
| cinematography = 
| editing        =
| distributor    = 
| released       = 1961
| runtime        =
| country        = East Germany German
| budget         =
| gross          =
| preceded by    =
| followed by    =
}} East German television film. It was released in List of East German films|1961. 
 
==External links==
*  

 
 
 
 

 