Handy Andy (1921 film)
{{Infobox film
| name           = Handy Andy
| image          =
| caption        =
| director       = Bert Wynne
| producer       = 
| writer         = Samuel Lover   Eliot Stannard
| starring       = Peter Coleman   Kathleen Vaughan   Warwick Ward   Wallace Bosco
| music          = 
| cinematography = 
| editing        = 
| studio         = Ideal Film Company
| distributor    = Ideal Film Company
| released       = 1921 
| runtime        = 
| country        = United Kingdom 
| awards         =
| language       = English
| budget         =
| preceded_by    =
| followed_by    =
}} silent comedy film directed by Bert Wynne and starring Peter Coleman, Kathleen Vaughan and Warwick Ward. 

==Cast==
* Peter Coleman - Handy Andy
* Kathleen Vaughan - Una OReilly
* Warwick Ward - Squire OGrady
* John Wyndham - Michael Dwyer
* Wallace Bosco - Murphy Fred Morgan - Squire OGrady
* May Price - Ragged Ann
* Hessel Crayne - Dr. Browling

==References==
 

==External links==
*  

 

 
 
 
 
 
 
 


 
 