Magic Trip
{{Infobox film
| name           = Magic Trip
| image          = Magic Trip.jpg
| alt            =  
| caption        = 
| director       = Alex Gibney Alison Ellwood
| producer       = Alex Gibney Gareth Wiley
| writer         = 
| screenplay     = 
| story          =  The Grateful The Merry Band of Pranksters
| music          = 
| cinematography = 
| editing        =  History Channel Films
| distributor    = Magnolia Pictures
| released       =  
| runtime        = 90 minutes
| country        = United States
| language       = English
| budget         = 
| gross          = 
}}
 the Merry Pranksters. 
 16 mm color footage shot by Kesey and the Merry Pranksters during their 1964 cross-country bus trip in the Further (bus)|"Further" bus. The hyperkinetic Cassady is frequently seen driving the bus, jabbering, and sitting next to a sign that boasts, "Neal gets things done".  

The film was released in the US on August 5, 2011 by Magnolia Pictures.

==References==
{{Reflist|refs=
   
 von Busack, Richard (August 11, 2011).  , Metroactive 
 Robbins, Brian (August 21, 2011).  , jambands.com 
}}

==External links==
*  

 

 
 
 
 
 
 


 