Det æ'kke te å tru
{{Infobox film
| name           = Det ække te å tru
| image          = 
| image size     =
| caption        = 
| director       = Toralf Sandø
| producer       = 
| writer         = Solvejg Eriksen, Toralf Sandø
| narrator       =
| starring       = Leif Juster   Ernst Diesen 
| music          = 
| cinematography = 
| editing        = 
| distributor    = 
| released       = 26 December 1942
| runtime        = 86 minutes 
| country        = Norway
| language       = Norwegian
| budget         = 
| gross          =
| preceded by    =
| followed by    =
}}
 Norwegian drama film directed by Toralf Sandø, starring Leif Juster and Ernst Diesen. Two executives at a retail company both try to come up with the best idea for the autumn fair, and win the big prize.

==External links==
*  
*  

 
 
 
 


 
 