Halbblut
{{Infobox film
| name           = Halbblut
| image          = 
| caption        = 
| director       = Fritz Lang
| producer       = 
| writer         = Leo Koffler
| starring       = Carl de Vogt Ressel Orla Carl Gerard Schröder
| cinematography = 
| distributor    = 
| released       = 1919
| runtime        = 
| country        = Weimar Republic
| language       = Silent film
}}
Halbblut ( ) is a 1919 silent film directed by Fritz Lang. It was the first film Lang Film director|directed.    The film starred Carl de Vogt, Ressel Orla, and Carl Gerard Schröder.    It is presumed to be lost film|lost. 

== See also ==
*List of films made in Weimar Germany
*List of lost films

==References==
 

==External links==
*  
*  

 

 
 
 
 
 
 
 
 
 
 
 

 