O Bobo
{{Infobox film
| name           = O Bobo
| image          = 
| image size     = 
| alt            = 
| caption        = 
| director       = José Álvaro Morais
| producer       = 
| writer         = 
| screenplay     = 
| story          =
| based on       = 
| narrator       = 
| starring       = 
| music          = 
| cinematography = 
| editing        = 
| studio         = 
| distributor    = 
| released       = 1987
| runtime        = 
| country        = Portugal
| language       = Portuguese
| budget         = 
| gross          = 
| preceded by    = 
| followed by    = 
}}
O Bobo is a 1987 Portuguese film directed by José Álvaro Morais.

==Awards==
1987 Locarno International Film Festival 
*Won: Golden Leopard

==References==
 

==External links==
* 

 

 
 
 
 
 


 