The Oil Raider
{{Infobox film
| name           = The Oil Raider
| image          =
| image_size     =
| caption        =
| director       = Spencer Gordon Bennet
| producer       = Spencer Gordon Bennet (co-producer) Lester F. Scott Jr. (co-producer) George Morgan George Morgan (dialogue) Rex Taylor (story)
| narrator       =
| starring       = See below
| music          = Edward Snyder
| editing        = Frederick Bain
| distributor    =
| released       = 1934
| runtime        = 59 minutes
| country        = USA
| language       = English
| budget         =
| gross          =
| preceded_by    =
| followed_by    =
| website        =
}}

The Oil Raider is a 1934 American film directed by Spencer Gordon Bennet.

== Plot summary ==
 

== Cast ==
*Buster Crabbe as Dave Warren
*Gloria Shea as Alice Varley George Irving as J. T. Varley, Investment Banker
*Max Wagner as Simmons, a Troublemaker
*Emmett Vogan as Jim Walker
*Harold Minjir as Morrison

== Soundtrack ==
 

== External links ==
* 
* 

 
 
 
 
 
 
 
 


 