Roarin' Guns
{{Infobox film
| name           = Roarin Guns
| image          =
| image_size     =
| caption        =
| director       = Sam Newfield
| producer       = Sigmund Neufeld (producer) Leslie Simmonds (producer) Joseph ODonnell (story and screenplay)
| narrator       =
| starring       = See below
| music          = Oliver Wallace
| cinematography = Jack Greenhalgh
| editing        = Holbrook N. Todd
| studio         =
| distributor    =
| released       = 1936
| runtime        = 59 minutes
| country        = USA
| language       = English
| budget         =
| gross          =
| preceded_by    =
| followed_by    =
| website        =
}}

Roarin Guns is a 1936 American film directed by Sam Newfield.

== Plot summary ==
 

== Cast ==
*Tim McCoy as Tim Corwin
*Rosalinda Price as May Carter
*Wheeler Oakman as Walton
*Rex Lease as Jerry John Elliott as Bob Morgan
*Karl Hackett as Evans Richard Alexander as "Bull" Langdon
*Jack Rockwell as Dave Barry Ed Cassidy as Sheriff
*Tommy Bupp as Buddy Morgan

== Soundtrack ==
 

== External links ==
* 
* 

 

 
 
 
 
 
 
 