Drømmen om kaptein Sabeltanns rike
 

{{Infobox film
| name           = Drømmen om kaptein Sabeltanns rike
| image          = 
| caption        = 
| director       = Terje Formoe
| producer       = 
| writer         = Terje Formoe
| narrator       =
| starring       = Terje Formoe   Roger André Federici   Janne Formoe
| music          = 
| cinematography = 
| editing        = 
| distributor    = 
| released       =  
| runtime        = 67 minutes 
| country        = Norway
| language       = Norwegian
| budget         = 
| gross          =
}} Norwegian childrens film written and directed by, and starring Terje Formoe. The film is based on the popular childrens play character Captain Sabertooth, a fictional pirate.

==External links==
*  
*  

 
 
 
 


 
 