If You Were Me: Anima Vision 2
{{Infobox film
| name           = If You Were Me: Anima Vision 2
| image          = File:If_You_Were_Me_-_Anima_Vision_2_poster.jpg
| image size     = 
| border         = 
| alt            = 
| caption        = 
| director       = Ann Dong-hee Ryu Jung-oo Hong Deok-pyo Lee Hong-soo Lee Hong-min  Jung Min-young  Gwon Mi-jeong   Park Yeong-jae
| producer       = Nam Kyu-sun
| writer         = 
| screenplay     = 
| story          = 
| based on       = 
| narrator       = 
| starring       = 
| music          = 
| cinematography = 
| editing        = 
| studio         = 
| distributor    = 
| released       =  2008
| runtime        = 
| country        = South Korea
| language       = Korean
| budget         = 
| gross          = 
}}
If You Were Me: Anima Vision 2 (Korean language|Korean: Byul-Byul Yi-Ya-Gi 2: Yeo-Seot-Bit-Ggal Mu-Ji-Gae) is a 2008 South Korean animated film.

==Reception==
It was nominated for the Asia Pacific Screen Award for Best Animated Feature Film at the 2nd Asia Pacific Screen Awards. 

==References==
 

==External links==
*  

 
 
 
 


 
 