The Tale of Soldier Fedot, The Daring Fellow
{{Infobox film
| name           = The Tale of Soldier Fedot, The Daring Fellow
| image          = 
| image size     = 
| border         = 
| alt            = 
| caption        = 
| director       = Ludmila Steblyanko
| producer       = Alexander Boyarsky   Sergey Selyanov
| writer         = 
| screenplay     = 
| story          = 
| based on       = 
| narrator       = 
| starring       = 
| music          = 
| cinematography = 
| editing        = 
| studio         = Melnitsa Animation Studio,  CTB Film Company
| distributor    = 
| released       =  
| runtime        = 70 minutes
| country        = Russia
| language       = Russian
| budget         = 
| gross          = 
}}
The Tale of Soldier Fedot, The Daring Fellow ( , Pro Fedota-Streltsa, Udalogo Molodtsa) is a 2008 Russian animated film directed by Ludmila Steblyanko.

==Reception==
It was nominated for the Asia Pacific Screen Award for Best Animated Feature Film at the 3rd Asia Pacific Screen Awards. 

==References==
 

==External links==
*  
*  

 
 
 
 
 


 
 