The Big Fighting Between Wukong and God Erlang
{{Infobox film
| name           = The Big Fighting between Wukong and God Erlang
| image          = 
| image size     = 
| border         = 
| alt            = 
| caption        = 
| director       = Hansen Liang
| producer       = Hansen Liang   Zhou Meiling
| writer         = 
| screenplay     = 
| story          = 
| based on       = 
| narrator       = 
| starring       = 
| music          = 
| cinematography = 
| editing        = 
| studio         = 
| distributor    = 
| released       =  2007
| runtime        = 
| country        = China
| language       = Chinese
| budget         = 
| gross          = 
}}
The Big Fighting between Wukong and God Erlang ( .

==Reception==
It was nominated for the Asia Pacific Screen Award for Best Animated Feature Film at the 1st Asia Pacific Screen Awards. 

==References==
 

==External links==
*  

 
 
 
 


 
 