The Dive
{{Infobox film
| name           = The Dive
| image          = 
| image size     =
| caption        = 
| director       = Tristan DeVere Cole
| producer       = 
| writer         =  Leidulv Risan   Carlos Wiggen
| narrator       =
| starring       = Bjørn Sundquist   Frank Grimes   Michael Kitchen 
| music          = 
| cinematography = 
| editing        = 
| distributor    = 
| released       = 6 July 1990
| runtime        = 99 minutes
| country        = Norway
| language       = Norwegian
| budget         = 
| gross          =
| preceded by    =
| followed by    =
}}
 Norwegian Thriller action thriller deep sea divers and a risky operation at 110 meters.

==External links==
*  
*  
*   at the Norwegian Film Institute

 
 
 
 
 


 
 