Boku to, bokura no natsu
{{Infobox film
| name           = Boku to, bokura no natsu
| image          = 
| image size     = 
| border         = 
| alt            = 
| caption        = 
| director       = Yutaka Kohira
| producer       = 
| writer         = 
| screenplay     = 
| story          = 
| based on       = 
| narrator       = 
| starring       = Keizō Kanie Emi Wakui Kenji Sawada
| music          = 
| cinematography = 
| editing        = 
| studio         = 
| distributor    = 
| released       = 1990
| runtime        = 
| country        = Japan
| language       = Japanese
| budget         = 
| gross          = 
}}
 Japanese film directed by Yutaka Kohira. It is based on a novel by Yūsuke Higuchi.
__NOTOC__

==Cast==
*Keizō Kanie
*Emi Wakui
*Kenji Sawada

==Reception==

===Awards===
12th Yokohama Film Festival 
* Won: Best Supporting Actor - Keizō Kanie

==References==
 

 
 
 
 


 