Døden i gatene
{{Infobox film
| name           = Døden i gatene
| image          = 
| image size     =
| caption        = 
| director       = Arnljot Berg
| producer       = 
| writer         = Arnljot Berg
| narrator       =
| starring       = Grynet Molvig   Per Tofte   Arne Lindtner Næss
| music          = 
| cinematography = 
| editing        = 
| distributor    = 
| released       = 
| runtime        = Norway: 96 minutes 
| country        = Norway
| language       = Norwegian
| budget         = 
| gross          =
| preceded by    =
| followed by    =
}}
 Norwegian drama film directed by Arnljot Berg, starring Grynet Molvig, Per Tofte and Arne Lindtner Næss. Youthful revolt is used as a cover for a government coup.

==External links==
*  
*  

 
 
 
 


 