Married to a Mormon
 
{{Infobox film
| name           = Married to a Mormon
| image          =
| caption        =
| director       = H. B. Parkinson
| producer       = H. B. Parkinson
| writer         = Frank Miller George Wynn
| cinematography = 
| editing        = 
| studio         = Master Films
| distributor    = Astra Film
| released       =     
| runtime        = Five reels
| country        = United Kingdom
| language       = Silent
| budget         =
| gross          =
}}
 silent British George Wynn.    The film is Anti-Mormonism|anti-Mormon and involves the taking of young virginal English women to Utah to become wives.  It is considered to be a lost film. 

== Cast ==
* Evelyn Brent as Beryl Fane
* Clive Brook as Lionel Daventry George Wynn as Philip Lorimer
* Booth Conway as Bigelow
* Molly Adair

==See also==
*Trapped by the Mormons

==References==
 

== External links ==
* 

 
 
 
 
 
 
 
 
 
 
 


 
 