Courage for Every Day
{{Infobox film
| name           = Courage for Every Day
| image          = 
| image size     = 
| alt            = 
| caption        = 
| director       = Evald Schorm
| producer       = 
| writer         = 
| screenplay     = 
| story          =
| based on       = 
| narrator       = 
| starring       = 
| music          = 
| cinematography = 
| editing        = 
| studio         = 
| distributor    = 
| released       = 1964
| runtime        = 85 minutes
| country        = Czechoslovakia
| language       = Czech
| budget         = 
| gross          = 
| preceded by    = 
| followed by    = 
}}
Courage for Every Day ( .

==Reception==

===Awards===
1966 Locarno International Film Festival 
*Won: Golden Leopard

==References==
 

==External links==
* 

 

 
 
 
 
 
 
 
 


 