The Law Divine
{{Infobox film
| name           = The Law Divine
| image          =
| caption        =
| director       = H. B. Parkinson Challis Sanderson
| producer       = H. B. Parkinson
| writer         = H. V. Esmond
| starring       = H. V. Esmond
| music          =
| cinematography = 
| editing        = 
| distributor    =
| released       =  
| runtime        = Five reels
| country        = United Kingdom
| language       = Silent
| budget         =
| gross          =
}}
 silent British crime film directed by H. B. Parkinson and Challis Sanderson. The film is considered to be lost film|lost. 

==Cast==
* H. V. Esmond as Captain Jack le Bras
* Eva Moore as Edie le Bas
* Evelyn Brent as Daphne Grey
* Mary Brough as Cook
* Leonard Upton as Ted le Bas
* John Reid as Bill le Bas
* Dorothy Wordsworth as Claudia Merton
* Florence Wood as Mrs. Gaythorne
* Margaret Watson as Kate

==References==
 

==External links==
* 

 

 
 
 
 
 
 
 
 
 
 
 
 