Always Sanchōme no Yūhi '64
{{Infobox film
| name           = Always Sanchōme no Yūhi 64
| image          = 
| border         = 
| alt            = 
| caption        = 
| director       = Takashi Yamazaki
| producer       = 
| writer         = 
| starring       = Hidetaka Yoshioka   Koyuki   Shinichi Tsutsumi   Hiroko Yakushimaru
| music          = 
| cinematography = 
| editing        = 
| studio         = 
| distributor    = 
| released       =  
| runtime        = 142 minutes
| country        = Japan
| language       = Japanese
| budget         = 
| gross          = 
}}
  is a Japanese film directed by Takashi Yamazaki released on 21 January 2012 in both 2D and 3D versions.      
 1964 Tokyo Olympics. 

==Cast==
* Hidetaka Yoshioka
* Koyuki
* Shinichi Tsutsumi
* Hiroko Yakushimaru
* Kenta Suga
* Kazuki Koshimizu
* Maki Horikita
* Masako Motai

==References==
 

==External links==
*    

 
 

 

 
 
 
 
 
 
 
 
 
 


 