The Stubbornness of Geraldine
 
{{Infobox film
| name           = The Stubbornness of Geraldine
| image          =
| caption        =
| director       = Gaston Mervale
| producer       =
| writer         =
| based on       = a play by Clyde Fitch
| starring       =
| cinematography =
| editing        =
| distributor    =
| released       =  
| runtime        =
| country        = United States English intertitles
| budget         =
| gross          =
}}

The Stubbornness of Geraldine is a 1915 American silent film directed by Gaston Mervale adapted from a play by Clyde Fitch.

==External links==
* 
* 

 
 
 
 
 
 


 