Jaan Hatheli Pe
 
{{Infobox film
| name           =Jaan Hatheli Pe
| image          = JaanHatheliPe.jpg
| image_size     = 
| caption        = 
| director       =Raghunath Jhalani
| producer       =Sudesh Kumar
| writer         =
| narrator       = 
| starring       =Dharmendra Jeetendra  Raj Babbar  Rekha  Hema Malini
| music          =Laxmikant-Pyarelal
| cinematography = Kamalakar Rao
| editing        = B. Prasad
| distributor    = 
| released       = 1987
| runtime        = 
| country        = India Hindi
| budget         = 
| gross          = 
| preceded_by    = 
| followed_by    = 
| website        = 
}}

Jaan Hatheli Pe  is a 1987 Bollywood film directed by Raghunath Jhalani. It stars Dharmendra, Jeetendra, Raj Babbar, Rekha and Hema Malini.

==External links==
*  

 
 
 
 


 