Do Sher
 
{{Infobox film
| name           =Do Sher
| image          = 
| image_size     = 
| caption        = 
| director       =
| producer       =
| writer         =
| narrator       = 
| starring       =Dharmendra
| music          =
| cinematography = 
| editing        = 
| distributor    = 
| released       = 1974
| runtime        = 
| country        = India Hindi
| budget         = 
| gross          = 
| preceded_by    = 
| followed_by    = 
| website        = 
}}

Do Sher  is a 1974 Bollywood film starring Dharmendra.

==External links==
*  

 
 
 


 