Do Dishayen
 
{{Infobox film
| name           =Do Dishayen
| image          = 
| image_size     = 
| caption        = 
| director       =Dulal Guha
| producer       =
| writer         =
| narrator       = 
| starring       =Dharmendra Hema Malini Prem Chopra
| music          =Laxmikant-Pyarelal
| cinematography = 
| editing        = 
| distributor    = 
| released       = 1982
| runtime        = 
| country        = India Hindi
| budget         = 
| gross          = 
| preceded_by    = 
| followed_by    = 
| website        = 
}}

Do Dishayen  is a 1982 Bollywood film starring Dharmendra, Hema Malini and Prem Chopra.

==External links==
*  

 
 
 
 


 