Meri Jung Ka Elaan
 
{{Infobox film
| name           =Meri Jung Ka Elaan
| image          = Meri_Jung_Ka_Elaan.jpg
| image_size     = 
| caption        = 
| director       =
| producer       =
| writer         =
| narrator       = 
| starring       =Dharmendra
| music          =
| cinematography = 
| editing        = 
| distributor    = 
| released       = 2000
| runtime        = 
| country        = India Hindi
| budget         = 
| gross          = 
| preceded_by    = 
| followed_by    = 
| website        = 
}}

Meri Jung Ka Elaan  is a 2000 Bollywood film starring Dharmendra.

==External links==
*  

 
 
 


 