Dulhan Ek Raat Ki
 
{{Infobox film
| name           =Dulhan Ek Raat Ki
| image          = 
| image_size     = 
| caption        = 
| director       =D.D. Kashyap
| producer       =
| writer         =
| narrator       = 
| starring       =Dharmendra, Nutan, Rehman
| music          = Madan Mohan
| cinematography = 
| editing        = 
| distributor    = 
| released       = 1967
| runtime        = 
| country        = India Hindi
| budget         = 
| gross          = 
| preceded_by    = 
| followed_by    = 
| website        = 
}}

Dulhan Ek Raat Ki  (Bride for One Night) is a 1967 Bollywood film starring Dharmendra, Nutan and Rehman, the same trio who did Dil ne Phir Yaad Kiya. The songs from this film became hit. Sapnon Mein Agar Mere, Ek haseen shaam ko dil mera kho gaya, maine rang li aaj chunariya, kai din se jee hai bekal are evergreen numbers.

==External links==
*  

 
 
 
 


 