Zulm O Situm
 
{{Infobox film
| name           =Zulm O Situm
| image          = 
| image_size     = 
| caption        = 
| director       =
| producer       =
| writer         =
| narrator       = 
| starring       =Dharmendra
| music          =
| cinematography = 
| editing        = 
| distributor    = 
| released       = 1998
| runtime        = 
| country        = India Hindi
| budget         = 
| gross          = 
| preceded_by    = 
| followed_by    = 
| website        = 
}}

Zulm O Situm  is a 1998 Bollywood film starring Dharmendra.

==External links==
*  

 
 
 


 