Meharbaani
 
{{Infobox film
| name           =Meharbaani
| image          = 
| image_size     = 
| caption        = 
| director       =
| producer       =
| writer         =
| narrator       = 
| starring       =Dharmendra Nazir Hussain
| music          =
| cinematography = 
| editing        = 
| distributor    = 
| released       = 1982
| runtime        = 
| country        = India Hindi
| budget         = 
| gross          = 
| preceded_by    = 
| followed_by    = 
| website        = 
}}

Meharbaani  is a 1982 Bollywood film starring Dharmendra and Nazir Hussain.

==External links==
*  

 
 
 


 