Smuggler (film)
{{Infobox film
| name           =Smuggler 
| image          = Smugglerfilm96.png
| image_size     = 
| caption        = Promotional Poster
| director       = Ajay Kashyap
| producer       = B.S.Shaad
| writer         =
| narrator       =  Ayub Khan Gugu Amrish Puri Reena Roy
| music          = Bappi Lahiri
| cinematography = 
| editing        = 
| distributor    = 
| released       = 1996
| runtime        = 
| country        = India Hindi
| budget         = 
| gross          = 
| preceded_by    = 
| followed_by    = 
| website        = 
}}
 1996 Bollywood|Hindi-language Indian feature directed by Ayub Khan, Kareena Grover and Amrish Puri.  

==Cast==

*Dharmendra Ayub Khan
*Kareena Grover Gugu
*Amrish Puri
*Reena Roy

==Soundtrack==

# "Aaj Raat Chhod Ke (Male)" - Kumar Sanu
# "Aaj Raat Chhod Ke (Female)" - Alka Yagnik
# "Ab Tum Se Chhup Chhup" - Udit Narayan
# "Bin Barsaat Ke" - Alka Yagnik
# "Kitna Haseen Hai Shabaab" - Alka Yagnik
# "Kitna Haseen Hai Shabaab" - Sudesh Bhosle
# "Tan Tana Tan Ho Gaya" - Baba Sehgal
# "Ye Barish Ka Paani" - Kumar Sanu
# "Tu Dum Dum Dhol Bajaa" - Udit Narayan

==References==
 

==External links==
*  

 
 
 
 


 