Jallad No. 1
 
{{Infobox film
| name           =Jallad No. 1
| image          = 
| image_size     = 
| caption        = 
| director       =
| producer       =
| writer         =
| narrator       = 
| starring       =Dharmendra
| music          =
| cinematography = 
| editing        = 
| distributor    = 
| released       = 2000
| runtime        = 
| country        = India Hindi
| budget         = 
| gross          = 
| preceded_by    = 
| followed_by    = 
| website        = 
}}

Jallad No. 1  is a 2000 Bollywood film starring Dharmendra.

==External links==
*  

 
 
 


 