Jab Yaad Kisi Ki Aati Hai
 
{{Infobox film
| name           =Jab Yaad Kisi Ki Aati Hai
| image          = 
| image_size     = 
| caption        = 
| director       =
| producer       =
| writer         =
| narrator       = 
| starring       =Dharmendra
| music          =
| cinematography = 
| editing        = 
| distributor    = 
| released       = 1967
| runtime        = 
| country        = India Hindi
| budget         = 
| gross          = 
| preceded_by    = 
| followed_by    = 
| website        = 
}}

Jab Yaad Kisi Ki Aati Hai  is a 1967 Bollywood film starring Dharmendra, Mala Sinha in a double role, Abhibhattacharya and M. Rajan. It is a love story with little suspense. The title song jab yaad kisi ki aati hai is nicely composed.

==External links==
*  

 
 
 

 