Ghost Pub
{{Infobox film
| name           = Ghost Pub
| image          = 
| image size     = 
| border         = 
| alt            = 
| caption        = 
| director       = Takayoshi Watanabe
| producer       = 
| writer         = 
| screenplay     = 
| story          = 
| based on       = 
| narrator       = 
| starring       = Kenichi Hagiwara   Shigeru Muroi   Tomoko Yamaguchi
| music          = 
| cinematography = 
| editing        = 
| studio         = 
| distributor    = 
| released       = 1994
| runtime        = 
| country        = Japan
| language       = Japanese
| budget         = 
| gross          = 
}}
  is a 1994 Japanese film directed by Takayoshi Watanabe.

==Cast==
* Kenichi Hagiwara
* Shigeru Muroi 
* Tomoko Yamaguchi

==Reception==
19th Hochi Film Awards  
* Won: Best Actor - Kenichi Hagiwara
* Won: Best Supporting Actress - Shigeru Muroi 
* Won: Best Newcomer - Tomoko Yamaguchi

==References==
 

==External links==
*  

 
 
 
 


 