Angel of his Dreams
 
 
{{Infobox film
  | name     = Angel of his Dreams
  | image    = 
  | caption  = 
  | director = George Marlow		
  | producer = George Marlow
  | writer   = 
  | based on = 
  | starring = 
  | music    = 
  | cinematography = Bert Ive
  | editing  = 
  | distributor = 
  | released = 1912
  | runtime  = 
  | language = Silent film English intertitles
  | country = Australia
  | budget   = 
  }}

Angel of his Dreams is an Australian film directed by George Marlow about a woman who seduces a clergyman.

==External links==
*  

 
 
 
 


 