The Mayor of 44th Street
{{Infobox film
| name           = The Mayor of 44th Street
| image          = 
| image_size     = 
| caption        = 
| director       = Alfred E. Green
| writer         = 
| narrator       = 
| starring       = George Murphy
| music          = 
| cinematography = Robert De Grasse
| editing        = 
| studio         = 
| distributor    = 
| released       =  
| runtime        = 86 minutes
| country        = United States
| language       = English
| budget         = 
| gross          = 
}} Anne Shirley.  It was nominated for an Academy Award in 1943. 

==Cast==
* George Murphy as Joe Jonathan Anne Shirley as Jersey Lee
* William Gargan as Tommy Fallon
* Richard Barthelmess as Ed Kirby
* Joan Merrill as Vicky Lane
* Freddy Martin as himself
* Rex Downing as Bits McKarg
* Millard Mitchell as Herman
* Mary Wickes as Mamie

==References==
 

==External links==
*  

 

 
 
 
 