Galapagos (1955 film)
{{Infobox film
| name           = Galapagos (1955 film)
| image          = 
| caption        = 
| director       = Thor Heyerdahl
| producer       = Per Høst
| writer         = Thor Heyerdahl, Per Høst
| starring       = 
| music          = Sune Waldimir
| cinematography = Thor Heyerdahl
| editing        = Per Høst
| distributor    = 
| released       = 14 February 1955
| runtime        = 78 minutes
| country        = Norway
| language       = Norwegian
| budget         = 
}}

Galapagos is a 1955 travel and nature documentary film made by explorer Thor Heyerdahl, showing the flora and fauna of the Galapagos archipelago.

==External links==
* 

 

 
 
 
 
 
 


 
 