Barbary Sheep (film)
{{infobox film
| name            = Barbary Sheep
| image           = Barbary Sheep 1917.jpg
| imagesize       =
| caption         = Newspaper advertisement.
| director        = Maurice Tourneur
| producer        = Adolph Zukor Jesse Lasky
| based on        =   
| writer          = Charles Maigne (scenario)
| starring        = Elsie Ferguson
| music           =
| cinematography  = John van den Broek
| editing         =
| distributor     = Artcraft Pictures
| released        =   reels
| country         = United States Silent (English intertitles)
}} lost film.  

==Cast==
 
*Elsie Ferguson - Lady Katharine Kitty Wyverne
*Lumsden Hare - Sir Claude Wyverne
*Pedro de Cordoba - Benchaalal
*Macey Harlam - Archmed
*Alex Shannon - the old Marabout
*Maude George - The innkeeper (* as Maude Ford)

==References==
 

==External links==
 
* 
* 

 

 
 
 
 
 
 
 
 
 


 