Lakirein
{{Infobox film
| name           = Lakeeren
| image          = 
| image size     = 
| border         = 
| alt            = 
| caption        =  Harbans
| producer       = 
| writer         = 
| screenplay     = 
| story          = 
| based on       =  
| narrator       =  Pran 
| music          =  
| cinematography = 
| editing        = 
| studio         = Sushil Pictures
| distributor    =  1954 
| runtime        =  India
| language       = Hindi
| budget         = 
| gross          = 
}}
 1954 Hindi Bollywood film starring Nalini Jaywant, playback by Geeta Dutt and Shamshad Begum, music by Hafiz Khan & Lyrics by Shevan Rizvi. 

==Plot==

 

==Cast==
* Ashok Kumar   
* Nalini Jaywant    Pran   
* Durga Khote   
* Ramayan Tiwari   
* Cukoo   
* Sulochana Latkar   
* Yakub   
* Kamal

==References==
 

==External links==
*   at the Internet Movie Database

 
 
 

 