Os Verdes Anos
{{Infobox film
| name           = Os Verdes Anos
| image          = 
| image size     = 
| border         = 
| alt            = 
| caption        = 
| director       = Paulo Rocha
| producer       = 
| writer         = 
| screenplay     = 
| story          = 
| based on       = 
| narrator       =  Paulo Renato
| music          = 
| cinematography = 
| editing        = 
| studio         = 
| distributor    = 
| released       =   
| runtime        = 91 minutes
| country        = Portugal
| language       = Portuguese
| budget         = 
| gross          = 
}}

Os Verdes Anos is a 1963 Portuguese drama film directed by Paulo Rocha. 

==Cast==
* Isabel Ruth 
* Rui Gomes 
* Ruy Furtado Paulo Renato

==References==
 

==External links==
*  

 
 
 

 
 
 
 
 
 
 