Uma Aventura na Casa Assombrada
{{Infobox film
| name           = Uma Aventura na Casa Assombrada
| image          = 
| image size     = 
| border         = 
| alt            = 
| caption        = 
| director       = Carlos Coelho da Silva
| producer       = 
| writer         = 
| screenplay     = 
| story          = 
| based on       =  
| narrator       = 
| starring       = Sara Salgado   Francisco Areosa   Margarida Martinho   Mariana Martinho   César Brito (actor)|César Brito
| music          = 
| cinematography = 
| editing        = 
| studio         = 
| distributor    = 
| released       =   
| runtime        = 100 minutes
| country        = Portugal
| language       = Portuguese
| budget         = 
| gross          = 
}}

Uma Aventura na Casa Assombrada is a 2009 Portuguese film directed by Carlos Coelho da Silva. 

==Cast==
* Sara Salgado
* Francisco Areosa
* Margarida Martinho
* Mariana Martinho
* César Brito (actor)|César Brito

==References==
 

==External links==
*    
*  
*   at Público (Portugal)|Público  

 
 
 
 
 


 