Coisa Ruim
{{Infobox film
| name           = Coisa Ruim
| image          = 
| image size     = 
| border         = 
| alt            = 
| caption        = 
| director       = Tiago Guedes   Frederico Serra
| producer       = 
| writer         = 
| screenplay     = 
| story          = 
| based on       = 
| narrator       = 
| starring       = Adriano Luz   Manuela Couto   Sara Carinhas   José Afonso Pimentel
| music          = 
| cinematography = 
| editing        = 
| studio         = 
| distributor    = 
| released       =   
| runtime        = 97 minutes
| country        = Portugal
| language       = Portuguese
| budget         = 
| gross          = 
}}

Coisa Ruim is a 2006 Portuguese supernatural horror film directed by Tiago Guedes and Frederico Serra.

==Cast==
* Adriano Luz
* Manuela Couto
* Sara Carinhas
* José Afonso Pimentel

==Reception== Portuguese Golden Globe for Best Film. 

==References==
 

==External links==
*  

 

 
 
 
 
 
 
 
 


 
 