A Esperança Está Onde Menos Se Espera
{{Infobox film
| name           = A Esperança Está Onde Menos Se Espera
| image          = AEsperançaEstáOndeMenosSeEspera2009Poster.jpg
| alt            = 
| caption        = Film poster
| director       = Joaquim Leitão
| producer       = 
| writer         = 
| screenplay     = 
| story          = 
| based on       = 
| narrator       =  Carlos Nunes
| music          = 
| cinematography = 
| editing        = 
| studio         = 
| distributor    = 
| released       =   
| runtime        = 
| country        = Portugal
| language       = Portuguese
| budget         = 
| gross          = 
}}

A Esperança Está Onde Menos Se Espera is a 2009 Portuguese film directed by Joaquim Leitão.

==Cast==
* Virgílio Castelo
* Ana Padrão Carlos Nunes
* Alcídia Vaz
* Júlio César (actor)|Júlio César
* Cândido Ferreira
* José Carlos Cardoso
* Nuno Homem de Sá

==Reception== Portuguese Golden Globe for Best Film. 

==References==
 

==External links==
*    
*  

 

 
 
 


 