Ware ni Utsu Yōi Ari
{{Infobox film
| name           = Ware ni Utsu Yōi Ari
| image          = 
| image size     = 
| border         = 
| alt            = 
| caption        = 
| director       = Kōji Wakamatsu
| producer       = 
| writer         = 
| screenplay     = 
| story          = 
| based on       = 
| narrator       = 
| starring       = Yoshio Harada   Kaori Momoi   Keizō Kanie   Renji Ishibashi
| music          = 
| cinematography = 
| editing        = 
| studio         = 
| distributor    = 
| released       =   
| runtime        = 106 minutes
| country        = Japan
| language       = Japanese
| budget         = 
| gross          = 
}}

  is a 1990 Japanese film directed by Kōji Wakamatsu.

==Cast==
* Yoshio Harada
* Kaori Momoi
* Keizō Kanie 
* Renji Ishibashi

==Reception== Japan Academy Prize and Yoshio Harada was nominated for Best Actor. 

==References==
 

==External links==
*  

 

 
 
 


 