We Are Not Alone (1993 film)
{{Infobox film
| name           = We Are Not Alone
| image          = 
| image size     = 
| border         = 
| alt            = 
| caption        = 
| director       = Yōjirō Takita
| producer       = 
| writer         = 
| screenplay     = 
| story          = 
| based on       = 
| narrator       = 
| starring       = Hiroyuki Sanada   Ittoku Kishibe   Kyūsaku Shimada 
| music          = 
| cinematography = 
| editing        = 
| studio         = 
| distributor    = 
| released       =   
| runtime        = 115 minutes
| country        = Japan
| language       = Japanese
| budget         = 
| gross          = 
}}

  is a 1993 Japanese film directed by Yōjirō Takita.

==Cast==
* Hiroyuki Sanada 
* Ittoku Kishibe
* Kyūsaku Shimada

==Reception==
It was chosen as the 4th Best Film at the 15th Yokohama Film Festival.  Hiroyuki Sanada also won the Award for Best Actor. 

==References==
 

==External links==
*  

 

 
 
 


 