00 Schneider – Jagd auf Nihil Baxter
 
{{Infobox film
| name           =00 Schneider – Jagd auf Nihil Baxter
| image          = 
| image_size     = 
| caption        = 
| director       =
| producer       =
| writer         =
| narrator       = 
| starring       =
| music          =
| cinematography = 
| editing        = 
| distributor    = 
| released       = 1994
| runtime        = 
| country        = Germany
| language       = German
| budget         = 
| gross          = 
| preceded_by    = 
| followed_by    = 
| website        = 
}}

00 Schneider – Jagd auf Nihil Baxter is a German film directed by Helge Schneider. It was released in 1994.
 script as well as the music, did film direction, and played the main character and several additional roles.

==Story==
 Rio by plane after he stole a sculpture from the practice of Dr. Hasenbein 00 Schneider and his sidekick are also on board. As they are incognito they are able to arrest the criminal with the help of the world famous "sniffer dog nose" pilot.

==External links==
* 

 
 
 
 


 