3 Engel für Ali
 
{{Infobox film
| name           =3 Engel für Ali
| image          = 
| image_size     = 
| caption        = 
| director       =
| producer       =
| writer         =
| narrator       = 
| starring       =
| music          =
| cinematography = 
| editing        = 
| distributor    = 
| released       =2003
| runtime        = 
| country        = Germany German
| budget         = 
| gross          = 
| preceded_by    = 
| followed_by    = 
| website        = 
}}

3 Engel für Ali is a German film directed by Roman Schaible. It was released in 2003.

==Synopsis==
The crooks comedy tells the story of the Hamburg street dealer Ali. Made with Polaroid photos he flutters his parents living in Turkey before a successful career. When his parents announce their surprise visit to Germany, Ali remains a day to find a way out of this dilemma. Three Turkish tailor to help him find a solution.

==External links==
*  

 
 
 
 


 