Tsuribaka Nisshi Eleven
{{Infobox film
| name           = Tsuribaka Nisshi Eleven
| image          = 
| image size     = 
| border         = 
| alt            = 
| caption        = 
| director       = Katsuhide Motoki
| producer       = 
| writer         = 
| screenplay     = 
| story          = 
| based on       =   
| narrator       = 
| starring       = Toshiyuki Nishida   Miyoko Asada   Takehiro Murata   Sachiko Sakurai
| music          = 
| cinematography = 
| editing        = 
| studio         = 
| distributor    = 
| released       =   
| runtime        = 112 minutes
| country        = Japan
| language       = Japanese
| budget         = 
| gross          = 
}}

  is a 2000 Japanese film directed by Katsuhide Motoki.  

==Cast== 
* Toshiyuki Nishida
* Miyoko Asada
* Takehiro Murata
* Sachiko Sakurai

==References==
 

==External links==
*  

 
 
 

 
 
 
 