Gakkō no Kaidan 2
{{Infobox film
| name           = Haunted School 2
| image          = 
| image size     = 
| border         = 
| alt            = 
| caption        = 
| director       = Hideyuki Hirayama
| producer       = 
| writer         = 
| screenplay     = 
| story          = 
| based on       =   
| narrator       = 
| starring       = Hironobu Nomura   Naomi Nishida   Kyōko Kishida   Masakane Yonekura
| music          = 
| cinematography = 
| editing        = 
| studio         = 
| distributor    = 
| released       =  
| runtime        = 103 minutes
| country        = Japan
| language       = Japanese
| budget         = 
| gross          = 
}}
  is a 1996 Japanese horror film directed by Hideyuki Hirayama. 

==Cast==
* Hironobu Nomura as Kazunari Asano
* Naomi Nishida as Rika Odagiri
* Kyōko Kishida as Shizuko Tokiwa
* Masakane Yonekura as Jushoku

==Reception==
The film was chosen as one of the Top 10 Japanese films at the 39th Blue Ribbon Awards and Kyōko Kishida won the Award for Best Supporting Actress. 

==References==
 

==External links==
*  
*   at Sarudama

 
 

 
 
 
 
 
 
 
 


 
 

 
 