Nartaki (film)
{{Infobox film
| name           = Nartaki
| image          =
| image_size     =
| caption        =
| director       =
| producer       =
| writer         =
| narrator       =
| starring       = Ravi
| cinematography =
| editing        =
| distributor    =
| released       =  
| runtime        =
| country        = India Hindi
| budget         =
| gross          =
| website        =
}}
 Ravi and the lyricist was Shakeel Badayuni.

==References==
 

==External links==
*  

 
 
 
 


 