Gaon Ki Gori
{{Infobox film
| name           =Gaon Ki Gori
| image          = 
| image_size     = 
| caption        = 
| director       = K. Amarnath
| producer       = Ramneek Productions, Mumbai
| writer         =
| narrator       = 
| starring       =
| music          =
| lyricist = Wali Saheb
| editing        = 
| distributor    = 
| released       = 1945
| runtime        = 
| country        = India Hindi
| budget         = 
| gross          = 
| preceded_by    = 
| followed_by    = 
| website        = 
}}
 1945 Indian Bollywood film. It was the second highest grossing Indian film of 1945. Directed by K. Amarnath it had music composed by Shyam Sunder with Lyrics by Wali Saheb. The cast included Noorjehan, Nazir Ahmed Khan|Nazir, Jagdish Sethi,  Mishra, Shanta Patel, Ibrahim, Nawaz, Chandrika, Ghosh, Durga Khote, Rama Shukul, Anant Marathe,Rajkumari Shukla, Bikram Kapoor, Geeta Nizami, Rajkumari Kapoor, Ghulam Rasool, M.A. Khan 

==References==
 

==External links==
*  

 

 
 
 
 