Nadiya Ke Paar (1948 film)
{{Infobox film
| name           = Nadiya Ke Paar 
| image          = 
| image_size     = 
| caption        = 
| director       = Kishore Sahu
| producer       = Filmistan
| writer         = Kishore Sahu
| narrator       = 
| starring       = Dilip Kumar Kamini Kaushal
| music          = C. Ramchandra
| cinematography = K.H. Kapadia
| editing        = Kantilal B. Shukla
| distributor    = 
| released       = 1948
| runtime        = 
| country        = India Hindi
| budget         = 
| gross          = 
| preceded_by    = 
| followed_by    = 
| website        = 
}}
 1948 Indian Bollywood film directed by Kishore Sahu. It was the sixth highest grossing Indian film of 1948. 

==Cast==
* Dilip Kumar
* Kamini Kaushal
* S.L. Puri David
* Ranibala
* Tiwari

==References==
 

==External links==
*  

 

 

 
 
 
 