Tadbir
{{Infobox film
| name           =Tadbir
| image          = 
| image_size     = 
| caption        = 
| director       = Jayant Desai
| producer       =
| writer         =
| narrator       =  Mubarak Rehana
| music          = Lal Mohammad
| cinematography = 
| editing        = 
| distributor    = 
| released       = 1945
| runtime        = 121 minutes
| country        = India Hindi
| budget         = 
| gross          = 
| preceded_by    = 
| followed_by    = 
| website        = 
}}
 1945 Indian Shashi Kapoor.   

==Cast==
* K. L. Saigal
* Suraiya
* Rehana Mubarak
* Jillobai Shashi Kapoor
* Rewashankar
* D. S. Salvi
* Shalini

==References==
 

==External links==
*  

 

 
 
 