X-Cross
{{Infobox film
| name           = X-Cross
| image size     = 
| image	=	X-Cross FilmPoster.jpeg
| border         = 
| alt            = 
| caption        = 
| director       = Kenta Fukasaku
| producer       = 
| writer         = 
| screenplay     = 
| story          = 
| based on       =  
| narrator       = 
| starring       = Nao Matsushita   Ami Suzuki   Shoko Nakagawa   Maju Ozawa   Hiroyuki Ikeuchi
| music          = 
| cinematography = 
| editing        = 
| studio         = 
| distributor    = 
| released       =  
| runtime        = 90 minutes
| country        = Japan
| language       = Japanese
| budget         = 
| gross          = 
}}

  is a 2007 Japanese horror film directed by Kenta Fukasaku.  

==Cast==
* Nao Matsushita
* Ami Suzuki
* Shoko Nakagawa
* Maju Ozawa
* Hiroyuki Ikeuchi

==References==
 

==External links==
*  

 

 
 
 
 
 
 

 
 

 