Nadaan (1943 film)
{{Infobox film
| name           =Nadaan 
| image          = 
| image_size     = 
| caption        = 
| director       = Zia Sarhadi
| producer       =
| writer         =
| narrator       = 
| starring       =
| music          =
| cinematography = 
| editing        = 
| distributor    = 
| released       =  
| runtime        = 
| country        = India Hindi
| budget         = 
| gross          = 
}}

Nadaan is a 1943 Indian Bollywood film. It was the fourth highest grossing Indian film of 1943. 

==Cast==
*Aman as Mukesh
*Noor Jehan as Roopa
*Masood as Anil

==References==
 

==External links==
*  

 
 
 

 