Mirza Sahibaan
{{Infobox film
| name           =Mirza Sahibaan
| image          = 
| image_size     = 
| caption        = 
| director       =
| producer       =
| writer         =
| narrator       = 
| starring       =
| music          =
| cinematography = 
| editing        = 
| distributor    = 
| released       = 1947
| runtime        = 
| country        = India Hindi
| budget         = 
| gross          = 
| preceded_by    = 
| followed_by    = 
| website        = 
}}
 1947 Indian Bollywood film. It was the fourth highest grossing Indian film of 1947. 

==References==
 

==External links==
*  

 
 
 


 