Kanashii kibun de joke
{{Infobox film
| name           = Kanashii kibun de joke
| image          = 
| image size     = 
| border         = 
| alt            = 
| caption        = 
| director       = Masaharu Segawa
| producer       = 
| writer         = 
| screenplay     = 
| story          = 
| based on       = 
| narrator       = 
| starring       = Takeshi Kitano   Kie Nakai   Shingo Yanagisawa   Saburo Ishikura   Midori Kiuchi
| music          = 
| cinematography = 
| editing        = 
| studio         = 
| distributor    = 
| released       =  
| runtime        = 108 minutes
| country        = Japan
| language       = Japanese
| budget         = 
| gross          = 
}}

  is a 1985 Japanese film directed by Masaharu Segawa.  

==Cast==
* Takeshi Kitano
* Kie Nakai
* Shingo Yanagisawa
* Saburo Ishikura
* Midori Kiuchi

==Reception==
Kie Nakai won the Award for Best Supporting Actress at the 7th Yokohama Film Festival.  

==References==
 

==External links==
*  

 
 
 

 