Between the Knees
{{Infobox film name           = Between the Knees image          =  director       = Lee Jang-ho  producer       = Lee Tae-won writer         =  Lee Jang-ho  starring       = Lee Bo-hee Ahn Sung-ki  music          =  Jeong Min-seob cinematography = Seo Jeong-min editing        = Kim Hyeong-ju distributor    =  released       =   runtime        =  country        = South Korea language       = Korean budget         =  gross          = 
}}
Between the Knees ( ) is a 1984 South Korean film about a married woman who suffers from abnormal sexual tendencies which leads to her downfall.

==Cast==
* Ahn Sung-ki
* Lee Bo-hee
* Yim Sung-min
* Lee Hye-young
* Na Han-il
* Gang Jae-il
* Kim In-moon
* Tae Hyun-sil
* Kim Tae-hwan
* Park Yeong-ro

==External links==
*  
*  

 
 
 
 
 


 
 