Made in Japan: Kora!
{{Infobox film
| name           = Made in Japan: Kora!
| image          = 
| image size     = 
| border         = 
| alt            = 
| caption        = 
| director       = Banmei Takahashi
| producer       = 
| writer         = 
| screenplay     = 
| story          = 
| based on       =  
| narrator       = 
| starring       = Miyuki Matsuda   Kazuhiro Yamaji   Reina Asami   Chieko Matsubara
| music          = 
| cinematography = 
| editing        = 
| studio         = 
| distributor    = 
| released       =   
| runtime        = 
| country        = Japan
| language       = Japanese
| budget         = 
| gross          = 
}}

  is a 2011 Japanese drama film directed by Banmei Takahashi.  

==Cast==
* Miyuki Matsuda
* Kazuhiro Yamaji
* Reina Asami
* Chieko Matsubara

==References==
 

==External links==
*    
*  

 

 
 
 
 

 