Porto of My Childhood
{{Infobox film
| name           = Porto of My Childhood
| image          = 
| image_size     = 
| caption        = 
| director       = Manoel de Oliveira
| producer       = Paulo Branco	
| writer         = Manoel de Oliveira
| narrator       = 
| starring       = Manoel de Oliveira Jorge Trepa Ricardo Trêpa Maria de Medeiros José Wallenstein
| music          = 
| cinematography = Emmanuel Machuel
| editing        = Valérie Loiseleux
| distributor    = 
| released       = 2001
| runtime        = 62 min
| country        = France/Portugal
| language       = Portuguese
| budget         = 
| gross          = 
| preceded_by    = 
| followed_by    = 
}} 2001 cinema French film directed by Manoel de Oliveira. Manoel de Oliveira narrates a documentary which features staged dramatic scenes of memories and stories told to him during his of his childhood in Porto. 

== References ==
 

== External links ==
*  

 

 
 
 
 
 
 
 
 
 
 
 


 
 