Returning to the 'A'
{{Infobox film
| name           = Returning to the A
| image          = 
| caption        = 
| director       = Egor Mikhalkov-Konchalovsky
| producer       = 
| writer         = 
| starring       = 
| music          = 
| cinematography = 
| editing        = 
| distributor    = 
| released       =  
| runtime        = 
| country        = Kazakhstan
| language       = Russian
| budget         = 
}}
 Best Foreign Language Film at the 84th Academy Awards,    but it did not make the final shortlist.   

==See also==
* List of submissions to the 84th Academy Awards for Best Foreign Language Film
* List of Kazakhstani submissions for the Academy Award for Best Foreign Language Film

==References==
 

==External links==
*  

 
 
 
 
 
 