W/o V. Vara Prasad
 
 
{{Infobox film
| name           = Wife of V. Vara Prasad
| image          =
| image_size     =
| caption        =
| director       = Vamsy
| producer       = Ram Gopal Varma
| writer         = Vamsy
| narrator       = Krishna Bhagavaan   (Dialogues)  Mallikarjuna Rao Alphonsa
| music          = M. M. Keeravani
| co-director    =
| cinematography = M. V. Raghu
| editing        = Bhanodaya
| studio         =
| distributor    = Varma Corporation
| released       = 1998
| runtime        =
| country        = India
| language       = Telugu
}} Telugu romantic thriller film, produced by Ram Gopal Varma and directed by Vamsy. 
The film stars Vineeth and J. D. Chakravarthy in lead roles. The film revolves around a romantic drama suspense story. 

==References==
 

==External links==
*  

 
 

 
 
 
 
 

 
 