Kokkuri-san: Gekijoban
{{Infobox film
| name           = Kokkuri-san: Gekijoban
| image          = 
| image size     = 
| border         = 
| alt            = 
| caption        = 
| director       = Jirō Nagae
| producer       = 
| writer         = 
| screenplay     = Jiro Nagae
| story          = 
| based on       = 
| narrator       = 
| starring       = Mariya Suzuki   Asuka Kataoka   Shizuka Umemoto 
| music          = 
| cinematography = 
| editing        = 
| studio         = 
| distributor    = 
| released       =  
| runtime        = 
| country        = Japan
| language       = Japanese
| budget         = 
| gross          = 
}}

  is a 2011 Japanese horror film directed by Jirō Nagae, starring Mariya Suzuki and involving the game of Kokkuri (game)|Kokkuri. 

==Cast==
* Mariya Suzuki as Eri
* Asuka Kataoka
* Shizuka Umemoto

==See also==
*Kokkuri-san Movie - Shin Toshi Densetsu -

==References==
 

==External links==
*    

 
 
 
 
 


 
 