Karasu no Oyayubi
 
{{Infobox film
| name           = Karasu no Oyayubi
| image          =
| alt            =
| director       = Tadafumi Itō
| producer       =
| writer         =
| based on       =   Hiroshi Abe Shoji Murakami Satomi Ishihara Rena Nounen Yu Koyanagi
| music          =
| cinematography =
| editing        =
| studio         = 20th Century Fox
| distributor    =
| released       =   
| runtime        =
| country        = Japan
| language       = Japanese
| budget         =
| gross          =
}}
  is a 2012 Japanese film directed by Tadafumi Itō and based on a novel by Shusuke Michio. 

==Cast== Hiroshi Abe as Take   
* Shoji Murakami as Tetsu 
* Satomi Ishihara as Yahiro 
* Rena Nōnen as Mahiro 
* Yu Koyanagi 

==References==
 

==External links==
*  

 
 
 
 
 


 