24/7: The Passion of Life
 
{{Infobox film
| name           = 24/7: The Passion of Life
| caption        = 
| image	=	7- The Passion of Life FilmPoster.jpeg
| director       = Roland Reber
| producer       = Patricia Koch Marina Anna Eich
| writer         = Roland Reber Mira Gittner
| starring       = Marina Anna Mira Gittner Christoph Baumann
| music          = Wolfgang Edelmayer
| cinematography = Mira Gittner Roland Reber
| editing        = Mira Gittner
| distributor    = 
| released       =  
| runtime        = 115 minutes
| country        = Germany
| language       = German
| budget         = 
| gross          = 
}}
24/7: The Passion of Life is a German film directed by Roland Reber. It was released in 2006.

==External links==
*  
*  

 
 
 
 

 