Ab Morgen
 
{{Infobox film
| name           = Ab Morgen
| image          = 
| alt            =  
| caption        = 
| director       = Stefan Elsenbruch Raphael Wallner
| producer       = 
| writer         = 
| screenplay     = Stefan Elsenbruch Raphael Wallner
| starring       = Anno Koehler Gordana Heyden-Gueli Sabina Sidro Adem Smailhodzic
| music          = Philipp F. Kölmel
| cinematography = Fabian Spang
| editing        = Daniel Falk
| studio         = 
| distributor    = 
| released       =    
| runtime        = 24 minutes
| country        = Germany
| language       = German
| budget         = 
| gross          = 
}}
Ab Morgen is a German film directed by Raphael Wallner. It was released in 2011.

==External links==
*  

 
 
 
 
 
 
 


 
 