Abgeschminkt!
 
{{Infobox film
| name           =Abgeschminkt!
| image          = 
| caption        = 
| director       = Katja von Garnier
| producer       = Katja von Garnier Ewa Karlström
| writer         = Katja von Garnier Hannes Jaenicke
| starring       = Katja Riemann Max Tidof Gedeon Burkhard  
| music          = Tillman Höhn
| cinematography = Torsten Breuer
| editing        = Katja von Garnier
| distributor    = 
| released       =  
| runtime        = 55 minutes
| country        = Germany
| language       = German
| budget         = 
| gross          = 
}}
Abgeschminkt! ( ) is a German film directed by Katja von Garnier. It was released in 1993.

==External links==
*  

 
 
 


 