666 – Traue keinem, mit dem du schläfst!
 
{{Infobox film
| name           = 666 – Traue keinem, mit dem du schläfst!
| image          = 666TraueKeinem2002Poster.jpg
| caption        = German poster
| director       = Rainer Matsutani
| producer       = Bernd Eichinger
| writer         = Rainer Matsutani
| narrator       = 
| starring       =
| music          = Henning Lohner
| cinematography = Hans-Günther Bücking
| editing        = Hanna Müller
| distributor    = 
| released       =  
| runtime        = 95 minutes
| country        = Germany
| language       = German
| budget         = 
| gross          = 
}}
666 – Traue keinem, mit dem du schläfst! ( ) is a 2002 German film directed by Rainer Matsutani.

==External links==
*  

 
 
 
 
 


 