Die Abfahrer
 
{{Infobox film
| name           =Die Abfahrer
| image          = 
| image_size     = 
| caption        =  Adolf Winkelmann
| producer       =
| writer         =
| narrator       = 
| starring       =
| music          =
| cinematography = 
| editing        = 
| distributor    = 
| released       =
| runtime        = 
| country        = West Germany
| language       = German
| budget         = 
| gross          = 
| preceded_by    = 
| followed_by    = 
| website        = 
}} Adolf Winkelmann. It was released in 1978.

==External links==
*  

 

 
 
 
 
 