Shabnam (1964 film)
 
{{Infobox film
| name           = Shabnam
| image_size     =
| caption        =
| director       = Aspi Irani
| producer       = Aspi Irani
| dialogue       = Akhtar Ul Iman
| writer         = C.J Pavri
| narrator       = C.J Pavri
| narrator       = MajrohSultan Puri Prem Dhawan Javed Anwar Helen Shyam Shyam Moan choti jeevan
| singer         = Mohammed Rafi Lata Mangeswar Mukesh Usha Khanna
| music          = Usha Kanna
| editing        = Kamalakar
| distributor    = Aspi Films (P) Ltd.
| released       =  
| runtime        = 140 minutes
| country        = India
| language       = Hindi
| budget         =
}}

Shabnam  is a 1964 Indian Hindi movie directed by Aspi Irani.

==External Links==
  at IMDb

 
 
 


 