The Tibetan Dog
 
{{Infobox film
| name           = The Tibetan Dog
| image          = 
| image size     = 
| border         = 
| alt            = 
| caption        = 
| director       = Masayuki Kojima
| producer       = Yasuteru Iwase
| writer         = 
| screenplay     = Naoto Inoue
| story          = 
| based on       =   The Tibetan Dog by Zhi Jun Yang
| narrator       = 
| starring       = 
| music          = Shusei Murai
| cinematography =  Yuuki Kawashita
| editing        = Satoshi Terauchi Madhouse
| distributor    = 
| released       =  
| runtime        = 90 minutes
| country        = China Japan
| language       = 
| budget         = CNY60 million   
| gross          = CNY1.35 million (in China) 
}} Annecy Film Festival in June 2011. In this film, a young boy named Tenzing leaves for Tibet after his mother passes away to live with his Father in the prairies and encounters a true friend in form of a golden Tibetan Mastiff.   

==References==
 

==External links==
*    
*  

 

 
 
 
 
 
 
 
 
 

 