Darra Khaibar
{{Multiple issues|
 
 
 
}}

The is the name of a Pashto film in Urdu, for the famous pass see Khyber Pass

{{Infobox film
| name           = Darra Khaibar
| image          = 
| image size     = 
| border         = 
| alt            = 
| caption        = 
| director       = 
| producer       = 
| writer         = 
| screenplay     = 
| story          = 
| based on       =
| narrator       =  Asif Khan Surayya Khan
| music          = 
| cinematography = 
| editing        = 
| studio         = 
| distributor    = 
| released       = 
| runtime        = 
| country        = Pakistan Pashto
| budget         = 
| gross          = 
}}
 Asif Khan and Surayya Khan in the lead roles. 

==Cast== Asif Khan
*Yasmin

==References==
 

 
 


 