Breakfast with Einstein
{{Infobox film
| name           =Breakfast with Einstein
| image          = 
| image_size     = 
| caption        = 
| director       = Craig Shapiro
| writer         = 
| narrator       = 
| starring       = Thomas Gottschalk
| music          = 
| cinematography = 
| editing        = 
| studio         = 
| distributor    = 
| released       = May 24, 1998
| runtime        = 89 mins.
| country        = United States
| language       = English
| budget         = 
| gross          = 
| preceded_by    = 
| followed_by    = 
| website        = 
| amg_id         = 
}}
Breakfast with Einstein is a 1998 television film directed by Craig Shapiro. It stars Thomas Gottschalk and Priscilla Presley. 

==Cast==
*Thomas Gottschalk as Martin
*Priscilla Presley as Keelin
*Shia LaBeouf as Joey
*Ben Foster as Ryan
*Cheech Marin

==References==
 

==External links==
* 

 

 

 