Adam Khan Dukhaniye
 

{{Infobox film
| name           = Adam Khan Dukhaniye
| image          = 
| image size     = 
| border         = 
| alt            = 
| caption        = 
| director       = 
| producer       = 
| writer         = 
| screenplay     = 
| story          = 
| based on       =  
| narrator       = 
| starring       = Badar Munir Yasmin
| music          = 
| cinematography = 
| editing        = 
| studio         = 
| distributor    = 
| released       = 1971
| runtime        = 
| country        = Pakistan Pashto
| budget         = 
| gross          = 
}}

Adam Khan Dukhaniye is a Pollywood film of 1971. It stars Badar Munir and Yasmin in the lead roles.

==Cast==
*Badar Munir
*Yasmin 

==References==
 

 
 


 