A Pit Boy's Romance
{{Infobox film
| name           = A Pit-boys Romance
| image          =
| alt            =  
| caption        =
| director       = A.E. Coleby Arthur Rooke
| producer       =
| writer         = A.E. Coleby Arthur Rooke
| starring       = Jimmy Wilde Tommy Noble A.E. Coleby Arthur Rooke
| cinematography =
| editing        =
| studio         =
| distributor    =
| released       =  
| runtime        =
| country        = United Kingdom
| language       =
| budget         =
| gross          =
}}
 silent drama film directed by A.E. Coleby and Arthur Rooke and starring Jimmy Wilde, Tommy Noble and Arthur Rooke.  The film ends with the villains protégé losing a boxing match to the hero, a plot similar to that of Colebys film of the previous year Kent, the Fighting Man. 

==References==
 

==Bibliography==
* Low, Rachael. The History of British Film: Volume III, 1914-1918. Routledge, 2001.

==External links==
* 

 

 
 
 
 
 
 
 
 


 