La Tournée des grands ducs
 
{{Infobox film
| name           =La Tournée des grands ducs
| image          = 
| image_size     = 
| caption        = 
| director       =
| producer       =
| writer         =
| narrator       = 
| starring       =
| music          =
| cinematography = 
| editing        = 
| distributor    = 
| released       =
| runtime        = 
| country        = France French
| budget         = 
| gross          = 
| preceded_by    = 
| followed_by    = 
| website        = 
}}

La Tournée des grands ducs is a French film starring Lily Fayol.

==External links==
*  

 
 
 
 


 