Afraid of Love (film)
{{Infobox film
| name           = Afraid of Love
| image          =
| alt            =
| caption        =
| director       = Reginald West
| producer       = F.J. Nettlefold
| writer         = Mrs. John Russell Walter Summers Leslie Faber Jameson Thomas Moore Marriott Adeline Hayden Coffin
| cinematography =
| editing        =
| studio         =
| distributor    =
| released       =  
| runtime        =
| country        = United Kingdom
| language       = English
| budget         =
| gross          =
}}
 silent drama Leslie Faber, Jameson Thomas and Moore Marriott. 

==Cast== Leslie Faber ...  Anthony Bond 
* Jameson Thomas ...  Philip Bryce 
* Moore Marriott ...  Father 
* Adeline Hayden Coffin ...  Mother 
* Mickey Brantford ...  Tony Bond 
* Juliette Compton ...  Ruth 

==References==
 

==External links==
* 

 

 
 
 
 