Mitsuko Delivers
{{Infobox film
| name           = Hara ga Kore Nande
| image          = 
| border         = 
| alt            = 
| caption        =  Yuya Ishii
| producer       = 
| writer         =  Yuya Ishii
| story          = 
| based on       =  
| narrator       = 
| starring       = Riisa Naka   Aoi Nakamura
| music          = 
| cinematography = 
| editing        = 
| studio         = 
| distributor    = 
| released       =  
| runtime        = 109 minutes
| country        = Japan
| language       = Japanese
| budget         = 
| gross          = 
}}
 Yuya Ishii.   

==Cast==
* Riisa Naka as Mitsuko
* Aoi Nakamura

==References==
 

==External links==
*    
*  

 

 
 
 
 
 
 

 
 