East Meets West (2011 film)
 
 
{{Infobox film
| name           = East Meets West
| image          = East Meets West 2011 poster.jpg
| image size     = 
| border         = 
| alt            = 
| caption        = 
| director       = Jeffrey Lau
| producer       = Julia Chu Wan Jun
| writer         = Jeffrey Lau
| screenplay     = 
| story          = 
| based on       =  
| narrator       =  Huang Yi Alex Fong Stephy Tang
| music          = Anthony Wong Yiu-ming Mark Lui Yang Zhenbang
| cinematography = Wong Bo-man Lam Wah-chuen
| editing        = Marco Mak
| studio         = 
| distributor    = 
| released       =   
| runtime        = 99 minutes
| country        = Hong Kong China   
| language       = Cantonese
| budget         = 
| gross          = 
}}

East Meets West (東成西就2011) is a 2011 Hong Kong comedy film directed by Jeffrey Lau.  

==Cast==
* Kenny Bee
* Eason Chan
* Ekin Cheng
* Karen Mok
* Stephy Tang
* William So
* Tan Weiwei
* Jaycee Chan Huang Yi
* Tiffany Tang
* Yang Mi
* William Chan
* Alan Tam
* Benette Pang Anthony Chan

==See also==
* The Eagle Shooting Heroes

==References==
 

==External links==
*  

 

 
 
 
 
 
 

 
 