Manjina Hani
{{Infobox film
| name           = Manjina Hani
| image          = 
| alt            =  
| caption        = 
| director       = V. Ravichandran
| producer       = V. Ravichandran
| writer         = 
| starring       = {{Plainlist|
* V. Ravichandran
* Haripriya
* Prakash Rai}}
| music          = V.Ravichandran
| cinematography = G. S. V. Seetharam
| editing        = 
| studio         = 
| distributor    = Eswari Productions
| released       =  
| runtime        = 
| country        = India
| language       = Kannada
| budget         = 
| gross          = 
}} Kannada film starring V. Ravichandran and Haripriya in the lead roles. This film went on floors, seven years back  and the director is still working on the project to bring it to perfection.  

== Cast ==
* V. Ravichandran 
* Prakash Rai
* Haripriya
* Bhavana (actress)
* Poonam Kaur

== Soundtrack ==
Music composer V.Ravichandran has composed song and Hamsalekha has  penned lyrics for 2 songs.

==External links==
* 

==References==
 

 

 
 
 
 
 


 