Killing in Istanbul
{{Infobox film
| name           = Killing in Istanbul
| image          = 
| image_size     = 
| caption        = 
| director       = Yilmaz Atadeniz
| producer       = Yilmaz Atadeniz (producer)
| writer         = Çetin Inanç (screenplay)  (uncredited)
| narrator       = 
| starring       = See below
| music          = 
| cinematography = Rafet Siriner
| editing        = Mustafa Kent
| studio         = 
| distributor    = 
| released       = 1967
| runtime        = 71 minutes
| country        = Turkey
| language       = Turkish
| budget         = 
| gross          = 
| preceded_by    = 
| followed_by    = 
| website        = 
}}

Killing in Istanbul (originally Kilink Istanbulda) is a 1967 Turkish film directed by Yilmaz Atadeniz.

== Plot summary ==
 

== Cast ==
*Irfan Atasoy as Orhan "Uçan Adam"
*Pervin Par as Gül
*Muzaffer Tema as Prof. Cemil
*Suzan Avci as Kilinks Lover
*Hüseyin Peyda as Police chief
*Sevinç Pekin
*Mine Soley as Professors secretary
*Ergun Köknar
*Feridun Çölgeçen as Prof. Maxwell
*Hüseyin Zan as Oski
*Mete Mert
*Enver Dönmez

== Soundtrack ==
 

== External links ==
* 
* 

 
 
 
 
 
 
 
 
 
 
 


 
 