Share House
{{Infobox film
| name           = Share House
| image          = 
| image size     = 
| border         = 
| alt            = 
| caption        = 
| director       = Ichirō Kita
| producer       = 
| writer         = 
| screenplay     = Ichirō Kita
| story          = 
| based on       =  
| narrator       = 
| starring       = Kazuko Yoshiyuki   Megumi Saeki   Miyoko Asada   Hana Kino   Tetsuya Makita
| music          = 
| cinematography = 
| editing        = 
| studio         = 
| distributor    = 
| released       =   
| runtime        = 104 minutes
| country        = Japan
| language       = Japanese
| budget         = 
| gross          = 
}}

  is a 2011 Japanese drama film directed by Ichirō Kita. 

==Cast==
* Kazuko Yoshiyuki
* Megumi Saeki
* Miyoko Asada
* Hana Kino
* Tetsuya Makita

==References==
 

==External links==
*    
*  

 
 
 
 


 