Across the Sea of Time
 
{{Infobox film
| name           = Across the Sea of Time
| image          = Across the Sea of Time Poster.jpg
| image_size     = 
| border         = 
| alt            = 
| caption        = Across the Sea of Time Poster
| director       = Stephen Low
| producer       = 
| writer         = Andrew Gellis
| screenplay     = 
| story          = 
| based on       =  
| narrator       = 
| starring       =  Peter Reznick John McDonough
*Avi Hoffman
 
| music          = 
| cinematography = 
| editing        = 
| studio         = 
| distributor    = 
| released       =   
| runtime        = 
| country        = United States English
| budget         = 
| gross          =   (est.)
}} John McDonough and Avi Hoffman. The film follow a young Russian boys travels to the United States in search of his ancestors family. It grossed nearly 16 million dollars in the United States and has a runtime of just over 51 minutes.

==References==
 

== External links ==
*  

 
 
 
 


 