Brown Sugar (1922 film)
{{Infobox film
| name           = Brown Sugar
| image          = 
| image_size     = 
| caption        = 
| director       = Fred Paul
| producer       = G.B. Samuelson
| writer         = Lady Arthur Lever (play) Walter Summers Eric Lewis Henrietta Watson
| music          = 
| cinematography = 
| editing        = 
| studio         = British-Super Films 
| distributor    = Jury Films
| released       = 1922
| runtime        = 
| country        = United Kingdom English
| budget         = 
| gross          = 
| preceded_by    = 
| followed_by    = 
}}
 British silent silent romance Eric Lewis.  It was based on a play by Lady Arthur Lever.

==Cast==
* Owen Nares – Lord Sloane 
* Lillian Hall-Davis – Stella Deering  Eric Lewis – Earl of Knightsbridge 
* Henrietta Watson – Countess of Knightsbridge 
* Cyril Dane – Edmundson 
* Margaret Halstan – Honoria Nesbitt 
* Louise Hampton – Miss Gibson 
* Gladys Harvey – Mrs. Cunningham 
* Eric Leighton – Crowbie Carruthers

==References==
 

==External links==
* 

 

 

 
 
 
 
 
 
 
 