Midnight Shadow
{{Infobox film
| name           = Midnight Shadow
| image          = Midnight Shadow.jpg
| image size     = 
| border         = 
| alt            = 
| caption        = 
| director       = George Randol
| producer       = 
| writer         = 
| screenplay     = 
| story          = 
| based on       = 
| narrator       = 
| starring       = Frances Redd Ollie Ann Robinson Clinton Rosemond Laurence Criner
| music          = 
| cinematography = 
| editing        = 
| studio         = 
| distributor    = 
| released       = 1939
| runtime        = 54 min
| country        = United States English
| budget         = 
| gross          = 
}}
Midnight Shadow is a 1939 film with an all African American cast.

==Plot== courts a girl from Oklahoma. Her parents want to make her happy, but they do not like that Alihabad worships Allah. A killer is on the loose and it might be Alihabad.

==Book coverage==
The film was covered in the books Hollywood be thy name: African American religion in American film, 1929-1949  and Whispered consolations: law and narrative in African American life. 

==References==
 

 
 
 
 


 