Land of My Fathers (film)
{{Infobox film
| name           = Land of My Father
| image          = 
| image_size     = 
| caption        = 
| director       = Fred Rains
| producer       = George Leyton
| writer         = Diana Torr
| narrator       =  John Stuart Yvonne Thomas Ernest Moore
| music          = 
| cinematography = 
| editing        = 
| studio         = Glen Films
| distributor    = Glen Films 
| released       = 1921 
| runtime        = 
| country        = United Kingdom
| language       = English
| budget         = 
| gross          = 
| preceded_by    = 
| followed_by    = 
| website        = 
| amg_id         = 
}} British silent silent drama John Stuart, Yvonne Thomas. 

==Cast== John Stuart - David Morgan 
* Edith Pearson - Lady Gwenneth Beailah  Yvonne Thomas - Dilwys Colwyn 
* George Leyton - Lord Beaulah 
* Florence Lynn - Mrs. Colwyn  Ernest Moore - Owen Morgan 
* Fred Rains - Bad Bill 
* David Teriotdale - Agent

==References==
 

==External links==
* 

 

 
 
 
 
 