Udhaar
{{Infobox film
| name           = Udhaar
| image          = 
| caption        =
| director       =S.S. Kulkarni
| producer       =
| writer         = 
| starring       = Dev Anand
| music          = 
| cinematography = 
| editing        = 
| distributor    = 
| studio=
| released       =  1949
| runtime        = 
| country        = India
| language       = Hindi
| Budget         = 
| preceded_by    =
| followed_by    =
| awards         =
| Gross          = 
}} 1949 Bollywood film directed by S.S. Kulkarni and starring Dev Anand,    Bharat Bhushan and Nirupa Roy.

==References==
 

== External links ==
*  

 
 
 

 