Mohan (1947 film)
{{Infobox film
| name           = Mohan
| image          = 
| caption        =
| director       =Anadinath Bannerjee
| producer       =
| writer         = 
| starring       = Dev Anand and Butt Kashar
| music          = 
| cinematography = 
| editing        = 
| distributor    = 
| released       =  1947
| runtime        = 
| country        = India
| language       = Hindi
| Budget         = 
| preceded_by    =
| followed_by    =
| awards         =
| Gross          = 
}} 1947 Bollywood film directed by Anadinath Bannerjee and starring Dev Anand and Butt Kashar.   

==References==
 

== External links ==
*  

 
 
 

 