Les Fugitifs
 
{{Infobox film
| name           = Les Fugitifs
| image          = Les-fugitifs.jpg
| alt            = 
| caption        = 
| film name      =  
| director       = Francis Veber
| producer       =  
| writer         = Francis Veber
| screenplay     = 
| story          = 
| based on       =  
| starring       = Gérard Depardieu
| narrator       =  
| music          = Vladimir Cosma
| cinematography = Luciano Tovoli
| editing        = 
| studio         =  
| distributor    =  
| released       =  
| runtime        = 
| country        = France
| language       = 
| budget         = 
| gross          =  
}}
Les Fugitifs is a French 1986 comedy film, directed by Francis Veber. It was remade in 1989 as Three Fugitives, also directed by Veber.

 
 
 
 
 
 
 
 
 
 
 
 

 
 