Looking for Nicolas Sarkozy
{{Infobox film
| name           = Looking for Nicolas Sarkozy
| image          = 
| image size     =
| caption        = 
| director       = William Karel
| producer       = ROCHE Productions et ARTE France
| writer = 
| narrator       =
| starring       =
| music          =
| cinematography =
| editing        =
| distributor    =
| released       =  
| runtime        =
| country        = France
| language       = French
| budget         =
| preceded by    =
| followed by    =
}}
Looking for Nicolas Sarkozy is a 2011 French documentary film directed by William Karel.    The film records the reactions of 18 non-French Paris-based journalists when Karel asked their opinions of Nicolas Sarkozy, the 23rd President of France.   It was released on TV network Arte on December 21, 2011.

==References==
 

==External links==
*  

 
 
 
 
 
 
 


 
 