Creole Connections
{{Infobox film name         = Creole Connections director     = Alain dAix    producer     = Nathalie Barton    writer       = Alain dAix  studio       =   }} distributor  =   released     =   runtime      = 52 minutes    country      = Canada  language     =  
}}
Creole Connections ( )  is a 1986 Canadian documentary film produced by Montreals  , Guadeloupe, Martinique and Saint Lucia.  

==See also==
*Canadian films of the 1980s

==References==
 

 

 
 
 
 
 
 
 
 
 
 
 
 
 
 
 
 
 


 
 