Back to Roots
 
 
{{Infobox film
| name           = Back to Roots
| image          = Back to Roots .jpg
| caption        = Film poster
| director       = Raymond Leung
| producer       = 
| writer         = 
| starring       = Radium Cheung
| music          = 
| cinematography = 
| editing        = 
| distributor    = 
| released       =  
| runtime        = 98 minutes
| country        = Hong Kong
| language       = Cantonese
| budget         = 
}}

Back to Roots (Gui tu) is a 1994 Hong Kong drama film directed by Raymond Leung. It was entered into the 45th Berlin International Film Festival.   

==Cast==
* Radium Cheung

==References==
 

==External links==
* 

 
 
 
 
 
 
 