The Sun Has Ears
 
 
{{Infobox film
| name           = The Sun Has Ears
| image          = The Sun Has Ears.jpg
| caption        = DVD cover
| director       = Yim Ho
| producer       = 
| writer         = 
| starring       = Qiang Gao
| music          = 
| cinematography = 
| editing        = 
| distributor    = 
| released       =  
| runtime        = 104 minutes
| country        = Hong Kong
| language       = Cantonese
| budget         = 
}}

The Sun Has Ears ( ) is a 1996 Hong Kong drama film directed by Yim Ho. It was entered into the 46th Berlin International Film Festival where Yim Ho won the Silver Bear for Best Director.   

==Cast==
* Qiang Gao
* Yong You Yu Zhang

==References==
 

==External links==
* 

 
 
 
 
 
 
 
 