Surveillance (1997 film)
{{Infobox film
| name           = Surveillance
| image          = 
| caption        = 
| director       = Huang Jianxin
| producer       = 
| writer         = Yian Sun
| starring       = Gong Feng
| music          = 
| cinematography = 
| editing        = 
| distributor    = 
| released       =  
| runtime        = 93 minutes
| country        = China
| language       = Mandarin
| budget         = 
}}

Surveillance ( ) is a 1997 Chinese comedy film directed by Huang Jianxin. It was entered into the 47th Berlin International Film Festival.   

==Cast==
* Gong Feng as Ye Minzhu
* Shan Jiang as Bai Lin
* Rujun Ten as Tian Gongshun (as Rujun Teng)
* Xiaotong Zhang as Yang Gao

==References==
 

==External links==
* 

 
 
 
 
 
 


 
 