En glad gutt
{{Infobox film
| name           = En glad gutt
| image          = 
| image size     =
| caption        = 
| director       = John W. Brunius
| producer       = 
| writer         = Bjørnstjerne Bjørnson (short story)
| narrator       =
| starring       = Hauk Aabel   Gøril Havrevold 
| music          = 
| cinematography = 
| editing        = 
| distributor    = 
| released       =   24 October 1932
| runtime        = 96 minutes
| country        = Norway
| language       = Norwegian
| budget         = 
| gross          =
| preceded by    =
| followed by    =
}}
 Norwegian drama film directed by John W. Brunius, starring Hauk Aabel and Gøril Havrevold. The film is based on a story by Bjørnstjerne Bjørnson, published in 1860.

==External links==
*  
*  

 
 
 
 
 