Only the Brave (film)
{{Infobox film
| name           = Only the Brave
| image          = 
| image size     =
| caption        = 
| director       = Ana Kokkinos
| producer       =
| writer         = 
| based on = 
| narrator       =
| starring       = 
| music          = 
| cinematography = 
| editing        = 
| studio = 
| distributor    = 
| released       = 1994
| runtime        = 
| country        = Australia English
| budget         = 
| gross = A$75,921 (Australia) 
| preceded by    =
| followed by    =
}}
Only the Brave is a 1994 Australian film.

==See also==

* Only the Brave (disambiguation)

==References==
 

==External links==
* 
*  at Australian Screen Online

 
 
 

 