Romeos (film)
{{Infobox film
| name           = Romeos
| image          = Romeos.jpg
| caption        =
| director       = Sabine Bernardi
| producer       =  
| writer         = Sabine Bernardi
| starring       =  
| music          = Roland Appel
| cinematography = Moritz Schultheiß
| editing        = Renata Salazar-Ivancan
| distributor    = PRO-FUN media Filmverleih, Strand Releasing
| released       =  
| runtime        = 94 minutes
| country        = Germany
| language       = German
}}
Romeos ( ) is a 2011 German feature film.  The film was written and directed by Sabine Bernardi.  It was released on December 8, 2011.    Prior to its release, the films screenplay won the Best Treatment Cologne Screenplay Prize in 2007. 

==Plot==
 gay trans man and a cisgender gay man named Fabio.

==See also==
* List of lesbian, gay, bisexual or transgender-related films

==References==
 

==External links==
*  
*  
*  
*  
*  

 
 
 
 
 
 
 
 
 
 
 
 

 
 