In the Shade of Trees
{{Infobox film
| name           = In the Shade of Trees
| image          =  
| caption        = Poster.
| alt            = 
| director       = Đoàn Trần Anh Tuấn
| producer       = Đoàn Trần Anh Tuấn
| writer         = Đoàn Trần Anh Tuấn Đỗ Thị Minh Thư Nguyễn Hòa Thanh Vương Bích Vân
| starring       = Đoàn Trần Anh Tuấn Đỗ Thị Minh Thư
| music          = Đoàn Trần Anh Tuấn Đỗ Thị Minh Thư
| cinematography = Nguyễn Hòa Thanh
| editing        = Đoàn Trần Anh Tuấn
| studio         = Colory Animation Studio
| distributor    = Colory Animation Studio
| released       =  
| runtime        = 7 minutes
| country        =   Vietnamese
| budget         = 
| gross          =
}}
In the Shade of Trees ( ) is a 2011 Vietnamese computer-animated comedy-adventure film produced by Colory Animation Studio.
__TOC__

==Plot==
 

==Cast==
* Đoàn Trần Anh Tuấn as Mouse
* Đỗ Thị Minh Thư as Frog

==External links==
*  
*  , TA, báo Pháp luật & Xã hội, 23/05/2011
*  , Quốc Lê, báo Đất Việt, 24/05/2011
*   Hiền Nhi, Thanh Niên (báo)|báo Thanh Niên 25/05/2011
*   Đăng Nguyên, báo Thanh Niên, 28/05/2011
*  , Mặc Lâm, Đài Á Châu Tự do|RFA, 28/5/2011
*   Hiền Nhi, báo Thanh Niên 01/06/2011
*  , Lam Vũ, báo Pháp luật & Xã hội, 2/06/2011
*   Đặng Sinh - Bảo Anh, báo Bưu điện Việt Nam, 16/06/2011  
*  , Vân Vi, báo Sinh viên Việt Nam, 23/06/2011
*  , Khánh An, Radio Free Asia|RFA, 21/7/2011

 
 
 
 
 
 
 


 
 