Red Pottage (film)
{{Infobox film
| name           = Red Pottage
| image          =
| caption        =
| director       = Meyrick Milton
| producer       = 
| writer         = Mary Cholmondeley (novel)   Eliot Stannard
| starring       = C. Aubrey Smith Mary Dibley Gerald Ames   Marjorie Hume
| music          = 
| cinematography = 
| editing        = 
| studio         = Ideal Film Company
| distributor    = Ideal Film Company
| released       = June 1918 
| runtime        = 
| country        = United Kingdom 
| awards         =
| language       = English
| budget         =
| preceded_by    =
| followed_by    =
}} British silent silent drama Red Pottage by Mary Cholmondeley.

==Cast==
* C. Aubrey Smith - Lord Newhaven
* Mary Dibley - Lady Newhaven
* Gerald Ames - Hugh Scarlett
* E. Holman Clark - Bishop
* Marjorie Hume - Rachel West

==References==
 

==External links==
*  

 
 
 
 
 
 
 
 
 


 
 