The Last Days of the World
 

{{Infobox film
| name           = The Last Days of the World
| image          = lastdaysoftheworldposter.jpg
| director       = Eiji Uchida
| producer       =
| writer         = Eiji Uchida
| starring       =
| music          =
| cinematography =
| editing        =
| distributor    =
| released       =  
| runtime        = 95 minutes
| country        = Japan
| language       = Japanese
| budget         =
| gross          =
}}
The Last Days of the World is a 2011 Japanese film directed by Eiji Uchida. It screened at the 2011 New York Asian Film Festival.

==External links==
*  
*  

 
 
 
 


 