A Morning Stroll
{{Infobox film
| name           = A Morning Stroll
| image          = AMorningStroll2012Poster.jpg
| caption        = US Film poster
| director       = Grant Orchard
| producer       = Sue Goffe
| writer         =
| narrator       =
| starring       =
| music          = Nic Gill
| cinematography =
| editing        =
| studio         = StudioAKA
| distributor    =
| released       =  
| runtime        = 7 minutes
| country        = United Kingdom
| language       =
| budget         =
| gross          =
}} animated short Best Animated Short Film at the 84th Academy Awards as well as Best Short Animation at the 65th British Academy Film Awards.

The film is loosely based on an event in True Tales of American Life by American author Paul Auster. 

== References ==
 

== External links ==
*   at StudioAKAs website
*  

 
 
 
 
 
 
 
 
 
 
 
 
 

 