Stade 81
{{Infobox film
| name           = Stade 81
| image          = 
| image size     = 
| alt            = 
| caption        = 
| director       = Jaco Van Dormael
| producer       = 
| writer         = 
| narrator       = 
| starring       = 
| music          =
| cinematography =
| editing        = 
| studio         = 
| distributor    = 
| released       =  
| runtime        = 14 minutes
| country        =  Swedish
| budget         = 
| gross          = 
| preceded by    = 
| followed by    = 
}} 1981 documentary documentary short film written and directed by Jaco Van Dormael. The short film was shot in 1981 in Sweden, Canada and United Kingdom. Stade 81 is a documentary about the first Special Olympics. The film received various awards, including the Caducee dOr at the 1982 Rennes International Film Festival.  In 2011, it appeared at the Sottodiciotto Filmfestival held in Turin in the retrospective dedicated to Van Dormael. 

==References==
 

==External links==
* 

 

 
 
 
 
 
 
 
 
 
 
 
 
 
 


 
 