God Is the Bigger Elvis
 
 {{Infobox film
| name            = God Is the Bigger Elvis
| image           = 
| alt             = 
| caption         = 
| director        = Rebecca Cammisa
| producer        = Julie Anderson,   Rebecca Cammisa	
| co producer = 
| senior producer = 
| associate producer = Nancy Stanton Talcott
| starring        = Dolores Hart
| music           = James Lavino
| cinematography  = Claudia Raschke-Robinson
| editing         = Geeta Gandbhir
| studio          = 
| distributor     = 
| released        = April 5, 2012 (HBO) 
| runtime         = 37 minutes
| country         = United States
| language        = English
| budget          = 
| gross           = 
}} 2012 Academy Award for Best Documentary (Short Subject).  
 Loving You. It was in this film that she kissed Elvis. This was Elvis very first on-screen kiss in a movie. Both Dolores and Elvis would reunite the following year in Michael Curtizs King Creole.

==Awards==
{| class="wikitable"
|-
!Award !! Category !! Recipient !! Result
|-
| 84th Academy Awards
| Academy Award for Best Documentary (Short Subject)
| 
|  
|-
|}

==References==
 

==External links==
* 
* 

 
 
 
 
 
 
 
 


 
 