The Pauper Millionaire
{{Infobox film
| name           = The Pauper Millionaire
| image          =
| caption        =
| director       = Frank Hall Crane
| producer       =
| writer         = Austin Fryers (novel)   Eliot Stannard Katherine Blair Norma Whalley   Polly Emery
| music          =
| cinematography =
| editing        =
| studio         = Ideal Film Company
| distributor    = Ideal Film Company
| released       = 1922
| runtime        =
| country        = United Kingdom
| awards         =
| language       = English
| budget         =
| preceded_by    =
| followed_by    =
}} British silent silent comedy Katherine Blair and John H. Roberts.  It was based on a novel by Austin Fryers.

==Cast==
* C.M. Hallard - Pye Smith Katherine Blair - Hilda
* John H. Roberts - Harry
* Norma Whalley - Mrs. Smith George Goodwin - Crook
* Polly Emery - Sally

==References==
 

==External links==
*  

 
 
 
 
 
 
 
 
 
 


 
 