Tempest 3D
{{Infobox film
| name           = Tempest 3D
| image          = 
| image size     = 
| border         = 
| alt            = 
| caption        = 
| director       = Yoshiyuki Yoshimura
| producer       = 
| writer         = 
| screenplay     = 
| story          = 
| based on       =  
| narrator       = 
| starring       =  Yukie Nakama   Shōsuke Tanihara   Takashi Tsukamoto 
| music          = 
| cinematography = 
| editing        = 
| studio         = 
| distributor    = 
| released       =  
| runtime        = 149 minutes
| country        = Japan
| language       = Japanese
| budget         = 
| gross          = 
}}
  is a 2012 Japanese drama film directed by Yoshiyuki Yoshimura.  It is based on the 2008 novel   by Eiichi Ikegami. 

==Cast==
* Yukie Nakama
* Shōsuke Tanihara
* Takashi Tsukamoto
* Gackt

==References==
 

==External links==
*    
*  

 
 
 
 
 
 
 
 


 