Hutch Stirs 'em Up
{{Infobox film
| name           = Hutch Stirs em Up
| image          =
| caption        =
| director       = Frank Hall Crane
| producer       = Harry Harding  Eliot Stannard Joan Barry Malcolm Tod   Gibson Gowland
| music          =
| cinematography =
| editing        =
| studio         = Ideal Film Company
| distributor    = Ideal Film Company
| released       = August 1923
| runtime        =
| country        = United Kingdom
| awards         =
| language       = English
| budget         =
| preceded_by    =
| followed_by    =
}} silent comedy comedy action Joan Barry Harry Harding.

==Cast==
* Charles Hutchison - Hurricane Hutch Joan Barry - Joan
* Malcolm Tod - Tom Grey
* Gibson Gowland - Sir Arthur Blackross
* Sunday Wilshin - Mrs. Grey
* Aubrey Fitzgerald - Crudelas
* Violet Forbes - Mrs. Cruddas

==References==
 

==External links==
*  

 

 
 
 
 
 
 
 
 
 
 


 
 