Conquer by the Clock
{{Infobox film
| name           = Conquer by the Clock
| image          =
| caption        = Slavko Vorkapich
| producer       = Frederic Ullman Jr.
| writer         =
| narrator       =
| starring       =
| music          = Erno Rapee
| cinematography = Larry OReilly John Hoffman RKO Radio Pictures
| released       =  
| runtime        =
| country        = United States
| language       = English
| budget         =
}} RKO Radio Pictures in 1942 to encourage wartime industrial production. It was nominated for an Academy Award for Best Documentary in 1943. http://www.imdb.com/event/ev0000003/1943 Awards for 1943 

== See also ==
* List of Allied propaganda films of World War II
*United States home front during World War II

==References==
 

== External links ==
*  
*  

 
 
 


 