Combat Report
{{Infobox film
| name           = Combat Report
| image          =
| caption        =
| director       =
| producer       = U.S. Army Signal Corps
| writer         =
| narrator       =
| starring       =
| music          =
| cinematography =
| editing        =
| distributor    =
| released       =  
| runtime        =
| country        = United States
| language       = English
| budget         =
}}
Combat Report was a short dramatic propaganda film produced by the Signal Corps (United States Army)|U.S. Army Signal Corps in 1942, and shows the anti-submarine efforts of a bombing crew. It was nominated for an Academy Award for Best Documentary in 1943. http://www.imdb.com/event/ev0000003/1943 Awards for 1943 

== See also ==
* List of Allied propaganda films of World War II

==References==
 

== External links ==
*  
*  

 
 
 


 