Approved for Adoption
{{Infobox film
| name           = Approved for Adoption
| image          = 
| image size     = 
| border         = 
| alt            = 
| caption        = 
| director       =  Laurent Boileau   Jung
| producer       = 
| writer         = 
| screenplay     = 
| story          = 
| based on       = 
| narrator       = 
| starring       = 
| music          = 
| cinematography = 
| editing        = 
| studio         = 
| distributor    = 
| released       =  
| runtime        = 
| country        = France Belgium
| language       = French
| budget         = 
| gross          = 
}}
Approved for Adoption (  animated film based on a comic by Jung and directed by Laurent Boileau and Jung. It was released on 6 June in France.  It received a Magritte Award nomination for Best Editing.

==Awards==
* 2013 - Japan Media Arts Festival: "Grand Prize" (Animation)
* 2013 - World festival of animated film Animafest Zagreb: "Grand prix"
* 2013 - World festival of animated film Animafest Zagreb: "Audience award"

==References==
 
2. http://www.animafest.hr/en/archive/2013

==External links==
* 
* 

 
 
 
 
 
 
 
 
 

 
 