Juncture (film)
 
{{Infobox film
| name           = Juncture
| image          = Juncture_film.jpg
| image_size     = 
| alt            = 
| caption        = Theatrical release poster James Seale
| producer       = 
| screenplay     = 
| based on       = 
| starring       = Kristine Blackport
| music          = 
| cinematography = 
| editing        = 
| studio         = 
| distributor    = 
| released       = October 6, 2007  
| runtime        = 106 minutes
| country        = United States
| language       = English
| budget         = 
| gross          = 
}}
 James Seale and the first in a planned trilogy. The plot revolves around the character of Anna Carter (Kristine Blackport) an ordinary woman who turns into a vigilante.

==Plot== glioblastoma and given no more than three months she decides to spend her final days hunting criminals that somehow evaded justice.

==External links==
*  
*  
*  

 
 
 
 

 