Em Câmara Lenta
 

{{Infobox film
| name           = Em Câmara Lenta
| image          = 
| image size     = 
| border         = 
| alt            = 
| caption        =  Fernando Lopes
| producer       = Paulo Branco
| writer         = 
| screenplay     = Rui Cardoso Martins
| story          = 
| based on       =  
| narrator       = 
| starring       = Rui Morrison   João Reis   Maria João Bastos   Maria João Luís
| music          = 
| cinematography = Edmundo Díaz
| editing        = 
| studio         = 
| distributor    = 
| released       =  
| runtime        = 71 minutes
| country        = Portugal
| language       = Portuguese
| budget         = 
| gross          = 
}} Fernando Lopes. 

==Cast==
*Rui Morrison
*João Reis
*Maria João Bastos
*Maria João Luís

==References==
 

==External links==
* 

 
 
 
 


 