Florbela
 
{{Infobox film
| name           = Florbela
| image          = 
| image size     = 
| border         = 
| alt            = 
| caption        = 
| director       = Vicente Alves do Ó
| producer       = 
| writer         = 
| screenplay     = 
| story          = 
| based on       =  
| narrator       = 
| starring       = Dalila Carmo   Albano Jerónimo   Ivo Canelas
| music          = 
| cinematography = 
| editing        = 
| studio         = Ukbar Filmes
| distributor    = 
| released       =  
| runtime        = 
| country        = Portugal
| language       = Portuguese
| budget         = 
| gross          = €174,543.51 
}}
Florbela is a 2012 Portuguese biographical film about Portuguese poet Florbela Espanca, directed by Vicente Alves do Ó. 

==Cast==
*Dalila Carmo as Florbela Espanca
*Albano Jerónimo
*Ivo Canelas

==References==
 

==External links==
*   
* 

 
 
 
 


 
 