Mameshiba Ichirō 3D
{{Infobox film
| name           = Mameshiba Ichirō 3D
| image          = 
| image size     = 
| border         = 
| alt            = 
| caption        = 
| director       = Tōru Kamei
| producer       = 
| writer         = 
| screenplay     = 
| story          = 
| based on       =  
| narrator       = 
| starring       = Jirō Satō   Asami Usuda   Naozumi Takahashi
| music          = 
| cinematography = 
| editing        = 
| studio         = 
| distributor    = 
| released       =   
| runtime        = 58 minutes
| country        = Japan
| language       = Japanese
| budget         = 
| gross          = 
}}

  is a 2012 Japanese 3D film directed by Tōru Kamei. 

==Cast==
*Jirō Satō
*Asami Usuda
*Naozumi Takahashi

==References==
 

==External links==
*   

 
 
 
 


 