Marrying Mr. Perfect
 
{{Infobox film
| name           = Marrying Mr. Perfect
| image          = Marrying Mr. Perfect poster.jpg
| image size     = 
| border         = 
| alt            = 
| caption        = Hong Kong poster
| director       = Wong Jing
| producer       = 
| writer         = 
| screenplay     = 
| story          = 
| based on       =  
| narrator       = 
| starring       = Gigi Leung Ronald Cheng Chapman To  Xie Na Eric Tsang Stanley Fung
| music          = 
| cinematography = 
| editing        = 
| studio         = 
| distributor    = 
| released       =  
| runtime        = 87 minutes
| country        = Hong Kong
| language       = Cantonese
| budget         = 
| gross          = 
}}

Marrying Mr. Perfect (Chinese: 嫁個100分男人) is a 2012 Hong Kong romantic comedy film directed by Wong Jing. 

==Cast==
*Gigi Leung
*Ronald Cheng
*Chapman To
*Xie Na
*Eric Tsang
*Stanley Fung

==References==
 

 

 
 
 
 
 


 
 