Tokyo Species
 
{{Infobox film
| name           = Tokyo Species
| image          = 
| image size     = 
| border         = 
| alt            = 
| caption        = 
| director       = Nozomu Kasagi
| producer       = Alfredo Azucena jr
| writer         = 
| screenplay     = 
| story          = 
| based on       =  
| narrator       = 
| starring       = rir aka ken
| music          = 
| cinematography = 
| editing        = 
| studio         = 
| distributor    = 
| released       =  
| runtime        = 70 minutes
| country        = Japan
| language       = Japanese
| budget         = 
| gross          = 
}}
  is a 2012 Japanese erotic horror V-cinema release directed by Nozomu Kasagi and starring AV Idol Maria Ozawa. It was described by critics as a low-budget, Japanese version of the 1995 American film Species (film)|Species.  

==Cast==
*Maria Ozawa 
*Marika Minami 
*Manami Mizuse 
*Namiko
*Kazunori Kobayashi 
*Tomonori Kouno 
*Shigeo Ōsako 
*Yuri Akikawa

==Release==
This feature was released on DVD in Japan as TOKYOスピーシーズ in February 2012. 

==References==
 

==External links==
*  

 
 
 
 


 
 