Amílcar Cabral (film)
 

{{Infobox film
| name           = Amílcar Cabral
| director       = Ana Ramos Lisboa
| producer       = Continental Filmes
| music          = Zé Afonso
| sound editor   = Quintino Bastos, Vasco Pedroso
| photography    = José Brinco, Octávio Espírito Santo
| editing        = Luís Sobral
| distributor    = Marfilmes
| released       =  
| runtime        = 60 minutes
| country        = Cape Verde Portuguese
}}

Amílcar Cabral is a documentary film directed by Ana Ramos Lisboa about African icon and martyr Amílcar Cabral.

==Festivals==
* 7º FACT - Festival de Cine Africano, Spain (2010)
*   (2010)
*   (2010)
*   (2010)
*   (2010)
*  

==See also==
*Amílcar Cabral
* 

==External links==
* 

 
 
 
 
 
 
 
 
 
 
 
 


 
 