Shinobido (film)
{{Infobox film
| name           = Shinobido
| image          = 
| image size     = 
| border         = 
| alt            = 
| caption        = 
| director       = Toshiyuki Morioka
| producer       = 
| writer         = 
| screenplay     = 
| story          = 
| based on       =  
| narrator       =  Ayaka Kikuchi Shōgen (actor)|Shōgen
| music          = 
| cinematography = 
| editing        = 
| studio         = 
| distributor    = 
| released       =    
| runtime        = 93 minutes
| country        = Japan
| language       = Japanese
| budget         = 
| gross          = 
}}

  is a 2012 Japanese jidaigeki film directed by Toshiyuki Morioka. 

==Cast==
*Aimi Satsukawa Ayaka Kikuchi
*Shōgen (actor)|Shōgen

==References==
 

==External links==
* 

 
 


 