Oedipus Orca
{{Infobox film
| name           =Oedipus Orca
| image          =Oedipus Orca.jpg
| image_size     =
| caption        =
| director       =Eriprando Visconti
| producer       =
| writer         =
| narrator       =
| starring       =
| music          =James Dashow
| cinematography =Blasco Giurato
| editing      = Franco Arcalli
| distributor    =
| released       = 4 April 1977
| runtime        =
| country        = Italy Italian
| budget         =
}} 1977 Italy|Italian thriller directed by Eriprando Visconti. It is a sequel to La Orca, filmed the same/next year. 

==Cast==
*Rena Niehaus: Alice
*Gabriele Ferzetti: Valerio, Alices father
*Miguel Bosé: Humberto
*Michele Placido: Michele
*Carmen Scarpitta: Irene

==References==
 

==External links==
* 

 
 
 
 
 
 
 


 