Monika (1974 film)
{{Infobox film 
 | name = Monika
 | image =  Monika (film)-1974.jpg
 | caption =  
 | director = Mario Imperoli
 | writer =  
 | starring = Gloria Guida
 | music = Nico Fidenco
 | cinematography =   
 | editing =  
 | producer =  
 | distributor =  
 | released =  
 | runtime =   
 | country =  
 | language =  Italian
 | budget = 
 }}  1974 Cinema Italian comedy Italian sexy Blue Jeans.  

== Cast ==
* Gloria Guida: Monica
* Colette Descombes: Sandra Moroni
* Paolo Carlini: Avv. Massimo Moroni
* Gian Luigi Chirizzi: Leo

==References==
 

==External links==
* 

 
 
 
 
 


 
 