Human Error (film)
{{Infobox film
| name           = Human Error
| image          = Human Error (film).jpg
| image_size     = 
| caption        =  Robert M. Young
| writer         = 
| narrator       = 
| starring       = Caroline Ashley
| music          = 
| cinematography = 
| editing        = 
| studio         = 
| distributor    = 
| released       = 2004
| runtime        = 95 mins.
| country        = United States
| language       = English
| budget         = 
| gross          = 
| preceded_by    = 
| followed_by    = 
| website        = 
| amg_id         = 
}} Robert M. Young. It stars Caroline Ashley and Xander Berkeley. 

==Cast==
*Caroline Ashley as Catherine
*Xander Berkeley as Hanrahan Tom Bower as Merkin
*Sarah Clarke as Company Spokesperson
*Robert Knott as Dobbitt

==References==
 

==External links==
* 

 

 
 