Heja Roland!
{{Infobox film
| name           = Heja Roland!
| image          = 
| border         = 
| alt            = 
| caption        = 
| director       = Bo Widerberg
| producer       = 
| screenplay     = Bo Widerberg
| based on       =  
| narrator       = 
| starring       = 
| music          = 
| cinematography = Jörgen Persson
| editing        = 
| studio         = 
| distributor    = 
| released       =   
| runtime        = 96 minutes
| country        = Sweden
| language       = Swedish
| budget         = 
| gross          = 
}} Best Actor at the 3rd Guldbagge Awards. 

==Cast==
* Thommy Berggren as Roland Jung
* Mona Malm as Hanna Jung
* Ulf Palme as Ö.J.
* Holger Löwenadler as Waldemar Vassén
* Ingvar Kjellson as Skog
* Carl Billquist as Svensson
* Lars Göran Carlsson as Mortell (as Lars Göran Carlson)
* Lars Amble as Sture Lennert
* Carl-Olof Alm as Man at Horse Race
* Madelaine Sundgren as Britt Lennert

==References==
 

==External links==
*  
*  

 
 

 
 
 
 
 
 
 
 
 
 