Almost You
{{Infobox film
| name           = Almost You
| image          = 
| image_size     = 
| caption        =  Adam Brooks
| writer         = 
| narrator       =  Brooke Adams
| music          = 
| cinematography = 
| editing        = 
| studio         = 
| distributor    = 
| released       = March 29, 1985
| runtime        = 96 mins
| country        = United States
| language       = English
| budget         = 
| gross          = 
| preceded_by    = 
| followed_by    = 
| website        = 
| amg_id         = 
}} Adam Brooks. Brooke Adams and Griffin Dunne.  It won the Special Jury Prize at the 1985 Sundance Film Festival. 

==Cast== Brooke Adams as Erica Boyer
*Griffin Dunne as Alex Boyer Karen Young as Lisa Willoughby
*Marty Watt as Kevin Danzing
*Christine Estabrook as Maggie

==References==
 

==External links==
* 

 

 
 
 
 


 