Abandon de poste
 

{{Infobox film
| name           = Abandon de poste
| image          = 
| alt            =  
| caption        = 
| director       = Mohamed Bouhari 
| producer       = INSAS - Atelier de réalisation 
| screenplay     = Mohamed Bouhari
| starring       = Michael Luboya André Simon
| music          = 
| cinematography = Anne Waerenbergh  Philipe Orlinski
| editing        = Clothilde Tonneau
| studio         = 
| distributor    = 
| released       =   
| runtime        = 15
| country        = Belgium Morocco
| language       = 
| budget         = 
| gross          = 
}} 2010 film.

==Synopsis==
This short film tells the tale of a silent duel between a black security guard and a life-size African black statue, as well as the face-off between a young black man and an old white man who owns an art gallery.

==Prizes==
* Besançon 2010
* Milan 2011

==References==
 

 
 
 

 