El sonriure amagat
 

{{Infobox film
| name           = El sonriure amagat
| image          = ElSonriureAmagat2010Poster.jpg
| alt            =  
| caption        = US poster
| director       = Ventura Durall 
| producer       = Nanouk Films 
| writer         = 
| screenplay     = Miguel Llansó Ventura Durall 
| story          = 
| starring       = 
| music          = 
| cinematography = Mauro Herce 
| editing        = Ventura Durall Martí Roca 
| studio         = 
| distributor    = 
| released       =   
| runtime        = 13
| country        = Spain
| language       = 
| budget         = 
| gross          = 
}} 2010 film.

==Synopsis==
Daniel, a 10-year-old  . He asks them if he can sleep there.

==Awards==
* Medina del Campo 2010

==References==
 
*  

 
 
 


 