Le Jeu
 

{{Infobox film
| name           = Le Jeu (The game)
| image          = 
| caption        = 
| director       = Abderrahmane Sissako
| producer       = V.G.I.K.
| writer         = 
| starring       = 
| distributor    = 
| released       = 1988
| runtime        = 26
| country        = Mali Mauritania
| language       = 
| budget         = 
| gross          = 
}}

Le Jeu  is a 1988 Malian film.

== Synopsis ==
Somewhere in the desert, a war is being waged. Ahmed’s father must return to the front, after a day spent with his wife and son. Meanwhile, the children play at war.

== References ==
 
*  

 
 
 
 


 