La Femme invisible
 
{{Infobox film
| name           = La Femme invisible 
| image          = 
| caption        = 
| director       = Pascale Obolo
| producer       = More Luv / Zugas
| writer         = 
| starring       = Dalande Gomis
| distributor    = 
| released       = 2008
| runtime        = 6
| country        = Cameroon France
| language       = 
| budget         = 
| gross          = 
| screenplay     = Pascale Obolo
| cinematography = Laurent Caron, Thomas Collard
| sound          = Gordon Cyrus
| editing        = Baptiste Mongoutier, Pascale Obolo
| music          = Vicky et Boyinda
}}

La Femme invisible  is a 2008 film.

== Synopsis ==
A young black woman searches for the faces of her community in the film posters. Her obsessive search will lead her to the brink of madness…

== References ==
 
*  

 
 
 
 


 