Nahar we leil
 

{{Infobox film
| name           = Nahar we leil
| image          =
| caption        =
| director       = Teboho Mahlatsi
| producer       = BOMB
| writer         =
| starring       = Mduduzi Mabaso, Terry Pheto
| distributor    =
| released       = 2006
| runtime        = 34
| country        = Egypt
| language       =
| budget         =
| gross          =
| screenplay     = Teboho Mahlatsi
| cinematography = Robert Malpage
| sound          = JJ le Roux
| editing        = Andrew Trail
| music          = Phillip Miller
}} 2006 film.

==Synopsis==
Raouf spends his days racing against time, trying to make a little money, and playing power games with others, especially Nadia, his girlfriend… Memories and contemplation are also part of his daily life.

==References==
 

 
 


 