Agaïssa
{{Infobox film
| name           = Agaïssa
| image          = 
| caption        = 
| director       = Moustapha Alassane
| producer       = Tahoua Productions / TAL TV
| writer         = 
| starring       = 
| distributor    = 
| released       = 2004
| runtime        = 2
| country        = Niger
| language       = 
| budget         = 
| gross          = 
}}

Agaïssa is a 2004 film.

== Synopsis ==
In Niger, the oral tradition and its moral lessons are passed on through tales and stories. Agaïssa is the story of a young princess who does not listen to her parents, neither to the wisemen, and who just does what she fancies to do.

== References ==
 

 
 
 


 