Anomalías eléctricas
 

{{Infobox film
| name           = Anomalías eléctricas
| image          = 
| alt            =  
| caption        = 
| director       = 
| producer       = 
| writer         = 
| screenplay     = 
| story          = 
| starring       = 
| music          = 
| cinematography = 
| editing        = 
| studio         = 
| distributor    = 
| released       =   
| runtime        = 2
| country        = Equatorial Guinea France
| language       = 
| budget         = 
| gross          = 
}} 2010 Equatoguinean short animated comedy.

==Synopsis== electric accident. When the light comes back on, he appears with “Rastafari movement|Rasta” hair and, a few seconds later, the power is cut for the third time.

==References==
 

 
 
 
 
 


 
 