21ème Siècle
 

{{Infobox film
| name           = 21ème Siècle 
| image          = 
| caption        = 
| director       = Piniang
| producer       = Piniang
| writer         = 
| starring       = 
| distributor    = 
| released       = 2004
| runtime        = 2
| country        = Senegal
| language       = 
| budget         = 
| gross          = 
}} 2004 film from Senegal.

==Synopsis== planes disturbs the stillness of the birds that stay on the top of the buildings; they take off and fly back to rest. Africa wants to develop itself at all costs; but we do not need to lock ourselves inside buildings, since the sun shines almost all year round.

==References==
 

==External links==
*  

 
 
 
 
 
 


 
 