Talfaza Jaya
 

{{Infobox film
| name           = Talfaza Jaya 
| image          = 
| caption        = 
| director       = Moncef Dhouib 
| producer       = Manara Productions 
| writer         = 
| starring       = Taoufik Bahri Raouf Ben Amor Fatma Ben Saïdane Ammar Bouthelja Nouri Bouzid
| distributor    = 
| released       = 2006
| runtime        = 95
| country        = Tunisia
| language       = 
| budget         = 
| gross          = 
| screenplay     = Moncef Dhouib 
| cinematography = Ahmed Bennys 
| sound          = Faouzi Thabet 
| editing        = Charlène Gravel 
| music          = Rabii Zammouri 
}} 2006 film.

==Synopsis== German TV crew is going to visit the area. The Cultural Committee decides it has to offer a positive image of the village, and the country, and dives head-first into a tremendous work of set dressing to conceal the truth.

==References==
 
*  

 
 


 