Tinye So
 

{{Infobox film
| name           = Tinye So
| image          = 
| alt            =  
| caption        = 
| director       = Daouda Coulibaly 
| producer       = Daouda Coulibaly 
| writer         = 
| screenplay     = Daouda Coulibaly 
| story          = 
| starring       = Bocar Bâ Yaya Coulibaly Téhibou Bagayoko Penda Diakité
| music          = Manjul Ahmed Fofana 
| cinematography = Stéphane Mauger 
| editing        = Daouda Coulibaly 
| studio         = 
| distributor    = 
| released       =   
| runtime        = 24
| country        = Mali
| language       = 
| budget         = 
| gross          = 
}}

Tinye So  is a 2010 film.

== Synopsis == Bambara tradition, the dead are alleged to hold the truth. They take advantage of the cover of night to give advice to the living and guide them. However, as no one listens to them anymore, the ancestors decide to speak for the very last time to the living before forever falling silent.

== Awards ==
* Fespaco 2011
* Milan 2011

== References ==
 

 
 


 