50 Years! Of Love?
 
 
 

{{Infobox film
| name           = 50 Years! Of Love?
| image          =
| caption        =
| director       = Karin Slater, Steven Bartlo
| producer       = Durga Shakti Films
| writer         =
| starring       =
| distributor    =
| released       = 2008
| runtime        = 89 minutes
| country        = South Africa
| language       =
| budget         =
| gross          =
| screenplay     = Karin Slater, Steven Bartlo
| cinematography = Karin Slater, Steven Bartlo
| editing        = Anja Bombelli
| music          =
}}

50 Years! Of Love?  is a South African 2008 documentary film.

== Synopsis == Golden Anniversaries must be in danger of extinction, they decide to dig deeper into the truths behind marriage by interviewing couples who have been together for 50 years or more. Only then will they decide whether or not to take that giant step themselves.

== References ==
 

 
 
 
 


 
 