Eight Ranger
 
{{Infobox film
| name           = Eight Ranger
| image          = 
| image size     = 
| border         = 
| alt            = 
| caption        = 
| director       = Yukihiko Tsutsumi
| producer       = 
| writer         = 
| screenplay     = 
| story          = 
| based on       =  
| narrator       = 
| starring       = You Yokoyama Subaru Shibutani Shingo Murakami Ryuhei Maruyama Shota Yasuda Ryo Nishikido Tadayoshi Okura Hiroshi Tachi 
| music          = 
| cinematography = 
| editing        = 
| studio         = Toho, J Storm
| distributor    = Toho
| released       =   
| runtime        = 
| country        = Japan
| language       = Japanese
| budget         = 
| gross          = 
}}

  is a 2012 Japanese film directed by Yukihiko Tsutsumi starring the members of Japanese boy band Kanjani Eight. 

==Cast==
*You Yokoyama
*Subaru Shibutani
*Shingo Murakami
*Ryuhei Maruyama
*Shota Yasuda
*Ryo Nishikido
*Tadayoshi Okura
*Hiroshi Tachi
*Renji Ishibashi
*Ryuhei Ueshima Becky
*Misako Renbutsu
*Ryosei Tayama Hitomi Takahashi
*Naoto Takenaka
*Noriyuki Higashiyama

==See also==
*Kanjani Sentai Eight Ranger 

==References==
 

==External links==
* 

 
 

 
 
 
 
 
 


 