Les Deux Souris blanches
 

{{Infobox film
| name           = Les Deux Souris blanches 
| image          = 
| caption        = 
| director       = Zouhaier Mahjoub
| producer       = Hassen Daldoul
| writer         = 
| starring       = 
| distributor    = 
| released       = 1974
| runtime        = 15
| country        = Tunisia
| language       = 
| budget         = 
| gross          = 
| screenplay     = 
| cinematography = 
| sound          = 
| editing        = Joulak Faouzia
| music          = Hichem Jerbi
}} 1974 film.

==Synopsis==
An evil witch called Khira transforms a couple of princes, Jamil and Jamila, into two white mice. She also tells them that they will not recover their human form again until another human discovers the strongest person in the world, capable of making her perish by fire.

==References==
 

 
 
 


 