Le Quotidien des automates
 

{{Infobox film
| name           = Le Quotidien des automates 
| image          = 
| caption        = 
| director       = Abdelghani Raoui
| producer       = Julien Hecker, Audimage
| writer         = 
| starring       = 
| distributor    = 
| released       = 2006
| runtime        = 13
| country        = Algeria
| language       = 
| budget         = 
| gross          = 
| screenplay     = Abdelghani Raoui
| cinematography = 
| sound          = 
| editing        = Abdelghani Raoui
| music          = 
}}
 Algerian film.

== Synopsis == surreal environment, where everything slips away from him..

== References ==
 

 
 
 


 