One and Five
 

{{Infobox film
| name           = One and Five 
| image          = 
| caption        = 
| director       = Noshi Iskandar
| producer       = Agencia de cine árabe 
| writer         = 
| starring       = 
| distributor    = 
| released       = 1969
| runtime        = 8
| country        = Egypt
| language       = 
| budget         = 
| gross          = 
| screenplay     = Noshi Iskandar 
| cinematography = 
| sound          = 
| editing        = Adil Munir 
| music          = Hasan Abu Zid
}}

One and Five  is an 1969 short film from Egypt.

== Synopsis ==
How can a man fend off five monkeys who have made up their mind to bug him? All the man wants is to rest under a tree, but the animals insist on drawing his attention.

== References ==
 

 
 


 