Contras'city
{{Infobox film
| name           = Contrascity
| image          = 
| caption        = 
| director       = Djibril Diop Mambéty
| producer       = Kankourama
| writer         = 
| starring       = Inge Hirschnitz, Djibril Diop Mambéty
| distributor    = 
| released       = 1968
| runtime        = 21 minutes
| country        = Senegal
| language       = 
| budget         = 
| gross          = 
| screenplay     = Djibril Diop Mambéty
| cinematography = Georges Bracher
| editing        = Jean-Bernard Bonis, Marino Rio
| music          = Djimbo Kouyaté
}}

Contrascity is a Senegalese 1968 short documentary film.

== Synopsis ==
A fictional documentary that portrays the city of   of the Government buildings, the modest stores of the craftsmen near the main market.

== References ==
 

 

 
 
 
 
 
 
 
 
 
 
 


 
 