Le Fil vert
 
 
{{Infobox film
| name           = Le Fil vert
| image          = 
| alt            =  
| caption        = 
| director       = Youssef El Kettabi
| producer       = Youssef El Kettabi
| screenplay     = Brahim El Kettabi
| starring       = 
| music          = 
| cinematography = Youssef El Kettabi
| editing        = 
| studio         = 
| distributor    = 
| released       =   
| runtime        = 24 minutes
| country        = Morocco
| language       = 
| budget         = 
| gross          = 
}}

Le Fil vert is a 2010 documentary film.

== Synopsis ==
Can cultural heritage and ancient customs help conserve the environment and biodiversity? This is what this documentary shows as it offers us images of typical plants from Morocco.

== Awards ==
* Festival Nacional de Cine Didáctico, Fez, 2010

== References ==
 

 
 
 
 
 
 
 
 
 
 


 
 