Koundi et le jeudi national
{{Infobox film
| name           = Koundi et le jeudi national
| image          = 
| alt            =  
| caption        = 
| director       = Ariani Astrid Atodji
| producer       = Goethe Institut
| screenplay     = Ariani Astrid Atodji
| starring       = 
| music          = 
| cinematography = Isabelle Casez
| editing        = Mathilde Rousseau Sebastian Winkels
| studio         = 
| distributor    = 
| released       =   
| runtime        = 86 minutes
| country        = Cameroon
| language       = 
| budget         = 
| gross          = 
}}

Koundi et le jeudi national is a 2010 documentary film.

== Synopsis == East Province. cocoa plantation over several hectares to be able to depend on themselves. They also institute "National Thursday": Once a month, they all work on the development of the cocoa plantation. Village life through the prism of self-management.

== Awards ==
* Dubai 2010
* Griot de Ébano FCAT 2011

== References ==
 

 

 
 
 
 
 
 
 
 


 
 