Une Fenêtre ouverte
 

{{Infobox film
| name           = Une Fenêtre ouverte
| image          = 
| caption        = 
| director       = Khady Sylla
| producer       = GUISS GUISS Communication Athénaïse
| writer         = 
| starring       = 
| distributor    = 
| released       = 2005
| runtime        = 52 minutes
| country        = France Senegal
| language       = 
| budget         = 
| gross          = 
| screenplay     = Khady Sylla
| cinematography = Charlie Van Damme
| editing        = Amrita David
| music          = 
}}

Une Fenêtre ouverte is a 2005 documentary film.

== Synopsis == madness be described? Is it possible to express the pain that it entails? In 1994, when she was about to fall prey to her illness, Khady Sylla met Aminta Ngom, who exhibited her madness freely, without fear of provocation. During her years of suffering, Aminta was her window to the world.

== Awards ==
* Filmer à tout prix – Bruxelles 2006
* Vue sur les Docs – Marseille 2005

== References ==
 

 
 
 
 
 
 
 
 


 
 