Dibratrir Kabya
 
{{Infobox film
| name           = Dibratrir Kabya
| image          = 
| caption        = 
| director       = Bimal Bhowmik Narayan Chakraborty
| producer       = 
| story          = 
| screenplay     = 
| based on       = 
| starring       =  
| music          = Timir Baran
| cinematography = 
| editing        = 
| studio         = 
| distributor    =  
| released       =  
| runtime        = 
| country        = India Bengali
| budget         =  
| gross          = 
}} Bengali black-and-white National Film Awards at the 17th National Film Awards.

==Cast==
* Madhabi Mukherjee
* Anjana Bhowmik
* Basant Choudhury
* Anubha Gupta
* Kanu Bannerjee

==Awards==
* National Film Award for Second Best Feature Film.
* National Film Award for Best Actress – Madhabi Mukherjee 

==References==
 

 
 
 
 


 