The Far Side of Jericho
{{Infobox film
| name           = The Far Side of Jericho
| image          = 
| image_size     = 
| caption        =  Tim Hunter
| writer         = Lou Berger Judy Freudberg
| narrator       = 
| starring       = Patrick Bergin
| music          = John Powell
| cinematography = 
| editing        = John Carnochan
| studio         = DisneyToon Studios Walt Disney Pictures
| distributor    = Buena Vista Pictures Distribution
| released       = 2006
| runtime        = 99 mins.
| country        = United States
| language       = English
| budget         = 
| gross          = 
| preceded_by    = 
| followed_by    = 
| website        = 
| amg_id         = 
}} Tim Hunter. It stars Patrick Bergin and Lawrence Pressman. 

==Cast==
*Patrick Bergin as Jake
*Lawrence Pressman as Van Damn
*James Gammon as The Preacher
*John Diehl as Cash Thornton
*C. Thomas Howell as Little Jeremy Thornton

==References==
 

==External links==
* 

 

 
 
 