Paint It Black (film)
{{Infobox film
| name           = Paint It Black
| image          = 
| image_size     = 
| caption        =  Tim Hunter
| writer         = 
| narrator       = 
| starring       = Rick Rossovich
| music          = 
| cinematography = 
| editing        = 
| studio         = 
| distributor    = 
| released       = 
| runtime        = 104 mins.
| country        = United States
| language       = English
| budget         = 
| gross          = 
| preceded_by    = 
| followed_by    = 
| website        = 
| amg_id         = 
}} Tim Hunter. It stars Rick Rossovich and Doug Savant. 

==Cast==
*Rick Rossovich as Jonathan Dunbar
*Doug Savant as Eric Hinsley
*Julie Carmen as Gina Bayworth
*Sally Kirkland as Maria Easton
*Martin Landau as Daniel Lambert

==References==
 

==External links==
* 

 

 
 
 
 

 