Whom Should We Shoot?
 
{{Infobox film
| name           = Whom Should We Shoot?
| image          = 
| caption        = 
| director       = Kamal El Sheikh
| producer       = 
| writer         = 
| starring       = Soad Hosny
| music          = 
| cinematography = 
| editing        = 
| distributor    = 
| released       =  
| runtime        = 91 minutes
| country        = Egypt
| language       = Arabic
| budget         = 
}}
 Best Foreign Language Film at the 49th Academy Awards, but was not accepted as a nominee. 

==Cast==
* Soad Hosny
* Mahmoud Yassine
* Gamil Ratib

==See also==
* List of submissions to the 49th Academy Awards for Best Foreign Language Film
* List of Egyptian submissions for the Academy Award for Best Foreign Language Film

==References==
 

 
 
 
 
 
 
 