Dhanyam
{{Infobox film
| name           = Dhanyam
| image          = Dhanyam_film.jpg
| image size     =
| border         =
| alt            =
| caption        =
| director       = Jayalal
| producer       = Joyson Puthukkattil
| writer         = Rasheed Parackal
| screenplay     = Rasheed Parackal
| story          =
| based on       =  
| narrator       =
| starring       = Pratheesh Nandan  Pooja Vijayan Chathannoor  Ambika Mohan
| music          = K. K. Sebastian
| cinematography = R. Maniprasad
| editing        = P. C. Mohan
| studio         = Pooram Arts
| distributor    = Screen Craft
| released       =   
| runtime        =
| country        = India
| language       = Malayalam
| budget         =
| gross          =
}} Pooja in the lead roles.         

==Plot==
Dhanyam tells about the virtues of Kerala village life and culture.         

==References==
 

 
 
 
 


 