Emil and the Detectives (1964 film)
{{Infobox film
| name           = Emil and the Detectives
| image          = Emil and the Detectives Film.jpg
| image_size     = 
| caption        = 
| director       = Peter Tewksbury
| writer         = Erich Kästner
| narrator       = 
| starring       = Walter Slezak
| music          = 
| cinematography =  Thomas Stanford Walt Disney Productions Buena Vista Distribution
| released       = December 18, 1964
| runtime        = 92 mins.
| country        = United States
| language       = English
| budget         = 
| gross          = $1,275,000 
| preceded_by    = 
| followed_by    = 
| website        = 
| amg_id         = 
}}
 book by German author Erich Kästner. The film stars Walter Slezak and Bryan Russell. 

==Cast==
*Walter Slezak as Baron
*Bryan Russell as Emil Tischbein
*Roger Mobley as Gustav Heinz Schubert as Grundeis
*Peter Ehrlich as Muller

==References==
 

==External links==
*  
* 

 

 
 
 
 
 
 

 