Apmaan Ki Aag
{{Infobox film
| name           = Apmaan Ki Aag
| image          = ApmaanKiAag.jpg
| image_size     = 
| border         = 
| alt            = 
| caption        = 
| director       = Talukdars	
| producer       = Vijay K. Ranglani	
| writer         = Talukdars  Tanveer Khan (dialogue)
| screenplay     = 
| story          = 
| based on       =  
| narrator       =  Govinda  Sonam
| music          = Nadeem-Shravan
| cinematography = Munir Khan
| editing        = Hussain A. Burmawala	 
| studio         = 
| distributor    = 
| released       = December 21, 1990
| runtime        = 
| country        = 
| language       = 
| budget         = 
| gross          = 
}}
 Indian Bollywood Govinda and Sonam in pivotal roles.  

==Cast==
* Govinda (actor)|Govinda...Vikrant Vicky Narayan Singh
* Sonam (actress)|Sonam...Mona S. Singh
* Aruna Irani...Mrs. Singh - Vikrants mom
* Dinesh Hingoo...Daruwala
* Kader Khan...Retd. Col. Suryadev Singh
* Gulshan Grover...J.D. Chaudhary
* Vikram Gokhale...Police Commissioner S.R. Chaudhary
* Satish Shah...Monty Nagpal
* Mahavir Shah...Inspector Damodar

==References==
 

==External links==
* 

 
 
 
 

 