Hotel Swooni
{{Infobox film
| name           = Hotel Swooni
| image          = 
| caption        = 
| director       = Kaat Beels
| producer       = Gitte Nuyens
| writer         = Michel Sabbe Annelies Verbeke
| starring       = Natali Broods
| music          = 
| cinematography = Frank van den Eeden
| editing        = 
| distributor    = 
| released       =  
| runtime        = 90 minutes
| country        = Belgium
| language       = Dutch, French
| budget         = 
}}

Hotel Swooni ( ) is a 2011 Belgian drama film directed by Kaat Beels.    

==Cast==
* Natali Broods as Vicky
* Enrique De Roeck as Jens
* Sara de Roo as Anna
* Viviane de Muynck as Violette
* Alexander Provoost as Kissing man
* Isaka Sawadogo as Amadou
* Vigny Tchakouani as Joyeux
* Geert Van Rampelberg as Hendrik

==References==
 

==External links==
*  

 
 
 
 
 
 
 