The Old People
{{Infobox film
| name           = The Old People
| image          = 
| caption        = 
| director       = Martín Boulocq
| producer       = Alba Balderrama
| writer         = Martín Boulocq Rodrigo Hasbún
| starring       = Roberto Guilhon
| music          = 
| cinematography = 
| editing        = 
| distributor    = 
| released       =  
| runtime        = 80 minutes
| country        = Bolivia
| language       = Spanish
| budget         = 
}}

The Old People ( ) is a 2011 Bolivian drama film directed by Martín Boulocq.    

==Cast==
* Andrea Camponovo as Ana
* Fabricio Camponovo as Fabricio
* Roberto Guilhon as Tono Julio Iglesias as Tio Mario

==References==
 

==External links==
*  

 
 
 
 
 
 