£100 Reward
{{Infobox film
| name           = £100 Reward
| image          = 
| image_size     = 
| border         = 
| alt            = 
| caption        =  James Williamson
| producer       = 
| writer         = 
| screenplay     = 
| story          = 
| based on       =  
| narrator       = 
| starring       = 
| music          = 
| cinematography = 
| editing        = 
| studio         = Williamson Kinematograph Company
| distributor    = 
| released       = April 1908
| runtime        = 6 minutes 34 seconds
| country        = United Kingdom
| language       = Silent film
| budget         = 
| gross          = 
}}
 short silent silent film James Williamson.   

==Plot==
A poor family, suffering from a lack of food, plan to sell their dog to gain some extra income. Before they act on their plan, the dog discovers some buried jewels. These turn out to be stolen, and the family are given a £100 reward.

==References==
 

 
 
 
 
 


 