Found Memories
{{Infobox film
| name           = Found Memories
| image          = 
| caption        = 
| director       = Júlia Murat
| producer       = 
| writer         = Júlia Murat Maria Clara Escobar
| starring       = Lisa Fávero
| music          = 
| cinematography = Lucio Bonelli
| editing        = 
| distributor    = 
| released       =  
| runtime        = 98 minutes
| country        = Brazil
| language       = Portuguese
| budget         = 
}}

Found Memories ( ) is a 2011 Brazilian drama film directed by Júlia Murat.        It won the Best Narrative Feature Jury Award at the 2012 RiverRun International Film Festival.   

==Cast==
* Lisa Fávero as Rita
* Sonia Guedes as Madalena
* Ricardo Merkin
* Luiz Serra as Antonio

==References==
 

==External links==
*  

 
 
 
 
 
 
 