Swirl (film)
 
{{Infobox film
| name           = Swirl
| image          = Swirl film.jpg
| caption        = Film poster
| director       = Clarissa Campolina Helvécio Marins Jr.
| producer       = 
| writer         = Felipe Bragança
| starring       = Maria Sebastian Martins Alvaro
| music          = 
| cinematography = Ivo Lopes Araújo
| editing        = 
| distributor    = 
| released       =  
| runtime        = 90 minutes
| country        = Brazil
| language       = Portuguese
| budget         = 
}}
Swirl ( ) is a 2011 Brazilian drama film directed by Clarissa Campolina and Helvécio Marins Jr.       

==Cast==
* Maria Sebastian Martins Alvaro
* Luciene Soares da Silva
* Wanderson Soares da Silva
* Maria da Conceição Gomes de Moura

==References==
 

==External links==
*  

 
 
 
 
 
 