Familiar Grounds
 
{{Infobox film
| name           = Familiar Grounds
| image          = Familiar Grounds film poster.jpg
| caption        = Film poster
| director       = Stéphane Lafleur
| producer       = Luc Déry Kim McCraw
| writer         = Stéphane Lafleur
| starring       = Francis La Haye
| music          = 
| cinematography = Sara Mishara
| editing        = 
| distributor    = 
| released       =  
| runtime        = 90 minutes
| country        = Canada
| language       = French
| budget         = 
}}

Familiar Grounds ( ) is a 2011 Canadian drama film directed by Stéphane Lafleur.    

==Cast==
* Francis La Haye as Benoit
* Fanny Mallette as Maryse
* Michel Daigle as André
* Sylvain Marcel as Alain
* Denis Houle as LHomme du futur
* Suzanne Lemoine as Nathalie

==References==
 

==External links==
*  

 
 
 
 
 
 
 
 