Return Ticket
 
{{Infobox film
| name           = Return Ticket
| image          = Return Ticket.jpg
| caption        = Film poster
| director       = Teng Yung-shin
| producer       = Lanping Shan Hou Hsiao-Hsien
| writer         = 
| starring       = Bin Bin Li
| music          = 
| cinematography = Shao-Yu Hsia
| editing        = 
| distributor    = 
| released       =  
| runtime        = 85 minutes
| country        = China
| language       = Mandarin
| budget         = 
}}

Return Ticket ( ) is a 2011 Chinese drama film directed by Teng Yung-shin.    

==Cast==
* Li Bin Bin as Guozi
* Qin Hailu as Cai Li
* Yiquan Shen 沈弈铨 as Jiuzi
* Qun Tang 唐群

==References==
 

==External links==
*  

 
 
 
 
 
 
 
 