Silence in Paradise
{{Infobox film
| name           = Silence in Paradise
| image          = 
| caption        = 
| director       = Colbert Garcia
| producer       = 
| writer         = Colbert Garcia Mauricio Cuervo
| starring       = Linda Baldrich
| music          = 
| cinematography = 
| editing        = 
| distributor    = 
| released       =  
| runtime        = 92 minutes
| country        = Colombia
| language       = Spanish
| budget         = 
}}

Silence in Paradise ( ) is a 2011 Colombian drama film directed by Colbert Garcia.       

==Cast==
* Linda Baldrich as Lady
* Francisco Bolívar as Ronald

==References==
 

==External links==
*  

 
 
 
 
 
 