Colombian Postcards
{{Infobox film
| name           = Colombian Postcards
| image          = 
| caption        = 
| director       = Ricardo Coral
| producer       = Linithd Aparicio
| writer         = 
| starring       = 
| music          = 
| cinematography = 
| editing        = 
| distributor    = 
| released       =  
| runtime        = 94 minutes
| country        = Colombia
| language       = Spanish
| budget         = 
}}

Colombian Postcards ( ) is a 2011 Colombian comedy film directed by Ricardo Coral.    

==References==
 

==External links==
*  

 
 
 
 
 
 
 