Karen Cries on the Bus
{{Infobox film
| name           = Karen Cries on the Bus
| image          = 
| caption        = 
| director       = Gabriel Rojas Vera
| producer       = Alejandro Prieto
| writer         = Gabriel Rojas Vera
| starring       = Angela Carrizosa
| music          = 
| cinematography = Manuel Castañeda
| editing        = 
| distributor    = 
| released       =  
| runtime        = 98 minutes
| country        = Colombia
| language       = Spanish
| budget         = 
}}

Karen Cries on the Bus ( ) is a 2011 Colombian drama film written and directed by Gabriel Rojas Vera.    

==Cast==
* Angela Carrizosa as Karen
* Juan Manuel Diaz Oroztegui as Eduardo
* Diego Galindo as César Angelica Sanchez as Patricia

==References==
 

==External links==
*  

 
 
 
 
 
 