Behind You
{{Infobox film
| name           = Behind You
| image          = Behind You film poster.jpg
| caption        = Film poster
| director       = Tito Jara
| producer       = 
| writer         = Tito Jara
| starring       = Lily Alejandra
| music          = 
| cinematography = Alvaro Duran
| editing        = 
| distributor    = 
| released       =  
| runtime        = 76 minutes
| country        = Ecuador
| language       = Spanish
| budget         = 
}}

Behind You ( ) is a 2011 Ecuadorian drama film written and directed by Tito Jara.    

==Cast==
* Lily Alejandra as Yahaira
* Nicolás Hogan as Luis Alberto Granada de la Roca
* Jenny Nava as Greta
* Gabino Torres as Jorge Chicaiza Cisneros

==References==
 

==External links==
*  

 
 
 
 
 
 