Rishta Kagaz Ka
{{Infobox film
| name           = Rishta Kagaz Ka
| image          = RishtaKaagazKaa.png
| image_size     = 
| border         = 
| alt            = 
| caption        = Promotional Poster
| director       = Ajay Goel	
| producer       = Ajay Goel	
| writer         = 
| screenplay     = 
| story          = 
| based on       =  
| narrator       = 
| starring       = Raj Babbar Rati Agnihotri
| music          = Rajesh Roshan
| cinematography = Keki Mistry
| editing        = 
| studio         = 
| distributor    = 
| released       =    
| runtime        = 
| country        = India Hindi
| budget         = 
| gross          = 
}}
 Indian Bollywood film produced and directed by Ajay Goel. It stars Raj Babbar and Rati Agnihotri in pivotal roles. 

==Cast==
* Raj Babbar...Arun Sharma
* Rati Agnihotri...Aarti A. Sharma
* Nutan...Suman Sharma
* Suresh Oberoi...	Dr. Ravi Kaul
* Neeta Mehta...Roopa
* Iftekhar...Bhatnagar
* Urmila Bhatt...Mrs. Kaul
* Jagdish Raj...Aartis dad

==References==
 

==External links==
* 

 
 
 

 