Pyaar Kiya Nahin Jaatha
 
{{Infobox film name           =Pyaar Kiya Nahi Jaathan image          =  director       =Mahesh Manjrekar writer         = Mahesh Manjrekar  Shyam Anuragi starring       = Nikhil Chinapa  Sonali Bendre Diwakar Pundir Om Puri Usha Bachani music          = Anand Raj Anand| producer       = Sagoon Wagh cinematography = editing        =  distributor    = Satyaswami entertainment limited released       =   runtime        = 
| country       = India language       = Hindi gross          = 
}} 2003 Hindi Hindi Romance film directed by Mahesh Manjrekar. The film features Diwakar Pundir and Sonali Bendre in the lead roles. The film deals with a Love tale. 
==Soundtrack==
{| class="wikitable"
|-
! Track # !! Song !! Artist !! Length
|-
| 1 || Unke Labon Pe || Sonu Nigam, Sunidhi Chauhan & Santripi || 06:51
|-
| 2 || Pyaar Kiya Nahin Jaata || Sonu Nigam, Anuradha Paudwal & Pt Ajay Pohankar || 06:10
|-
| 3 || Aaja Meri Baahon Mein || Sonu Nigam & Saraswati Phukan || 04:33
|-
| 4 || Tere Bin Koi Bhi Pal || Atul Kale || 04:53
|-
| 5 || Ho Jata Hai Ye Pyaar || Anuradha Paudwal || 04:33
|-
| 6 || Kabhi Socha Na Tha Maine || Sonu Nigam & Sonali Vajpayee || 05:00
|-
| 7 || Nazrein Mil Jaati Hai || Sonu Nigam & K.S. Chitra || 06:07
|-
| 8 || Raaste Yahan || Babul Supriyo & Sadhana Sargam || 05:33
|}
==References==
 

==External links==
*  

 
 
 
 
 


 
 