The Bewitched Inn
{{Infobox film
| name           = The Bewitched Inn
| image          = Lauberge ensorcelée (1897) - yt.webm
| image_size     = 
| caption        = 
| director       = Georges Méliès
| producer       = 
| writer         = 
| narrator       = 
| starring       = 
| music          = 
| cinematography = 
| editing        = 
| distributor    = 
| released       = 1897
| runtime        = Short
| country        = France
| language       = Silent film
| budget         = 
| preceded_by    = 
| followed_by    = 
}} silent short film directed by Georges Méliès and released in 1897.

==External links==
* 

 

 
 
 
 
 
 
 
 


 
 