Dirty Bomb (film)
{{Infobox film
| name           = Dirty Bomb
| image          = 
| caption        = 
| director       = Elias Koskimies
| producer       = Jarkko Hentula
| writer         = Elias Koskimies
| starring       = Malla Malmivaara
| music          = 
| cinematography = Henri Blomberg
| editing        = 
| distributor    = 
| released       =  
| runtime        = 90 minutes
| country        = Finland
| language       = Finnish
| budget         = 
}}

Dirty Bomb ( ) is a 2011 Finnish comedy film written and directed by Elias Koskimies.    

==Cast==
* Malla Malmivaara as Mirccu
* Jukka Puotila as Martin Bakka
* Ilkka Villi as Roba
* Iida Lampela as PD
* Niina Herala as Laura Melanie
* Jussi Vatanen as Jali

==References==
 

==External links==
*  

 
 
 
 
 
 
 