Pape Naa Pranam
{{Infobox film
| name           = Pape Naa Pranam
| image          =
| caption        =
| director       = B.V. Ramana
| producer       = N. Ramadas Naidu
| writer         = Meena Ashish Chandra Mohan Baby Ayushi Koti
| cinematography =
| editing        =
| released       =  
| runtime        =
| country        = India
| language       = Telugu
| budget         =
| gross          =
}}

Pape Naa Pranam is a 2000 Telugu film starring J. D. Chakravarthy. The film was dubbed into Hindi as Aaj Ka Baadshah.  

==References==
 

==External links==
*http://pape-naa-pranam.moviedost.com/

 
 
 
 

 