A Friend of Mine (2011 film)
{{Infobox film
| name           = A Friend of Mine
| image          = 
| caption        = 
| director       = Mart Kivastik
| producer       = Anneli Ahven
| writer         = 
| starring       = Raivo Adlas
| music          = 
| cinematography = Jarkko T. Laine
| editing        = 
| distributor    = 
| released       =  
| runtime        = 102 minutes
| country        = Estonia
| language       = Estonian
| budget         = 
}}

A Friend of Mine ( ) is a 2011 Estonian drama film directed by Mart Kivastik.    

==Cast==
* Raivo Adlas as Head Doctor
* Aleksander Eelmaa as Sass
* Indrek Kalda as Bus driver
* Ingmar-Erik Kiviloo as Karl
* Markus Luik as Tõnn
* Tõnu Oja as Doctor
* Rita Raave as Ruth
* Sulev Teppart as Psychiatrist
* Harriet Toompere as Mari
* Aarne Üksküla as Mati

==References==
 

==External links==
*  

 
 
 
 
 
 