The Mysterious Portrait
{{Infobox film
| name           = The Mysterious Portrait
| image          = Portrait Mysterieux print.jpg
| image_size     = A scene from the film
| caption        = 
| director       = Georges Méliès
| producer       = 
| writer         = 
| narrator       = 
| starring       = 
| music          = 
| cinematography = 
| editing        = 
| distributor    = 
| released       = 1899
| runtime        = Short
| country        = France
| language       = Silent film
| budget         = 
| preceded_by    = 
| followed_by    = 
}}
The Mysterious Portrait (French: Le portrait mystérieux) was a short silent film created and released in 1899 and directed by Georges Méliès.      

==References==
 

==External links==
* 
*   on YouTube

 

 
 
 
 
 
 

 