The Devil in a Convent
{{Infobox film
| name           = The Devil in a Convent
| image          = 
| image_size     = 
| caption        = 
| director       = Georges Méliès
| producer       = 
| writer         = 
| starring       = Georges Méliès
| cinematography = 
| editing        = 
| studio         = Star Film Company
| released       = 1899
| runtime        = 60 meters 
| country        = France
| language       = Silent
}}
 short silent film directed by Georges Méliès. It was released by Mélièss Star Film Company and is numbered 185–187 in its catalogues, which also specified the films three scenes (1. Les nonnes, le sermon. 2. Les démons, le sabbat. 3. Le clergé, lexorcisme).    Méliès himself plays the Devil. 

==References==
 

==External links==
* 
*   on YouTube

 

 
 
 
 
 
 
 
 

 