Russian Doll (film)
 
 
{{Infobox film
| name           = Russian Doll
| image          = 
| image size     =
| caption        = 
| director       =
| producer       =
| writer         = 
| based on = 
| narrator       =
| starring       = Hugo Weaving David Wenham
| music          = 
| cinematography = 
| editing        = 
| studio = 
| distributor    = 
| released       = 2001
| runtime        = 
| country        = Australia English
| budget         = 
| gross = A$464,065 (Australia) 
| preceded by    =
| followed by    =
}}

Russian Doll is a 2001 film by Stavros Kazantzidis starring Hugo Weaving. 

==References==
 

==External links==
* 
* 
* 
* 

 
 
 

 