An Up-to-Date Conjuror
{{Infobox film
| name           = An Up-to-Date Conjuror
| image          = 
| image_size     = 
| caption        = 
| director       = Georges Méliès
| producer       = 
| writer         = 
| narrator       = 
| starring       = 
| music          = 
| cinematography = 
| editing        = 
| distributor    = 
| released       = 1899
| runtime        = Short
| country        = France
| language       = Silent film
| budget         = 
| preceded_by    = 
| followed_by    = 
}}
An Up-to-Date Conjuror (French: Limpressionniste fin de siècle) was a short silent film created and released in 1899 and directed by Georges Méliès.

==External links==
* 
*   on YouTube

 

 
 
 
 
 
 


 