Änglagård – tredje gången gillt
{{Infobox film
| name           = Änglagård - Tredje gången gillt
| image          = 
| alt            = 
| caption        = 
| director       = Colin Nutley
| producer       = Colin Nutley
| writer         = Colin Nutley
| starring       = 
| music          = 
| cinematography = Jens Fischer
| editing        = 
| studio         = 
| distributor    = 
| released       =  
| runtime        = 117 minutes
| country        = Sweden
| language       = Swedish
| budget         = 
| gross          = 
}}
Änglagård – tredje gången gillt is a Swedish film that premiered on 25 December 2010 in cinemas. Is the third film of the Änglagård (film)|Änglagård film trilogy.   

== Cast ==
* Helena Bergström – Fanny Zander 
* Reine Brynolfsson – Henning Collmer
* Molly Nutley – Alice Zander
* Jakob Eklund – Mårten Flogfält
* Sven Wollter – Axel Flogfält
* Rikard Wolff – Zac 
* Jan Mybrand - Per-Ove Ågren
* Ing-Marie Carlsson - Eva Ågren
* Lena T Hansson - Mona
* Maria Lundqvist - Anki

== References ==
 

==External links==
*  
*  

 

 
 
 


 