Dream and Silence
{{Infobox film
| name           = Dream and Silence
| image          = Sueño y silencio.jpg
| caption        = Film poster Jaime Rosales
| producer       = Jaime Rosales
| writer         = Jaime Rosales
| starring       = Maria de Medeiros
| music          = 
| cinematography = Óscar Durán
| editing        = 
| distributor    = 
| released       =  
| runtime        = 
| country        = Spain
| language       = Spanish
| budget         = 
}}
 Jaime Rosales. The film was screened in the Directors Fortnight section at the 2012 Cannes Film Festival.  

==Cast==
* Maria de Medeiros as Marie Sergi López as Valentí

==References==
 

==External links==
*  

 
 
 
 
 
 
 