Born in Georgia
{{Infobox film
| name           = Born in Georgia
| image          = 
| caption        = 
| director       = Tamar Shavgulidze
| producer       = Guka Rcheulishvili
| writer         = Tamar Shavgulidze
| starring       = Nutsa Kukhianidze
| music          = 
| cinematography = Giorgi Shvelidze
| editing        = 
| distributor    = 
| released       =  
| runtime        = 80 minutes
| country        = Georgia
| language       = Georgian
| budget         = 
}}

Born in Georgia ( ) is a 2011 Georgian drama film directed by Tamar Shavgulidze.    

==Cast==
* Nutsa Kukhianidze (as Nuca kukhianidze)
* Tamar Bziava (as Tamri Bziava)
* Vano Tarkhnishvili
* Giorgi Giorganashvili

==References==
 

==External links==
*  

 
 
 
 
 
 
 