Rock, Pretty Baby
{{Infobox film
| name           = Rock, Pretty Baby
| image          =
| caption        =
| director       = Richard Bartlett
| writer         =
| narrator       = John Saxon Luana Patten Fay Wray Rod McKuen Douglas Fowley
| music          = Henry Mancini
| cinematography =
| editing        =
| studio         =
| distributor    = Universal Pictures|Universal-International Pictures
| released       =  
| runtime        = 89 minutes
| country        = United States
| language       = English
| budget         =
| gross          = $1,430,000 (US) 
| website        =
| amg_id         =
}}
Rock, Pretty Baby is a 1956 feature film starring Sal Mineo.

==References==
 

==External links==
* 
*  at TCMDB

 
 
 
 
 
 
 

 