Hai Meri Jaan
{{multiple issues|
 
 
 
}}

{{Infobox film
| name           = Hai Meri Jaan
| image          = HaiMeriJaanfilm.png
| image_size     = 
| border         = 
| alt            = 
| caption        = Promotional Poster
| director       = Roopesh Kumar
| producer       = Roopesh Kumar
| writer         = 
| screenplay     = 
| story          = 
| based on       =  
| narrator       = 
| starring       = Sunil Dutt Kumar Gaurav Hema Malini Ayesha Jhulka
| music          = Bappi Lahiri
| cinematography = 
| editing        = 
| studio         = 
| distributor    = 
| released       =  
| runtime        = 
| country        = India Hindi
| budget         = 
| gross          = 
}}
 Indian Bollywood film produced and directed by Roopesh Kumar. It stars Sunil Dutt, Kumar Gaurav, Hema Malini and Ayesha Jhulka in pivotal roles. 

==Cast==
* Sunil Dutt...Telegram-walla 
* Kumar Gaurav...Bunty 
* Hema Malini...Reshma 
* Ayesha Jhulka...Neelam
* Nirupa Roy...Neelams grandma / Dadi Maa 

==References==
 

==External links==
* 

 
 
 

 