Big Blue Lake
 
{{Infobox film
| name           = Big Blue Lake
| image          = Big Blue Lake poster.jpg
| caption        = Film poster
| director       = Jessey Tsang Tsui-Shan
| producer       = Teresa Kwong Rita Hui
| writer         = Jessey Tsang Tsui-Shan Bo-bo Luk
| starring       = Leila Tong
| music          = Shigeno Masamichi
| cinematography = Chung-yip Yau
| editing        = Kattie Fan
| distributor    = Golden Scene
| released       =  
| runtime        = 104 minutes
| country        = Hong Kong
| language       = Cantonese
| budget         = 
}}

Big Blue Lake ( , Transliteration|translit.&nbsp;Da lan hu) is a 2011 Hong Kong drama film directed by Jessey Tsang Tsui-Shan.    

==Cast==
* Leila Tong
* Lawrence Chou
* Amy Chum
* Angi Au
* Lillian Ho
* Philip Ng
* Ben Yeung  

==References==
 

==External links==
*  

 
 
 
 
 
 
 