The Lost Domain (film)
 
{{Infobox film
| name           = The Lost Domain
| image          = 
| caption        = 
| director       = Raúl Ruiz (director)|Raúl Ruiz
| producer       = 
| writer         = Raúl Ruiz (director)|Raúl Ruiz
| starring       = 
| music          = Jorge Arriagada
| cinematography = Ion Marinescu
| editing        = Valeria Sarmiento
| distributor    = 
| released       =  
| runtime        = 
| country        = 
| language       = 
| budget         = 
}}

The Lost Domain (French: Le domaine perdu) is a 2005 film directed by Raúl Ruiz (director)|Raúl Ruiz.

==References==
*François Cluzet
*Grégoire Colin
*Edith Scob
*Christian Colin
*Julie Delarme

==References==
 
* 

 

 
 
 
 


 