The Grey Car
 
{{Infobox film
| name           = The Grey Car
| image          = 
| alt            =  
| caption        = 
| director       = Enrique Rosas
| producer       = Enrique Rosas
| writer         = José Manuel Ramos, Enrique Rosas,  Miguel Necoechea
| starring       = María Tereza Montoya  Juan Canals de Homs  Juan Manuel Cabrera Ángel Esquivel Ángel Esquivel
| music          = 
| cinematography = 
| editing        = 
| studio         =  Azteca Films - Rosas y Cía
| distributor    = 
| released       =  
| runtime        = 117 minutes
| country        = Mexico
| language       = 
| budget         = 
| gross          = 
}}
The Grey Car (  which is the number 98 in  . 

==Synopsis==
Detective Cabrera wants to re-establish peace in Mexico City after a vandalism wave.

==External links==
* 
 

 
 
 
 
 
 
 
 
 


 
 