Days in the Country
{{Infobox film
| name           = Days in the Country
| image          = 
| caption        = 
| director       = Raúl Ruiz (director)|Raúl Ruiz
| producer       = 
| writer         = Raúl Ruiz (director)|Raúl Ruiz (based on Federico Gana)
| starring       = 
| music          = Jorge Arriagada
| cinematography = Inti Briones
| editing        = 
| distributor    = 
| released       =  
| runtime        = 89 minutes
| country        = Chile, France
| language       = Spanish
| budget         = 
}}
Days in the Country ( ) is a 2004 Franco-Chilean film written and directed by Raúl Ruiz (director)|Raúl Ruiz.    It won the International Critics Award at the Lima Latin American Film Festival in 2006.   

==Cast==
* Marcial Edwards
* Mario Montilles
* Bélgica Castro
* Ignacio Agüero Francisco Reyes
* Amparo Noguera

==References==
 

==External links==
*  
*   by Maxime Renaudin

 

 
 
 
 
 
 
 
 