Wedding Days
{{Infobox film
| name           = Wedding Days
| image          = 
| alt            =  
| caption        = 
| director       = Juan Pinzás
| producer       = Pilar Sueiro
| writer         = Juan Pinzás
| starring       = Alfonso Agra   Rosa Álvarez   Luís Amérigo   Asunción Balaguer   Comba Campoy   Monti Castiñeiras   Ernesto Chao   Belén Constenla   Ernesto Ferro   Mimy Fuentes   Alejandro Garrido   Javier Gurruchaga   Miguel Ínsua   Juan Manuel de Prada   Pilar Saavedra   Mónica Salgueiro
| music          = Juan Sueiro
| cinematography = 
| editing        = 
| studio         = 
| distributor    = 
| released       =   
| runtime        =104 minutes
| country        = Spain
| language       = Galician
| budget         = 
| gross          = 
}}
 dogma film directed by Juan Pinzás. 

==Synopsis==
Rosendo, a homosexual writer, weds Sonia, because he wants the literature award her father gives.  

==References==
 

==External links==
* 

 
 
 
 
 
 
 