Ukamau
{{Infobox film
| name           = Ukamau
| image          = 
| alt            =  
| caption        = 
| director       = Jorge Sanjinés
| producer       =Nicanor Jordán Castedo
| writer         = Jorge Sanjinés  Oscar Soria
| starring       = Vicente Veneros Salinas  Benedicta Mendoza Huanca  Néstor Cárdenas  Elsa Antequera
| music          = Alberto Villalpando
| cinematography = 
| editing        = 
| studio         = I.C.B. (Instituto Cinematográfico Boliviano)
| distributor    = 
| released       =   
| runtime        = 72 minutes
| country        = Bolivia
| language       = Aymara, Spanish
| budget         = 
| gross          = 
}}

 Ukamau (And so it is in Aymara language) is a 1966 black-and-white  film directed by Jorge Sanjinés. 

==Synopsis==

Sabina (Amerindian) was raped by Rosendo Ramos (Mestizo) and her father Andrés Mayta wants revenge. 

==External links==

* 
*   

 

 
 
 
 
 
 
 

 