Mappilai Vinayagar
{{Infobox film
| name           = Mappillai Vinayagar
| image          = 
| alt            = 
| caption        = 
| director       = Sriram Padmanabhan
| producer       = 
| writer         =  Santhanam
| music          = Abhishek-Lawrence
| cinematography = C. R. Mara
| editing        = 
| studio         = 
| distributor    = 
| released       =  
| runtime        = 
| country        = India
| language       = Tamil
| budget         = 
| gross          = 
}}
 Indian Tamil Tamil comedy Urvashi amongst a bevy of other supporting actors.  

==Cast==
 
* Lollu Sabha Jeeva
* Rashmi Gautam Santhanam
* K. Bhagyaraj
* Pandiarajan Urvashi
* Manobala Srinath
* Uma Padmanabhan
* Mayilswamy
* Paravai Muniyamma
* RJ Balaji
* Shanmugarajan
* Vatsan
* Swaminathan
* Manohar
* Singamuthu
 

==References==
 

 
 
 
 


 