H2O (1929 film)
 
{{Infobox film
| name           = H2O
| image          =
| caption        =
| director       = Ralph Steiner
| producer       =
| writer         =
| starring       =
| cinematography =
| editing        =
| distributor    =
| released       =  
| runtime        = 13 minutes
| country        = United States
| language       = Silent film English intertitles
| budget         = 
}}
 cinematic tone poem showing water in its many forms.

In 2005, H2O was selected for preservation in the United States National Film Registry by the Library of Congress as being "culturally, historically, or aesthetically significant".

==External links==
*  
*  
* 
*  at UbuWeb

 

 
 
 
 
 


 