A Fear of Strangers
{{Infobox film
|  name           =
|  director       = Herbert Wise
|  producer       =
|  writer         = Leon Griffiths Earl Cameron
|  music          =
|  cinematography =
|  editing        =
|  distributor    =
|  released       = 1964
|  runtime        = 60 mins
|  language       = English
|  country        = United Kingdom
|  budget         =
}}
A Fear of Strangers is a 1964 British TV drama starring Stanley Baker as a racist police inspector. Although written in 1958 it was banned for six years. 

==References==
 

==External links==
*  at IMDB

 
 
 
 
 
 


 
 