Mekong Hotel
 
{{Infobox film
| name           = Mekong Hotel
| image          = 
| caption        = 
| director       = Apichatpong Weerasethakul
| producer       = Simon Field Keith Griffiths
| writer         = Apichatpong Weerasethakul
| starring       = 
| music          = 
| cinematography = 
| editing        = 
| distributor    = 
| released       =  
| runtime        = 61 minutes
| country        = Thailand
| language       = English
| budget         = 
}}

Mekong Hotel is a 2012 Thai film directed by Apichatpong Weerasethakul. The film was screened in the Special Screenings section at the 2012 Cannes Film Festival.      

==References==
 

==External links==
*  

 

 
 
 
 
 
 
 