Chhote Sarkar (1974 film)
{{Infobox film
| name           = Chhote Sarkar
| image          = 
| image_size     = 
| border         = 
| alt            = 
| caption        = 
| director       = K. Shankar
| producer       = 
| writer         = 
| screenplay     = 
| story          = 
| based on       =  
| narrator       =  Sadhana
| music          = Shankar Jaikishan
| cinematography = 
| editing        = 
| studio         = 
| distributor    = 
| released       =  
| runtime        = 
| country        = India Hindi
| budget         = 
| gross          = 
}}
 Indian Bollywood Sadhana in pivotal roles.

==Cast==
* Shammi Kapoor Sadhana
* Helen
* Jagdish Raj
* Sulochana Latkar Asit Sen
* Uma Dutt
* Rajan Kapoor
* Rajan Kapoor...
==External links==
* 

 
 
 
 
 

 