Pygmalion (1935 film)
{{Infobox film
| name           = Pygmalion
| image          = 
| image_size     = 
| border         = 
| alt            = 
| caption        = 
| director       = Erich Engel
| producer       = 
| writer         = Heinrich Oberländer (book) George Bernard Shaw (play)
| screenplay     = 
| story          = 
| based on       = Pygmalion (play)|Pygmalion (play)
| narrator       = 
| starring       = 
| music          = 
| cinematography = 
| editing        = 
| studio         = Klagemann-Film GmbH
| distributor    = 
| released       =  
| runtime        = 92 minutes Germany
| German
| budget         = 
| gross          = 
}}

Pygmalion is a 1935 German film based on George Bernard Shaws play Pygmalion (play)|Pygmalion.

==External links==
*  

 

 
 
 
 
 
 
 
 

 