Shankara (1991 film)
{{Infobox film
| name           = Shankara
| image          = 
| image_size     = 
| border         = 
| alt            = 
| caption        = 
| director       = Sudarshan Nag	 	
| producer       = D. Tann	
| writer         = 
| screenplay     = 
| story          = 
| based on       =  
| narrator       = 
| starring       = Sunny Deol Neelam Kothari
| music          = Laxmikant-Pyarelal
| cinematography = 
| editing        = 
| studio         = 
| distributor    = 
| released       =  
| runtime        = 
| country        = India Hindi
| budget         = 
| gross          = 
}}

Shankara is a 1991 Indian Bollywood film directed by Sudarshan Nag and produced by D. Tann. It stars Sunny Deol and Neelam Kothari.

==Cast==
* Sunny Deol as Shankara
* Neelam Kothari as	Seema
* Sulabha Deshpande as Shankars mom
* Shakti Kapoor as Popatlal Frockwala
* Kiran Kumar as Kehar Singh
* Paresh Rawal as Diwanji
* Rajesh Puri as Munshiji

==External links==
* 

 
 
 
 


 