Jaane Jigar
{{Infobox film
| name           = Jaane Jigar
| image          = Jaane_Jigar.jpg
| image_size     = 
| border         = 
| alt            = 
| caption        = 
| director       = Arshad Khan	 
| producer       = B.R. Sahni
| writer         = Lalit Mahajan	
| screenplay     = 
| story          = 
| based on       =  
| narrator       = 
| starring       = Jackie Shroff  Mamta Kulkarni
| music          = Rajesh Roshan Raju Naik Lalit Sen
| cinematography = Anil Dhanda
| editing        = Prakash Dave
| studio         = 
| distributor    = 
| released       =   
| runtime        = 
| country        = India Hindi
| budget         = 
| gross          = 
}}

Jaane Jigar is a 1998 Indian Bollywood film directed by Arshad Khan and produced by B.R. Sahni. The film stars Jackie Shroff and Mamta Kulkarni.   

==Cast==
* Jackie Shroff as Jaikishan
* Mamta Kulkarni as	Meenu Ayub Khan as Ravi Kumar
* Manek Bedi as Vijay
* Mohnish Bahl as Monty
* Kader Khan as Ghanshyam
* Rita Bhaduri as Mrs. Prem Kishan
* Tiku Talsania as Ghanshyams friend
* Yunus Parvez as Seth Babu Singh
* Vikas Anand as Prem Kishan

==References==
 

==External links==
* 

 
 
 

 