A Better Way to Die
 
{{Infobox film
| name           = A Better Way to Die
| image          = 
| image_size     = 
| border         = 
| alt            = 
| caption        = 
| director       = Scott Wiper
| producer       = Scott Wiper
| writer         = Scott Wiper, Jack Conley (actor) and Carmen Argenziano
| screenplay     = 
| story          = 
| based on       =  
| narrator       = 
| starring       = 
| music          = 
| cinematography = 
| editing        = 
| studio         = 
| distributor    = 
| released       = 2000  
| runtime        = 96 min
| country        = 
| language       = English
| budget         = 
| gross          = 
}}
A Better Way to Die is a 2000 action and thriller film. It was directed and produced by Scott Wiper. 

==Cast==
*Scott Wiper as Boomer Jack Conley as Fletcher
*Carmen Argenziano as Carlos
*Richard Haje as The Mute
*Mo Gallini as Laslov (as Matt Gallini)
*Rolando Molina as Chach
*Kirk McKinney as Spaz
*Jefferson Moore as Harrison James
*Wayne Duvall as Rifkin
*Lou Diamond Phillips as William Dexter

==External links==
* 

 
 
 
 
 

 