Mabo (film)
 
{{Infobox film
| name           = Mabo
| image          = 
| alt            = 
| caption        = 
| film name      = 
| director       = Rachel Perkins
| producer       = 
| writer         = Sue Smith
| screenplay     = 
| story          = 
| based on       =  
| starring       = Jimi Bani Deborah Mailman
| narrator       = 
| music          = 
| cinematography = 
| editing        =  ABC   Blackfella Films
| distributor    = 
| released       =  
| runtime        = 
| country        = Australia English
| budget         = 
| gross          = 
}}
  
Mabo is an Australian   TV Blog  Dale, D., Perkins, R.   at Sydney Film Festival 2012 

== Cast ==
*Jimi Bani as Eddie Mabo
**Gedor Zaro as Young Eddie  Bonia Mabo (née Neehow)
*Ewen Leslie as Bryan Keon-Cohen
*Tom Budge as Greg McIntyre
*Felix Williamson as Ron Castan Henry Reynolds

== References ==
 

== External links ==
*   at the Australian Broadcasting Corporation
*  

 
 

 

 
 
 
 
 
 
 
 
 
 

 
 