Yeh Ishq Nahin Aasaan
 
{{Infobox film
| name           = Yeh Ishq Nahin Aasaan
| image          = 
| image_size     = 
| border         = 
| alt            = 
| caption        = 
| director       = Tinnu Anand
| producer       = Bitu Anand Naresh Malhotra
| writer         = 
| screenplay     = 
| story          = 
| based on       =  
| narrator       = 
| starring       = Rishi Kapoor Padmini Kolhapure
| music          = Laxmikant-Pyarelal
| cinematography = 
| editing        = 
| studio         = 
| distributor    = 
| released       =   
| runtime        = 
| country        = India Hindi
| budget         = 
| gross          = 
}}
 Indian Bollywood film directed by Tinnu Anand. It stars Rishi Kapoor and Padmini Kolhapure in pivotal roles.

==Cast==
* Rishi Kapoor...Salim Ahmed Salim
* Padmini Kolhapure...Salma A. Mirza
* Asrani...Jamal
* Iftekhar...Akhtar Mirza
* Deepti Naval...Sahira H. Khan / Sahira S. Salim
* Om Prakash...Nawab
* Yogeeta Bali...Phoolrani

==External links==
* 

 
 
 
 

 