Mermaids of Tiburon
{{Infobox film
| name           = Mermaids of Tiburon
| image_size     =
| image	=	
| caption        =
| director       = John Lamb
| producer       = 
| writer         = John Lamb
| narrator       = George Rowe Diane Webber Gaby Martone Timothy Carey
| music          = 
| cinematography = 
| editing        = 
| distributor    = Filmgroup
| released       = 1962
| runtime        = 
| country        = USA
| language       = 
| budget         =
| gross          =
| preceded_by    =
| followed_by    =
| website        =
}}
Mermaids of Tiburon is a 1962 film about a diver looking for buried treasure who comes across mermaids. 

The movie was acquired by Filmgroup productions, who released it in 1962, mostly to some US military bases. Fred Olen Ray, The New Poverty Row: Independent Filmmakers as Distributors, McFarland, 1991, p 43-44 
==References==
 

== External links ==
* 

 
 
 
 

 