The Georgia Peaches
{{Infobox film
| name           = The Georgia Peaches
| image          =
| caption        =
| director       = Daniel Haller
| producer       =
| writer         =
| based on       =
| starring       = Dirk Benedict Tanya Tucker Terri Nunn Lane Smith
| music          =
| cinematography =
| editing        =
| distributor    = New World Pictures
| released       =  
| runtime        =
| country        = United States English
| budget         =
| gross          =
}}
The Georgia Peaches is a 1980 Roger Corman produced pilot for a proposed TV series.

==Plot==
Two sisters running an auto repair shop are extorted into becoming undercover FBI agents.

==External links==
*  at IMDB

 

 
 
 
 
 
 
 


 
 