The Prize Fighter
{{Infobox film
| name           = The Prize Fighter
| image          =
| caption        =
| director       = Michael Preece
| producer       =
| writer         = Tim Conway
| narrator       =
| starring       = Don Knotts Tim Conway
| music          =
| cinematography =
| editing        =
| distributor    = New World Pictures
| released       =  
| runtime        =
| country        = United States
| language       = English
| budget         = $2 million 
| gross          = $6.5 million Christopher T Koetting, Mind Warp!: The Fantastic True Story of Roger Cormans New World Pictures, Hemlock Books. 2009 p 172 
}}
The Prize Fighter is a 1979 comedy starring Don Knotts and Tim Conway. It was one of the most financially successful films ever released by New World Pictures.

== References ==
 

==External links==
*  at IMDB

 
 
 
 
 


 
 