The Moonstone (1915 film)
{{Infobox film
| name           = The Moonstone
| image          =
| caption        =
| director       = Frank Hall Crane
| producer       =
| writer         = Wilkie Collins (novel) (play), E. Magnus Ingleton(scenario) Eugene OBrien, Elaine Hammerstein and Ruth Findlay
| cinematography =
| editing        =
| studio         =
| distributor    =
| released       =  
| runtime        = 50 minutes
| country        = United States
| awards         =
| language       = Silent
| budget         =
}}

 
  Eugene OBrien. A copy of this film survives.

==Film background== film in 1909 was made, believed to be a lost film. Other film versions include The Moonstone (1934 film)|1934, 1972, and 1997.

==External links==
* 

 

 
 
 
 
 
 
 


 