Powder River (film)
{{Infobox film
| name           = Powder River
| image          =
| caption        =
| director       =
| producer       =
| writer         =
| starring       = Rory Calhoun Corinne Calvet
| music          =
| cinematography =
| editing        =
| distributor    =
| released       =  
| runtime        =
| country        = United States
| language       = English
| budget         = $985,000 
| gross          = $1,000,000 (US) 
}} Western film starring Rory Calhoun. 

The screenplay was written by Stuart N. Lake, who two years later was the story consultant on the American Broadcasting Company|ABC/Desilu western television series, The Life and Legend of Wyatt Earp.

==References==
 

==External links==
*  at IMDB

 
 


 