Monkey Melodies
{{Infobox Hollywood cartoon
| cartoon name      =Monkey Melodies
| series            = Silly Symphonies
| image             =
| image size        = 
| alt               = 
| caption           = 
| director          = Burt Gillett
| producer          = Walt Disney
| story artist      = 
| narrator          = 
| voice actor       = 
| musician          = 
| animator          = 
| layout artist     = 
| background artist = 
| studio            = Walt Disney Productions
| distributor       = Columbia Pictures
| release date      = 1930
| color process     = Black and white
| runtime           = 
| country           = United States
| language          = English Night
| Winter
}}
 animated Disney short film. It was released in 1930.

==External links==
*  
*  

 

 
 
 
 
 
 


 