The Busy Beavers
{{Infobox Hollywood cartoon
| cartoon name      =
| series            = Color Rhapsodies
| image             =
| image size        = 
| alt               = 
| caption           = 
| director          = Burt Gillett
| producer          = Walt Disney
| story artist      = 
| narrator          = 
| voice actor       =   
| musician          =  Charles Byrne Harry Reeves  
| layout artist     = 
| background artist = 
| studio            = Walt Disney Productions
| distributor       = Columbia Pictures
| release date      = June 22, 1931
| color process     = 
| runtime           = 
| country           = United States
| language          = English
| preceded by       = The China Plate
| followed by       = The Cats Out
}}

The Busy Beavers is a 1931 Silly Symphonies animated film, directed by Burt Gillett.

==Plot==
The short shows a community of beavers building their dam and soon shows one particular beaver trying to save it when it is threatened by a raging flood.
 
 

 
 
 
 
 
 
 


 