The Goddess of Spring
{{Infobox Hollywood cartoon
| cartoon name      =The Goddess of Spring
| series            = Silly Symphonies
| image             = Goddess of Spring.jpg
| image size        = 
| alt               = 
| caption           = 
| director          = Wilfred Jackson
| producer          = Walt Disney
| story artist      = 
| narrator          =  Kenny Baker  Jessica Dragonette  Tudor Williams   
| musician          = 
| animator          = Hamilton Luske  Les Clark  Dick Huemer Ward Kimball  Art Babbitt  Wolfgang Reitherman     Ken Anderson 
| background artist =  Walt Disney Productions United Artists Pictures
| release date      = November 3, 1934
| color process     = Technicolor
| runtime           = 8 min, 58 sec
| country           = United States
| language          = English
| preceded by       = Peculiar Penguins
| followed by       = The Golden Touch
}}
 animated Disney short film. It was released in 1934.

==Plot==
 s.

==External links==
*  
*  

 

 
 
 
 
 
 
 
 


 