Cannibal Capers
 
 
{{Infobox Hollywood cartoon
| cartoon name      =Cannibal Capers
| series            = Silly Symphonies
| image             =
| image size        = 
| alt               = 
| caption           = 
| director          = Burt Gillett
| producer          = Walt Disney
| story artist      = 
| narrator          = 
| voice actor       =  Bert Lewis Jack King Tom Palmer Norm Ferguson  Wilfred Jackson
| layout artist     = 
| background artist = Carlos Manriquez
| studio            = Walt Disney Productions
| distributor       = Columbia Pictures
| release date      = 1930
| color process     = Black and white
| runtime           = 
| country           = United States
| language          = English Autumn
| followed by       = Frolicking Fish
}}
 animated Disney short film. It was released in 1930#

==Plot==
The film begins with a group of cannibals gathering together for a tribal dance. The dance is later interrupted by a fierce lion.   

==References==
 

==External links==
*  
*  

 

 
 
 
 
 
 


 