Wizards of the Lost Kingdom 2
{{Infobox film
| name           = Wizards of the Lost Kingdom 2
| image          =
| caption        =
| director       = Charles B. Griffith
| producer       =
| writer         = Charles B. Griffith Lane Smith
| narrator       =
| starring       = Mel Welles David Carradine Lana Clarkson Sid Haig
| music          =
| cinematography =
| editing        =
| studio         = Concorde Pictures
| released       =  
| runtime        =
| country        = United States
| language       =
| budget         =
| gross          =
}}
Wizards of the Lost Kingdom 2 is a 1989 film written and directed by Charles B. Griffith. It was Griffiths last feature film credit and is a sequel to Wizards of the Lost Kingdom (1985).

It includes characters and scenes from "Barbarian Queen" and "The Warrior and the Sorceress".

==External links==
*  at IMDB

 

 
 
 

 