Dorangia Daku
{{Infobox film
| name           = Dorangia Daku
| image          = 
| image_size     = 
| caption        = 
| director       = Harnam Singh Rawail
| producer       = 
| writer         =
| narrator       = 
| starring       =
| music          = 
| cinematography = 
| editing        = 
| distributor    = 
| released       = 1940
| runtime        = 
| country        = India Hindi
| budget         = 
| gross          = 
| preceded_by    = 
| followed_by    = 
| website        = 
}}
 1940 Bollywood film which was directed by Harnam Singh Rawail. 

<!--  
==References==
 
-->

==External links==
*  

 

 
 
 
 