Narsi Bhagat
{{Infobox film
| name           = Narsi Bhagat
| image          =
| image_size     =
| caption        =
| director       = Vijay Bhatt
| producer       =
| writer         = Vishnupant Aundhkar  (screenplay) 
| narrator       =
| starring       =
| music          = Shankar Rao Vyas
| cinematography =
| editing        =
| studio         = Prakash Pictures
| distributor    =
| released       =  
| runtime        = 135 minutes
| country        = British Raj
| language       = Hindi language|Hindi, Gujurati
| budget         =
| gross          =
| website        =
}}
 Vaishno Jan To Tene Kahiye Je Peed Parayi Jane Re", which was also the favourite of Mahatma Gandhi. 

 
  
==Cast==
*Vishnupant Pagnis as Narasinh Mehta
*Durga Khote as Manekbai Pande as Sarangadhar
*V. Adikhar  		
*Vimala Vasishta 			
*Amirbai Karnataki 			
*Ram Marathe 		
*Baby Indira 	

==References==
 

==External links==
*  

 

 

 
 
 
 
 