Maa Baap
{{Infobox film
| name           = Maa Baap
| image          = 
| image_size     = 
| caption        = 
| director       = V. M. Vyas
| producer       = Sunrise Pictures
| writer         =
| narrator       =  Veena Nazir Yakub
| music          = Alla Rakha
| cinematography = 
| editing        = 
| distributor    = 
| released       = 1944
| runtime        = 
| country        = India Hindi
| budget         = 
| gross          = 
| preceded_by    = 
| followed_by    = 
| website        = 
}}

Maa Baap is a Bollywood film. It was released in Bollywood films of 1944|1944.     The film was directed by V. M. Vyas. It was produced under the Sunrise Pictures banner. The film starred Veena (actress)|Veena, Nazir, Yakub, Majeed, Amirbai Karnataki, Dixit, Jagdish, Rajkumari Shukal.    The music was composed by Alla Rakha and the lyrics were by Roopbani.   
  
==References==
 

==External links==
*  

 

 
 
 