Hind Ka Lal
{{Infobox film
| name           = Hind Ka Lal
| image          = 
| image_size     = 
| caption        = 
| director       = Homi Wadia Ramji Arya
| producer       = Wadia Movietone
| writer         =
| narrator       = 
| starring       = Radharani Sardar Mansur Boman Shroff
| music          = Madhavlal Damodar Master
| cinematography = 
| editing        = 
| Studio         = Wadia Movietone
| distributor    = 
| released       = 1940
| runtime        = 
| country        = India Hindi
| budget         = 
| gross          = 
| preceded_by    = 
| followed_by    = 
| website        = 
}}

Hind Ka Lal is a Bollywood film. It was released in Bollywood films of 1940|1940.    The film was directed by Homi Wadia and Ramji Arya. It starred Radharani, Sardar Mansur, Boman Shroff, Mithu Miyan and Gulshan. The music was composed by Madhavlal Damodar Master.     

==References==
 

==External links==
*  

 

 
 
 


 