Mala (1941 film)
{{Infobox film
| name           = Mala 
| image          = 
| image_size     = 
| caption        = 
| director       = Balwant Bhatt
| producer       = 
| writer         =
| narrator       =  Jayant
| music          = 
| cinematography = 
| editing        = 
| distributor    = 
| released       = 1941
| runtime        = 
| country        = India Hindi
| budget         = 
| gross          = 
| preceded_by    = 
| followed_by    = 
| website        = 
}}

Mala  is a Bollywood drama film. It was released in Bollywood films of 1941|1941. It was directed by Balwant Bhatt and had Rose, P. Jairaj and Jayant in pivotal roles.     
  
==References==
 

==External links==
*  

 

 
 
 