Azadi-e-Watan
{{Infobox film
| name           = Azadi-e-Watan
| image          =
| image_size     =
| caption        =
| director       = Dinshaw Billimoria
| producer       =
| writer         =
| narrator       =
| starring       =
| music          =
| cinematography =
| editing        =
| distributor    =
| released       =  
| runtime        =
| country        = British Raj Hindi
| budget         =
| gross          =
| website        = 
}}
 1940 Bollywood action film directed by and starring Dinshaw Billimoria, Gulam Mohd, Abdul Kader, and Wazir Mohammad Khan.   
The Encyclopedia of Hindi Cinema notes that the film was "advertised as directed by him  ,   is probably a dubbed version of an American import.    The film was produced by the Anglo American Film Corporation. 

==References==
 

==External links==
*  

 
 
 

 