Bahurani (1940 film)
{{Infobox film
| name           = Bahurani
| image          =
| image_size     =
| caption        = Mubarak
| producer       = Kishore Sahu
| writer         =
| narrator       =
| starring       = Kishore Sahu Rose Anuradha Mubarak
| music          = Rafiqe Ghaznavi
| cinematography =
| editing        =
| studio         = Kishore Sahu Productions 
| distributor    =
| released       =  
| runtime        =
| country        = British Raj Hindi
| budget         =
| gross          =
| website        =
}}

Bahurani or Daughter-in-Law is a Bollywood film. It was released in Bollywood films of 1940|1940.    The film was directed by R.S. Junnarkar and Mubarak for Kishore Sahu Productions. It starred Kishore Sahu, Rose, Anuradha, Mubarak (actor)|Mubarak, Madhurika, and Nana Palsikar. The music of the film was composed by Rafiqe Ghaznavi.     
  
==References==
 

==External links==
*  

 

 
 
 