Bulbule Baghdad
{{Infobox film
| name           = Bulbule Baghdad
| image          = 
| image_size     = 
| caption        = 
| director       = 
| producer       = 
| writer         =
| narrator       = 
| starring       =
| music          = 
| cinematography = 
| editing        = 
| distributor    = 
| released       = 1941
| runtime        = 
| country        = India Hindi
| budget         = 
| gross          = 
| preceded_by    = 
| followed_by    = 
| website        = 
}}

Bulbule Baghdad is a Bollywood film. It was released in Bollywood films of 1941|1941.    
  
==References==
 

==External links==
*  

 

 
 
 