Anarbala
{{Infobox film
| name           = Anarbala
| image          =
| image_size     =
| caption        =
| director       =
| producer       =
| writer         =
| narrator       =
| starring       =
| music          =
| cinematography =
| editing        =
| distributor    =
| released       =  
| runtime        =
| country        = British Raj Hindi
| budget         =
| gross          =
| website        =
}}

Anarbala is a Bollywood film. It was released in Bollywood films of 1940|1940.    

==References==
 

==External links==
*  

 
 
 


 