Taj Mahal (1941 film)
{{Infobox film
| name           = Taj Mahal 
| image          = 
| image_size     = 
| caption        = 
| director       = 
| producer       = 
| writer         =
| narrator       =  Nazir Suraiya
| music          = 
| cinematography = 
| editing        = 
| distributor    = 
| released       = 1941
| runtime        = 
| country        = India Hindi
| budget         = 
| gross          = 
| preceded_by    = 
| followed_by    = 
| website        = 
}}
 1941 directed Nazir and Suraiya in pivotal roles under the Banner of Sri Meenakshi Pictures. 

    
  
==References==
 

==External links==
*  

 

 
 
 
 
 
 