Eve's Secret
{{Infobox film
| name           = Eves Secret
| image          =
| imagesize      =
| caption        =
| director       = Clarence Badger
| producer       = Adolph Zukor Jesse Lasky
| based on       =  
| writer         = Adelaide Heilbron (scenario) Jack Holt Betty Compson
| music          =
| cinematography = H. Kinley Martin
| editing        =
| distributor    = Paramount Pictures
| released       =   reels (6,305 feet)
| country        = United States
| language       = Silent (English intertitles)
}} Jack Holt. An extant film 35mm at the Library of Congress.    

==Cast==
*Betty Compson - Eve Jack Holt - Duke of Poltava
*William Collier, Jr. - Pierre
*Vera Lewis - The Duchess
*Lionel Belmore - The Baron
*Mario Carillo - Prince Boris

==References==
 

==External links==
* 
* 
* 
* 

 

 
 
 
 
 
 
 
 


 
 