Laheri Jeewan
{{Infobox film
| name           = Laheri Jeewan
| image          = 
| image_size     = 
| caption        = 
| director       = S.M. Yusuf
| producer       = 
| writer         =
| narrator       = 
| starring       =Husn Banu  Gope   W.M. Khan 
| music          = 
| cinematography = 
| editing        = 
| distributor    = 
| released       = 1941
| runtime        = 
| country        = India Hindi
| budget         = 
| gross          = 
| preceded_by    = 
| followed_by    = 
| website        = 
}}

Laheri Jeewan is a Bollywood film. It was released in Bollywood films of 1941|1941.It starred Husn Banu, Gope and W.M. Khan     
  
==References==
 

==External links==
*  

 

 
 
 