Kumkum the Dancer
{{Infobox film
| name           = Kumkum the Dancer
| image          = 
| image_size     = 
| caption        = 
| director       = Modhu Bose
| producer       = 
| writer         =
| narrator       = 
| starring       =
| music          = 
| cinematography = 
| editing        = 
| distributor    = 
| released       = 1940
| runtime        = 
| country        = India Bengali and Hindi
| budget         = 
| gross          = 
| preceded_by    = 
| followed_by    = 
| website        = 
}}
 1940 Bollywood film directed by Modhu Bose.    It was released in both Bengali and Hindi.   

==Cast==
*Sadhona Bose as Kumkum
*Dhiraj Bhattacharya as Chandan
*Preeti Majumdar as Padmadevi 			
*Moni Chatterjee 			
*Shashadhar Chatterjee 			 Lalit Rai 			
*Binita Gupta 			
*Labanya Palit 			
*Abani Mitra 			 Kabir Ray 			
*Bhujanga Ray 	 		
*Kira Devi 			
*Josobant Agashi 			
*Shanta Majumdar

==References==
 

==External links==
*  

 

 
 
 
 