Tai Chi Hero
 
 
{{Infobox film
| name           = Tai Chi Hero
| image          = Tai Chi Hero poster.jpg
| image_size     = 
| border         = 
| alt            = 
| caption        = China poster
| director       = Stephen Fung
| producer       = {{plainlist|
*Zhang Dajun
*Stephen Fung
*Daniel Wu 
*Wang Zhonglei
*Chen Kuo-fu }}
| writer         = {{plainlist|
*Chang Chia-lu
*Cheng Hsiao-tse }}
| screenplay     = 
| story          = Chen Kuo-fu
| based on       =  
| narrator       = 
| starring       = {{plainlist|
*Tony Leung Ka-fai
*Jayden Yuan
*Angelababy
*Eddie Peng
*William Feng }}
| music          = Ishida Katsunori
| cinematography = {{plainlist|
*Peter Ngor
*Lai Yiu-fai
*Du Jie 
}}
| editing        = {{plainlist|
*Cheng Hsiao-tse
*Matthew Hui
*Zhang Weili }}
| studio         = 
| distributor    = 
| released       =  
| runtime        = 102 minutes 
| country        = Hong Kong China   
| language       = Mandarin
| budget         = 
| gross          = 
}}

Tai Chi Hero (太極２ 英雄崛起) is a 2012 Hong Kong-Chinese 3D martial arts film directed by Stephen Fung, written and produced by Kuo-fu Chen.   It is the sequel to Fungs 2012 film Tai Chi Zero. It was released in Hong Kong on 25 October 2012.  It is to be followed by a third  undeveloped movie named Tai Chi Summit.

==Synopsis== Yang Lu Chan as he bumbles his way through learning Chen-style kung fu. Chen Yu Niang a beautiful Chinese model actress.

==References==
 

==External links==
* 

 

 
 
 
 
 
 
 
 
 
 
 
   


 
 