Bhairavsingh – Ek Rashtra sevak
 

{{Infobox film
| name           = Bhairavsingh - Ek Rashtra sevak
| image          =
| image_size     =
| caption        =
| director       =
| producer       =
| writer         =
| narrator       =
| starring       =
| music          =
| cinematography =
| editing        =
| distributor    =
| released       =  
| runtime        =
| country        = British Raj Hindi
| budget         =
| gross          =
| website        =
}}

Bhairavsingh – Ek Rashtra sevak is a Bollywood film. It was released in Bollywood films of 1940|1940.

==References==
 

==External links==

 
 
 
 


 