Speciesism: The Movie
{{Infobox film
| name           = Speciesism: The Movie
| image          = Speciesism, The Movie.jpg
| image_size     = 180px
| alt            = poster
| caption        = 
| director       = Mark Devries
| producer       = 
| starring       = Peter Singer Richard Dawkins Temple Grandin Bruce Friedrich Steven Best
| music          = 
| distributor    = 
| runtime        = 
| released       = September 18, 2013
| country        = United States
| language       = English
| budget         = 
}}
Speciesism: The Movie is a 2013 documentary film by American director Mark Devries. It explores the concept and practice of speciesism, the assignment of value to beings on the basis of species membership. 
 factory farms in the United States. 

== See also ==
* Animal rights
* Veganism

==References==
 

==External links==
*  
*  
*  
*  
*  

 

 
 
 
 
 


 