Hello London
{{Infobox film
| name            = Hello London
| image           =
| caption         =
| director        =
| producer        = Sonja Henie
| writer          =
| narrator        = Michael Wilding
| music           =
| cinematography  =
| editing         =
| distributor     =
| released        =  
| runtime         = 78 minutes
| country         = England
| language        = English
}} Michael Wilding. This was also Oliver Reeds film debut.

==External links==
*  at IMDB

 
 
 


 