Mahakavi Kalidas
{{Infobox film
| name           = Mahakavi Kalidas
| image          = 
| image_size     = 
| caption        = 
| director       =  Niren Lahiri
| producer       = 
| writer         =
| narrator       = 
| starring       =Menaka Devi   Padmadevi 
| music          = 
| cinematography = 
| editing        = 
| distributor    = 
| released       = 1942
| runtime        = 
| country        = India Hindi
| budget         = 
| gross          = 
| preceded_by    = 
| followed_by    = 
| website        = 
}}

Mahakavi Kalidas is a Bollywood film. It was released in Bollywood films of 1942|1942.    

==References==
 

==External links==
*  

 
 
 

 