Savera
{{Infobox film
| name           = Savera
| image          = 
| image_size     = 
| caption        = 
| director       =  V.C. Desai
| producer       = 
| writer         =
| narrator       = 
| starring       = Arun  Nirmala Devi   Kesari
| music          = 
| cinematography = 
| editing        = 
| distributor    = 
| released       = 1942
| runtime        = 
| country        = India Hindi
| budget         = 
| gross          = 
| preceded_by    = 
| followed_by    = 
| website        = 
}}

Savera is a Bollywood film. It was released in Bollywood films of 1942|1942.    

==References==
 

==External links==
*  

 
 
 

 