Sheikh Chilli
{{Infobox film
| name           = Sheikh Chilli
| image          = 
| image_size     = 
| caption        = 
| director       = 
| producer       = 
| writer         =
| narrator       = 
| starring       = 
| music          = 
| cinematography = 
| editing        = 
| distributor    = 
| released       = 2015
| runtime        = 
| country        = India Hindi
| budget         = 
| gross          = 
| preceded_by    = 
| followed_by    = 
| website        = 
}}

Sheikh Chilli is a Bollywood film. It was released in Bollywood films of 1942|1942.    

==References==
 

==See also==
* Sheikh Chillis Tomb

== References ==
 

==External links==
*  

 
 
 


 