Tamanna (1942 film)
{{Infobox film
| name           = Tamanna 
| image          = 
| image_size     = 
| caption        = 
| director       = Phani Majumdar
| producer       = 
| writer         =
| narrator       = 
| starring       = Nargis   Suraiya
| music          = 
| cinematography = 
| editing        = 
| distributor    = 
| released       = 1942
| runtime        = 
| country        = India Hindi
| budget         = 
| gross          = 
| preceded_by    = 
| followed_by    = 
| website        = 
}}

Tamanna  is a Bollywood film. It was released in Bollywood films of 1942|1942.    

==References==
 

==External links==
*  

 
 
 

 