Mauj
{{Infobox film
| name           = Mauj
| image          = 
| image_size     = 
| caption        = 
| director       = Nanabhai Bhatt  Babubhai Mistri
| producer       = 
| writer         =
| narrator       = 
| starring       =Fearless Nadia
| music          = 
| cinematography = 
| editing        = 
| distributor    = 
| released       = 1942
| runtime        = 
| country        = India Hindi
| budget         = 
| gross          = 
| preceded_by    = 
| followed_by    = 
| website        = 
}}
 1943 Bollywood film directed by Nanabhai Bhatt and Babubhai Mistri, starring 
Fearless Nadia as the lead.    
  
==References==
 

==External links==
*  

 

 
 
 