Nai Duniya
 
{{Infobox film
| name           = Nai Duniya
| image          = 
| image_size     = 
| caption        = 
| director       = Abdul Rashid Kardar
| producer       = 
| writer         =
| narrator       = 
| starring       = P. Jairaj
| music          = 
| cinematography = 
| editing        = 
| distributor    = 
| released       = 1942
| runtime        = 
| country        = India Hindi
| budget         = 
| gross          = 
| preceded_by    = 
| followed_by    = 
| website        = 
}}

Nai Duniya is a Bollywood film. It was released in Bollywood films of 1942|1942.    

==References==
 

==External links==
*  

 

 
 
 
 


 