Bharat Milap
 
{{Infobox film
| name           = Bharat Milap
| image          = 
| image_size     = 
| caption        = 
| director       = Vijay Bhatt
| producer       = Prakash
| writer         = Vishnupant Aundhkar
| narrator       = 
| starring       =Prem Adib  Athavale   Umakant Desai
| music          = 
| cinematography = Purshotam Kukade	 	
| editing        = 
| distributor    = 
| released       = 1942
| runtime        = 
| country        = India Hindi
| budget         = 
| gross          = 
| preceded_by    = 
| followed_by    = 
| website        = 
}}

Bharat Milap is a Bollywood film. It was released in Bollywood films of 1942|1942.    
  
==References==
 
3. ^   in Ramnagar  

==External links==
*  
*   in Ramnagar  

 

 

 
 
 
 