Ek Raat
{{Infobox film
| name           = Ek Raat
| image          = 
| image_size     = 
| caption        = 
| director       = Wahid-ud-din Zia-ud-din Ahmed
| producer       = 
| writer         =
| narrator       = 
| starring       =Prithviraj Kapoor   K.N. Singh
| music          = 
| cinematography = 
| editing        = 
| distributor    = 
| released       = 1942
| runtime        = 
| country        = India Hindi
| budget         = 
| gross          = 
| preceded_by    = 
| followed_by    = 
| website        = 
}}

Ek Raat is a Bollywood film. It was released in Bollywood films of 1942|1942.    
It has a famous song sung by Mukesh (singer)|Mukesh, "Aaj Tumse Door Hoke Aise Roya Mera Pyar".

==References==
 

==External links==
*  

 

 
 
 