Duniya Tumhari Hai
{{Infobox film
| name           = Duniya Tumhari Hai
| image          = 
| image_size     = 
| caption        = 
| director       = G.P. Pawar
| producer       = 
| writer         =
| narrator       = 
| starring       =
| music          = S. N. Tripathi
| cinematography = 
| editing        = 
| distributor    = 
| released       = 1942
| runtime        = 
| country        = India Hindi
| budget         = 
| gross          = 
| preceded_by    = 
| followed_by    = 
| website        = 
}}

Duniya Tumhari Hai is a Bollywood film. It was released in Bollywood films of 1942|1942.    
  
==References==
 

==External links==
*  

 

 
 
 