Homelife
{{Infobox film
| name           = Homelife
| image          = 
| image_size     = 
| caption        = 
| director       =  V.M. Vyas
| producer       = 
| writer         =
| narrator       = 
| starring       =Sardar Akhtar, Jehanara Kajjan and Zahoor Shah 
| music          = 
| cinematography = 
| editing        = 
| distributor    = 
| released       = 1942
| runtime        = 
| country        = India Hindi
| budget         = 
| gross          = 
| preceded_by    = 
| followed_by    = 
| website        = 
}}

Homelife is a Bollywood film. It was released in Bollywood films of 1942|1942.    
  
==References==
 

==External links==
*  

 

 
 
 