Men in Exile
{{Infobox film
| name           = Men in Exile
| image          = 
| image_size     = 
| alt            = 
| caption        = 
| director       = John Farrow
| producer       = 
| screenplay     =
| narrator       = 
| starring       = Dick Purcell
| music          = 
| cinematography = 
| editing        = 
| studio         = 
| distributor    = 
| released       = 1937
| runtime        = 
| country        = United States
| language       = English
| budget         = 
}}
Men in Exile is a 1937 film directed by John Farrow.

==External links==
*  at IMDB
 

 
 
 
 
 
 


 