Shadow of the Law
{{Infobox film
| name           = Shadow of the Law
| image          = File:William Powell Marion Shilling Regis Toomey Natalie Moorhead Shadow of the Law 1930.jpg
| image_size     = 
| alt            = William Powell Marion Shilling Regis Toomey Natalie Moorhead Shadow of the Law 1930
| caption        = William Powell, Marion Shilling, Regis Toomey and Natalie Moorhead in a scene from the film.
| director       = Louis Gasnier
| producer       = 
| screenplay     =John Farrow
| narrator       = 
| starring       = William Powell
| music          = 
| cinematography = 
| editing        = 
| studio         = 
| distributor    = 
| released       = 1930
| runtime        = 
| country        = United States
| language       = English
| budget         = 
}}
Shadow of the Law is a 1930 film starring William Powell.

==External links==
*  at TCMDB
*  at IMDB

 

 
 
 
 