Life in Park Street
{{Infobox film
| name           = Life In Park Street
| image          = Life in Park Street poster.png
| image_size     = 260px
| border         = 
| alt            = 
| caption        = Film poster
| director       = Raj Mukherjee
| producer       = Pankaj Agarwal
| writer         = 
| screenplay     = 
| story          = 
| based on       =  
| narrator       = 
| starring       = Soumitra Chatterjee Debashree Roy Shankar Chakraborty
| music          = 
| cinematography = 
| editing        = 
| studio         = 
| distributor    = 
| released       =    
| runtime        = 
| country        = India Bengali
| budget         = 
| gross          = 
}} Bengali film Park Street, Kolkata.      

== Plot ==
Park Street is a cosmopolitan place in Kolkata and the film focuses different aspects of life of this locality. Different characters like drug addict young girl, gay raping boys, pimps, housewife having affair with others etc. 

== Cast ==
* Soumitra Chatterjee
* Debashree Roy
* Shankar Chakraborty   

== See also ==
* Dwando

== References ==
 

 
 
 
 


 