The Moonshine Feud
{{infobox film
| name           = The Moonshine Feud
| image          = The Moonshine Feud 1920 lobby poster.jpg
| imagesize      =
| caption        = Contemporary lobby poster.
| director       =
| producer       = Bulls Eye Productions
| writer         =
| starring       = Texas Guinan
| cinematography =
| editing        =
| distributor    = Reelcraft Pictures
| released       =  
| runtime        = 2 reels
| country        = United States
| language       = Silent(English intertitles)
}} lost film. 

==Cast==
*Texas Guinan

==References==
 

==External links==
* 

 
 
 
 
 
 
 


 
 