Bhakta Raidas
{{Infobox film
| name           =Bhakta Raidas
| image          = 
| image_size     = 
| caption        = 
| director       =  Keshavrao Dhaiber
| producer       = 
| writer         =
| narrator       = 
| starring       =Lalita Pawar 
| music          = 
| cinematography = 
| editing        = 
| distributor    = 
| released       = 1943
| runtime        = 
| country        = India Hindi
| budget         = 
| gross          = 
| preceded_by    = 
| followed_by    = 
| website        = 
}}

Bhakta Raidas is a Bollywood film. It was released in Bollywood films of 1943|1943.    
  
==References==
 

==External links==
*  

 

 
 
 
 