Khazanchi Ki Beti
{{Infobox film
| name           =Khazanchi Ki Beti
| image          = 
| image_size     = 
| caption        = 
| director       =  
| producer       = 
| writer         =
| narrator       = 
| starring       = Sharda 
| music          = 
| cinematography = 
| editing        = 
| distributor    = 
| released       =  
| runtime        = 
| country        = India Hindi
| budget         = 
| gross          = 
}}

Khazanchi Ki Beti is a Bollywood film. It was released in Bollywood films of 1943|1943.    
  
==References==
 

==External links==
*  

 

 
 
 