Mahatma Vidur
{{Infobox film
| name           =Mahatma Vidur
| image          = 
| image_size     = 
| caption        = 
| director       =   Parshwanath Yeshwant Altekar
| producer       = 
| writer         =
| narrator       = 
| starring       = Durga Khote Raja Sandow P.K.  Vishnupant Pagnis 
| music          = 
| cinematography = 
| editing        = 
| distributor    = 
| released       =  
| runtime        = 
| country        = India Hindi
| budget         = 
| gross          = 
}}

Mahatma Vidur is a Bollywood film. It was released in 1943.    
  
==References==
 

==External links==
*  

 

 
 
 