AV Idol (film)
 
{{Infobox film
| name           = AV Idol
| image          = 
| image size     = 
| border         = 
| alt            = 
| caption        = 
| director       = Hideo Jojo
| producer       = 
| writer         = 
| screenplay     = 
| story          = 
| based on       =  
| narrator       = 
| starring       = Yui Tatsumi Yeo Min-Jeong
| music          = 
| cinematography = 
| editing        = 
| studio         = 
| distributor    = 
| released       =   
| runtime        = 
| country        = Japan South Korea
| language       = 
| budget         = 
| gross          = 
}}
AV Idol AKA Love & Seoul (AV 아이돌 in Korean, ラブ＆ソウル in Japanese) is a 2012 comedy film directed by Hideo Jojo. It is a co-production between Japan and South Korea. 

==Cast==
*Yui Tatsumi as Ryoko
*Yeo Min-Jeong as Yuna

==References==
 

 
 
 
 
 

 
 