Any Other Side
{{Infobox film
| name           = Any Other Side
| image          = 
| alt            = 
| caption        = 
| director       = Fang Yaxi
| producer       = 
| writer         = Fang Yaxi
| starring       = Chrissie Chau Van Fan Qi Yuwu Deng Jiajia Yida Huang
| music          = 
| cinematography = 
| editing        = 
| studio         = 
| distributor    = 
| released       =  
| runtime        = 
| country        = China
| language       = Mandarin
| budget         = 
| gross          = 
}}
Any Other Side is a 2012 Chinese horror film directed by Fang Yaxi. {{cite web |url=http://www.beyondhollywood.com/any-other-side-2012-movie-review/ |title=Any Other Side (2012) Movie Review |author= James Mudge|date=2012-08-09|accessdate= 2012-08-25|work=Beyond 
Hollywood.com}} 

==Plot==
Are the six people living in their dreaming stories? Or are they only characters in Deans comic? Are there any boundaries between reality and fantasy? Who is the dominator of the stories?

==Cast==
*Chrissie Chau
*Van Fan
*Qi Yuwu
*Deng Jiajia
*Yida Huang

==References==
 

==External links==
* 

 
 
 
 
 


 
 