Killer Motel
 

 
{{Infobox film
| name           = Killer Motel
| image          = 
| image size     =
| border         =
| alt            =
| caption        =
| director       = Kazuya Ogawa
| producer       = Akira Yamaguchi
| writer         =
| screenplay     =
| story          =
| based on       =  
| narrator       =
| starring       = Emi Ito Akari Hoshino Ren Ayase Yuki Maeda
| music          =
| cinematography =
| editing        =
| studio         =
| distributor    =
| released       =  
| runtime        =
| country        = Japan
| language       = Japanese
| budget         =
| gross          =
}}

Killer Motel is a 2012 Japanese erotic horror film directed by Kazuya Ogawa.    

==Cast==
*Emi Ito
*Akari Hoshino
*Ren Ayase
*Yuki Maeda
*Jordon Cheung

==References==
 

==External links==
* 
* 

 
 
 
 


 
 