The Wanters
{{Infobox film
| name           = The Wanters
| image          = 
| image size     = 
| border         = 
| alt            = 
| caption        = 
| director       = John M. Stahl
| producer       = Louis B. Mayer
| writer         = Paul Bern J.G. Hawks
| screenplay     = 
| story          = Leila Burton Wells
| based on       = 
| narrator       = 
| starring       = Marie Prevost Norma Shearer Gertrude Astor
| music          =  Ernest G. Palmer
| editing        = Margaret Booth
| studio         = Louis B. Mayer Productions
| distributor    = Associated First National Pictures
| released       =  
| runtime        = 70 mins.
| country        = United States
| language       = Silent English intertitles
| budget         = 
| gross          =
}}
 lost  Robert Ellis and Norma Shearer.   

==Cast==
*Marie Prevost - Myra Hastings Robert Ellis - Elliot Worthington
*Norma Shearer - Marjorie
*Gertrude Astor - Mrs. Van Pelt
*Huntley Gordon - Theodore Van Pelt
*Lincoln Stedman - Bobby
*Lillian Langdon - Mrs. Worthington
*Louise Fazenda - Mary
*Hank Mann - Star boarder
*Lydia Yeamans Titus - Landlady
*Vernon Steele - Tom Armstrong Harold Goodwin - Chauffeur
*William Buckley - Butler

==References==
 

==External links==
* 
* 
*Spanish lobby  

 
 
 
 
 
 
 
 
 
 


 