The Golden Bird (film)
{{Infobox film
| name           = The Golden Bird
| image          = 
| caption        = 
| director       = Amit Dutta
| producer       = Pranav Ashar
| writer         = Amit Dutta
| starring       = Nitin Goel
| music          = 
| cinematography = Prahlad Gopakumar
| editing        = 
| distributor    = 
| released       =  
| runtime        = 55 minutes
| country        = India
| language       = Hindi
| budget         = 
}}

The Golden Bird ( ) is a 2011 Indian science fiction film directed by Amit Dutta. It was screened at the 68th Venice International Film Festival.    

==Cast==
* Nitin Goel
* Gagan Singh Sethi

==Release== Ship of Theseus. 

==References==
 

==External links==
*  

 
 
 
 
 
 


 
 