Ramanujacharya (film)
{{Infobox film
| name           = Ramanujacharya
| image          = 
| image_size     = 
| border         = 
| alt            = 
| caption        = 
| director       =  G. V. Iyer
| producer       = 
| writer         = 
| screenplay     = 
| story          = 
| based on       =  
| narrator       = 
| starring       = 
| music          = 
| cinematography = 
| editing        = 
| studio         = 
| distributor    = 
| released       =  
| runtime        = 
| country        = India
| language       =  Tamil
| gross          = 
}}
 Tamil film directed by G. V. Iyer.       The film is a biographical film on Ramanujacharya.

== See also ==
* Madhvacharya (film)

== References ==
 

== External links ==
*  

 
 
 
 
 
 


 