Triple Justice
{{Infobox film
| name           = Triple Justice
| image          =
| caption        = David Howard
| producer       = Bert Gilroy
| writer         = George OBrien Virginia Vale Peggy Shannon
| music          =
| cinematography =
| editing        = RKO Radio Pictures
| released       =  
| runtime        =
| country        = United States
| language       = English
| budget         = $85,000 Richard Jewel, RKO Film Grosses: 1931-1951, Historical Journal of Film Radio and Television, Vol 14 No 1, 1994 p57 
| gross          = $129,000 
}} David Howard George OBrien, Virginia Vale and Peggy Shannon. The supporting cast includes Paul Fix and Glenn Strange.

==Box Office==
According the RKO records, the picture recorded a loss of $5,000. 

==References==
 

==External links==
*  at IMDB

 


 