The Life of Vergie Winters
 
{{Infobox film
| name           = The Life of Vergie Winters
| image          =
| caption        =
| director       = Alfred Santell
| producer       =
| writer         = John Boles Ben Alexander
| music          =
| cinematography =
| editing        = RKO Radio Pictures
| released       =    |ref2= }}
| runtime        =
| country        = United States
| language       = English
| budget         = $331,000 Richard Jewel, RKO Film Grosses: 1931-1951, Historical Journal of Film Radio and Television, Vol 14 No 1, 1994 p56 
| gross          = $654,000 
}}
The Life of Vergie Winters is a 1934 film. It made a profit of $87,000. 

==References==
 

==External links==
*  at IMDB
*  at TCMDB

 
 
 
 

 