Hospitalité
 
{{Infobox film
| name           = Hospitalité
| image          = Hospitalité film poster.jpg
| caption        = Film poster
| director       = Koji Fukada
| producer       = 
| writer         = 
| starring       = Kanji Furutachi
| music          = 
| cinematography = 
| editing        = 
| distributor    = 
| released       =  
| runtime        = 96 minutes
| country        = Japan
| language       = Japanese
| budget         = 
}}

  is a 2010 Japanese comedy film directed by Koji Fukada.    

==Cast==
* Kanji Furutachi
* Kumi Hyōdo
* Tatsuya Kawamura
* Bryerly Long
* Hiroko Matsuda
* Eriko Ono Haruka Saito
* Naoki Sugawara
* Kiki Sugino
* Kenji Yamauchi

==References==
 

==External links==
*  

 
 
 
 
 
 


 
 