Two Alone
{{Infobox film
| name           = Two Alone
| image          =
| caption        = Charles Kerr (assistant)
| producer       =
| writer         = Tom Brown Jean Parker
| music          =
| cinematography = Arthur Roberts RKO Radio Pictures
| released       =  
| runtime        =
| country        = United States
| language       = English
| budget         = $236,000 Richard Jewel, RKO Film Grosses: 1931-1951, Historical Journal of Film Radio and Television, Vol 14 No 1, 1994 p58  
| gross          = $134,000 
}}
Two Alone is a 1934 film.

==Reception==
According to RKO records the film lost $158,000. 

==References==
 

==External links==
* 

 

 
 
 
 
 
 


 