Radio City Revels
{{Infobox film
| name           = Radio City Revels
| image          =
| caption        =
| director       = Benjamin Stoloff
| producer       =
| writer         =
| starring       = Jack Oakie Ann Miller
| music          =
| cinematography = Arthur Roberts RKO Radio Pictures
| released       =  
| runtime        =
| country        = United States
| language       = English
| budget         = $810,000 Richard Jewel, RKO Film Grosses: 1931-1951, Historical Journal of Film Radio and Television, Vol 14 No 1, 1994 p57  
| gross          = $750,000 
}}
Radio City Revels is a 1938 film set in New York City and directed by Benjamin Stoloff.

==Reception==
According to RKO records, the film made a loss of $300,000. 

==References==
 

==External links==
*  at TCMDB
*  

 
 
 
 
 
 


 
 