Someday (2011 film)
 
{{Infobox film
| name           = Someday
| image          = 
| caption        = 
| director       = Junji Sakamoto
| producer       = Yukiko Shii
| writer         = Hiroshi Nobue Junji Sakamoto
| starring       = Yoshio Harada
| music          = 
| cinematography = Norimichi Kasamatsu
| editing        = 
| distributor    = 
| released       =  
| runtime        = 93 minutes
| country        = Japan
| language       = Japanese
| budget         = 
}}

  is a 2011 Japanese drama film directed by Junji Sakamoto.    

==Cast==
* Yoshio Harada as Yoshi Kazamatsuri
* Michiyo Okusu as Takako Kazamatsuri
* Ittoku Kishibe as Muchira No
* Kōichi Satō as Ippei Koshida
* Takako Matsu as Mie Oi
* Satoshi Tomiura as Daiji Raion
* Eita as Kanji Shibayama
* Renji Ishibashi as Kensan Shigetake

==References==
 

==External links==
*  

 
 

 
 
 
 
 
 
 
 