Sunny Days (film)
{{Infobox film
| name           = Sunny Days
| image          = 
| caption        = 
| director       = Nariman Turebayev
| producer       = 
| writer         = Nariman Turebayev
| starring       = Inkar Abdrash
| music          = 
| cinematography = Boris Troshev
| editing        = 
| distributor    = 
| released       =  
| runtime        = 101 minutes
| country        = Kazakhstan
| language       = Russian
| budget         = 
}}

Sunny Days ( ) is a 2011 Kazakhstani drama film directed by Nariman Turebayev.    

==Cast==
* Inkar Abdrash
* Asel Kaliyeva
* Yuri Radin
* Erlan Utepbergenov

==References==
 

==External links==
*  

 
 
 
 
 
 