The Gunmaker of Moscow
 
 
The Gunmaker of Moscow is a serial novel by  .  , p. 99, 309 (1950) 

It was adapted into a play, and also into a silent film by  , p. 839 

==References==
 

==External links==
*  at Project Gutenberg Australia
*  at Internet Archive
*  (1913 silent film)

 

 
 
 



 