Savage Splendor
{{Infobox film
| name           = Savage Splendor
| image          =
| producer       =
| director       = Armand Denis Lewis Cotlow
| writer         =
| starring       = Tim Holt
| music          =
| cinematography =
| editing        =
| distributor    = RKO Radio Pictures
| released       =  
| runtime        =
| country        = United States
| language       = English
| gross          =
| budget         =
}}
Savage Splendor is a 1949 documentary.

It made a profit of $250,000 and was RKOs most popular film of the year. Richard Jewell & Vernon Harbin, The RKO Story. New Rochelle, New York: Arlington House, 1982. p238 

==References==
 

==External links==
*  at IMDB

 