Trail Guide
{{Infobox film
| name           = Trail Guide
| image          =
| producer       =
| director       = Lesley Selander
| writer         =
| starring       = Tim Holt
| music          =
| cinematography =
| editing        =
| distributor    = RKO Radio Pictures
| released       =  
| runtime        =
| country        = United States
| language       = English
| budget         = $89,000 Richard Jewell & Vernon Harbin, The RKO Story. New Rochelle, New York: Arlington House, 1982. p268 
| gross          =
}}
Trail Guide is a 1952 film starring Tim Holt. It lost $20,000 and the series soon wound up. 

==References==
 

==External links==
* 
 
 
 
 
 


 