Annapolis Salute
{{Infobox film
| name           = Annapolis Salute
| image          =
| caption        =
| director       = Christy Cabanne
| producer       =
| writer         = Harry Carey Van Heflin
| music          =
| cinematography = Russell Metty
| editing        = RKO Radio Pictures
| released       =  
| runtime        =
| country        = United States
| language       = English
| budget         =
| gross          = $272,000 Richard Jewell & Vernon Harbin, The RKO Story. New Rochelle, New York: Arlington House, 1982. p. 110. 
}}
Annapolis Salute is a 1937 film.

==References==
 

==External links==
*  

 
 
 
 
 
 