Four Jacks and a Jill (film)
{{Infobox film
| name           = Four Jacks and a Jill
| image          =
| caption        =
| director       =
| producer       = John Twist
| writer         =
| starring       = Ray Bolger Desi Arnaz June Havoc
| music          =
| cinematography =
| editing        = RKO Radio Pictures
| released       =  
| runtime        =
| country        = United States
| language       = English
| budget         =
| gross          =
}}
Four Jacks and a Jill is a 1942 film.

It lost $113,000. Richard Jewell & Vernon Harbin, The RKO Story. New Rochelle, New York: Arlington House, 1982. p169 

==References==
 

==External list==
*  at IMDB

 
 
 
 


 