52nd Street (film)
{{Infobox film
| name           = 52nd Street
| image          = 
| caption        =  Harold Young Charles Kerr (assistant)
| producer       = Walter Wanger
| writer = 
| based on         =  Ian Hunter
| music          = 
| cinematography = 
| editing        =
| studio = 
| distributor    =  
| released       = 1937
| runtime        = 
| country        = US
| language       = English budget = $523,869 Matthew Bernstein, Walter Wagner: Hollywood Independent, Minnesota Press, 2000 p438  gross = $598,384 
}} Ian Hunter.

==Reception==
It recorded a loss of $4,392. 

==References==
 

==External links==
*  at IMDB
 

 
 
 
 
 
 


 