Fatal Lady
{{Infobox film
| name           = Fatal Lady
| image          = 
| caption        = 
| director       = Edward Ludwig
| producer       = Walter Wanger
| writer = 
| based on         = 
| starring       = Walter Pidgeon Mary Ellis
| music          = 
| cinematography = 
| editing        =
| studio = 
| distributor    =  
| released       = 1936
| runtime        = 
| country        = US
| language       = English budget = $431,862 Matthew Bernstein, Walter Wagner: Hollywood Independent, Minnesota Press, 2000 p437  gross = $201,707 
}}
Fatal Lady is a 1936 film.

It recorded a loss of $296,665. 

==References==
 

==External links==
*  at IMDB

 
 

 
 
 
 
 
 


 