Iron Girl
{{Infobox film
| name           = Iron Girl
| image          = 
| image size     = 
| border         = 
| alt            = 
| caption        = 
| director       = Masatoshi Nagamine
| producer       = 
| writer         = 
| screenplay     = 
| story          = 
| based on       =  
| narrator       = 
| starring       = Asuka Kirara Rina Akiyama Yasuhisa Furuhara Yūji Kido Rakuto Tochihara
| music          = 
| cinematography = 
| editing        = 
| studio         = 
| distributor    = 
| released       =   
| runtime        = 92 minutes
| country        = Japan
| language       = Japanese
| budget         = 
| gross          = 
}}

  is a 2012 Japanese film directed by Masatoshi Nagamine.  

==Cast==
*Asuka Kirara   
*Rina Akiyama 
*Yasuhisa Furuhara 
*Yūji Kido 
*Rakuto Tochihara 

==References==
 

==External links==
*   
* 

 


 