Dekha
{{Infobox film
| italic title   = 
| name           = Dekha
| image          = 
| image_size     = 
| border         = 
| alt            = 
| caption        = 
| director       = Goutam Ghose	
| producer       = 
| writer         = 
| screenplay     = Goutam Ghose
| story          = Sunil Gangopadhyay
| based on       =  
| narrator       = 
| starring       = 
| music          = 
| cinematography = 
| editing        = 
| studio         = 
| distributor    = 
| released       =  2001
| runtime        = 
| country        = India
| language       = Bengali
| budget         = 
| gross          = 
}} Bengali film directed by Goutam Ghose. This was Ghoses ninth feature film and it was a successful one. The film revolves around an ageing poet afflicted with glaucoma and nearly blind whose wife has deserted him because of his reckless lifestyle.         
 Best Feature Special Jury Award.   
== Plot ==
 

== Cast ==
* Soumitra Chatterjee as Sashi Bhusan Sanyal
* Debashree Roy as Sarama
* Indrani Haldar as Reema
* Kamal Kanjilal as Gagan Chandra Goon
* Biplab Chatterjee as Property dealer
* Haradhan Bannerjee as Saramas father
* Paran Bandyopadhyay
* Rupa Ganguly as Sashi Bhusans wife
* Anjan Dutt as Saramas husband

== References ==
 

== External links ==
*  
*  

 
 
 
 
 


 