Hajimari no Michi
{{Infobox film
| name           = Hajimari no Michi
| image          = 
| alt            = 
| caption        = 
| director       = Keiichi Hara
| producer       = Hirotaka Aragaki Yoshitaka Ishizuka
| writer         = Keiichi Hara
| starring       = Ryo Kase 
| music          = 
| cinematography = 
| editing        = 
| studio         = 
| distributor    = Shochiku Company
| released       =  
| runtime        = 
| country        = Japan
| language       = Japanese
| budget         = 
| gross          = 
}}
  is a Japanese biographical film directed by Keiichi Hara about Japanese filmmaker, Keisuke Kinoshita. 

==Cast==
* Ryo Kase as Keisuke Kinoshita
* Yūko Tanaka as Tama Kinoshita
* Yūsuke Santamaria as Toshizo Kinoshita
* Gaku Hamada as Keisukes assistant
* Ren Osugi as Shiro Kido
* Aoi Miyazaki as Narrator

==References==
 

==External links==
* 

 

 
 
 


 