This Disaster: Live in London
 
{{Infobox Film |
|  name          = This Disaster: Live in London
|  image         = NFG_This_Disaster.jpg 
|  distributor   = Geffen Records, Drive-Thru Records 
|  director      = Meiert Avis 
|  producer      = Oualid Mouaness 
|  editing       = Ken Mowe 
|  released      = November 23, 2004 
|  runtime       = 125 min. 
}} acoustic radio performances.

The DVDs title is derived from the song "This Disaster" off the bands fourth album, Catalyst (2004). It is most likely that the title was chosen, because in the middle of the bands set the main power to the venue went out.

==Content==
===Live at the Forum, London, England===
What makes this show so unique is that during the show while the band was playing "Dressed to Kill", the main power to the venue went out. As a result, the band could not continue their performance. However, in an effort to keep the show going, the band played two acoustic songs while the power was being restored, namely "My Friends over You" and "I Dont Wanna Know". After finishing the song, the power was restored and the band continued their set as planned, including full band versions of both songs.

====Setlist====
{{Tracklist
| all_writing     = New Found Glory
| headline        = This Disaster: Live in London
| total_length    = 1:09:38
| title1          = Truth Of My Youth
| length1         = 3:13
| title2          = Understatement
| length2         = 3:11
| title3          = 2s & 3s
| length3         = 3:41 Hit or Miss
| length4         = 4:13
| title5          = Failures Not Flattering
| length5         = 3:43
| title6          = This Disaster
| length6         = 3:07
| title7          = Something I Call Personality
| length7         = 3:34
| title8          = Better Off Dead
| length8         = 2:50
| title9          = Sonny
| length9         = 3:42
| title10         = Head On Collision
| length10        = 3:46
| title11         = Your Biggest Mistake
| length11        = 3:17
| title12         = Its Been a Summer
| length12        = 3:46
| title13         = Dressed to Kill
| length13        = 3:22
| note13          = The power goes down about 2:54
| title14         = I Dont Wanna Know
| length14        = 3:50
| title15         = Forget My Name
| length15        = 3:07
| title16         = My Friends Over You
| length16        = 4:39
| title17         = The Story So Far
| length17        = 4:29
| title18         = Sucker
| length18        = 3:04
| title19         = Intro / All Downhill From Here
| length19        = 5:04
}}

===This Disaster=== acoustic guitar.

# "My Friends Over You (Acoustic)"
# "I Dont Wanna Know (Acoustic)"

===Special Features/Behind the Scenes/Truth of My Youth===
Following the DVDs main feature are two bonus acoustic songs: A third rendition of "I Dont Wanna Know", performed for UK magazine Kerrang!, and an acoustic performance of "All Downhill from Here", filmed during the Warped Tour 2004.
 The Story So Far (2002), band members alter egos, numerous costumes and various shots of on stage footage, ranging from shows in small clubs to giant arenas.
 instrumental versions of New Found Glorys "Truth of My Youth", "Your Biggest Mistake", and "Whiskey Rose".

 

 
 
 