Raat Bhore
{{Infobox film
| name           = Raat Bhore
| image          = Raat Bhore poster.jpg 
| image_size     = 190px
| border         = 
| alt            = Raat Bhore poster
| caption        = Film poster
| director       = Mrinal Sen
| producer       = S. B. Productions
| writer         = 
| screenplay     = Mrinal Sen
| story          = Swaraj Bandyopadhyay
| based on       =  
| narrator       = 
| starring       = Uttam Kumar Sabitri Chatterjee Chhabi Biswas Jahor Roy Shobha Sen
| music          = Salil Chowdhury
| cinematography = Ramananda Sengupta
| editing        = Ramesh Joshi
| studio         = 
| distributor    = 
| released       =   
| runtime        = 
| country        = India
| language       = Bengali
| budget         = 
| gross          = 
}}
 Bengali film directed by Mrinal Sen. This was Sens first film.      

== Plot ==
 

== Cast ==
* Uttam Kumar
* Sabitri Chatterjee
* Chhabi Biswas
* Jahor Roy
* Kali Banerjee
* Chhaya Debi
* Shobha Sen
* Keshto Mukherjee
* Biren Chattopadhyay
* Dhiraj Das
* Swagata Chakarborty
* Debi Neogi
* Mamtaz Ahmed

== References ==

=== Citations ===
 

=== Notes ===
 

== External links ==
*  
*   in Mrinal Sens official website

 

 
 
 
 
 


 