Ready, Steady, Charlie!
{{Infobox film
| name           = Ready, Steady, Charlie!
| image          = 
| image_size     = 
| caption        = 
| director       = Mike Eschmann
| producer       = 
| writer         = 
| narrator       =  Michael Koch Melanie Winiger Marco Rima
| music          = 
| cinematography = 
| editing        = 
| distributor    = 
| released       = 2003
| runtime        = 92 min.
| country        = Switzerland French / Italian
| budget         = 
| preceded_by    = 
| followed_by    = 
}}
 2003 Switzerland|Swiss Michael Koch, United States, UK and even in Russia.

Six-year-old Venus Palermo took part in the movie production as an extra,    making her debut in the film industry.

==References==
 

== External links ==
*  

 
 
 
 


 
 