Bhagini Nivedita (film)
 
 
{{Infobox film
| name           = Bhagini Nivedita
| image          = Bhagini Nivedita film DVD cover.jpg
| image_size     = 200px
| border         = 
| alt            = Bhagini Nivedita 1962 film DVD cover
| caption        = DVD cover
| director       = Bijoy Basu
| producer       = Aurora Film Corporation
| writer         = 
| screenplay     = 
| story          = 
| based on       =  
| narrator       = 
| starring       = 
| music          = 
| cinematography = 
| editing        = 
| studio         = 
| distributor    = 
| released       =   
| runtime        = 
| country        = India
| language       = Bengali
| budget         = 
| gross          = 
}} Bengali film directed by Bijoy Basu. The film was based on the life of Sister Nivedita. The film won National film award in best films category and presidential medal.         

== Cast ==
* Arundhati Devi as Sister Nivedita
* Asit Baran Ajit Banerjee
* Sunanda Banerjee
* Haradhan Bannerjee
* Dwiju Bhawal
* Premangshu Bose
* Amaresh Das
* Dilip Roy
* Shobha Sen

== References ==
 

== External links ==
*  
 

 

 
 
 
 
 
 
 
 


 