The Call of the Wild (1976 film)
{{Infobox film
| name           = The Call of the Wild
| image          = 
| image_size     = 
| border         = 
| alt            = 
| caption        = 
| director       = Jerry Jameson
| producer       =  
| writer         = 
| screenplay     = James Dickey
| story          = 
| based on       =   
| narrator       =  John Beck
| music          = Peter Matz
| cinematography = Matthew F. Leonetti
| editing        = Tom Stevens
| studio         = Charles Fries Productions
| distributor    =  
| released       =  
| runtime        = 100 min.
| country        = United States
| language       = English
| budget         = 
| gross          = 
}} John Beck, novel of the same title. The authors son, Christopher Dickey, wrote in his 1998 memoir, Summer of Deliverance, that " he Hollywood concept   was James Dickey meets Jack London; sort of Deliverance in the Klondike, Yukon|Klondike." 

==References==
 

==External links==
* 
* 

 

 
 
 
 
 
 

 