Gone Fishing (2012 film)
{{Infobox film
| name           = Gone Fishing
| image          = 
| caption        = 
| director       = Carlos Sorín
| producer       = Carlos Sorín
| writer         = Carlos Sorín
| starring       = Victoria Almeida
| music          = 
| cinematography = Julián Apezteguia
| editing        = 
| distributor    = 
| released       =  
| runtime        = 78 minutes
| country        = Argentina
| language       = Spanish
| budget         = 
}}

Gone Fishing ( ) is a 2012 Argentine drama film directed by Carlos Sorín.   

==Cast==
* Victoria Almeida
* Alejandro Awada

==References==
 

==External links==
*  

 
 
 
 
 
 
 