Dust (2012 film)
 
{{Infobox film
| name           = Dust
| image          = 
| caption        = 
| director       = Julio Hernández Cordón
| producer       = 
| writer         = Julio Hernández Cordón Fernando Martínez
| music          = 
| cinematography = María Secco
| editing        = 
| distributor    = 
| released       =  
| runtime        = 80 minutes
| country        = Guatemala
| language       = Spanish
| budget         = 
}}

Dust ( ) is a 2012 Guatemalan drama film directed by Julio Hernández Cordón.   

==Cast==
* Alejandra Estrada Fernando Martínez as Vecino
* Agustin Ortíz Pérez
* Eduardo Spiegeler
* María Telón

==References==
 

==External links==
*  

 
 
 
 
 

 