The Surfer
 
{{Infobox film
| name           = The Surfer
| image          = 
| image size     =
| caption        = 
| director       = Frank Shieilds
| producer       =
| writer         = 
| based on = 
| narrator       =
| starring       = Gary Day Gosia Dobrowolska
| music          = 
| cinematography = 
| editing        = 
| studio = 
| distributor    = 
| released       = 1986
| runtime        = 
| country        = Australia English
| budget         =
| gross = 
| preceded by    =
| followed by    =
}}
The Surfer is a 1986 Australian film directed by Frank Shields about a beach bum whose best friend is murdered and becomes involved in a  cross country chase.

The movie was invited to screen at the Directors Fortnight segment of the 1987 Cannes Film Festival. David Stratton, The Avocado Plantation: Boom and Bust in the Australian Film Industry, Pan MacMillan, 1990 p236-238 

==References==
 

==External links==
* 
* 
 
 
 
 
 

 