The 13th Floor (1988 film)
 
 
{{Infobox film
| name           = The 13th Floor
| image          = 
| image size     =
| caption        = 
| director       = Chris Roache David Hannay Charles Hannah executive Tom Broadbridge
| writer         = Chris Roache
| based on = 
| narrator       = Lisa Hensley
| music          = 
| cinematography = Stephen Prime
| editing        = 
| studio = 
| distributor    = 
| released       = 1988
| runtime        = 94 mins
| country        = Australia English
| budget         = AU $600,000 (est.) 
| gross = 
| preceded by    =
| followed by    =
}}
The 13th Floor is a 1988 horror film starring Miranda Otto. David Stratton, The Avocado Plantation: Boom and Bust in the Australian Film Industry, Pan MacMillan, 1990 p292, 295  

==References==
 

==External links==
* 

 
 
 
 


 
 