Cassandra (film)
 
 
{{Infobox film
| name           = Cassandra
| image          = 
| image size     =
| caption        = 
| director       = Colin Eggleston
| producer       = Trevor Lucas
| writer         = Colin Eggleston Chris Fitchett John Ruane
| based on = 
| narrator       =
| starring       = Tegan Charles Shane Briant Briony Behets Kit Taylor
| music          = 
| cinematography = 
| editing        = 
| studio = Parallel Films
| distributor    = Virgin (video)
| released       = 1987
| runtime        = 89 mins
| country        = Australia English
| budget         = A$1,480,000 
| gross = 
| preceded by    =
| followed by    =
}}
Cassandra is a 1987 Australian horror film. David Stratton, The Avocado Plantation: Boom and Bust in the Australian Film Industry, Pan MacMillan, 1990 p290 

==Plot==
 
A young girl is haunted by nightmares of suicide and murder. 

==References==
 

==External links==
* 
*  at  
*  at AustLit
 

 
 
 
 
 


 
 