Run Rebecca, Run
{{Infobox film
| name           = Run Rebecca, Run
| image          = 
| image size     =
| caption        = 
| director       = Peter Maxwell
| producer       = Brendon Lunney
| writer         = Charles Stamp
| based on = idea by Gary Deacon
| narrator       =
| starring       = Henri Szeps Simone Buchanan John Ewart
| music          = 
| cinematography = 
| editing        = 
| studio = 
| distributor    = 
| released       = 1982
| runtime        = 
| country        = Australia English
| budget         = 
| gross = 
| preceded by    =
| followed by    =
}}
Run, Rebecca, Run is a 1982 Australian film about a child kidnapped by a refugee. David Stratton, The Avocado Plantation: Boom and Bust in the Australian Film Industry, Pan MacMillan, 1990 p340  

==References==
 

==External links==
*  at IMDB

 
 
 

 