Naramsimha
{{Infobox film
| name           =Naramsimha
| image          = 
| image_size     = 
| caption        = 
| director       =  
| producer       = 
| writer         =
| narrator       = 
| starring       =
| music          = 
| cinematography = 
| editing        = 
| distributor    = 
| released       = 1991
| runtime        = 
| country        = India Hindi
| budget         = 
| gross          = 
| preceded_by    = 
| followed_by    = 
| website        = 
}}
 1991 and stars Dimple Kapadia.    
  
==References==
 

==External links==
*  

 
 
 


 