Kali Ganga
{{Infobox film
| name           =Kali Ganga
| image          = KaliGangafilm.jpg
| image_size     = 
| caption        = 
| director       =  
| producer       = 
| writer         =
| narrator       =  Govinda Dimple Kapadia
| music          = 
| cinematography = 
| editing        = 
| distributor    = 
| released       = 01 June 1990
| runtime        = 
| country        = India Hindi
| budget         = 
| gross          = 
| preceded_by    = 
| followed_by    = 
| website        = 
}}
 1990 and Govinda and Dimple Kapadia.    
  
==References==
 

==External links==
*  

 
 
 


 