Salvation (2008 film)
 
{{Infobox film
| name           = Salvation
| image          = 
| caption        = 
| director       = Paul Cox
| producer       = Paul Cox Tony Llewellyn-Jones
| writer         = Paul Cox
| starring       = Wendy Hughes Bruce Myles
| music          = 
| cinematography = 
| editing        = Aden Young
| studio = 
| distributor    = 
| released       =  
| runtime        = 
| country        = Australia
| language       = English
| budget         =
| gross = $3,182 (Australia) 
}}
Salvation is a 2008 Australian film directed by Paul Cox.

Cox was inspired to make the film after seeing a televangelist on TV late at night asking for money for a facelift. 

==Reception==
The film received mixed reviews. 

==References==
 

==External links==
* 
*  at Paul Coxs website
 

 
 
 


 