Strawberry Night
 
{{Infobox film
| name           = Strawberry Night
| image          = 
| image size     = 
| border         = 
| alt            = 
| caption        = 
| director       = 
| producer       = 
| writer         = 
| screenplay     = 
| story          = 
| based on       =   
| narrator       =  Hidetoshi Nishijima
| music          = 
| cinematography = 
| editing        = 
| studio         = 
| distributor    = 
| released       =   
| runtime        = 
| country        = Japan
| language       = Japanese
| budget         = 
| gross          = 
}}

  is a Japanese film based on Tetsuya Hondas detective novel by the same name. It was released in theaters on 23 January 2013. 

==Cast==
* Yuko Takeuchi as Reiko Himekawa 
* Takao Osawa as Isao Makita  Hidetoshi Nishijima as Kazuo Kikuta 
* Keisuke Koide
* Ryuhei Maruyama
* Tetsuya Takeda
* Tomokazu Miura 
* Shota Sometani 
* Ken Kaneko 
* Nobuaki Kaneko 
* Renji Ishibashi 
* Tetsushi Tanaka

==References==
 

==External links==
*    
*  

 

 
 
 
 


 