Hari Bhakta
{{Infobox film
| name           = Hari Bhakta
| image          = 
| image size     =
| caption        = 
| director       = T. V. Singh Thakur
| producer       = G. N. Vishwanatha Shetty  T. V. Singh Thakur
| writer         = 
| screenplay     = G. V. Iyer Rajkumar Pandari Bai
| music          = G. K. Venkatesh
| cinematography = B. Dorairaj
| editing        = N. C. Rajan
| distributor    = Viswa Kala Chitra
| released       = 1956
| runtime        = 148 minutes
| country        = India
| language       = Kannada
}}
 Kannada film Rajkumar and Pandari Bai in lead roles. It had Mynavathi, Narasimharaju (Kannada actor)|Narasimharaju, G. V. Iyer, H. R. Shastry playing supporting roles. 

==Cast== Rajkumar
* Pandari Bai
* Mynavathi Narasimharaju
* G. V. Iyer
* H. R. Shastri

==Soundtrack==
The music of the film was composed by G. K. Venkatesh.
{| class="wikitable"
|- style="background:#ff9; text-align:center;"
! Track# !! Song !! Singer(s) !! Duration
|- Ghantasala || 4:12
|-
| 2 || "Deva Darusanava Needeya" ||  || 
|-
|}

==References==
 

==External links==
*  
*   on Chiloka

 
 
 
 
 


 