En herre med bart
{{Infobox film
| name           = En herre med bart
| image          = 
| image size     =
| caption        = 
| director       = Alfred Maurstad
| producer       = 
| writer         = Finn Bø (play)
| narrator       =
| starring       = Per Aabel   Wenche Foss 
| music          = 
| cinematography = 
| editing        = 
| distributor    = 
| released       =   1944
| runtime        = 92 minutes
| country        = Norway
| language       = Norwegian
| budget         = 
| gross          =
| preceded by    =
| followed by    =
}}
 Norwegian comedy film directed by Alfred Maurstad, based on a play by Finn Bø, and starring Per Aabel and Wenche Foss. Attorney Ole Grong (Aabel) and his wife Cecilie (Foss) are having marital difficulties. After they decide on a divorce, the both go away to recuperate, and when they happen to check in at the same hotel, complications ensue.

==External links==
*  
*  

 
 
 
 


 
 