Englandsfarere
{{Infobox film
| name           = Englandsfarere
| image          = 
| image size     =
| caption        = 
| director       = Toralf Sandø
| producer       = 
| writer         = Sigurd Evensmo (novel)   Victor Borg   Toralf Sandø (script)
| narrator       =
| starring       = Knut Wigert   Jørn Ording 
| music          = 
| cinematography = 
| editing        = 
| distributor    = 
| released       =    22 April 1946
| runtime        = 107 minutes
| country        = Norway
| language       = Norwegian
| budget         = 
| gross          =
| preceded by    =
| followed by    =
}}
 Norwegian war Norwegian resistance fighters Harald (Wigert) and Arild (Ording) in their flight from the Gestapo.

==External links==
*  
*  
*   at the Norwegian Film Institute

 
 
 
 
 
 

 