Strangers (1991 film)
{{Infobox film
| name           = Strangers
| image          = 
| image size     =
| caption        = 
| director       = Craig Lahiff
| producer       = Craig Lahiff Wayne Groom
| writer         = John Emery
| based on = 
| narrator       =
| starring       = James Healey Anne Looby
| music          = 
| cinematography = 
| editing        = 
| studio = Genesis Films Australian Film Finance Corporation
| distributor    = Video Box Office (video)
| released       = 1991
| runtime        = 83 mins
| country        = Australia English
| budget         = A$1.2 million "Production Survey", Cinema Papers, March 1990 p72 
| gross = 
| preceded by    =
| followed by    =
}}
Strangers is a 1991 Australian film. 
==Plot==
Stockbroker Gary has an affair with the dangerous Anna.

==Production==
It was shot from 16 October to 24 November 1989.  
 Strangers on a Train and claims it was the first movie financed by the Film Finance Corporation to make its budget back in sales. 

==References==
 

==External links==
*  at IMDB
 

 
 
 

 