Vizhithiru
{{Infobox film
| name           = Vizhithiru
| image          = 
| alt            =  
| caption        = 
| director       = Meera Kathiravan
| producer       = 
| story          = Meera Kathiravan
| screenplay     = Meera Kathiravan Abhinaya
| Sathyan Mahalingam
| cinematography = Vijay Milton R.V.Saran
| editing        = Praveen K. L. N. B. Srikanth
| studio         = 
| distributor    = 
| released       =  
| runtime        = 
| country        = India
| language       = Tamil
| budget         = 
| gross          = 
}} Mount Road and Vepery. 

==Cast==
* Krishna Kulasekaran as Muthukumar
* Venkat Prabhu
* Vidharth
* Dhansika as Saroja Devi
* Thambi Ramaiah Abhinaya
* S. P. B. Charan
* Sara Arjun
* Nagendra Babu
* Erica Fernandes
* Rahul Bhaskaran
* Laksanan Kuganeethan

==Soundtrack== Sathyan Mahalingam was finalized as the composer.

== References ==
 

 
 
 
 
 
 


 