Shotgun Wedding (1993 film)
{{Infobox film
| name           = Shotgun Wedding
| image          = 
| image size     =
| caption        = 
| director       = Paul Harmon
| producer       =
| writer         = 
| based on = 
| narrator       =
| starring       = Aden Young Zoe Carides
| music          = 
| cinematography = 
| editing        = 
| studio = David Hannay Productions
| distributor    = Beyond Films
| released       = 1993
| runtime        = 
| country        = Australia English
| budget         = A$4,141,485 
| gross = A$4,794 (Austrralia) 
| preceded by    =
| followed by    =
}}
Shotgun Wedding is a 1993 Australian film based on the Wally Melish siege. 
==References==
 

==External links==
* 

 
 
 
 

 