Love in Limbo
{{Infobox film
| name           = Love in Limbo
| image          = 
| image size     =
| caption        = 
| director       = David Elfick
| producer       =
| writer         = 
| based on = 
| narrator       =
| starring       = Craig Adams Aden Young Russell Crowe Martin Sacks Darryl Smith
| music          = 
| cinematography = 
| editing        = 
| studio = 
| distributor    = 
| released       = 1993
| runtime        = 
| country        = Australia English
| budget         = 
| gross = A$74,448 (Australia) 
| preceded by    =
| followed by    =
}}
Love in Limbo is a 1993 Australian comedy film directed by David Elfick.

Visually the film was heavily influenced by The Girl Cant Help It (1956). 

It was nominated for three awards by the Australian Film Institute in 1992. 

==References==
 

==External links==
* 

 
 
 
 
 


 
 