Liquid Bridge
 
{{Infobox film
| name           = Liquid Bridge
| image          = Liquid Bridge dvd cover.jpeg
| image_size     =
| caption        = DVD cover
| director       = Phillip Avalon
| producer       = Phillip Avalon
| writer         = Pim Hendrix
| starring       = Ryan Kwanten Simone Kessell Jeremy Sims
| music          = Brett Rosenberg
| cinematography = Roger Buckingham
| editing        = David Stiven
| distributor    = InterTropic Films
| released       =  
| runtime        = 98 minutes
| country        = Australia
| language       = English
| budget         =
| gross          = A$1,000,112 (Australia) 
}}
 pro surfer smuggling drugs and jailed, he fights to prove his innocence. 

==References==
 

==External links==
* 
 

 
 

 