The Pact (2003 film)
 
{{Infobox film
| name           = The Pact
| image          =
| image_size     =
| caption        =
| director       = Strathford Hamilton
| producer       = Phillip Avalon
| writer         =
| starring       = Sigrid Thornton Robert Mammone
| music          =
| cinematography =
| editing        =
| distributor    =
| released       =  
| runtime        =
| country        = Australia
| language       = English
| budget         =
| gross          = A$982,317 (Australia) 
}}
The Pact is a 2003 Australian film.

The movie was privately financed. 

==References==
 

==External links==
*  
 

 
 
 
 
 
 


 
 