Sex Is a Four Letter Word
 
{{Infobox film
| name           = Sex is a Four Letter Word
| image          =
| caption        =
| director       = Murray Fahey
| producer       = Murray Fahey
| writer         = Murray Fahey Mark Lee Tessa Humphries Rhett Walton
| music          =
| cinematography = Brian Kavanagh
| distributor    =
| released       =  
| runtime        =
| country        = Australia
| language       = English
| budget         = less than A$1 million "Production Survey", Cinema Papers, June 1995 p61 
| gross          =
}}
Sex is a Four Letter Word is a 1995 Australian film.
 The Big Chill (1983). 

==Plot==
A love columnist (Joy Smithers) invites six friends over to talk about love and sex.

==References==
 

==External links==
* 
*  at Screen Australia

 
 
 
 
 