La madrecita
{{Infobox film
| name           = La madrecita
| image          = 
| image_size     = 
| border         = 
| alt            = 
| caption        = 
| director       = Fernándo Cortés
| producer       = Fernando de Fuentes, Jr.
| writer         = Fernando Galiana
| screenplay     = 
| story          = 
| based on       =  
| narrator       = 
| starring       = María Elena Velasco Pancho Córdova Óscar Ortiz de Pinedo
| music          = Sergio Guerrero
| cinematography = Fernando Colín
| editing        = Sergio Soto
| studio         = Estudios América
| distributor    = Diana Films
| released       =  
| runtime        = 83 minutes
| country        = Mexico 
| language       = Spanish
| budget         = 
| gross          = 
}}
La madrecita ( ) is a 1974 Mexican film directed by Fernándo Cortés and starring María Elena Velasco as La India María, with Pancho Córdova and Óscar Ortiz de Pinedo.

==External links==
* 

 
 
 
 


 