River Street (film)
 
{{Infobox film
| name           = River Street
| image          =
| caption        =
| director       = Tony Mahood
| producer       =
| writer         = Phillip Ryall
| starring       = Aden Young Bill Hunter Essie Davis
| music          =
| cinematography =
| editing        = Dany Cooper
| distributor    =
| released       =  
| runtime        =
| country        = Australia
| language       = English
| budget         = A$3.1 million "Production Survey", Cinema Papers, August 1995 p60 
| gross          = A$82,940(Australia) 
}}
River Street is a 1996 Australian film. It started filming on 18 September 1995. 

==References==
 

==External links==
* 

 
 
 

 