Storage (film)
 
{{Infobox film
| name           = Storage
| image          =
| caption        =
| director       = Michael Craft
| producer       =
| writer         = Michael Craft
| starring       = Saskia Burmeister Robert Mammone
| music          =
| cinematography =
| editing        =
| distributor    =
| released       =  
| runtime        =
| country        = Australia
| language       = English
| budget         =
| gross          =
}}
Storage is a 2009 Australian horror film.

It had its world premiere at the 2009 Dungog Film Festival. 

==References==
 

==External links==
* 
* 

 
 

 