Boxing Day (2007 film)
 
 
{{Infobox film
| name           = Boxing Day
| image          =
| caption        =
| director       = Kriv Stenders
| producer       =
| writer         =
| starring       =
| music          =
| cinematography =
| editing        =
| distributor    =
| released       =  
| runtime        =
| country        = Australia
| language       = English
| budget         =
| gross          = A$2,588 (Australia) 
}}
Boxing Day is a 2007 Australian film directed by Kriv Stenders.

It was partly funded by the Adelaide Film Festival. 

==References==
 

==External links==
* 

 

 
 


 