Fresh Air (film)
 
{{Infobox film
| name           = Fresh Air
| image          =
| caption        =
| director       = Neil Mansfield
| producer       =
| writer         = Neil Mansfield
| starring       = Nadine Garner Bridie Carter
| music          =
| cinematography =
| editing        =
| distributor    =
| released       =  
| runtime        =
| country        = Australia
| language       = English
| budget         =
| gross          = A$10.050 (Australia) 
}}
Fresh Air is a 1999 Australian film.

It was one of a series of "million dollar movies" financed by the Australian Film Commission and SBS Independent. 

==References==
 

==External links==
* 
* 

 
 
 
 

 