Lost Things
 
{{Infobox film
| name           = Lost Things
| image          =
| caption        =
| director       = Martin Murphy
| producer       = Stephen Sewell
| based on       =
| starring       = Leon Ford Alexandra Vaughan Lenka Kripac Charlie Garber Steve Le Marquand
| music          =
| cinematography =
| editing        =
| distributor    =
| released       =  
| runtime        =
| country        = Australia
| language       = English
| budget         =
| gross          = A$20,899 (Australia) 
}}
Lost Things is a 2004 Australian suspense film about four friends who go away to the beach for the weekend.

It was shot over 11 days.  It was made without government assistance although received support from Showtime (TV network)|Showtime. 

==References==
 

==External links==
* 
*  at Urban Cinefile

 
 
 


 