A Little Bit of Soul (1998 film)
 
 
 
{{Infobox film
| name           = A Little Bit of Soul
| image          =
| caption        =
| director       = Peter Duncan
| producer       =
| writer         = Peter Duncan
| based on       =
| starring       = Geoffrey Rush Frances OConnor David Wenham
| music          =
| cinematography =
| editing        =
| distributor    =
| released       =  
| runtime        =
| country        = Australia
| language       = English
| budget         =
| gross          = A$135,437 (Australia) 
}}
A Little Bit of Soul is a 1998 Australian film directed by Peter Duncan.

He got the idea to make the movie after having a dinner party with friends in 1996. 
==References==
 

==External links==
* 
*  at Urban Cinefile

 
 
 
 

 