Nagakannika
{{Infobox film
| name           = Nagakannika
| image          =
| caption        =
| director       = G. Vishwanathan
| producer       = Shankar Singh
| writer         =
| narrator       =
| starring       = Jayashree Pratima Devi G. R. Sandow Bellary Ratnamala
| music          = Palavangudi Shamy Iyer
| cinematography = B. Dorai
| editing        =
| studio         = Mahatma Pictures
| distributor    =
| released       =  
| runtime        = 172 minutes
| country        = India
| language       = Kannada
| budget         =
}}
 1949 Indian Kannada film directed by G. Vishwanathan. The film stars Pratima Devi, Jayashree and G. W. Sandow in lead roles. It was the first folk-based film in Kannada.  The film was successful at the box office. 

==Cast==
* Jayashree
* Pratima Devi
* G. W. Sandow
* Bellary Ratnamala

==References==
 

==External links==
*  

 
 
 
 
 


 