The Missing (1999 film)
{{Infobox film
| name           = The Missing
| image          = 
| image size     =
| caption        = 
| director       = Manuela Alberti
| producer       =
| writer         = 
| based on = 
| narrator       =
| starring       = Rebecca Firth
| music          = 
| cinematography = 
| editing        = 
| studio = 
| distributor    = 
| released       = 1999
| runtime        = 
| country        = Australia English
| budget         = 
| gross = A$15,091 (Australia) 
| preceded by    =
| followed by    =
}}
The Missing is a 1999 Australian film about a priest who visits Australia.

==References==
 

==External links==
* 
*  at Urban Cinefile

 
 
 
 

 