The Old Man Who Read Love Stories
 
{{Infobox film
| name           = The Old Man Who Read Love Stories
| image          = TheOldManWhoReadLoveStories.jpg
| caption        =
| director       = Rolf de Heer
| producer       =
| writer         =
| narrator       =
| starring       = Richard Dreyfus Timothy Spall Hugo Weaving
| music          =
| cinematography =
| editing        =
| distributor    =
| released       =  
| runtime        = 75 minutes
| country        = Australia
| language       = English
| budget         =
| gross          = $AU181,287  
}}
The Old Man Who Read Love Stories is a film directed by Rolf de Heer.It is based on the book of the same name by Luis Sepulveda.

Although the film premiered in 2001 it was not seen in cinemas until 2004 

==References==
 

==External links==
*  
* 
* 
*  at Urban Cinefile

 

 
 
 
 
 
 