Topo Gigio and the Missile War
{{Infobox film
| name           = Topo Gigio and the Missile War
| image          = 
| image size     = 
| border         = 
| alt            = 
| caption        = 
| director       = Kon Ichikawa
| producer       = 
| writer         = Federico Caldura Rokusuke Ei Kon Ichikawa Alberto Ongarp
| screenplay     = 
| story          = 
| based on       =  
| narrator       = 
| starring       = 
| music          = 
| cinematography = 
| editing        = 
| studio         = 
| distributor    = 
| released       =   
| runtime        = 92 minutes
| country        = Japan Italy
| language       = Japanese
| budget         = 
| gross          = 
}}

  is a 1967 Japanese-Italian film directed by Kon Ichikawa.  

==References==
 

==External links==
* 

 

 
 
 
 


 