Love Brokers
 
{{Infobox film
| name           = Love Brokers
| image          = 
| image size     =
| caption        = 
| director       = Garnet Mae
| producer       = 
| writer         = 
| based on = 
| narrator       =
| starring       = Ben Mendelsohn Megan Connolly 
| music          = 
| cinematography = 
| editing        = 
| studio = Rayon Films
| distributor    =  
| released       = 1999
| runtime        = 
| country        = Australia English
| budget         = A$10,000 
| gross = 
| preceded by    =
| followed by    =
}}
Love Brokers is a 1999 Australian film directed by Garnet Mae. It is a comedy set in a brothel.

It was shot on 35mm.  The film was self distributed and had a short run in Sydney. 

==References==
 

==External links==
*  at Rayon Films
*  at Screen Australia

 
 
 

 