Lakshmanrekha
{{Infobox film
| name           =  Lakshmanrekha
| image          = 
| image_size     = 
| border         = 
| alt            = 
| caption        = 
| director       = Sunil Sikand	 	 Pran Satyendra Pal
| writer         = Karan Razdan
| screenplay     = 
| story          = 	
| based on       =  
| narrator       = 
| starring       = Jackie Shroff Naseeruddin Shah Sangeeta Bijlani Shilpa Shirodkar
| music          = Laxmikant-Pyarelal
| cinematography = V. Durga Prasad
| editing        = Vinod Nayak Prashant Khedekar	
| studio         = 
| distributor    = 
| released       =   
| runtime        = 
| country        = India
| language       = Hindi
| budget         = 
| gross          = 
}}
 Indian Bollywood film directed by Sunil Sikand. It stars Jackie Shroff, Naseeruddin Shah, Sangeeta Bijlani and Shilpa Shirodkar in pivotal roles. 
 
==Cast==
* Jackie Shroff...Vikram Sharma Vicky
* Naseeruddin Shah...Amar Kapoor
* Sangeeta Bijlani...Beenu
* Shilpa Shirodkar...Vaishali
* Shammi Kapoor...Baba Saheb
* Pran (actor)|Pran...Kishan Lal Sharma
* Danny Denzongpa...Birju
* Avtar Gill...Shetty
* Om Prakash...Gafoor Bhai
==References==
 

==External links==
* 

 
 
 
 

 