Topless Women Talk About Their Lives
 
{{Infobox film
| name           = Topless Women Talk About Their Lives
| image          = 
| image size     =
| caption        = 
| director       = Harry Sinclair
| producer       =
| writer         = Harry Sinclair
| based on = 
| narrator       =
| starring       = Danielle Cormack
| music          = 
| cinematography = 
| editing        = 
| studio = 
| distributor    = 
| released       = 1997
| runtime        = 
| country        = New Zealand English
| budget         = 
| gross = 
| preceded by    =
| followed by    =
}}
Topless Women Talk About Their Lives is a 1997 New Zealand film about a group of twenty something friends. It was based on a TV series. 

==References==
 

==External links==
* 
*  at NZ on Screen
*  at Urban Cinefile
* 
*  at NZ Film
*  at NZ Film Archive

 
 
 


 