The Bush Cinderella
 {{Infobox film
| name           = The Bush Cinderella
| image          = 
| image size     =
| caption        = 
| director       = Rudall Hayward
| producer       =
| writer         = 
| based on = 
| narrator       =
| starring       = 
| music          = 
| cinematography = 
| editing        = 
| studio = 
| distributor    = 
| released       = 4 August 1928
| runtime        = 
| country        = New Zealand
| language       = Silent
| budget         = 
| gross = 
| preceded by    =
| followed by    =
}} 1928 New Zealand film starring Dale Austen, the second Miss New Zealand. 

It was filmed in and around Auckland in 1928.   accessed 22 November 2012 

==References==
 

==External links==
* 
*  at New Zealand Film Festival

 

 
 
 
 


 
 