Beijing Blues
{{Infobox film
| name           = Beijing Blues
| image          = 
| alt            = 
| caption        = 
| director       = Gao Qunshu
| producer       = 
| writer         = 
| starring       = 
| music          = 
| cinematography = 
| editing        = 
| studio         = 
| distributor    = 
| released       =  
| runtime        = 
| country        = China
| language       = Mandarin Chinese
| budget         = 
| gross          = 
}} Best Feature Film, Best Cinematography, and Best Film Editing at the Golden Horse Film Festival and Awards in 2012. 

==References==
 

==External links==
*  

 
 

 
 
 
 


 