The Upsetter (film)
{{Infobox film
| name           = The Upsetter
| image          = 
| caption        = 
| director       = Ethan Higbee Adam Bhala Lough
| producer       = Ethan Higbee Adam Bhala Lough Carl Bradshaw
| narrator       = Benicio Del Toro
| distributor    = The Upsetter Films
| released       =  
| runtime        = 93 minutes
| country        = United States
| language       = English
}} SXSW Film Festival in March 2008 and had its theatrical release in March 2011, going on to screen at more than 80 theatres world wide.      

==References==
 
 

==External links==
* 
* 

 
 
 
 
 
 

 