The Space Dream
{{Infobox film
| name           = The Space Dream
| image          = 
| image size     = 
| border         = 
| alt            = 
| caption        =  Wang Jia Shen Dong
| producer       = Bai Jingjun
| writer         = 
| screenplay     = 
| story          = 
| based on       =  
| narrator       =  Wu Gang Zhao Xiaoming
| music          = 
| cinematography = 
| editing        = 
| studio         = August First Film Studio
| distributor    = 
| released       =   
| runtime        = 110 minutes
| country        = China
| language       = Mandarin Chinese
| budget         = 
| gross          = 
}}
 Wang Jia and Shen Dong. 

==Cast==
*Liu Zhibing as Zhang Tiancong
*Jiang Ruijia as Siyu
*Niu Li as Qu Dan Wu Gang as Li Dawei
*Zhao Xiaoming as Zhou Guanxiong

==References==
 

==External links==
* 

 
 
 
 


 