Bad Girl (1963 film)
{{Infobox film
| name           = Bad Girl
| image          = 
| caption        = 
| director       = Kirio Urayama
| producer       = 
| writer         = Yoshio Ishido Kirio Urayama
| starring       = Masako Izumi
| music          = 
| cinematography = Kurataro Takamura
| editing        = 
| distributor    = 
| released       =  
| runtime        = 116 minutes
| country        = Japan
| language       = Japanese
| budget         = 
}}

  is a 1963 Japanese drama film directed by Kirio Urayama. It was entered into the 3rd Moscow International Film Festival where it won a Golden Prize.   

==Cast==
* Masako Izumi as Wakae
* Mitsuo Hamada as Saburo
* Jun Hamamura
* Tanie Kitabayashi
* Toshiko Kobayashi
* Asao Koike
* Minako Kozuki
* Densuke Mitsuzawa
* Shoichi Ozawa
* Fukuko Sayo
* Toshio Takahara

==References==
 

==External links==
*  

 
 
 
 
 
 
 
 