Wanted, a Boy
{{Infobox film
| name           = Wanted, a Boy
| image          =
| caption        =
| director       = Thomas Bentley
| producer       = Edward Godal
| writer         = W. Pett Ridge   Eliot Stannard Pauline Johnson
| music          =
| cinematography = 
| editing        = 
| studio         = British & Colonial Kinematograph Company Ideal
| released       = 1924 
| runtime        = 
| country        = United Kingdom 
| awards         =
| language       = English
| budget         =
| preceded_by    =
| followed_by    =
}} silent comedy Pauline Johnson. It was made by British & Colonial Kinematograph Company at the companys Walthamstow Studios.

==Cast==
* Sydney Fairbrother as The Aunt
* Lionelle Howard as The Suitor Pauline Johnson as The Niece

==Bibliography==
* Low, Rachael. History of the British Film, 1918-1929. George Allen & Unwin, 1971.

==External links==
* 

 

 
 
 
 
 
 


 
 