Driven from Paradise
 
{{Infobox film
| name           = Driven from Paradise
| image          = 
| caption        = 
| director       = Fatin Abdel Wahab
| producer       = 
| writer         = 
| starring       = Farid Shawqi
| music          = 
| cinematography = 
| editing        = 
| distributor    = 
| released       =  
| runtime        = 100 minutes
| country        = Egypt
| language       = Arabic
| budget         = 
}}

Driven from Paradise ( , Transliteration|translit.&nbsp;Tarid el firdaos) is a 1965 Egyptian drama film directed by Fatin Abdel Wahab. It was entered into the 4th Moscow International Film Festival.   

==Cast==
* Farid Shawqi Samira Ahmed
* Mohammed Tawfik
* Nagwa Fouad
* Aziza Helmy

==References==
 

==External links==
*  

 
 
 
 
 
 
 