Seer (film)
{{Infobox film
| name           = Seer
| image          = 
| border         = 
| alt            = 
| caption        = 
| director       = 
| producer       = 
| writer         = 
| screenplay     = 
| story          = 
| based on       =  
| narrator       = 
| starring       = 
| music          = 
| cinematography = 
| editing        = 
| studio         = 
| distributor    = 
| released       =   
| runtime        = 
| country        = China
| language       = Mandarin
| budget         = 
| gross          = CNY44.1 million 
}} Chinese animated film based on an online game.   It is about some robots on an airship called Seer who were off to find a legendary phoenix in a vast universe, they also had to fight off some evil space pirates who were blocking their way. There are also films called Seer 2, 3 and 4. Seer 2 was released in 2012, Seer 3 in 2013 and Seer 4 in 2014.

==References==
 

 

 
 
 
 


 
 