The Young Will Live
{{Infobox film
| name           = The Young Will Live
| image          = 
| caption        = 
| director       = Nikos Tzimas
| producer       = 
| writer         = Nikos Tzimas
| starring       = Faidon Georgitsis
| music          = 
| cinematography = Giorgos Kavagias
| editing        = 
| distributor    = 
| released       =  
| runtime        = 85 minutes
| country        = Greece
| language       = Greek
| budget         = 
}}

The Young Will Live ( ) is a 1965 Greek drama film directed by Nikos Tzimas. It was entered into the 4th Moscow International Film Festival.   

==Cast==
* Faidon Georgitsis as Giorgos
* Alexandra Ladikou as Efi
* Sylvia Hatzigeorgiou
* Notis Peryalis
* Foivos Taxiarhis

==References==
 

==External links==
*  

 
 
 
 
 
 
 