Children Hand in Hand
 
{{Infobox film
| name           = Children Hand in Hand
| image          = 
| caption        = 
| director       = Susumu Hani
| producer       = 
| writer         = Mansaku Itami
| starring       = 
| music          = 
| cinematography = Shigeichi Nagano
| editing        = 
| distributor    = 
| released       =  
| runtime        = 100 minutes
| country        = Japan
| language       = Japanese
| budget         = 
}}

  is a 1963 Japanese documentary film directed by Susumu Hani.       It was entered into the 4th Moscow International Film Festival where it won a Special Diploma.   

==References==
 

==External links==
*  

 

 
 
 
 
 
 
 
 
 


 
 

 