The Talgai Skull
{{Infobox film
| name           = The Talgai Skull: An Investigation Into the Origin of the Australian Aborigines
| image          =
| image_size     =
| caption        =
| director       = Tom Haydon
| producer       =
| writer         =
| based on       =
| narrator       =
| starring       =
| music          =
| cinematography =
| editing        =
| studio         =
| distributor    =
| released       =
| runtime        = 58 min
| country        = Australia
| language       = English
| budget         =
| gross          =
}}
The Talgai Skull: An Investigation Into the Origin of the Australian Aborigines is a 1968 Australian film.  It shared the 1968 Australian Film Institute award for Best Documentary.

==External links==
*   at IMDb
*   at the National Library of Australia
*   at the Melbourne International Film Festival

 

 
 
 
 

 