Chanchattam (1991 film)
{{Infobox film
| name           = Chanchattam
| image          = 
| image size     = 
| alt            = 
| caption        = 
| director       = Thulasidas
| producer       = 
| screenplay     = S. N. Swamy Urvasi Siddique Siddique Jagathi Sreekumar Adoor Bhavani T. P. Madhavan
| music          = 
| cinematography = 
| editing        = 
| studio         = 
| distributor    = 
| released       = 1991
| runtime        = 
| country        = India
| language       = Malayalam
| budget         = 
| gross          =
}}
 Malayalam directed by Thulasidas, written by S. N. Swamy, and starring Jayaram, Urvashi (actress)|Urvasi, Siddique (actor)|Siddique, Jagathi Sreekumar and Adoor Bhavani. The film was a big flop at box office.

==External links==
* 

 
 
 
 
 


 
 