Romance for Bugle (film)
{{Infobox film
| name           = Romance for Bugle
| image          = 
| caption        = 
| director       = Otakar Vávra
| producer       = 
| writer         = František Hrubín Otakar Vávra
| starring       = Zuzana Cigánová
| music          = 
| cinematography = Andrej Barla
| editing        = 
| distributor    = 
| released       =  
| runtime        = 86 minutes
| country        = Czechoslovakia
| language       = Czech
| budget         = 
}}
 the same lyrical epic epic poem written in 1961 by František Hrubín.

==Cast==
* Zuzana Cigánová
* Věra Crháková
* Jaromír Hanzlík
* Miriam Kantorková
* Stefan Kvietik
* Karel Roden as Funeral Agent
* Jaroslav Rozsíval
* Marie Stampachová
* Jiří Štancl
* Janusz Strachocki
* Václav Švec
* Július Vašek

==References==
 

==External links==
*  

 
 
 
 
 
 
 
 
 
 