Matri Sneha
{{Infobox film
| name           = Matri Sneha
| image          = 
| image_size     = 
| border         = 
| alt            = 
| caption        = 
| director       =  Jyotish Banerjee
| producer       =  
| writer         = 
| screenplay     = 
| story          = 
| based on       =  
| narrator       = 
| starring       = Akshay Babu Amar Choudhury Patience Cooper etc
| music          = 
| cinematography = 
| editing        = 
| studio         = Madan Theatres Pvt. Ltd
| distributor    = 
| released       =    
| runtime        = 
| country        = India
| language       = Bengali
| budget         = 
| gross          = 
}} Bengali film directed by Jyotish Banerjee. The film was made under the banner of Madan Theatres Pvt. Ltd.         

== Plot ==
 

== Cast ==
* Akshay Babu as Ganesh
* Amar Choudhury as Pagal
* Patience Cooper as Leela		
* Tulsi Lahiri as Nirmal
* Edwin Mayer as Dulal
* Miss Kumud
* Niradasundari
* Prabha Devi
* Sushila Sundari
* Ashalata Wabgaonkar

== See also ==
* Tritiya Paksha

== References ==
 

== External links ==
*  

 
 


 