Ab To Aaja Saajan Mere
{{Infobox film
| name           = Ab To Aaja Saajan Mere
| image          = 
| image_size     = 
| border         = 
| alt            = 
| caption        = 
| director       = Rakesh Nahata
| producer       = Rakesh Nahata
| writer         = Pooja Bhatt Seema Nahata	 
| screenplay     = 
| story          = 
| based on       =  
| narrator       = 
| starring       = Arvind Joshi Shalini Kapoor
| music          = Anand-Milind
| cinematography = 
| editing        = 
| studio         = 
| distributor    = 
| released       =  
| runtime        = 
| country        = India
| language       = Hindi
| budget         = 
| gross          = 
}}
 Indian Bollywood film produced and directed by Rakesh Nahata. It stars  Arvind Joshi and Shalini Kapoor in pivotal roles.

==Cast==
* Arvind Joshi...Mahenga
* Shailini Kapoor...Ganga
* Roma Manik...Jamuna D. Singh
* Arvind Rathod...Ramdas
* Suresh Varma...Shyamkumar Shyam V. Singh

==External links==
* 

 
 
 
 

 