Rodora
{{Infobox film
| name           = Rodora
| image          =
| caption        =
| director       = Rosa Mia
| producer       =
| writer         =
| narrator       =
| starring       = Paraluman Juancho Gutierrez Amalia Fuentes
| music          =
| cinematography =
| editing        =
| distributor    =Sampaguita Pictures
| released       =  
| runtime        =
| country        = Philippines Tagalog / Filipino
| budget         =
}}
Rodora is a 1956 movie from Sampaguita Pictures about a man (Juancho Gutierrez) who falls in love with a girl (Amalia Fuentes).

==External links==
* 

 
 
 
 
 

 
 