Shilpi
{{Infobox film
| name           = Shilpi
| image          = 
| image_size     = 
| border         = 
| alt            = 
| caption        = 
| director       = Nabyendu Chattopadhyay
| producer       = 
| writer         = 
| screenplay     = 
| story          = 
| based on       =  
| narrator       = 
| starring       = Anjan Dutt Asit Bandyopadhyay Meghnad Bhattacharya Rita Dutta Chakraborty Srilekha Mukhopadhyay
| music          = Nikhil Chattopadhyay
| cinematography = 
| editing        = 
| studio         = 
| distributor    = 
| released       =  1994
| runtime        = 
| country        = India Bengali
| budget         = 
| gross          = 
}} Bengali film.    The film was directed by Nabyendu Chattopadhyay. The film was produced by National Film Development Corporation of India.   

== Plot ==
 

== Cast ==
* Anjan Dutt 
* Asit Bandyopadhyay
* Meghnad Bhattacharya 
* Rita Dutta Chakraborty
* Srilekha Mukhopadhyay

== Awards ==
* 1995     

== See also ==
* Akaler Sandhane

== References ==
 

== External links ==
*  

 
 
 


 