John Hus (1977 film)
{{Infobox film
| name           = John Hus
| image          = 
| caption        = 
| director       = Michael Oconomou
| producer       = 
| writer         = Richard Morean
| starring       = {{plainlist |
* Rod Colbin
* Regis Cordic
* Marvin Miller
* Sándor Naszódy
* Carmen Zapata
}}
| music          = William Tasker
| cinematography = 
| editing        = 
| studio         = 
| distributor    = 
| released       = 1977
| runtime        = 55 min
| country        = United States
| language       = English
| budget         = 
| gross          = 
}} American film Czech church reformer Jan Hus, directed by Michael Oconomou. The film was produced by Faith For Today Ministries, the creators of a Christian TV program of the same name.

The film featured Rod Colbin in the title role. 

==References==
 

==External links==
*  

 
 
 
 
 