Ammaavanu Pattiya Amali
{{multiple issues|
 
 
}}

{{Infobox film
| name           = Ammaavanu Pattiya Amali
| image          = 
| image_size     = 
| alt            = 
| caption        = 
| director       = Augustine Prakash
| producer       = Joshy
| writer         = Augustine Prakash
| narrator       =  Mukesh  Lissy  Thilakan
| music          = 
| cinematography = S. Robert
| editing        =    
| studio         = 
| distributor    = Lavanya Release
| released       = 1989
| runtime        = 
| country        =  
| language       = Malayalam
| budget         = 
| gross          = 
| preceded_by    = 
| followed_by    = 
}}
Ammaavanu Pattiya Amali is a 1989 movie directed and written by Augustine Prakash, produced by Joshy. It stars Mukesh, Lissy, Thilkan etc.

==Cast== Mukesh
* Lissy
* Thilakan
* Lalu Alex
* Kuthiravattam Pappu
* KPAC Lalitha

 
 
 


 