The 300 Year Weekend
{{Infobox film
| name           = The 300 Year Weekend
| image          = 
| image_size     =
| alt            =
| caption        = 
| director       =  ABC
| writer         = 
| based on = 
| narrator       =
| starring       = William Devane
| music          = Gilbert Fuller
| cinematography = Joseph C. Brun
| editing        = 
| studio         = ABC Pictures
| distributor    = Universal Pictures
| released       = 1971
| runtime        = 83 mins
| country        = USA
| language       = English
| budget         = $260,000 "ABCs 5 Years of Film Production Profits & Losses", Variety, 31 May 1973 p 3 
| gross          = 
| preceded_by    =
| followed_by    =
}}
The 300 Year Weekend is a 1971 film.

The film was given several test engagements in February 1971 but was not released. 

==Plot==

 

==Cast==
* William Devane as Tom

==References==
 

==External links==
* 

 
 
 
 


 