17th Parallel, Nights and Days
 
{{Infobox film
| name           = 17th Parallel, Nights and Days
| image          = 
| caption        =  Hai Ninh
| producer       = 
| writer         = Tich Chi Hoang Hai Ninh
| starring       = Mang Long Dao
| music          = 
| cinematography = Xuan Chan Nguyen
| editing        = 
| distributor    = 
| released       =  
| runtime        = 90 minutes
| country        = North Vietnam
| language       = Vietnamese
| budget         = 
}}
 Hai Ninh. It was entered into the 8th Moscow International Film Festival where Tra Giang won the award for Best Actress.   

==Cast==
* Mang Long Dao
* Ba Loc Duong
* Doan Duong
* Toi Lam
* Ho Thai
* Tra Giang

==References==
 

==External links==
*  

 
 
 
 
 
 