Kafr kasem
 
 
{{Infobox film
| name           = Kafr kasem
| image          = 
| caption        = 
| director       = Borhane Alaouié
| producer       = 
| writer         = 
| starring       = Abdallah Abbassi
| music          = 
| cinematography = Michel Houssiau
| editing        = 
| distributor    = 
| released       =  
| runtime        = 120 minutes
| country        = Syria
| language       = Arabic
| budget         = 
}}

Kafr kasem is a 1975 Syrian drama film directed by Borhane Alaouié. It was entered into the 9th Moscow International Film Festival where it won a Diploma. The subject of the film is the Kafr Qasim massacre that occurred in Israel in 1956.   

==Cast==
* Abdallah Abbassi
* Ahmad Ayub
* Salim Sabri
* Shafiq Manfaluti
* Charlotte Rushdi
* Zaina Hanna
* Intissar Shammar

==References==
 

==External links==
*  

 
 
 
 
 
 
 
 