La quema de Judas
{{Infobox film
| name           = La quema de Judas
| image          = 
| caption        = 
| director       = Román Chalbaud
| producer       = 
| writer         = José Ignacio Cabrujas Román Chalbaud
| starring       = Miguel Ángel Landa
| music          = 
| cinematography = 
| editing        = 
| distributor    = 
| released       =  
| runtime        = 
| country        = Venezuela
| language       = Spanish
| budget         = 
}}

La quema de Judas is a 1975 Venezuelan drama film directed by Román Chalbaud. It was entered into the 9th Moscow International Film Festival.   

==Cast==
* Miguel Ángel Landa (as Miguelángel Landa)
* Claudio Brook
* María Teresa Acosta
* Hilda Vera
* Arturo Calderón
* William Moreno
* Rafael Briceño
* Eladio Lares

==References==
 

==External links==
*  

 
 
 
 
 
 