Río Negro (film)
 
{{Infobox film
| name           = Río Negro
| image          = 
| caption        =  Manuel Pérez
| producer       = 
| writer         = Victor Casaus Manuel Pérez
| starring       = Mario Balmaseda
| music          = 
| cinematography = Jorge Herrera
| editing        = 
| distributor    = 
| released       =  
| runtime        = 135 minutes
| country        = Cuba
| language       = Spanish
| budget         = 
}}
 Manuel Pérez. It was entered into the 10th Moscow International Film Festival where it won the Special Prize.   

==Cast==
* Mario Balmaseda
* Sergio Corrieri
* René de la Cruz
* Alejandro Lugo
* Raúl Pomares
* Nelson Villagra

==References==
 

==External links==
*  

 
 
 
 
 
 

 
 