Dead End (1977 film)
{{Infobox film
| name           = Dead End
| image          = 
| caption        = 
| director       = Parviz Sayyad
| producer       = Parviz Sayyad
| writer         = Parviz Sayyad
| starring       = Mary Apick
| music          = 
| cinematography = Houshang Baharlou
| editing        = 
| distributor    = 
| released       =  
| runtime        = 95 minutes
| country        = Iran
| language       = Persian
| budget         = 
}}

Dead End ( ) is a 1977 Iranian drama film written and directed by Parviz Sayyad. It was entered into the 10th Moscow International Film Festival where Mary Apick won the award for Best Actress.   

==Cast==
* Mary Apick
* Parviz Bahador

==References==
 

==External links==
*  

 
 
 
 
 
 