Silent Love (film)
{{Infobox film
| name           = Silent Love
| image          = 
| caption        = 
| director       = René van Nie
| producer       = Vincent van den Vliet
| writer         = René van Nie
| starring       = Walter van Canoy
| music          = 
| cinematography = 
| editing        = 
| distributor    = 
| released       =  
| runtime        = 102 minutes
| country        = Netherlands
| language       = Dutch
| budget         = 
}}

Silent Love ( ) is a 1977 Dutch drama film written and directed by René van Nie. It was entered into the 10th Moscow International Film Festival.   

==Cast==
* Walter van Canoy
* Sem de Jong as Sem van Rijn
* Romain Deconinck
* Marielle Fiolet
* Chris Lomme
* Cor van Rijn as Sems father
* Teddy Schaank
* Dore Smit
* Mary Smithuysen

==References==
 

==External links==
*  

 
 
 
 
 
 
 