The Bear (2012 film)
{{Infobox film
| name           = The Bear
| image          = 
| image size     = 
| border         = 
| alt            = 
| caption        = 
| director       = 
| producer       = 
| writer         = 
| screenplay     = 
| story          = 
| based on       =  
| narrator       = 
| starring       = 
| music          = 
| cinematography = 
| editing        = 
| studio         = 
| distributor    = 
| released       =   
| runtime        = 
| country        = Iran
| language       = 
| budget         = 
| gross          = 
}}

The Bear (Khers) is a 2012 Iranian film. It won the Asia Pacific Screen Award for Best Feature Film at the 2012 Asia Pacific Screen Awards. 

==Cast==
*Parviz Parastui
*Merila Zarei
*Farhad Aslani
*Maedeh Tahmasebi
*Alireza Osivand
*Naser Aghayi
==References==
 

 

 
 


 