Crimes of Passion (2013 film)
{{Infobox film
| name           = Crimes of Passion
| image          = Crimes of Passion (2013 film) poster.jpg
| alt            = 
| caption        = 
| director       = Gao Qunshu
| producer       = 
| writer         = 
| starring       = Angelababy Huang Xiaoming Wei Zi Su Qing Jae Hee Cao Wei-Yu
| music          = 
| cinematography = 
| editing        = 
| studio         = 
| distributor    = 
| released       =  
| runtime        = 
| country        = China
| language       = Mandarin
| budget         = 
| gross          = 
}}

Crimes of Passion (Chinese: 一場風花雪月的事) is a 2013 Chinese romance film directed by Gao Qunshu.  

==Cast==
* Angelababy as Yueyue
* Huang Xiaoming
* Wei Zi
* Su Qing
* Jae Hee
* Cao Wei-Yu
* Meng Ting Yi as 小马

==References==
 

 

 
 
 
 
 


 