Matir Pahar
 
{{Infobox film
| name           = Matir Pahar
| image          = 
| image_size     = 
| border         = 
| alt            = 
| caption        = 
| director       = Mohiuddin Ahmad
| producer       = 
| writer         = 
| screenplay     = 
| story          = 
| based on       =  
| narrator       = 
| starring       = 
| music          = 
| cinematography = 
| editing        = 
| studio         = 
| distributor    = 
| released       =   
| runtime        = 
| country        = Bangladesh
| language       = Bengali
| budget         = 
| gross          = 
}} Bengali film. was the third film made in Bangladesh (at that time East Pakistan).         

==Plot==
 

==Cast==
* Sumita Devi
* Khan Ataur Rehman
* Mesbah Shahjahan

==See also==
* Mukh O Mukhosh

==References==
 

==External links==
*  

 
 
 
 
 
 


 
 