Nahla (film)
 
{{Infobox film
| name           = Nahla
| image          = 
| caption        = 
| director       = Farouk Beloufa
| producer       = 
| writer         = 
| starring       = Yasmine Khlat
| music          = 
| cinematography = Allel Yahiaoui
| editing        = 
| distributor    = 
| released       =  
| runtime        = 110 minutes
| country        = Algeria
| language       = Arabic
| budget         = 
}}

Nahla is a 1979 Algerian drama film directed by Farouk Beloufa.             It was entered into the 11th Moscow International Film Festival where Yasmine Khlat won the award for Best Actress.   

==Cast==
* Roger Assaf as Nasri
* Yasmine Khlat as Nahla
* Lina Tebbara as Maha
* Faek Homaissi as Raouf

==References==
 

==External links==
*  

 
 
 
 
 
 