La vía de oro
{{Infobox film
| name           =La vía de oro
| image          = 
| image size     =
| caption        =
| director       = Edmo Cominetti
| producer       = Arturo S. Mom
| writer         = Arturo S. Mom
| narrator       =
| starring       = 
| music          =
| cinematography =
| editing        =
| distributor    =
| released       = 1931
| runtime        =
| country        =  
| language       = Spanish
| budget         =
| preceded by    =
| followed by    =
}} 1931  Argentine film directed by Edmo Cominetti and produced and written by Arturo S. Mom.   

==Cast==
* Lidia Arce		
* Alejandro Corvalán		
* Carlos Dux		
* Felipe Farah		
* Nedda Francy		
* Alberto Lliri		
* Clara Milani		
* Damián Méndez		
* Carlos Nahuel
* Pablo Cumo

==References==
 

==External links==
*  

 
 
 
 


 