It's a Small World (film)
{{Infobox film
| name           = Its a Small World
| image          = 
| image_size     = 
| caption        =
| director       = Irving Cummings
| producer       = 
| writer     = Sam Hellman Gladys Lehman
| based on =  
| starring       = Spencer Tracy Wendy Barrie Raymond Walburn
| music          = 
| cinematography = Arthur C. Miller
| editing        =  Fox Film Corporation
| released       = April 12, 1935
| runtime        = 70 minutes
| language       = English
| country        = United States
}}
Its a Small World is a 1935 film starring Spencer Tracy and Wendy Barrie, and directed by Irving Cummings.

==External links==
*   in the Internet Movie Database

 
 
 
 
 
 
 
 
 


 