Be a Mother
 

{{Infobox film
| name           = Be a Mother
| image          = 
| image size     = 
| border         = 
| alt            = 
| caption        =  Yu Zhong
| producer       = 
| writer         = 
| screenplay     = Wang Haiping
| story          = 
| based on       =  
| narrator       =  Alex Fong Wang Pei Qin Lan Wu Ma Sun Guitian
| music          = Liu Sijun
| cinematography = Peter Ngor
| editing        = 
| studio         = 
| distributor    = 
| released       =   
| runtime        = 91 minutes
| country        = China
| language       = Mandarin
| budget         = 
| gross          = 
}}
 Yu Zhong. 

==Cast== Alex Fong as Zhang Qing
*Wang Pei as Fang Yun
*Qin Lan as Li Yan
*Wu Ma
*Sun Guitian

==References==
 

 
 
 


 