Al Qadisiyya
 
{{Infobox film
| name           = Al Qadisiyya
| image          = 
| caption        = 
| director       = Salah Abu Seif
| producer       = 
| writer         = Mohamed Abdelrahman Salah Abu Seif
| starring       = Soad Hosny
| music          = 
| cinematography = 
| editing        = 
| distributor    = 
| released       =  
| runtime        = 145 minutes
| country        = Iraq
| language       = Arabic
| budget         = 
}}

Al Qadisiyya is a 1981 Iraqi drama film directed by Salah Abu Seif. It was entered into the 12th Moscow International Film Festival.   

==Cast==
* Soad Hosny
* Ezzat El Alaili (as Sohrab)
* Shetha Salim
* Laila Taher Mohamed Hassan Al Joundi (as Rustam)
* Mohamed Almansour
* Omar Khalfah
* Sadia Zeidi
* Tuma Temimi
* Kassem Mohamed

==References==
 

==External links==
*  

 
 
 
 
 
 
 