Demonstone
 
 
{{Infobox film
| name           = Demonstone
| image          = 
| image size     =
| caption        = 
| director       = Andrew Prowse
| producer       =Antony I. Ginnane
| writer         = John Trayne David Phillips Frederick Bailey 
| based on = 
| narrator       =
| starring       =  R. Lee Emery Jan Michael Vincent Nancy Everhard
| music          = 
| cinematography = 
| editing        = 
| studio = International Film Entertainment
| distributor    = VDC (video)
| released       = 1989
| runtime        = 
| country        = Australia USA Philippines English
| budget         = 
| gross = 
| preceded by    =
| followed by    =
}}
Demonstone is a 1989 thriller about two US Marines in Manila investigating a series of crimes.  It was shot under the title Heartstone. Ed. Scott Murray, Australia on the Small Screen 1970-1995, Oxford Uni Press, 1996 p42 

==References==
 

==External links==
* 

 

 
 
 


 