Fatal Sky
{{Infobox film
| name           = Fatal Sky
| image          = 
| image size     =
| caption        =  Frank Shields
| producer       = Antony I. Ginnane Steven Strick
| writer         = Anthony Able
| based on = story by Brian Williams
| narrator       =
| starring       = Michael Nouri Darlanne Fluegel Maxwell Caulfield Derren Nesbitt Charles Durning
| music          = 
| cinematography = 
| editing        = 
| studio = 
| distributor    = 
| released       = 1990
| runtime        = 88 mins
| country        = Australia USA English
| budget         = 
| gross = 
| preceded by    =
| followed by    =
}}
Fatal Sky is a 1990 SF-thriller film. It was also known as No Cause for Alarm and Vanished. The movie was not theatrically released and went straight through to video. Ed. Scott Murray, Australia on the Small Screen 1970-1995, Oxford Uni Press, 1996 p56 

==References==
 

==External links==
* 

 
 
 

 
 
 
 
 

 