Mahanagaram
 
{{Infobox film
| name           = Mahanagaram
| image          = Mahanagarfilm.png
| image_size     = 
| alt            = 
| caption        = Promotional Poster
| director       = T. K. Rajeev Kumar
| producer       = M. Mani
| writer         = Dennis Joseph (screenplay) Muttathu Varkey (story)
| narrator       =  Murali Thilakan Biyon
| distributor    = 
| released       =  1992
| runtime        = 
| country        = India
| language       = Malayalam
| budget         = 
| gross          = 
| preceded_by    = 
| followed_by    = 
}}

Mahanagaram (  directed by T. K. Rajeev Kumar, starring Mammootty in the title role. 

==Cast==
*Mammootty as Chanthakkadu Viswan
*Thilakan Murali 
*Biyon
*Shanthi Krishna
*Meenakumari
*K. P. A. C. Sunny Shivaji
* Augustine
* Zeenath
*T. P. Madhavan
* Kundara Johny

==References==
 

==External links==
*  
* http://popcorn.oneindia.in/title/5783/kottayam-kunjachan.html
*  

 
 
 
 
 


 