Celal ile Ceren
{{Infobox film
| name           = Celal ile Ceren
| image          = Celal ile Ceren poster.JPG
| image_size     = 
| alt            = 
| caption        = Theatrical release poster
| director       = Togan Gökbakar
| producer       =  
| screenplay     = Şahan Gökbakar
| based on       = 
| starring       =  
| music          = Oğuz Kaplangı
| cinematography = 
| editing        = Erkan Özekan
| studio         = Çamaşırhane
| distributor    = Tiglon
| released       =  
| runtime        = 114 minutes
| country        = Turkey
| language       = Turkish
| budget         = 
| gross          = 
}}
Celal ile Ceren is a 2013 Turkish romantic comedy film directed by Togan Gökbakar and starring Şahan Gökbakar and Ezgi Mola. The film has been released nationwide on 18 January 2013.
 worst films ever made.    It is considered as a mockbuster of high-grossing Turkish comedy Recep İvedik. 

==Cast==
* Şahan Gökbakar as Celal
* Ezgi Mola as Ceren
* Gökcen Gökçebağ as Kubilay
* Dilşah Demir as Gözde

== References ==
 

==External links==
 
*    
*  

 

 
 
 
 
 
 
 


 
 