Idhayam Thiraiarangam
{{Infobox film
| name           = Idhayam Thiraiarangam
| image          = 
| caption        = 
| director       =  Ramki Ramakrishnan
| producer       = Ashok G Lodha
| writer         = 
| starring       = Ananad, Swetha
| music          = 
| cinematography = 
| editing        = 
| studio         = 
| distributor    = 
| release        =  
| runtime        = 
| country        = India
| language       = Tamil
| budget         =
| gross          =
}} Romance film directed by Ramki Ramakrishnan and produced by Ashok G Lodha . 

==Cast==
* Ananad, Swetha

==References==
 

 
 
 
 


 