A People Uncounted
 
{{Infobox film
| name           = A People Uncounted
| image          = A People Uncounted Poster.png
| alt            = 
| caption        = 
| director       = Aaron Yeger
| producer       = Marc Swenker Tom Rasky
| writer         = 
| starring       = 
| music          = Robi Botos
| cinematography = Stephen C. Whitehead
| editing        = Kurt Engfehr
| studio         = 
| distributor    = 
| released       =  
| runtime        = 99 minutes
| country        = Canada
| language       = English
| budget         = 
| gross          = 
}}
 Canadian documentary Porajmos (Romani Roma rights in Europe today.   It was nominated for a Producers Guild of America award in 2012.  The film was featured in the New York Gipsy Festival  and is part of Vanderbilt Universitys Holocaust Lecture Series. 

==References==
 

==External links==
* 
* 
* 

 
 
 
 
 
 
 
 


 
 