Wodzek
{{Infobox film
| name           = Wodzek
| image          = 
| caption        = 
| director       = Oliver Herbrich
| producer       = 
| writer         = Oliver Herbrich
| starring       = Leo Bardischewski
| music          = 
| cinematography = Ludolph Weyer
| editing        = 
| distributor    = 
| released       =  
| runtime        = 82 minutes
| country        = West Germany
| language       = German
| budget         = 
}}

Wodzek is a 1985 West German drama film directed by Oliver Herbrich. It was entered into the 14th Moscow International Film Festival.   

==Cast==
* Leo Bardischewski
* Hans Beerhenke
* Charles Brauer
* Ariane Erdelt
* Georg Greiwe
* Johannes Habla
* Franz A. Huber
* Detlev Kügow
* Regula Siegfried

==References==
 

==External links==
*  

 
 
 
 
 
 
 