Pororo, The Racing Adventure
{{Infobox film
| name           = Pororo, The Racing Adventure
| image          = Pororo, The Racing Adventure poster.jpg
| image size     = 
| border         = 
| alt            = 
| caption        = China poster
| director       = 
| producer       = 
| writer         = 
| screenplay     = 
| story          = 
| based on       =  
| narrator       = 
| starring       = 
| music          = 
| cinematography = 
| editing        = 
| studio         = 
| distributor    = 
| released       =   
| runtime        = 79 minutes US
| language       = 
| budget         = 
| gross          = 
}}
 animated film.  

==References==
 

 
 
 
 
 


 
 
 