Bring Happiness Home
 
{{Infobox film
| name           = Bring Happiness Home
| image          = Bring Happiness Home film.jpg
| image size     = 
| border         = 
| alt            = 
| caption        = 
| director       = 
| producer       = 
| writer         = 
| screenplay     = 
| story          = 
| based on       =  
| narrator       = 
| starring       = 
| music          = 
| cinematography = 
| editing        = 
| studio         = 
| distributor    = 
| released       =   
| runtime        = 
| country        = China
| language       = Mandarin
| budget         = 
| gross          = United States dollar|$23.98 million 
}}
 Chinese film. Happy Camp, who filmed it for their 15th anniversary.  

==References==
 

 

 