Fighting Fear
 
 
{{Infobox film
| name           = Fighting Fear
| image          = 
| caption        = 
| director       = Macario De Souza
| producer       = 
| writer         =  Mark Matthews Bruce Irons Joel Edgerton
| music          = 
| cinematography = 
| editing        = 
| studio         = Screen Australia
| distributor    = Madman Entertainment
| released       = 
| runtime        = 112 minutes
| country        = Australia
| language       = English
| budget         = 
| gross          = 
}} Australian Academy Best Direction Mark Matthews. It was filmed in and around Sydney, Australia, primarily in the South-Eastern Sydney suburbs.  

==References==
 

==External links==
*  
*  
*  
*  

 
 
 
 
 
 
 
 
 


 
 