Sisil-li 2 kilometer
 
{{Infobox film
| name           = Sisily 2km
| image          = Sicily 2km movie poster.jpg
| caption        = Theatrical poster
| film name      = {{Film name
 | hangul         =  2 km
 | hanja          =  2 km
 | rr             = Sisilli2 km
 | mr             = Sisilli2 km}}
| writer         = Lee Chang-si Hwang In-ho
| starring       = Im Chang-jung Kwon Oh-joong Lim Eun-kyung
| director       = Shin Jeong-won
| producer       = Jonathan Kim
| editing        =
| cinematography =
| distributor    = ShowBox
| released       =  
| runtime        = 109 minutes
| country        = South Korea
| language       = Korean
| music          =
| budget         =
}}
Sisily 2&nbsp;km ( ) is a 2004 South Korean horror-comedy film about a gang that steals a large diamond and escapes to a small town, where they encounter deceitful villagers with dark pasts. It was the directorial debut of Shin Jeong-won, though his attempt at fusing the popular genres of gangsters and horror was generally considered unsuccessful by critics.

==External links==
*  

 
 
 
 
 


 
 