Al Maslaha
 

{{Infobox film
| name           = El-Maslaha
| image          =
| caption        = Poster for the film
| director       = Sandra Nashaat
| producer       =
| writer         = Wael Abd-Allah Ahmed Ezz   Hanan Tork   Salah Abdallah   Zeina  Kinda Allouch
| music          = Amr Ismail
| cinematography = Ehab Mohamed Ali	 	
| editing        =
| distributor    =
| released       = 2012
| runtime        =
| country        = Egypt
| language       = Arabic
| budget         =
}}
A very serious and strict officer goes after a dangerous drug dealer, in an attempt to try and stop the drug and weapon dealing business in the area..

== Cast ==
* Ahmed El Sakka Ahmed Ezz
* Hanan Tork
* Salah Abdallah

==External links==
*  
 

 
 
 
 


 
 