The Stranger (2012 film)
{{Infobox film
| name           = The Stranger
| image          = 
| caption        = 
| director       = Filiz Alpgezmen
| producer       = 
| writer         = 
| starring       = Sezin Akbasoğulları, Caner Cindoruk, Serkan Keskin
| music          = 
| cinematography = 
| editing        = 
| distributor    = 
| released       =  
| runtime        = 94 minutes
| country        = Turkey
| language       = Turkish and French
| budget         = 
}}

The Stranger ( ) is a 2012 Turkish drama film directed by Filiz Alpgezmen. It was entered into the 18th London Turkish Film Festival.   

==Cast==
* Sezin Akbasoğulları
* Caner Cindoruk
* Serkan Keskin

==Plot== 1980 coup détat.

==References==
 

==External links==
*  

 
 
 
 
 
 
 


 