Itt a szabadság!
{{Infobox film
| name           = Itt a szabadság!
| image          = 
| caption        = 
| director       = Péter Vajda
| producer       = 
| writer         = András Salamon
| starring       = Péter Andorai
| music          = 
| cinematography = Sándor Kardos
| editing        = 
| distributor    = 
| released       =  
| runtime        = 104 minutes
| country        = Hungary
| language       = Hungarian
| budget         = 
}}

Itt a szabadság! is a 1991 Hungarian drama film directed by Péter Vajda. It was entered into the 17th Moscow International Film Festival.   

==Cast==
* Péter Andorai as Kopa Imre
* Evdokiya Germanova as Duszja
* Sándor Fábry as Figaró
* Károly Löwy as Karcsi
* Sándor Varga as Sanyika
* Ági Szirtes as Kopáné, Marika (as Szirtes Ágnes)
* András Stohl
* András Schlanger

==References==
 

==External links==
*  

 
 
 
 
 
 
 