Naukar Wohti Da
{{Infobox film
| name           = Naukar Wohti Da
| image          =
| image size     =
| caption        =
| director       = Haider Chauhdary
| producer       = Chodhary Ismail
| writer         = Sheikh Iqbal
| narrator       =
| starring       = Munawar Zarif Aasia Agha Talish Mumtaz Shahid Saaqi
| music          = Wajahat Attrey
| cinematography =
| editing        =
| distributor    =
| released       = 1974
| runtime        =
| country        = Pakistan Punjabi
| budget         =
| preceded by    =
| followed by    =
}}

Naukar Wohti Da is a 1974 Super-hit Pakistani, Punjabi film starring Munawar Zarif and Aasia.   This film was the greatest hit of Munawar Zarif as a leading actor.    It was later remade in India as Naukar Biwi Ka.

==References==
 

 
 
 
 
 


 