Prateeksha
 

{{Infobox film
| name           =  Prateeksha
| image          = 
| image_size     = 
| border         = 
| alt            = 
| caption        = 
| director       = Lawrence DSouza
| producer       = S. Ramanathan
| writer         = Talat Rekhi
| screenplay     = 
| story          = 
| based on       =  
| narrator       =  Govinda Shilpa Shirodkar
| music          = Rajesh Roshan
| cinematography = Lawrence DSouza	
| editing        = A. Paul Durai Singham
| studio         = 
| distributor    = 
| released       = 07 May 1993
| runtime        = 
| country        = India
| language       = Hindi
| budget         = 
| gross          = 
}}
 Govinda and Shilpa Shirodkar in pivotal roles. 

==Cast==
* Ravi Kapoor as Vijay Kumar
* Moushumi Chatterjee as Laxmi Govinda as Raja
*  
* Shilpa Shirodkar as Renu Khanna
* Danny Denzongpa as Dinesh Khanna
* Vinod Mehraas Tom Dacosta
* Tej Sapru as Pratap
* Vikas Anand as Anand
* Master Bunty as Young Raja

==References==
 

==External links==
* 

 
 
 


 