Bhakla
{{multiple issues|
 
 
}}

{{Infobox film | 
| name               = Bhakla
| image              =
| image_size         =
| caption            = Theatrical release poster
| director           = Dinesh patel
| Starring           = Dhriti pati sarkar
| story              = Madan Sharma & Prem Simon
| producer           = 
| music              = 
| cinematography     = 
| editing            = Dilip Darak & Dhriti pati sarkar
| distributor        = 
| released           = May 6, 2006 
| runtime            = 150 minutes
| country            = India
| language           = Hindi
| budget             = Rs. 1600000  (estimated)
| gross              = Rs. 2500000
| viewed             = 1000000 times 
}} Lata mangeshkar sang a song in this film, which was her first and last Chhattisgarhi song.

The title character was played by Dhriti pati sarkar.     This is milestone film of Chhollywood. Its DVD versIon rights are held by "Sundrani Videos" Raipur.

==See also==
*Bollywood

==References==
 

==External links==

 
 
 
 


 