Paula (film)
 
{{Infobox film
| name           = Paula
| image          = 
| image_size     = 
| caption        = 
| director       = Rudolph Maté
| writer         = 
| narrator       = 
| starring       = 
| music          = 
| cinematography = 
| editing        = 
| studio         = 
| distributor    = 
| released       = May 15, 1952
| runtime        = 80 mins.
| country        = United States
| language       = English
| budget         = 
| gross          = 
| preceded_by    = 
| followed_by    = 
| website        = 
| amg_id         = 
}}
Paula is a 1952 film directed by Rudolph Maté. 

==Cast==
*Loretta Young as Paula Rogers
*Kent Smith as John Rogers
*Alexander Knox as Dr. Clifford Frazer
*Tommy Rettig as David Larson
*Otto Hulett as Dr Lieutenant Dargen

==References==
 

==External links==
* 

 

 
 
 
 

 