Cannibalism: The Last Supper

{{Infobox film
| name           = Cannibalism: The Last Supper
| image          = CannibalismExtreme.jpg
| image_size     = 
| border         = 
| alt            = 
| caption        = Cover art for Cannibalism: The Last Supper
| film name      =  Lizzy Borden
| producer       = Rob Zicari & Lizzy Borden
| writer         = Lizzy Borden
| screenplay     = 
| story          = 
| based on       = 
| narrator       = 
| starring       = Brandi Lyons   Brooke Hunter   Veronica Caine   Alexandra Quinn
| music          = Fornicator & Lil Merchant
| cinematography = Glenn Baren
| editing        = Lynkoln Townekharr
| studio         = Extreme Associates
| distributor    = Extreme Associates
| released       =  
| runtime        = 135 minutes
| country        = United States English
| budget         = 
| gross          = 
}}
 pornographic horror Lizzy Borden. 

== Plot ==
A deranged Satanic cult lures in couples and lone women so they can rape, butcher, and devour them.

== Cast ==
 
* Alexandra Quinn Lizzy Borden
* Mickey G.
* Mr. Pete
* Rod Fontana
* Rick Masters
* Angel
* Brett Rockman
* Veronica Cain
* Brandi Lyons
* Brooke Hunter
* Lena Ramon
* Rossanna De La Vega
* Don Hollywood
* Doctor Jeckyl
* Sylvya
* Pat Trick
* Scott Lyons
 

== Reception == Adult Video snuff crowd, and gross out crowd".   

==References==
 

==External links==
*  
*  
*  

 
 
 
 
 
 
 
 
 
 
 
 
 
 
 