Peony Pavilion (film)
 
 
{{Infobox film
| name           = Peony Pavilion
| image          = 
| caption        = 
| director       = Yonfan
| producer       = Ann Hui
| writer         = Yonfan
| starring       = Joey Wang
| music          = 
| cinematography = Henry Chung
| editing        = 
| distributor    = 
| released       =  
| runtime        = 120 minutes
| country        = Hong Kong
| language       = Mandarin
| budget         = 
}}

Peony Pavilion is a 2001 Hong Kong drama film directed by Yonfan. It was entered into the 23rd Moscow International Film Festival where Rie Miyazawa won the award for Best Actress.   

==Cast==
* Joey Wang as Rong Lan
* Rie Miyazawa as Cui Hua
* Daniel Wu as Xing Zhi Gang
* Brigitte Lin as Narrator
* Yonfan as Dance tutor
* Zhigang Zhao

==References==
 

==External links==
*  

 

 
 
 
 
 
 
 
 