Thai Moogambikai
{{Infobox film
| name           = Thai Moogambikai
| image          =
| caption        =First Look Poster 
| director       = K.Sankar 
| producer       = 
| writer         = K.Sankar
| music          = Illayaraja
| starring       = K. R. Vijaya Jaishankar Karthik
| released       = 1982
| distributor    = 
| country        = India Tamil
| budget         = 
| gross          =  50 lakhs
}}

Thai Moogambikai is 1982 Tamil Devotional film directed by K.Sankar. The film has K. R. Vijaya, Jaishankar, Karthik in lead roles. Music is composed by Illayaraja

==References==
 

 
 
 
 
 


 