Olgas Sommer
{{Infobox film
| name           = Olgas Sommer
| image          = 
| caption        = 
| director       = Nina Grosse
| producer       = 
| writer         = Nina Grosse
| starring       = Clémence Poésy
| music          = 
| cinematography = Benedict Neuenfels
| editing        = 
| distributor    = 
| released       =  
| runtime        = 105 minutes
| country        = Germany
| language       = German
| budget         = 
}}

Olgas Sommer is a 2004 German drama film directed by Nina Grosse. It was entered into the 26th Moscow International Film Festival.   

==Cast==
* Clémence Poésy as Olga
* Bruno Todeschini as Daniel Sax
* Katja Flint as Caroline Sax
* Sebastian Blomberg as Franc
* Sunnyi Melles as Ella
* Wotan Wilke Möhring as Paul
* Hanns Zischler as Richard

==References==
 

==External links==
*  

 
 
 
 
 
 
 
 