Souls on the Road
{{Infobox film name           = Souls on the Road image          = caption        = director       = Minoru Murata producer       = Kaoru Osanai writer         =  starring       = Kaoru Osanai Haruko Sawamura Denmei Suzuki music          = cinematography =  editing        = distributor    =  released       =   runtime        = country        = Japan language       = Silent film budget         =  gross          = 
}}
 Mark Cousins wrote that it was "the first landmark film in Japanese history".   

==See also==
* Cinema of Japan

==References==
 

==Further reading==
*  
*  
*  
*  
*  

==External links==
*  

 
 
 


 