The Mushroom Club
{{Infobox film
| name           = The Mushroom Club
| image          = The Mushroom Club.jpg
| image_size     = 
| caption        = 
| director       = Steven Okazaki
| producer       = 
| writer         = 
| narrator       = 
| starring       = 
| music          = 
| cinematography = 
| editing        = 
| distributor    = 
| released       = 2005
| runtime        = 
| country        = United States 
| language       = English
| budget         = 
| preceded_by    = 
| followed_by    = 
}}

The Mushroom Club is a 2005 documentary short subject, directed by Steven Okazaki.

The short film is about the nuclear bomb dropped on Hiroshima and its effects on the residents of that city sixty years later.

On January 31, 2006 it was nominated for the  .

==References==
 

==External links==
*  
* 

 
 
 
 
 
 
 
 


 