Dil Mera Dhadkan Teri
{{Infobox film
| name           = Dil Mera Dhadkan Teri 
| image          = File:Dil Mera Dhadkan Teri.jpg
| alt            = 
| caption        = Film Poster
| director       = Mehreen Jabbar
| producer       = Tarang Housefull Humayun Saeed
| writer         = 
| based on       =   Ahsan Khan   Sarwat Gilani
| music          = 
| cinematography = 
| editing        = Wajahatullah Khan
| studio         = Six Sigma Entertainment
| distributor    = Geo Films
| released       =
| runtime        = 90 minutes
| country        = Pakistan
| language       = Urdu
| budget         = 
| gross          = 
}}
 Pakistani romantic romantic drama drama telefilm same name Ahsan Khan and Sarwat Gilani. 

== Cast == Ahsan Khan as Saad
* Sarwat Gilani as Saira
* Sanam Saeed as Beenish
* Zeenat Yasmin
* Zahin Tahira (Cameo)
* Manzoor Qureshi(Cameo)

== Soundtrack ==
{{Infobox album  
| Name = Dil Mera Dhadkan Teri
| Type = Soundtrack Shaan
| Cover =
| Genre = 
| Producer = Humayun Saeed Urdu
| Length =  
}}

Dil Mera Dhadkan Teri songs are sung by Rahat Fateh Ali Khan and Shaan (singer)|Shaan.

{{Track listing
| headline = Tracklist
| extra_column    = Singer(s)
| total_length    = 
| title1          = Kiya Hai Jo Pyar To Padega Nibhana Shaan
| length1         = 5:23
| title2          = Juda Juda
| extra2          = Rahat Fateh Ali Khan
| length2         = 5:38
}}

== References ==
 

 
 
 
 
 
 
 


 