Bhedi Khazana
{{Infobox film
| name           =Bhedi Khazana
| image          = 
| image_size     = 
| caption        = 
| director       =  
| producer       = 
| writer         =
| narrator       = 
| starring       =
| music          = 
| cinematography = 
| editing        = 
| distributor    = 
| released       = 1946
| runtime        = 
| country        = India Hindi
| budget         = 
| gross          = 
| preceded_by    = 
| followed_by    = 
| website        = 
}}

Bhedi Khazana is a Bollywood film. It was released in Bollywood films of 1946|1946.    
  
==References==
 

==External links==
*  

 

 
 
 