Sanjog (1943 film)
{{Infobox film
| name           =Sanjog 
| image          = 
| image_size     = 
| caption        = 
| director       = A. R. Kardar 
| producer       = 
| writer         =
| narrator       =  Mehtab Noor Mohammed Charlie Ulhas Wasti
| music          = Naushad
| cinematography = 
| editing        = 
| studio         = Kardar Productions
| distributor    = 
| released       = 1943
| runtime        = 
| country        = India Hindi
| budget         = 
| gross          = 
| preceded_by    = 
| followed_by    = 
| website        = 
}}

Sanjog is a Bollywood film. It was released in Bollywood films of 1943|1943.    
  
==References==
 

==External links==
*  

 

 
 
 
 


 