The House (2013 film)
{{Infobox film
| name           = The House
| image          = The House poster.jpg
| image size     = 
| border         = 
| alt            = 
| caption        = 
| director       = Yuan Li
| producer       = 
| writer         = 
| screenplay     = 
| story          = 
| based on       =  
| narrator       = 
| starring       = Ruby Lin
| music          = 
| cinematography = 
| editing        = 
| studio         = Shanghai Film Group Zhezhang Yongle Production 
| distributor    = Shanghai Shanjia Entertainment Co. ltd
| released       =   
| runtime        = 86 minutes
| country        = China
| language       = Mandarin
| budget         = 
| gross          = United States dollar|US$0.5 million 
}} thriller film directed by Yuan Li.  It is about a web-novelists experiences in a house that is said to be haunted.

==Cast==
* Ruby Lin  Patrick Tam
* Victor Chen
* Na Wei
* Cheung Tat-ming
* Miao Haojun
* Bai Liuxi

==References==
 

 
 
 
 


 
 