Rani (1943 film)
{{Infobox film
| name           =Rani
| image          = 
| image_size     = 
| caption        = 
| director       =  
| producer       = P.C. Barua
| writer         =
| narrator       = 
| starring       =P.C. Barua  Patience Cooper  Jamuna 
| music          = Kamal Dasgupta	 	
| cinematography = 
| editing        = 
| distributor    = 
| released       = 1943
| runtime        = 
| country        = India Hindi
| budget         = 
| gross          = 
| preceded_by    = 
| followed_by    = 
| website        = 
}}
 1943 and directed by P.C. Barua.    
  
==References==
 

==External links==
*  

 

 
 
 