Davy Crockett (1910 film)
{{Infobox film
| name           = Davy Crockett
| image          = 
| image_size     = 
| border         = 
| alt            = 
| caption        = 
| director       = Francis Boggs
| producer       =William Selig
| writer         = 
| screenplay     = 
| story          = 
| based on       =  
| narrator       = 
| starring       = 
| music          = 
| cinematography =
| editing        = 
| studio         =
| distributor    =Selig Polyscope Co.
| released       =  
| runtime        =
| country        = United States
| language       = English
| budget         = 
| gross          = 
}} silent starring Hobart Bosworth as Davy Crockett, with Betty Harte and Tom Santschi. The film was directed by Francis Boggs and distributed by Selig Polyscope Co.  It was commercially released in the United States.  With a storyline similar to the 1909 Davy Crockett – In Hearts United, this fictional account of Crocketts life has him rescuing his lady love from marrying his rival.  The movie ends with Crockett and his girlfriend riding off together. 

==References==
 

==External links==
*  
*  

 

 
 
 
 
 
 
 
 


 