The Man from Hell's Edges
{{Infobox film
| name           = The Man from Hells Edges
| image          = El Lobo poster.jpg
| border         = yes
| alt            = Film poster
| caption        = Film poster (as El Lobo) 
| film name      = 
| director       = Robert N. Bradbury
| producer       = Trem Carr
| writer         = Robert N. Bradbury
| screenplay     = 
| story          = 
| based on       =  
| narrator       =  Bob Steele Nancy Drexel Julian Rivero
| music          = 
| cinematography = Wilfred M. Cline
| editing        = Carl Pierson
| studio         = Trem Carr Pictures
| distributor    = Sono Art-World Wide Pictures
| released       =   
| runtime        = 57 minutes
| country        = United States
| language       = English
| budget         = 
| gross          = 
}}
 short Western Western film Bob Steele, Nancy Drexel, and Julian Robero. It was released in the United States on June 15, 1932.

==Plot== Bob Steele) gets into prison and befriends the bandits who murdered him.

==Cast== Bob Steele as Bob Williams
* Nancy Drexel as Betty
* Julian Rivero as Lobo
* Robert Homans as Sheriff
* George Hayes as Shamrock
* Gilbert Holmes as Half Pint
* Perry Murdock as Joe Danti

==External links==
*  

 
 
 
 
 
 
 


 