Cadet Girl
{{Infobox film
| name           = Cadet Girl
| caption        = 
| image	         = 
| director       = Ray McCarey
| producer       = 
| writer         =  George Montgomery
| music          = 
| cinematography = 
| editing        = 
| studio         = 
| distributor    = 20th Century Fox
| released       = 1941
| runtime        = 68 minutes
| country        = United States
| language       = English
| budget         = 
}}
Cadet Girl is a 1941 film. 

Alan Ladd has a small role.

==Plot==
A West Point cadet falls in love with a girl who sings in his brothers band.

==References==
 

==External links==
*  at IMDB

 
 
 
 
 
 
 
 


 