Those Were the Days!
{{Infobox film
| name           = Those Were the Days!
| caption        = 
| image	         = 
| director       = 
| producer       = 
| writer         = 
| starring       = William Holden Bonita Granville
| music          = 
| cinematography = 
| editing        = 
| studio         = Paramount
| distributor    = 
| released       = 1940
| runtime        = 
| country        = United States
| language       = English
| budget         = 
}}
Those Were the Days! is a 1940 film starring William Holden and Bonita Granville. 

==References==
 

==External links==
*  at IMDB

 
 
 
 


 