Midnight Intruder
{{Infobox film
| name           = Midnight Intruder 
| image          = 
| image_size     = 
| caption        = 
| director       = Arthur Lubin
| producer       = 
| writer         = 
| narrator       = 
| starring       = Louis Hayward
| music          = 
| cinematography = Milton R. Krasner
| editing        = 
| distributor    = Universal Pictures
| released       = 1938
| runtime        = 66 minutes
| country        = United States
| language       = English
| budget         = 
| gross          = 
}}
Midnight Intruder is a 1938 American film. 

==References==
 

==External links==
*   at IMDB
*  

 

 
 
 
 


 