The San Francisco Docks
{{Infobox film
| name           = The San Francisco Docks 
| image          = 
| image_size     = 
| caption        = 
| director       = Arthur Lubin
| producer       = 
| writer         = 
| narrator       = 
| starring       = Burgess Meredith Barry Fitzgerald Irene Harvey
| music          = 
| cinematography = 
| editing        = 
| distributor    = Universal Pictures
| released       = 1940
| runtime        = 
| country        = United States
| language       = English
| budget         = 
| gross          = 
| preceded_by    = 
| followed_by    = 
}}
The San Francisco Docks is a 1940 film directed by Arthur Lubin. 

==References==
 

==External links==
*  at IMDB
 

 
 
 
 
 
 


 