Secrets of a Nurse
{{Infobox film
| name           = Secrets of a Nurse 
| image          = 
| image_size     = 
| caption        = 
| director       = Arthur Lubin
| producer       = 
| writer         = 
| narrator       = 
| starring       = Edmund Lowe Helen Mack Dick Foran
| music          = 
| cinematography = 
| editing        = 
| distributor    = Universal Pictures
| released       = 1938
| runtime        = 
| country        = United States
| language       = English
| budget         = 
| gross          = 
| preceded_by    = 
| followed_by    = 
}}
Secrets of a Nurse is a 1938 film. 

==References==
 

==External links==
*  at IMDB
 

 
 
 
 
 


 