I'm Nobody's Sweetheart Now
{{Infobox film
| name           = Im Nobodys Sweetheart Now
| image          = 
| image_size     = 
| caption        = 
| director       = Arthur Lubin
| producer       = 
| writer         = 
| narrator       = 
| starring       = Dennis OKeefe Constance Moore 
| music          = 
| cinematography = 
| editing        = 
| distributor    = Universal Pictures
| released       = 1940
| runtime        = 
| country        = United States
| language       = English
| budget         = 
| gross          = 
| preceded_by    = 
| followed_by    = 
}}
Im Nobodys Sweetheart Now is a 1940 film. 

==References==
 

==External links==
*  at IMDB
 

 
 
 
 
 


 