Saintly Sinners
{{Infobox film
| name           = Saintly Sinners
| image size     = 
| image	=	
| caption        = 
| director       = Jean Yarbrough
| producer       = Edward Small (executive) Robert E. Kent
| writer         = Kevin Barry
| based on       = 
| starring       = Don Beddoe
| music          = 
| cinematography = 
| editing        = 
| distributor    = United Artists
| studio         = Harvard Productions
| released       = 1962
| runtime        = 77 mins
| country        = USA
| language       = English
| budget         = 
}}
Saintly Sinners is a 1962 film about a priest who reforms his parishioners but gets accused of armed robbery.  Don Beddoe in Charge of the Saintly Sinners
Los Angeles Times (1923-Current File)   13 July 1963: B7.  The New York Times described it as a "piece of low budget whimsey.. achieves the improbable feat of being almost as bad as it sounds". Saintly Sinners, a Comedy, Arrives
New York Times (1923-Current file)   29 Mar 1962: 28. 

==References==
 

==External links==
*  at IMDB
 
 

 
 
 
 
 


 