The Clown and the Kid
{{Infobox film
| name           = The Clown and the Kid
| image size     = 
| image	=	
| caption        = 
| director       = Edward L. Cahn
| producer       = Edward Small (executive) Robert E. Kent
| writer         = 
| based on       = 
| starring       = 
| music          = 
| cinematography = 
| editing        = 
| distributor    = United Artists
| studio         = Harvard Film Corporation
| released       = 1961
| runtime        = 
| country        = USA
| language       = English
| budget         = 
}}
The Clown and the Kid is a 1961 film.  CHILDREN GETTING MORE MOVIE ROLES: Despite Production Factors, Trend Is Being Reversed Reluctance Well Founded
By HURRAY SCHUMACH Special to The New York Times.. New York Times (1923-Current file)   13 Feb 1962: 40. 

==References==
 

==External links==
*  at IMDB
 
 

 
 
 
 

 