Henri (2013 film)
 
{{Infobox film
| name           = Henri
| image          = 
| caption        = 
| director       = Yolande Moreau
| producer       = 
| writer         = Yolande Moreau
| starring       = Jackie Berroyer Lio
| music          = 
| cinematography = Philippe Guilbert
| editing        = 
| distributor    = 
| released       =  
| runtime        = 
| country        = France
| language       = French
| budget         = $4.7 million   
| gross          = $1 million  
}}
 Best Film Best Director for Yolande Moreau. 

==Cast==
* Miss Ming as Rosette
* Simon André as René
* Gwen Berrou as Henris daughter
* Jackie Berroyer as Bibi
* Pippo Delbono as Henri
* Lio as Henris wife

==References==
 

==External links==
*  

 
 
 
 
 
 
 
 