The Bandit of Sherwood Forest
{{Infobox film
| name           = The Bandit of Sherwood Forest
| image size     = 
| image	=	
| caption        = 
| director       = George Sherman Henry Levin
| producer       = 
| writer         = 
| based on       = 
| starring       = Cornel Wilde Anita Louise Edgar Buchanan
| music          = 
| cinematography = 
| editing        = 
| distributor    = Columbia Pictures
| studio         = 
| released       = 1946
| runtime        = 
| country        = USA
| language       = English
| budget         = 
}}
The Bandit of Sherwood Forest is a 1946 film about the son of Robin Hood starring Cornel Wilde, Anita Louise and Edgar Buchanan.
 Fiddlers Three, and The Hot Scots, and again for the 1948 film The Prince of Thieves.

==External links==
*   at TCMDB
*   at IMDB

 
 

 
 
 
 
 
 


 