Thakazhi (film)
{{Infobox film
| name           = Thakazhi
| image          = 
| image_size     =  
| border         = 
| alt            = 
| caption        = 
| director       = M. T. Vasudevan Nair
| producer       = Devasri Films Sahitya Akademi
| screenplay     = M. T. Vasudevan Nair
| story          = 
| based on       = 
| narrator       = M. T. Vasudevan Nair
| starring       = 
| music          = Raveendran
| cinematography = Thazhayan 
| studio         = Devasri Films
| editing        = S. Naveen Raj
| released       =  
| runtime        = 57 minutes
| country        = India
| language       = Malayalam
}}

Thakazhi is a 1998 Malayalam documentary film made by M. T. Vasudevan Nair on renowned Malayalam writer, Thakazhi Sivasankara Pillai (1912–1999).  The 57-minute film was written, directed and narrated by Nair for Sahitya Akademi.    The films music was provided by Raveendran. 

==References==
 

 
 
 
 
 
 
 


 
 