Bangkok Girl
{{Infobox film
| name           = Bangkok Girl
| image          = 
| image_size     = 
| border         = 
| alt            = 
| caption        = 
| film name      = 
| director       = Jordan Clark
| producer       = Jordan Clark
| writer         = 
| screenplay     = 
| story          = 
| based on       =  
| narrator       = 
| starring       = 
| music          = 
| cinematography = 
| editing        = 
| studio         = 
| distributor    = 
| released       = November 2005
| runtime        = 43 minutes Canada
| English
| budget         = $10,000
| gross          = 
}} produced and directed by prostituted up forcibly prostituted.  In November 2005, the film aired on "The Lens", a program on Canadas CBC Television.  Swedens Sveriges Television also aired the film.  
 Canadian Abolitionism#Contemporary contemporary abolitionist who was Miss Canada at the time, said that her first impetus to combat human trafficking came from watching Bangkok Girl.    In one scene of the film, Pla looks into the lens of the camera and says "No one cares about me." Teng said that this line changed her life. She further said that, at the time, she could not understand how a person could believe their personal worth was determined by the amount of money a person would pay for them.   

==References==
 

==External links==
*  
*  

 
 
 
 
 
 
 
 
 
 
 
 
 
 
 
 
 
 
 
 


 
 