Brothers in the Saddle
{{Infobox film
| name           = Brothers in the Saddle
| image          =
| image_size     =
| caption        =
| director       = Lesley Selander
| producer       =
| writer         = Steve Brodie
| music          =
| cinematography =
| editing        = RKO Radio Pictures
| released       =  
| runtime        =
| country        = United States
| language       = English
| budget         =
| gross          =
}}
Brothers in the Saddle is a 1949 Western about a man who tries to keep his younger brother out of trouble. Virginia Cox makes her film debut. Richard Jewell & Vernon Harbin, The RKO Story. New Rochelle, New York: Arlington House, 1982. p235 

==References==
 

==External list==
*  at IMDB

 
 
 
 
 

 