French Dressing (1927 film)
 
{{Infobox film
| name           = French Dressing
| image          =
| image_size     =
| caption        =
| director       = Allan Dwan
| producer       = Allan Dwan
| writer         = based on =  story by Adelaide Heilbron Lois Wilson Lilyan Tashman
| music          =
| cinematography =
| editing        =
| distributor    = First National Pictures
| released       =  
| runtime        = 6344 feet
| country        = United States
| language       = English
| budget         =
| gross          =
}}
French Dressing is a 1927 film. 

==References==
 

==External list==
*  at IMDB
*  at New York Times

 

 
 
 
 


 