Rider from Tucson
{{Infobox film
| name           = Rider from Tucson
| image          =
| caption        =
| director       = Lesley Selander
| producer       =
| writer         =
| starring       = Tim Holt Veda Ann Borg
| music          =
| cinematography =
| editing        = RKO Radio Pictures
| released       =  
| runtime        =
| country        = United States
| language       = English
| budget         =
| gross          =
}}
Rider from Tucson is a 1950 Western. 

==Plot==
Two cowboys help an old friend. Richard Jewell & Vernon Harbin, The RKO Story. New Rochelle, New York: Arlington House, 1982. p250 

==References==
 

==External list==
*  at IMDB

 
 
 
 
 

 