Gunplay (film)
{{Infobox film
| name           = Gunplay
| image          =
| image_size     =
| caption        =
| director       = Lesley Selander
| producer       =
| writer         =
| starring       = Tim Holt
| music          =
| cinematography =
| editing        = RKO Radio Pictures
| released       =  
| runtime        =
| country        = United States
| language       = English
| budget         =
| gross          = $145,000 Richard Jewell & Vernon Harbin, The RKO Story. New Rochelle, New York: Arlington House, 1982. p259 
}}
Gunplay is a 1951 film. 

==References==
 

==External list==
*  at IMDB

 
 
 
 


 