Saddle Legion
{{Infobox film
| name           = Saddle Legion
| image          =
| caption        =
| director       = Lesley Selander
| producer       =
| writer         =
| starring       = Tim Holt Dorothy Malone
| music          =
| cinematography =
| editing        = RKO Radio Pictures
| released       =  
| runtime        =
| country        = United States
| language       = English
| budget         =
| gross          =
}}
Saddle Legion is a 1951 Western film starring Tim Holt.  Richard Jewell & Vernon Harbin, The RKO Story. New Rochelle, New York: Arlington House, 1982. p256  It co-starred Dorothy Malone, who was one of Holts most prestigious co-stars. Martin, Lewis Hitting Fast Film Stride; Jock OMahoney Series Star
Schallert, Edwin. Los Angeles Times (1923-Current File)   13 July 1950: B9.   She was borrowed from Warner Bros.. 

==References==
 

==External list==
*  at IMDB

 
 
 
 


 