Rio Grande Patrol
{{Infobox film
| name           = Rio Grande Patrol
| image          =
| caption        =
| director       = Lesley Selander
| producer       =
| writer         =
| starring       = Tim Holt Tom Tyler
| music          =
| cinematography =
| editing        = RKO Radio Pictures
| released       =  
| runtime        =
| country        = United States
| language       = English
| budget         =
| gross          =
}}
Rio Grande Patrol is a 1950 film.  Richard Jewell & Vernon Harbin, The RKO Story. New Rochelle, New York: Arlington House, 1982. p253 

Cleo Moore did 16 hours of dancing during filming, causing her to come down with stone bruises on her feet. Doctors ordered her to rest for five days. Dancer Bruises Legs in Strenuous Can-Can
Chicago Daily Tribune (1923-1963)   03 Sep 1950: w_a6. 

==References==
 

==External list==
*  at IMDB

 
 
 


 