Riding the Wind
{{Infobox film
| name           = Riding the Wind
| image          =
| image_size     =
| caption        =
| director       = Edward Killy
| producer       = Bert Gilroy
| writer         =
| starring       = Tim Holt Ray Whitley
| music          =
| cinematography = Harry J. Wild
| editing        = RKO Radio Pictures
| released       =  
| runtime        =
| country        = United States
| language       = English
| budget         =
| gross          =
}}
Riding the Wind is a 1942 Western film starring Tim Holt.  Richard Jewell & Vernon Harbin, The RKO Story. New Rochelle, New York: Arlington House, 1982. p170. 

==Plot==
A cowboy fights against a schemer who is manipulating water rights.

==References==
 

==External list==
*  

 
 
 
 
 

 