Fighting Frontier
{{Infobox film
| name           = Fighting Frontier
| image          =
| image_size     =
| caption        =
| director       = Lambert Hillyer
| producer       = Bert Gilroy
| writer         =
| starring       = Tim Holt
| music          =
| cinematography =
| editing        = RKO Radio Pictures
| released       =  
| runtime        =
| country        = United States
| language       = English
| budget         = 
| gross          = 
}}
Fighting Frontier is a 1943 Western film. 

==Plot==
A detective goes undercover as a bandit. Richard Jewell & Vernon Harbin, The RKO Story. New Rochelle, New York: Arlington House, 1982. p179 

==References==
 

==External list==
*  at IMDB

 
 
 
 

 