The Vanishing Pioneer
 
{{Infobox film
| name           = The Vanishing Pioneer
| image          =
| caption        =
| director       = John Waters
| producer       =
| writer         = Jack Holt Sally Blane William Powell
| music          =
| cinematography =
| editing        =
| distributor    =
| released       =  
| runtime        =
| country        = United States
| language       = English
| budget         =
| gross          =
}}
The Vanishing Pioneers is a 1928 film. 

==References==
 

==External list==
*  at IMDB
*  at Silent Era Film

 
 
 
 
 


 