Indian Agent (film)
{{Infobox film
| name           = Indian Agent
| image          =
| image_size     =
| caption        =
| director       = Lesley Selander
| producer       =
| writer         =
| starring       = Tim Holt Noah Beery Jr
| music          =
| cinematography =
| editing        = RKO Radio Pictures
| released       =  
| runtime        =
| country        = United States
| language       = English
| budget         =
| gross          =
}}
Indian Agent is a 1948 Western film starring Tim Holt as a cowboy trying to convince Indians not to go on the warpath due to the activities of a corrupt Indian agent. Richard Jewell & Vernon Harbin, The RKO Story. New Rochelle, New York: Arlington House, 1982. p230 

==References==
 

==External list==
*  at IMDB

 
 
 
 

 