The Latin Immigrant
{{Infobox film
| name           = The Latin Immigrant
| image          = 
| caption        = 
| director       = Gustavo Nieto Roa
| producer       = 
| writer         = 
| starring       = Carlos Benjumea
| music          = 
| cinematography = 
| editing        = 
| distributor    = 
| released       =  
| runtime        = 89 minutes
| country        = Colombia
| language       = Spanish
| budget         = 
}}
 Best Foreign Language Film at the 53rd Academy Awards, but was not accepted as a nominee. 

==Cast==
* Carlos Benjumea
* Franky Linero

==See also==
* List of submissions to the 53rd Academy Awards for Best Foreign Language Film
* List of Colombian submissions for the Academy Award for Best Foreign Language Film

==References==
 

==External links==
*  

 
 
 
 
 
 
 