Billy and Percy
{{Infobox film
| name           = Billy and Percy
| image size     = 
| image	=	
| caption        =  John Power
| producer       = John Power
| writer         = John Power
| based on       = journals of Percy Dean Harold Hopkins
| music          = 
| cinematography = 
| editing        = 
| distributor    = ABC
| studio         = 
| released       = 1974
| runtime        = 70 mins
| country        = Australia
| language       = English
| budget         = 
}}
Billy and Percy is a 1974 Australian TV movie based on journals kept by Percy Dean, private secretary to Australian Prime Minister Billy Hughes. Ed. Scott Murray, Australia on the Small Screen 1970-1995, Oxford Uni Press, 1996 p14 

John Power won Best Director at the AFIs. 

==References==
 

==External links==
*  at Australian Screen Online
*  at IMDB

 
 
 


 
 