Criminales de guerra
 

 
{{Infobox film
| name           = Criminales de guerra
| image          =
| image_size     =
| caption        =
| director       = Júpiter Perruzi
| producer       = Imágenes Argentinas
| writer         = 
| narrator       = Carlos A. Taquini
| starring       = 
| music          =
| cinematography =
| editor       =
| distributor    = 
| released       = January 3, 1948
| runtime        = 90 min.
| country        = Argentina Spanish
| budget         =
}}
 1946 Argentine documentary film directed by Júpiter Perruzi. The film was made by excerpts of international news programs who covered the Nuremberg Trials.  Additional commentaries and illustrative maps are also showed. 

== References ==
 

 
 
 
 

 