Pygmalion and Galatea (1898 film)
{{Infobox film
| name           = Pygmalion et Galathée
| image          = 
| image_size     = 
| border         = 
| alt            = 
| caption        = 
| film name      = 
| director       = Georges Méliès
| producer       = 
| writer         = 
| screenplay     = 
| story          = 
| based on       =  
| narrator       = 
| starring       = 
| music          = 
| cinematography = 
| editing        = 
| studio         = 
| distributor    = 
| released       = 1898  
| runtime        = 20 meters/65 feet   
| country        = France
| language       = Silent
| budget         = 
| gross          = 
}}
 Pygmalion myth.    It was released by Mélièss Star Film Company and is numbered 156 in its catalogues. 
 lost until a print was found in an attic in Barcelona in 1993. 

==References==
 

 

 
 
 
 


 