Double Sculls
{{Infobox film
| name           = Double Sculls
| image          = 
| image size     =
| caption        = 
| director       = Iam Gilmour
| producer       = Richard Brennan
| writer         = Chris Peacock
| based on = 
| narrator       = John Hargreaves Angela Punch-McGregor Bill Kerr
| music          = 
| cinematography = Vince Monton
| editing        = 
| studio = PBL Productions Australian Film Commission
| distributor    = 
| released       = 1985
| runtime        = 94 mins 
| country        = Australia English
| budget         =
| gross = 
| preceded by    =
| followed by    =
}}
Double Sculls is a 1985 Australian TV movie about a man who tries to rehabilitate an alcoholic friend. Ed. Scott Murray, Australia on the Small Screen 1970-1995, Oxford Uni Press, 1996 p47 

==References==
 

==External links==
* 

 
 
 


 