Forbidden Passage
 
 
{{Infobox film
| name           = Forbidden Passage
| image          = 
| caption        = 
| director       = Fred Zinnemann
| producer       = 
| writer         = Carl Dudley
| starring       = Addison Richards
| music          = 
| cinematography = Jackson Rose
| editing        = 
| distributor    = 
| released       =  
| runtime        = 21 minutes
| country        = United States
| language       = English
| budget         = 
}}
 short crime Best Short Subject (Two-Reel).   

==Cast==
* Addison Richards as Frank J. Maxwell
* Wolfgang Zilzer as Otto Kestler
* Hugh Beaumont as Clements
* George Lessey as American Consul in Lisbon

==References==
 

==External links==
*  

 

 
 
 
 
 
 
 
 
 
 
 
 