Army Champions
{{Infobox film
| name           = Army Champions
| image          = 
| caption        = 
| director       = Paul Vogel Pete Smith
| writer         = Julian Harmon
| music          = 
| cinematography = Paul Vogel
| editing        = 
| distributor    = 
| released       =  
| runtime        = 11 minutes
| country        = United States
| language       = English
| budget         = 
}}
 short documentary Best Short Subject (One-Reel).   

==Cast== Pete Smith as Narrator

==References==
 

==External links==
*  

 
 
 
 
 
 
 
 
 
 
 

 