Sing Me the Songs That Say I Love You: A Concert for Kate McGarrigle
{{Infobox film
| name           = Sing Me the Songs That Say I Love You: A Concert for Kate McGarrigle
| image          = 
| image_size     = 
| border         = 
| alt            = 
| caption        = 
| film name      = 
| director       = Lian Lunson
| producer       = 
| writer         = 
| screenplay     = 
| story          = 
| based on       =  
| narrator       = 
| starring       = 
| music          = 
| cinematography = 
| editing        = 
| studio         = 
| distributor    = 
| released       =  
| runtime        = 
| country        = 
| language       = 
| budget         = 
| gross          = 
}}
Sing Me the Songs That Say I Love You: A Concert for Kate McGarrigle is a 2012   serves as the films soundtrack.

==References==
 

==External links==
*  

 
 
 
 
 
 
 


 