Champions Carry On
{{Infobox film
| name           = Champions Carry On
| image          = 
| caption        = 
| director       = 
| producer       = Edmund Reek
| writer         = 
| music          = 
| cinematography = 
| editing        = 
| distributor    = 
| released       =  
| runtime        = 10 minutes
| country        = United States
| language       = English
| budget         = 
}}
 short documentary Best Short Subject (One-Reel).   

==References==
 

==External links==
*  

 
 
 
 
 
 
 
 
 
 
 

 
 