Fatal Past
{{Infobox film
| name           = Fatal Past
| image size     = 
| image	=	
| caption        = 
| director       = Clive Fleury Richard Ryan
| producer       = Phillip Emanuel
| writer         = 
| based on       = 
| starring       = Costas Mandylor
| music          = 
| cinematography = 
| editing        = 
| distributor    = 
| studio         = 
| released       = 1993
| runtime        = 
| country        = Australia
| language       = English
| budget         = 
}}
Fatal Past is a 1993 Australian thriller film. Ed. Scott Murray, Australia on the Small Screen 1970-1995, Oxford Uni Press, 1996 p56 

==References==
 

==External links==
* 

 
 
 


 
 