The Fire In The Stone
{{Infobox film
| name           = The Fire in the Stone
| image size     = 
| image	=	
| caption        = 
| director       = Gary Conway
| producer       = 
| writer         = Graeme Koetsveld
| based on       = novel by Colin Thiele Paul Smith Linda Hartley
| music          = 
| cinematography = 
| editing        = 
| distributor    = 
| studio         = South Australian Film Corporation Australian Childrens Television Foundation
| released       = 1983
| runtime        = 94 mins
| country        = Australia
| language       = English
| budget         = 
}}
The Fire in the Stone is a 1983 Australian TV film about teenagers in the town of Coober Pedy. Ed. Scott Murray, Australia on the Small Screen 1970-1995, Oxford Uni Press, 1996 p61-62  It is based on the 1973 novel of the same name by Colin Thiele.

==References==
 

==External links==
*  at IMDB

 
 
 
 
 

 