Women at War
{{Infobox film
| name           = Women at War
| image          = 
| caption        = 
| director       = Jean Negulesco
| producer       = Gordon Hollingshead
| writer         = Charles L. Tedford
| starring       = Faye Emerson
| music          = 
| cinematography = Harry Hallenberger
| editing        = 
| distributor    = 
| released       =  
| runtime        = 21 minutes
| country        = United States
| language       = English
| budget         = 
}}
 short drama Best Short Subject (Two-Reel).   

==Cast==
* Faye Emerson as Anastasia Stormy Hart Dorothy Day as Lorna Travis
* Marjorie Hoshelle as Sgt. Ramsey
* Virginia Christine as Mary Sawyer
* Robert Warwick as Maj. Gen. Blood and Thunder Travis

==References==
 

==External links==
*  

 

 
 
 
 
 
 
 
 
 
 
 