Fire in the Night
 
{{Infobox film
| name           = Fire in the Night
| image          = Fire in the Night.jpg
| caption        = Film poster
| director       = Anthony Wonke
| producer       = 
| writer         = Stephen McGinty
| starring       = 
| music          = 
| cinematography = 
| editing        = 
| distributor    = 
| released       =  
| runtime        = 94 minutes
| country        = United Kingdom
| language       = English
| budget         = 
}}

Fire in the Night is a 2013 British documentary film about the Piper Alpha disaster directed by Anthony Wonke.    It won the Audience Award at the 2013 Edinburgh International Film Festival.       It was first shown on television on 9 July 2013 on BBC Two. 

==References==
 

==External links==
*  

 
 
 
 
 
 
 
 
 
 