Jindalee Lady
{{Infobox film
| name           = Jindalee Lady
| image size     = 
| image	=	
| caption        = 
| director       = Brian Syron
| producer       = Briann Kearney
| writer         = Briann Kearney
| based on       = 
| starring       = Lydia Miller Patrick Ward
| music          = 
| cinematography = 
| editing        = 
| distributor    = 
| studio         = Donobri International Communications
| released       = 1990
| runtime        = 86 mins
| country        = Australia
| language       = English
| budget         = 
}}
Jindalee Lady is a 1990 Australian film about an aboriginal lady who becomes a fashion designer. Ed. Scott Murray, Australia on the Small Screen 1970-1995, Oxford Uni Press, 1996 p 92 
==References==
 

==External links==
*  at IMDB
* 
*  at Creative Spirits
 
 

 