Fighting Norway
{{Infobox Film
| name           =   Fighting Norway
| image          = 
| image_size     = 
| caption        = 
| director       =   Sydney Newman
| producer       =   
| writer         =   
| narrator       =   Lorne Greene
| starring       =   
| music          =   
| cinematography =    
| editing        =   
| studio         =   
| distributor    =   
| released       =   
| runtime        =   10 min.
| country        =     English
| budget         = 
| gross          = 
| preceded_by    = 
| followed_by    = 
}}	 Canadian documentary free forces occupied Norway during the Second World War. The film particularly concentrates on the training of Norwegian air crew in Canada, and the relationship formed between servicemen of the two nations.
 British documentary All for Norway.

==See also==
*List of Allied propaganda films of World War II

==External links==
*  at the National Film Board of Canada.
*  at the Internet Movie Database.

 

 
 
 
 
 
 
 
 
 
 
 
 


 
 