Living Color (1992 film)
{{Infobox film
| name           = Living Color
| image size     = 
| image	=	
| caption        = 
| director       = Neal Taylor
| producer       = Rene Nagy Jr
| writer         = Neal Taylor
| based on       = 
| starring       = Derek Rucker Kim Denman
| music          = 
| cinematography = 
| editing        = 
| distributor    = 
| studio         = Cingery MPE
| released       = 1992
| runtime        = 95 mins
| country        = Australia
| language       = English
| budget         = $2.5 million 
}}
Living Color is a 1992 thriller about a cat and mouse game between Molly and killer Christian. The film was shot in Brisbane between 5–21 January 1992 and was not released theatrically. Ed. Scott Murray, Australia on the Small Screen 1970-1995, Oxford Uni Press, 1996 p101 

==References==
 

==External links==
*  at IMDB

 
 
 
 


 
 