Naughty, Naughty (1974 film)
 
 
{{Infobox film
| name           = Naughty! Naughty!
| image          = NaughtyNaughty.jpg
| image_size     = 
| border         = 
| alt            = 
| caption        = 
| film name      = 綽頭狀元
| director       = Lo Wei
| producer       = 
| writer         = 
| screenplay     = 
| story          = 
| based on       =  
| narrator       = 
| starring       = Sam Hui
| music          = 
| cinematography = 
| editing        =  Golden Harvest
| distributor    = 
| released       =  
| runtime        = 109 min
| country        = Hong Kong
| language       = Mandarin
| budget         = 
| gross          = 
}}
Naughty! Naughty! (Chinese: 綽頭狀元) is a 1974 Cantonese-language comedy film directed by Lo Wei.  It stars Sam Hui as a young con-man.   
 James Wongs song 《一水隔天涯》.

==Cast==
* Sam Hui
* Nora Miao
* Leung Sing-Bor
* Dean Shek
* Cheng Gwan-min
* Sai Gwa-Pau
* Szema Wah Lung
* Tony Liu Wu Wei

==References==
 

==External links==
*  
*  

 

 
 
 


 