Mail Order Bride (1984 film)
{{Infobox film
| name           = Mail Order Bride
| image size     = 
| image	=	
| caption        = 
| director       = Stephen Wallace
| producer       = Michael Carson
| writer         = Robyn Davidson
| based on       = 
| starring       = Ray Meagher
| music          = 
| cinematography = 
| editing        = 
| distributor    = 
| studio         = ABC
| released       = 1984
| runtime        = 85 mins
| country        = Australia
| language       = English
| budget         = 
}}
Mail Order Bride is a 1984 Australian TV movie about a builder who imports a Filipino bride. Ed. Scott Murray, Australia on the Small Screen 1970-1995, Oxford Uni Press, 1996 p103 

==References==
 

==External links==
*  at IMDB
*  at Oz Movies

 
 
 


 