Kanwarlal
{{Infobox film
| name           =Kanwarlal
| image          = 
| image_size     = 
| caption        = 
| director       =S.S. Ravichandra
| producer       =Hanumantha Rao Ghattamaneni		
| Dialogue       =Jalees Sherwani
| narrator       = 
| starring       =Jeetendra Amjad Khan
| music          =Bappi Lahiri
| cinematography = 
| editing        = 
| distributor    = 
| released       = 29 July 1988
| runtime        = 
| country        = India Hindi
| budget         = 
| gross          = 
| preceded_by    = 
| followed_by    = 
| website        = 
}}
Kanwarlal is a 1988 Bollywood film starring Jeetendra, Raj Babbar, Amjad Khan.

==Cast==

* Arjun (Firoz Khan)|Arjun............Jaggan
* Raj Babbar.......Mantri Suraj Prakash
* Birbal...........Havaldar
* Rajan Haksar.....I.G.P.
* Jankidas.........Trivedi
* Jeetendra........Kanwarlal
* Pinchoo Kapoor...Chief Minister
* Amjad Khan.......John Jani Janardhan
* Viju Khote.......Ram Prasad
* Manmohan Krishna...Shastriji
* Sujata Mehta.....Advocate Sandhya
* Tej Sapru........Jhanga
* Tiku Talsania....Advocate Uttamlal

==External links==
*  

 
 
 
 


 
 