The Misanthrope (1974 film)
{{Infobox film
| name           = The Misanthrope
| image size     = 
| image	=	
| caption        = 
| director       = Carl Schultz
| producer       = Carl Schultz
| writer         = 
| based on       = play by Moliere
| starring       = John Krummel Fay Kelton Neil Fitzpatrick
| music          = 
| cinematography = 
| editing        = 
| distributor    = ABC
| studio         = ABC NSW Greenroom Society
| released       = 1974
| runtime        = 
| country        = Australia
| language       = English
| budget         = 
}}
The Mistanthrope is a 1974 Australian film adaptation of the play by Moliere. Ed. Scott Murray, Australia on the Small Screen 1970-1995, Oxford Uni Press, 1996 p107 

==References==
 

==External links==
*  at IMDB

 
 
 
 
 
 


 