The Old Curiosity Shop (1984 film)
{{Infobox film
| name           = The Old Curiosity Shop
| image size     = 
| image	=	
| caption        = 
| director       = Warwick Gilbert
| producer       = Eddie Graham
| writer         = Alex Buzo novel by Charles Dickens
| starring       = 
| music          = 
| cinematography = 
| editing        = 
| distributor    = 
| studio         = Burbank Films
| released       = 1984
| runtime        = 75 mins
| country        = Australia
| language       = English
| budget         = 
}}
The Old Curiosity Shop is a 1984 Australian animated film based on the novel by Charles Dickens. It was made by Burbank Films who produced a number of animated films based on classic novels. Ed. Scott Murray, Australia on the Small Screen 1970-1995, Oxford Uni Press, 1996 p116 

==References==
 

==External links==
*  at IMDB

 
 
 
 
 


 
 