Offspring (1996 film)
{{Infobox film
| name           = Offspring
| image size     = 
| image	=	
| caption        = 
| director       = Richard Ryan David Hannay
| writer         = Richard Ryan
| based on       = 
| starring       = Chantal Contouri Robert Mammone
| music          = 
| cinematography = 
| editing        = 
| distributor    = 
| studio         = Phillip Emanuel Productions
| released       = 1996
| runtime        = 
| country        = Australia
| language       = English
| budget         = 
}}
Offspring is an Australian thriller about a woman who becomes obsessed with her daughter. Ed. Scott Murray, Australia on the Small Screen 1970-1995, Oxford Uni Press, 1996 p115 

==References==
 

==External links==
*  at IMDB

 
 
 
 


 
 