The Quiet Ones (2010 film)
{{Infobox film
| name           = The Quiet Ones
| image          = The Quiet Ones.jpg
| alt            = 
| caption        = 
| director       = Amel J. Figueroa
| producer       = 
| writer         = Amel J. Figueroa
| starring       = Courtney Gains,  Reggie Bannister,  Bill Allen
| music          = 
| cinematography = 
| editing        = 
| studio         = 
| distributor    = 
| released       =  
| runtime        = 
| country        = United States
| language       = English
| budget         = 
| gross          = 
}}
The Quiet Ones, also known as Hush, is a 2010 American independent horror film directed by Amel J. Figueroa. 

The film stars Courtney Gains, Reggie Bannister, Bill Allen, Adam C. Edwards and others. 

==References==
 

==External links==
*  

 
 
 


 