In the Face of Demolition
 
 
{{Infobox film
| name           = In the Face of Demolition 危樓春曉
| image          = 
| image_size     = 
| border         = 
| alt            = 
| caption        = 
| film name      = 
| director       = Lee Tit
| producer       = Chan Man
| writer         = Chui Gon Ji
| screenplay     = 
| story          = 
| based on       =  
| narrator       = 
| starring       = 
| music          = Yip Shun Chi
| cinematography = Suen Lun
| editing        = Leung Shing Poon Chiu
| studio         = Union Film Enterprise
| distributor    = 
| released       =  
| runtime        = 130 min
| country        = Hong Kong
| language       = Cantonese
| budget         = 
| gross          = 
}} Hong Kong film directed by Lee Tit.

==Cast and roles==
* Cheung Ying	
* Gao Luquan	
* Bruce Lee
* Lee Yuet Ching
* Lo Dun
* Mui Yee		
* Ng Cho-fan	
* Tao Sangu	
* Wong Chor-Shan
* Wong Man-lei		
* Zi Luolian

==External links==
*  
*   at Hong Kong Cinemagic

 
 


 