Chaya Chobi
{{Infobox film
| name           = Chaya Chobi
| image          = ChayaChobi.jpg
| caption        = 
| director       = Muhammad Mustafa Kamal Raaj Nine Entertainment
| story          = Muhammad Mustafa Kamal Raaj
| screenplay     = Muhammad Mustafa Kamal Raaj Purnima
| music          = Arfin Rumey
| cinematography = Khair Khandakar
| editing        = 
| distributor    = Agniveena
| released       =  
| runtime        = 
| country        = Bangladesh
| language       = Bengali
| budget         = 
| gross          = 
|}} Nine Entertainment. Purnima in lead roles.    The music was composed by Arfin Rumey. 

==Cast==
*Arefin Shuvo
*Purnima
*Rumel
*Azizul Islam

==References==
 

 
 
 
 
 
 

 
 