Polly Me Love
{{Infobox film
| name           = Polly Me Love
| image size     = 
| image	=	
| caption        = 
| director       = Peter Maxwell
| producer       = Eric Porter
| writer         = Ted Roberts
| based on       = 
| starring       = Jacki Weaver Hugh Keays-Byrne Max Phipps Robert Bruning Paula Duncan
| music          = 
| cinematography = 
| editing        = 
| distributor    = 
| studio         = Eric Porter Productions
| released       = 1976
| runtime        = 
| country        = Australia
| language       = English
| budget         = 
}}
Polly Me Love is a 1976 Australian film about a brothel owners daughter in 1830. Ed. Scott Murray, Australia on the Small Screen 1970-1995, Oxford Uni Press, 1996 p124 

The film was a ratings success and also sold to Canada, Europe and South America. 

==References==
 

==External links==
*  at Peter Malone

 
 


 