Miss de Vère (English Jig)
{{Infobox film
| name           = Miss de Vère
| image          = 
| image_size     = 
| italic title   = no
| caption        = 
| director       = Georges Méliès
| producer       = Georges Méliès
| writer         = 
| narrator       = 
| starring       = 
| music          = 
| cinematography = 
| editing        = 
| distributor    = Star Film Company
| released       = 1896
| runtime        = 20 meters/65 feet   
| country        = France Silent
| budget         = 
| gross          =
| preceded_by    = 
| followed_by    = 
}} 
Miss de Vère (English Jig) ( ) was an 1896 French silent film directed by Georges Méliès. It was released by Mélièss Star Film Company and is numbered 45 in its catalogues.  The "Miss de Vère" of the title was one of the daughters of Charles De Vere (real name H. S. G. Williams), an Englishman who had worked as a professional magician and who was then the owner of a Paris shop selling conjurors supplies, electrical equipment, and films.   

The film is currently presumed Lost film|lost. 

== References ==
 

== External links ==
*  

 

 
 
 
 
 
 
 


 