The Returning
{{Infobox film
| name           = The Returning
| image size     = 
| image	=	
| caption        = 
| director       = John Day David Hannay
| writer         = 
| based on       = 
| starring       = Phillip Gordon
| music          = 
| cinematography = 
| editing        = 
| distributor    = 
| studio         = Echo Pictures New Zealand Film Commission
| released       = 1990
| runtime        = 
| country        = Australia New Zealand
| language       = English
| budget         = 
}}
The Returning is a 1990 Australia-New Zealand film. Ed. Scott Murray, Australia on the Small Screen 1970-1995, Oxford Uni Press, 1996 p130 

==References==
 

==External links==
* 
*  at NZ Film Archive
*  at NZ Film
 
 
 
 


 