Resistance (1992 film)
{{Infobox film
| name           = Resistance
| image size     = 
| image	=	
| caption        = 
| director       = Paul Elliott Hugh Keays-Byrne
| producer       = Christine Ferguson Pauline Rosenberg Jenny Day
| writer         = The Macau Collective
| based on       = 
| starring       = Lorna Lesley Jennifer Claire
| music          = 
| cinematography = 
| editing        = 
| distributor    = 
| studio         = Macau Light Film Corporation Australian Film Finance Corporation Wingar Workers Power
| released       = 1992
| runtime        = 95 mins
| country        = Australia
| language       = English
| budget         = 
}}
Resistance is a 1992 Australian film set in the future in a military dictatorship. Ed. Scott Murray, Australia on the Small Screen 1970-1995, Oxford Uni Press, 1996 p130 

==References==
 

==External links==
*  at IMDB
*  at Sci-Fi movies

 
 
 


 