Say You Want Me
{{Infobox film
| name           = Say You Want Me
| image          = 
| image size     =
| caption        = 
| director       = Oliver Howes
| producer       = Don Harley Laura Jones
| based on = 
| narrator       =
| starring       = Belinda Giblin Serge Lazareff Hugh Keays-Byrne Tom Oliver Henri Szeps
| music          = 
| cinematography = 
| editing        = 
| studio = Film Australia
| distributor    = Nine Network
| released       = 1977
| runtime        = 
| country        = Australia English
| budget         = 
| gross = 
| preceded by    =
| followed by    =
}}
Say You Want Me is a 1977 Australian film about a woman who is raped by one of her husbands business associates. Ed. Scott Murray, Australia on the Small Screen 1970-1995, Oxford Uni Press, 1996 p136 

==References==
 

==External links==
*  at IMDB
*  at Screen Australia

 
 
 
 


 
 