Sisterly Love
 
 
{{Infobox film
| name           = Sisterly Love
| image          = 
| image size     =
| caption        = 
| director       = Mark De Friest
| producer       = Peter Du Crane
| writer         = Ray Harding Jeremy Higgins
| based on = 
| narrator       =
| starring       = Joan Sydney Maggie King Martin Vaughan
| music          = 
| cinematography = 
| editing        = 
| studio = 
| distributor    = 
| released       = 1987
| runtime        = 
| country        = Australia English
| budget         =  
| gross = 
| preceded by    =
| followed by    =
}}
Sisterly Love is a 1987 Australian film about two sisters who are reunited. It was the pilot for an unmade series. Ed. Scott Murray, Australia on the Small Screen 1970-1995, Oxford Uni Press, 1996 p142 

==References==
 

==External links==
*  at IMDB

 
 
 
 


 