A Single Life (1985 film)
{{Infobox film
| name           = A Single Life
| image          = 
| image size     =
| caption        = 
| director       = John Power
| producer       = Hugh Rule
| writer         = 
| based on = 
| narrator       =
| starring       = Tina Bursill Steve Jacobs
| music          = 
| cinematography = 
| editing        = 
| studio = Australian Film Theatre
| distributor    = 
| released       = 1985
| runtime        = 
| country        = Australia English
| budget         = 
| gross = 
| preceded by    =
| followed by    =
}}
A Single Life is a 1985 Australian movie about a 35 year old woman who decides to have a baby. Ed. Scott Murray, Australia on the Small Screen 1970-1995, Oxford Uni Press, 1996 p142 

==References==
 

==External links==
*  at Peter Malone
*  at IMDB

 
 
 
 
 


 