The Sword of Bushido
{{Infobox film
| name           = Sword of the Bushido
| image          = 
| image size     =
| caption        = 
| director       = Adrian Carr
| producer       = John D. Lamond
| writer         = 
| based on = 
| narrator       = Richard Norton
| music          = 
| cinematography = 
| editing        = 
| studio = 
| distributor    = 
| released       = 
| runtime        = 
| country        =  English
| budget         = 
| gross = 
| preceded by    =
| followed by    =
}}
Sword of the Bushido is a 1990 action film. 

==References==
 

==External links==
*  at IMDB

 

 
 
 
 
 


 