Spook (film)
{{Infobox film
| name           = Spook
| image          = 
| image size     =
| caption        = 
| director       = David A Hall
| producer       =
| writer         =
| based on = 
| narrator       =
| starring       = The Spook Tim Elston Peter Kowitz
| music          = 
| cinematography = 
| editing        = 
| studio = 
| distributor    = 
| released       = 1988
| runtime        = 
| country        = Australia English
| budget         = 
| gross = 
| preceded by    =
| followed by    =
}}
Spook is a 1988 Australian film about a family who goes on a getaway and is attached by something dangerous in the forest. Ed. Scott Murray, Australia on the Small Screen 1970-1995, Oxford Uni Press, 1996 p147 

==References==
 

==External links==
*  at IMDB

 
 
 


 