Pecan Pie (film)
{{Infobox film
| name           = Pecan Pie
| image          = Pecan Pie (2003).jpg
| caption        = 
| director       = Michel Gondry
| producer       = 
| writer         = Michel Gondry
| starring       = Jim Carrey
| music          = 
| cinematography = 
| editing        = 
| studio         = 
| distributor    = 
| released       = 
| runtime        = 2 minutes
| country        = 
| language       = English
| budget         = 
| gross          = 
}} Ramzy as the gas station staff.

It was attached as a bonus clip in the DVD for Eternal Sunshine of the Spotless Mind.

On the October 25, 2014 episode of Saturday Night Live, Jim Carrey performed "Pecan Pie" during the opening monologue.

==External links==
* 
* 

 

 
 
 

 