Asphalt Watches
 
{{Infobox film
| name           = Asphalt Watches
| image          = 
| caption        = 
| director       = Shayne Ehman Seth Scriver
| producer       = 
| writer         = 
| starring       = 
| music          = 
| cinematography = 
| editing        = 
| distributor    = 
| released       =  
| runtime        = 94 minutes
| country        = Canada
| language       = English
| budget         = 
}}

Asphalt Watches  is a 2013 Canadian  , September 15, 2013. 

==References==
 

==External links==
*  

 
 
 
 
 
 
 
 