Break Loose
 
{{Infobox film
| name           = Break Loose
| image          = 
| caption        = 
| director       = Alexei Uchitel
| producer       = 
| writer         = Alexander Mindadze
| starring       = Artur Smolyaninov
| music          = 
| cinematography = Yuri Klimenko
| editing        = 
| distributor    = 
| released       =  
| runtime        = 85 minutes
| country        = Russia
| language       = Russian
| budget         = 
}}

Break Loose ( ) is a 2013 Russian action film directed by Alexei Uchitel. It was screened in the Contemporary World Cinema section at the 2013 Toronto International Film Festival.       The film is banned in Ukraine.   
==Cast==
* Artur Smolyaninov
* Vilma Kutaviciute
* Aleksey Mantsygin
* Alexander Novyn

==References==
 

==External links==
*  

 
 
 
 
 
 
 
 


 
 