The Kid from Texas (1939 film)
{{Infobox film
| name           = The Kid from Texas
| image          = 
| image_size     = 
| caption        = 
| director       = S. Sylvan Simon
| producer      = Edgar Selwyn
| screenplay   = Florence Ryerson Edgar Allan Woolf Albert Mannheimer
| story            = Milton Merlin Byron Morgan
| narrator       =  Anthony Allan Jessie Ralph Buddy Ebsen
| music          = William Axt
| cinematography = Sidney Wagner
| editing        = Fredrick Y. Smith
| distributor    = Metro-Goldwyn-Mayer
| released       =  
| runtime        = 71 minutes
| country        = United States
| language       = English
| budget         = 
}} Western sports comedy film. Stage, Film Bill Offered
Kingsley, Grace. Los Angeles Times (1923-Current File)   25 May 1939: A9.  

Australian sports star Snowy Baker trained Dennis OKeefe to play polo for the film.  
==References==
 

==External links==
* 
*  at TCMDB

 

 
 
 
 
 
 
 
 
 
 
 
 
 

 