Cows and Cuddles
{{Infobox film
| name           = Cows and Cuddles
| image          = 
| image_size     = 
| caption        = 
| director       = Tal Ordell
| producer       = 
| writer         = 
| based on      = 
| narrator       = 
| starring       = C Scott 
| music          = 
| cinematography = 
| editing        = 
| studio         = 
| released       = 1921
| runtime        = two-reels
| country        = Australia
| language       = silent
| budget         = 
}}
Cow and Cuddles is a 1921 Australian short comedy film. It was the directorial debut of Tal Ordell who later made the classic The Kid Stakes. Graham Shirley & Brian Adams, Australian Cinema: The First Eighty Years, Angus & Robertson, 1989 p 86   It experienced difficulties obtaining a release. 

==References==
 

 
 
 


 
 