A Place in Heaven
 
{{Infobox film
| name           = A Place in Heaven
| image          = 
| caption        = 
| director       = Yossi Madmoni
| producer       = 
| writer         = Yossi Madmoni
| starring       = Alon Aboutboul
| music          = 
| cinematography = Boaz Yehonatan Yaacov
| editing        = 
| distributor    = 
| released       =  
| runtime        = 118 minutes
| country        = Israel
| language       = Hebrew
| budget         = 
}}

A Place in Heaven ( ) is 2013 Israeli drama film written and directed by Yossi Madmoni. It was screened in the Contemporary World Cinema section at the 2013 Toronto International Film Festival.      

==Cast==
* Alon Aboutboul
* Sasha Agronov
* Michael Aloni
* Gabi Amrani
* Keren Berger
* Tom Gartsiani
* Tom Graziani as Nimrod
* Jozef Polak
* Ronit Yudkevitz
* Rotem Zussman

==References==
 

==External links==
*  

 
 
 
 
 
 
 
 