The Invisible Informer
{{Infobox film
| name           = The Invisible Informer
| image          = 
| image_size     = 
| border         = 
| alt            = 
| caption        = 
| film name      =  Philip Ford
| producer       = 
| writer         = Gerald Adams Sherman Lowe
| screenplay     = 
| story          = 
| based on       =  
| narrator       =  William Henry Adele Mara
| music          = Mort Glickman
| cinematography = William Bradford
| editing        = 
| studio         = Republic Pictures
| distributor    = 
| released       =  
| runtime        = 57 minutes
| country        = United States
| language       = English
| budget         = 
| gross          = 
}} William Henry, Philip Ford and written by Gerald Adams and Sherman Lowe.   

==References==
 

==External links==
*  
*  
*  

 
 
 
 
 

 
 