100% Arabica
 
{{Infobox film
| name           = 100% Arabica
| image          =
| director       = Mahmoud Zemmouri
| producer       = 
| writer         = Marie-Laurence Attias Mahmoud Zemmouri Khaled Cheb Mami
| distributor    = 
| released       =  
| runtime        = 85 min.
| language       = French
| budget         = 
}}
100% Arabica (1997 in film|1997) is a French comedy movie, directed by Mahmoud Zemmouri, starring Khaled (musician)|Khaled, and Cheb Mami.

== External links ==
*  

 
 
 
 
 
 


 
 
 