Bedroom Mazurka
 
{{Infobox film
  | name     = Bedroom Mazurka
  | image    = 
  | caption  = 
  | director = John Hildard
  | producer = 
  | writer   = 
  | based on = novel Mazurka
  | starring = Ole Søltoft
  | music    = 
  | cinematography = 
  | editing  = 
  | studio = 
  | distributor = 
  | released = 1970
  | runtime  = 
  | language = Danish
  | country = Denmark
  | budget   = 
  }}
Bedroom Mazurka is a 1970 Danish sex comedy film about a virginal school master who is initiated into the world of sex. 
==References==
 

==External links==
*  at IMDB
 