Redlight (film)
{{Infobox film
| name           = Redlight
| image          = File:Redlight (documentary film).jpg
| image_size     = 
| border         = 
| alt            = 
| caption        = 
| film name      = 
| director       = Guy Jacobson Adi Ezroni Charles Kiselyak Colin K. Gray Megan Raney Colin K. Gray Guy Jacobson Megan Raney
| screenplay     = 
| story          = 
| based on       =  
| narrator       = Lucy Liu
| starring       = Somaly Mam Susan Bissell Kevin Bales
| music          = Kurt Gellersted Mark Stephan Kondracki Soren Sorensen
| cinematography = Guy Jackson
| editing        = Denise Cochran Kerry Girvin Jane Rizzo
| studio         = 
| distributor    = Guggenheim Girvin Pictures Max Entertainment Priority Films
| released       =  
| runtime        = 
| country        = United States English Khmer Khmer
| budget         = $500,000
| gross          = 
}} kidnapped for child prostitution. Westport that November. 

==References==
 

 
 
 
 
 
 
 
 
 
 
 
 
 
 
 
 
 
 


 