Soul (2013 film)
 
{{Infobox film
| name           = Soul
| image          = 
| caption        = 
| director       = Chung Mong-Hong
| producer       = 
| writer         = Chung Mong-Hong
| starring       = Joseph Chang
| music          = 
| cinematography = 
| editing        = 
| distributor    = 
| released       =  
| runtime        = 111 minutes
| country        = Taiwan
| language       = Mandarin
| budget         = 
}}
 Best Foreign Language Film at the 86th Academy Awards,       but it was not nominated. The film was screened in the Vanguard section of the 2013 Toronto International Film Festival.   

==Cast==
* Joseph Chang as A-chuan

==See also==
* List of submissions to the 86th Academy Awards for Best Foreign Language Film
* List of Taiwanese submissions for the Academy Award for Best Foreign Language Film

==References==
 

==External links==
*  

 
 
 
 
 
 
 
 