When Jews Were Funny
 
{{Infobox film
| name           = When Jews Were Funny
| image          = 
| image_size     = 
| border         = 
| alt            = 
| caption        = 
| film name      = 
| director       = Alan Zweig
| producer       =  
| writer         = Alan Zweig
| screenplay     = 
| story          = 
| based on       =  
| narrator       = 
| starring       = 
| music          = 
| cinematography = 
| editing        = 
| studio         = 
| distributor    = Sudden Storm Productions
| released       =  
| runtime        = 89 minutes
| country        = Canada
| language       = English, Yiddish
| budget         = 
| gross          = 
}}
 Canadian director Alan Zweig, released in 2013, which explores the role of Jewish comedians in the history of North American comedy and humour from the Borscht belt to the present day. 
 Alan King, Jack Carter, Norm Crosby, Henny Youngman, David Brenner, Shecky Greene, Mark Breslin, Cory Kahaney, Harrison Greenbaum, Simon Rakoff, Lisa Lambert, Larry Josephson and Michael Wex.

The film premiered on September 10, 2013 at the  , September 15, 2013. 

==References==
 

==External links==
*  

 
 
 
 
 
 
 
 


 
 