The Lady from the City
{{Infobox film
| name           = Zonja nga qyteti
| image          = 
| image size     =
| caption        =
| director       = Piro Milkani
| producer       =
| writer         = 
| narrator       =
| starring       = Violeta Manushi   Rajmonda Bulku	
| music          =
| cinematography =
| editing        =
| distributor    =
| released       =  
| runtime        = 105 minutes
| country        = Albania Albanian
| budget         =
| preceded by    =
| followed by    =
}}
The Lady from the City ( ) is a 1976 Albanian comedy film directed by Piro Milkani.

==Cast==
*Violeta Manushi - Ollga
*Rajmonda Bulku - Meli 
*Stavri Shkurti - Sala, Sekretari i partise
*Pandi Raidhi - Bako Kembora
*Yllka Mujo - Shpresa

==External links==
*  

 
 
 


 
 