Layali Ibn Awa
{{multiple issues|
 
 
}}

{{Infobox film
| name           = Layali ibn awaem (Layla ibn awa) ليالي ابن آوى
| image          =
| image_size     = 
| caption        = Movie Poster
| director       = Abdellatif Abdelhamid
| producer       = 
| writer         = Novel: Abdellatif Abdelhamid
| starring       =
| music          = 
| cinematography = General Organization Cinema
| editing        = 
| distributor    = 
| released       = 1989
| runtime        = 105 minutes
| country        = Syria
| language       = Arabic
| budget         = 
| gross          = 
| preceded_by    = 
| followed_by    = 
}}
Layali ibn awa ( ) is a Syrian film directed by Abdellatif Abdelhamid and  produced by the General Organization Cinema in Syria. The film was released in 1988 

== Cast ==
* Bassam Kousa - the son
* Assad Fedda Abu Kamel
*  Najah Abdullah
* Zuhair Ramadan
* Tulay Aaron

== References ==
 

== External links ==
* Layla ibn awa   at YouTube

 
 
 
 


 