How Willingly You Sing
{{Infobox film
| name           = How Willingly You Sing
| image          = 
| image_size     =
| alt            =
| caption        = 
| director       = Gary Patterson
| producer       = 
| writer         = 
| based on = 
| narrator       =
| starring       = 
| music          = 
| cinematography = Peter Tammer
| editing        = 
| studio         = 
| distributor    = 
| released       = August 1975
| runtime        = 
| country        = Australia
| language       = English
| budget         = $12,000
| gross          = 
| preceded_by    =
| followed_by    =
}}
How Willingly You Sing is a 1975 low budget Australian feature film. It was shot over four weeks. 

==References==
 

==External links==
*  at IMDB
*  at Oz Movies

 