Mother (1991 film)
{{Infobox film
| name           = Mother   Madar
| image          = 
| image size     =
| caption        =
| director       = Ali Hatami
| producer       =
| writer         = 
| narrator       =
| starring       = Rogheyeh Chehreh-Azad   Mohamad Ali Keshavarz
| music          =
| cinematography =
| editing        =
| distributor    =
| released       =  
| runtime        = 108 minutes
| country        = Iran Persian
| budget         =
| preceded by    =
| followed by    =
}}
Mother ( ) is a 1991 Iranian drama film directed by Ali Hatami.

==Cast==
* Rogheyeh Chehreh-Azad - Mother
* Mohamad Ali Keshavarz - Mohammad Ebrahim
* Farimah Farjami - Mah Monir, The young mother
* Amin Tarokh - Jalaeddin / The young father
* Akbar Abdi - Gholamreza
* Hamid Jebeli - Mehdi

==References==
 

==External links==
*  

 
 
 


 
 