The Eternal Evil of Asia
 
 
 

{{Infobox film
| name           = The Eternal Evil of Asia
| image	         = The_Eternal_Evil_of_Asia_Poster.jpg
| image size     =
| alt            = 
| caption        = 
| director       = Man Kei Chin
| producer       = Yin-leung Ma
| writer         = Man Kei Chin
| screenplay     = 
| story          =
| based on       = 
| narrator       = 
| starring       = Ellen Chan Bobby Au-yeung Lily Chung Elvis Tsui Power Chan
| music          = 
| cinematography = 
| editing        = 
| studio         = Art Top Movie Productions Ltd.
| distributor    = Upland Films Corporation Limited
| released       = 14 September 1995
| runtime        = 89 min.
| country        = Hong Kong Cantonese
| budget         = 
| gross          = 
| preceded by    = 
| followed by    = 
}} Category III hedonistic trip to Thailand, accidentally kill a sorcerers sister and, upon arriving back home to Hong Kong, find themselves cursed.

==External links==
* 
* 

 
 
 
 
 
 
 
 
 
 
 
 
 
 


 
 