Rhapsody of Happiness
{{Infobox film
| name           = Rhapsody of Happiness
| image          = Rhapsody of Happiness.jpg
| caption        = Original poster
| director       = Chen Liting
| producer       = Luo Xuelian Xu Suling
| writer         = Chen Baichen
| starring       = Zhao Dan Huang Zongying
| music          = 
| cinematography = 
| editing        = 
| studio         = China Film No. 2 Studio
| distributor    = 
| released       =  
| runtime        =  China
| language       = Mandarin
| budget         = 
| gross          = 
}}
 Republican era, it was produced by the state-owned China Film No. 2 Studio based in Shanghai. The film was released in late 1947, following the success of Chen Litings first film Far Away Love.   

== Cast ==
*Zhao Dan
*Huang Zongying
*Gu Eryi Zhang Yi

==See also==
*List of Chinese films of the 1940s

== References ==
 

 
 
 
 
 
 


 
 