Dos meseros majaderos
{{Infobox film
| name           = Dos meseros majaderos
| image          = 
| image_size     = 
| border         = 
| alt            = 
| caption        = 
| film name      = 
| director       = Gilberto Martínez Solares
| producer       = 
| writer         = Roberto Gómez Bolaños
| screenplay     = 
| story          = 
| based on       =  
| narrator       = 
| starring       = Marco Antonio Campos Gaspar Henaine
| music          = Raúl Lavista
| cinematography = Raúl Martínez Solares
| editing        = Gloria Schoemann
| studio         = Producciones Zacarías
| distributor    = 
| released       =  
| runtime        = 85 minutes
| country        = Mexico
| language       = Spanish
| budget         = 
| gross          = 
}}
Dos meseros majaderos is a 1966 Mexican comedy film starring Viruta and Capulina.

==External links==
* 

 


 