Morgue Street
{{Infobox film name           = Morgue Street image	        = Morgue_Street_Poster.jpg caption        =  director       = Alberto Viavattene producer       = Alberto Viavattene writer         = Emiliano Ranzani Alberto Viavattene based on       = The Murders in the Rue Morgue starring       = Mario Cellini Désirée Giorgetti Roberto Nali Federica Tommasi music          =  cinematography = Emiliano Ranzani editing        = Alberto Viavattene studio         = Goaway Film distributor    =  released       =  runtime        = 11 minutes country        = Italy awards         = language       = English budget         = preceded_by    =
}}
Morgue Street is a 2012  , Brian Yuzna, and Uwe Boll.

==External links==
* 

 

 
 
 
 
 
 
 
 
 
 
 


 
 