Mesto na zemle (film)
{{Infobox film
| name           = Mesto na zemle
| image          = 
| image_size     = 
| caption        = 
| director       = Artur Aristakisyan
| producer       = Aleksandr Eliasberg, Vitaliy Erenkov
| writer         = 
| narrator       = 
| starring       = Anna Chernova Vitaliy Khaev Nonna Grishaeva Inna Verbitskaya Roman Atlasov Tatyana Kuznetsova
| music          = Robert Wyatt
| cinematography = 
| editing        = 
| distributor    =  2001
| runtime        = 126 min.
| country        = Russia Russian
| budget         = 
| preceded_by    = 
| followed_by    = 
}}
Mesto na zemle (A Place on Earth) is a 2001 Russian drama film directed by Artur Aristakisyan. 

== Plot ==
A delusional man, who has very high hopes and aspirations, help as many people as he can by creating a hippie commune called the Temple of Love.

== References ==
 

== External links ==
*  

 
 
 
 
 
 
 


 