The Interrogation (film)
 
{{Infobox film
| name           = The Interrogation
| image          = 
| caption        = 
| director       = Jörn Donner
| producer       = Jörn Donner Misha Jaari Mark Lwoff
| writer         = Olli Soinio
| starring       = Minna Haapkylä
| music          = 
| cinematography = Pirjo Honkasalo
| editing        = 
| distributor    = 
| released       =  
| runtime        = 110 minutes
| country        = Finland
| language       = Finnish
| budget         = 
}}

The Interrogation ( ) is a 2009 Finnish war drama film directed by Jörn Donner.

The plot focuses on the interrogation of Kerttu Nuorteva (played by Minna Haapkylä, who won the Jussi Award for best lead actress for her performance) during the Continuation War.             

==References==
   

== External links ==
*  

 
 
 
 
 
 
 
 
 

 
 