A Married Couple
 
{{Infobox film
| name           = A Married Couple
| image          = 
| caption        = 
| director       = Yitzhak Yeshurun
| producer       = 
| writer         = 
| starring       = Yaron London
| music          = 
| cinematography = 
| editing        = 
| distributor    = 
| released       =  
| runtime        = 90 minutes
| country        = Israel
| language       = Hebrew
| budget         = 
}}
 Best Foreign Language Film at the 56th Academy Awards, but was not accepted as a nominee. 

==Cast==
* Zivit Abramson
* Amnon Dankner
* Miri Fabian
* Ruth Harlap
* Avi Kleinberger
* Yaron London

==See also==
* List of submissions to the 56th Academy Awards for Best Foreign Language Film
* List of Israeli submissions for the Academy Award for Best Foreign Language Film

==References==
 

==External links==
*  

 
 
 
 
 
 
 
 