Blind Justice (1916 film)
 
{{Infobox film
| name           = Blind Justice
| image          = 
| caption        = 
| director       = Benjamin Christensen
| producer       = 
| writer         = Benjamin Christensen
| starring       = Benjamin Christensen
| music          = 
| cinematography = Johan Ankerstjerne
| editing        = 
| distributor    = 
| released       =  
| runtime        = 100 minutes
| country        = Denmark
| language       = Silent
| budget         = 
}}
 silent drama film directed by Benjamin Christensen. Prints of the film exist in the Det Danske Filminstitut.   

==Cast==
* Benjamin Christensen as Strong Henry
* Karen Caspersen as Ann
* Ulla Johansen
* Jon Iversen
* Aage Schmidt
* Mathilde Nielsen
* Carl Gottschalksen
* Grethe Brandes
* Elith Pio

==References==
 

==External links==
*  
*   available for download at  

 

 
 
 
 
 
 
 
 
 
 
 