Children of Divorce (1939 film)
 
{{Infobox film
| name           = Children of Divorce
| image          = 
| caption        = 
| director       = Benjamin Christensen
| producer       = 
| writer         = Alba Schwartz Benjamin Christensen
| starring       = Grethe Holmer
| music          = 
| cinematography = Valdemar Christensen
| editing        = 
| distributor    = 
| released       =  
| runtime        = 91 minutes
| country        = Denmark
| language       = Danish
| budget         = 
}}

Children of Divorce ( ) is a 1939 Danish drama film directed by Benjamin Christensen.   

==Cast==
* Grethe Holmer as Vibeke
* Mathilde Nielsen
* Johannes Meyer as Kunstmaleren
* Sonja Steincke
* Svend Fridberg as Skørtejægeren
* Ellen Malberg
* Carlo Wieth
* Stina Hedberg
* Petrine Sonne

==References==
 

==External links==
*  

 

 
 
 
 
 
 
 
 
 
 