Alice the Toreador
{{multiple issues|
 
 
}}

{{Infobox Hollywood cartoon
| cartoon name      = Alice the Toreador
| series            = Alice Comedies
| image             = 
| image size        = 
| alt               = 
| caption           = 
| director          = Walt Disney
| producer          = 
| story artist      = 
| narrator          = 
| voice actor       = 
| musician          = 
| animator          = 
| layout artist     = 
| background artist = 
| studio            = 
| distributor       = 
| release date      = Jan 15, 1925
| color process     = Black and white
| runtime           = 7 minutes 32 seconds
| country           = United States
| language          = English
| preceded by       = Alice Cans the Cannibals
| followed by       = Alice Gets Stung
}}

Alice the Toreador is a 1925 animated short film by Walt Disney in the Alice Comedies series.

== Plot == Julius play torero|bullfighters, selecting a peaceful old steer as their "bull". However, when Terrible Tom swaps the steer with a legitimate bull, Alice is forced to run for her life. Alice and Julius trap the bull in a pen, and Julius takes on the role of the bull. However, their ruse is soon revealed when a dog pulls the bull skin off of Julius, and the crowd reacts angrily to the deception.

== References ==
 

== External links ==
 
*  
*   at  

 
 
 
 
 
 


 