Joseph of Nazareth (film)
{{Infobox film
| name           = Giuseppe di Nazareth
| image          = Giuseppe di Nazareth.jpg
| caption        = 
| director       = 
| producer       = 
| writer         = 
| starring       = 
| music          = 
| cinematography = 
| editing        = 
| studio         = 
| distributor    = 
| released       =  
| runtime        = 
| countries      = Italy
| language       = Italian
| budget         = 
| gross          = 
}}

Joseph of Nazareth (  dramatizing the life of  ).  

==Cast==
* Tobias Moretti – Joseph
*   – Mary
*  
* Ennio Fantastichini
* Franco Interlenghi
* Andrea Prodan
* Mattia Sbragia
* Ida Di Benedetto
* Renato Scarpa

==References==
 

 
 


 