Sword of Desperation
 
{{Infobox film
| name           = Sword of Desperation
| image          = 
| caption        = 
| film name = {{Film name| kanji          = 必死剣鳥刺し
| romaji         = Hisshiken Torisashi}}
| director       = Hideyuki Hirayama
| producer       = 
| writer         = 
| starring       = Etsushi Toyokawa Chizuru Ikewaki Koji Kikkawa
| music          = 
| cinematography = 
| artdirector    = 
| editing        = 
| studio         = 
| distributor    = 
| released       =  
| runtime        = 114 minutes
| country        = Japan
| language       = Japanese
| budget         = 
| gross          = 
}} Japanese film directed by Hideyuki Hirayama.

==Cast==
* Etsushi Toyokawa as Sanzaemon Kanemi
* Chizuru Ikewaki as Rio
* Koji Kikkawa as Hayatonosho Obiya
* Naho Toda as Mutsue
* Jun Murakami as Ukyo-dayu
* Megumi Seki as Renko
* Fumiyo Kohinata as Junai Hoshina
* Ittoku Kishibe as Minbu Tsuda

==References==
 

==External links==
*  

 

 
 
 
 


 