The House of Water
 
{{Infobox film
| name           = The House of Water
| image          = 
| caption        = 
| director       = Jacobo Penzo
| producer       = 
| writer         = 
| starring       = Franklin Vírgüez
| music          = 
| cinematography = Arthur Albert
| editing        = 
| distributor    = 
| released       =  
| runtime        = 95 minutes
| country        = Venezuela
| language       = Spanish
| budget         = 
}}
 Best Foreign Language Film at the 57th Academy Awards, but was not accepted as a nominee. 

==Cast== Cruz Elías Salmerón Acosta

==See also==
* List of submissions to the 57th Academy Awards for Best Foreign Language Film
* List of Venezuelan submissions for the Academy Award for Best Foreign Language Film

==References==
 

==External links==
*  

 
 
 
 
 
 
 