Desh (film)
{{multiple issues|
 
 
}}

{{Infobox film
| name           = Desh
| image          = 
| caption        = 
| director       = Raja Sen
| producer       = 
| writer         = Animesh Rai Chaudhary
| starring       = Jaya Bachchan Abhishek Bachchan
| music          = 
| distributor    = 
| released       =  
| runtime        = 
| country        = India
| language       = Bengali
| budget         = 
}}
Desh is a 2002 Bengali film directed by Raja Sen.

==External links==
*  

 
 
 


 