Template:Over the Hedge
{{Navbox
| name      = Over the Hedge
| title     = Over the Hedge
| state     =  }
| style     = width:  };
| listclass = hlist

| group1 = Franchise
| list1  =  Comic strip Film

| group2 = Short film
| list2  = 
*Hammys Boomerang Adventure

| group3 = Video games
| list3  =  Over the Hedge
*Over the Hedge (DS game)|Over the Hedge (DS game)
* 

| group4 = Creators
| list4  = 
*Michael Fry
*T. Lewis

}} 
 
 
                                                                                                                                                                                                                                                                                                                                                                                                             
 