Adventures of the Penguin King
{{Infobox film
| name           = Adventures of the Penguin King
| image          = Adventures of the Penguin King 2013.jpg
| image_size     = 
| border         = yes
| alt            = 
| caption        = 
| film name      = 
| director       = 
| producer       = 
| writer         = 
| screenplay     = 
| story          = 
| based on       =  
| narrator       = Tim Allen
| starring       = 
| music          = 
| cinematography = 
| editing        = 
| studio         = 
| distributor    = 
| released       =  
| runtime        = 
| country        = 
| language       = 
| budget         = 
| gross          = 
}}
Adventures of the Penguin King is a 3D feature-length natural history documentary which follows the life of a male king penguin on South Georgia. The film uses some of the same footage as Penguins 3D. 

==References==
 

==External links==
*  

 
 
 
 
 
 

 