Hidden Power
{{Infobox film
| name           = Hidden Power
| image          = 
| image size     =
| caption        = 
| director       = Lewis D. Collins 
| producer       = Larry Darmour Charles Bennett Gordon Rigby
| based on = 
| narrator       = Jack Holt Dickie Moore
| music          = 
| cinematography = 
| editing        = 
| studio = 
| distributor    = 
| released       = 1939
| runtime        = 
| country        = UK English
| budget         =
| gross = 
| preceded by    =
| followed by    =
}}
Hidden Power is a 1939 film. 

==References==
 

==External links==
*  at IMDB

 
 


 