Mannequin (1933 film)
{{Infobox film
| name           = Mannequin
| image          = 
| image size     =
| caption        =  George A. Cooper
| producer       = Charles Bennett
| based on = 
| narrator       =
| starring       = Harold French
| music          = 
| cinematography = 
| editing        = 
| studio = 
| distributor    = 
| released       = December 1933
| runtime        = 54 min
| country        = United Kingdom English
| budget         =
| gross = 
| preceded by    =
| followed by    =
}}
Mannequin is a 1933 British film.

==External links==
*  at IMDB

 
 
 
 


 