Paris Plane
{{Infobox film
| name           = Paris Plane
| image          = 
| image size     =
| caption        = 
| director       = John Paddy Carstairs
| producer       = Charles Bennett
| based on = 
| narrator       =
| starring       = 
| music          = 
| cinematography = 
| editing        = 
| studio = 
| distributor    = 
| released       = 1933
| runtime        = 
| country        = UK English
| budget         =
| gross = 
| preceded by    =
| followed by    =
}}
Paris Plane is a 1933 British film. 

==References==
 

==External links==
*  at IMDB

 
 
 
 

 