Dare You (film)
 
{{Infobox film
| name           = Dare You
| image          = 
| alt            = 
| caption        = 
| director       = 
| producer       = Denis Selarka & Mehul Simaria
| writer         = Denis Selarka & Mehul Simaria
| starring       = Alisha Khan
| music          = Chirantan Bhatt, Jayesh Gandhi & Kary Arora
| studio         = 
| distributor    = 
| released       =  
| runtime        = 
| country        = India
| language       = Hindi
| budget         = 
| gross          =
}}
Dare You is an upcoming Bollywood thriller, written, produced and directed by Denis Selarka and Mehul Simaria. The film stars newcomer Alisha Khan in the lead role. The theatrical trailer of the film was unveiled on 26 November 2013 on YouTube,  the film is coming soon 2014 .  

==Cast==
* Alisha Khan
* hiten kapoor
* sumit gaddi

==References==
 

 
 
 


 