De Nieuwe Wildernis
 
{{Infobox film
| name           = De Nieuwe Wildernis
| image          = De Nieuwe Wildernis.jpg
| alt            = 
| caption        = 
| director       = Ruben Smit Mark Verkerk
| producer       = Ton Okkerse Ignas van Schaick
| writer         = 
| narrator       = Harry Piekema
| music          = Bob Zimmerman
| cinematography = Ruben Smit
| editing        = Niels Roza
| studio         = 
| distributor    = Dutch FilmWorks
| released       =  
| runtime        = 97 minutes
| country        = Netherlands
| language       = Dutch
| budget         = 
| gross          = 
}}
De Nieuwe Wildernis ( ) is a 2013  , 2013. Retrieved 12 December 2013. 

 s in the Oostvaardersplassen]]

==Awards== Film Poster Award (2013) at the Netherlands Film Festival 
* Golden Film (2013) for 100,000 visitors 
* Platinum Film (2013) for 400,000 visitors 
* Rembrandt Award for Best Dutch Film (2014)  Golden Calf for Best Popular Film (2014) at the Netherlands Film Festival 

==References==
 

==External links==
*   
* 

 
 
 
 
 
 


 
 