Alone in the Neon Jungle
{{multiple issues|
 
 
 
 
}}
{{Infobox film
| name           = Alone in the Neon Jungle
| image          =
| image_size     =
| caption        =
| alt            =
| director       = George Stanford Brown
| producer       =
| writer         =
| narrator       =
| starring       =
| music          =
| cinematography =
| editing        =
| studio         = RHI Entertainment
| distributor    = CBS
| released       =  
| runtime        =
| country        = United States
| language       = English
}}
Alone in the Neon Jungle is a 1988 television film directed by George Stanford Brown that was network premiered by CBS on Sunday January 17, 1988.

It was released to DVD on March 6, 2007. It is not a "direct-to-video", because it went to TV first.

==Plot synopsis==
Policewoman (Pleshette) cant tell the difference between friends and enemies.

==Cast==
*Suzanne Pleshette
*Danny Aiello
*John Tenney
*Joe Morton

== References ==
 

==External links==
*  

 
 
 
 


 