Up Jumped the Devil (film)
{{Infobox film
| name           = Up Jumped the Devil
| image          = 
| caption        = 
| director       = William Beaudine
| producer       = 
| writer         = 
| starring       = Mantan Moreland
| music          = 
| cinematography = 
| editing        = 
| distributor    = 
| released       =  
| runtime        = 62 minutes
| country        = United States
| language       = English
| budget         = 
}}

Up Jumped the Devil is a 1941 American comedy film directed by William Beaudine.   

==Cast==
* Mantan Moreland
* Maceo Bruce Sheffield Shelton Brooks
* Laurence Criner
* Myrtle Fortune
* Patsy Hunter
* Millie Monroe
* Suzette Harbin
* Avanelle Harris

==References==
 

==External links==
*  

 

 
 
 
 
 
 
 
 