Pater Damiaan terug
 

{{Infobox film
| name           = Pater Damiaan terug
| image          =
| image_size     =
| caption        =
| director       = Clemens De Landtsheer
| producer       =
| writer         = 
| narrator       =
| starring       = 
| music          =
| cinematography = 
| editing        =
| distributor    =
| released       = 1936
| runtime        = 50 minutes
| country        = Belgium Dutch
| budget         =
| gross          =
| preceded_by    =
| followed_by    =
| website        =
}} silent documentary short directed by Clemens De Landtsheer.

== External links ==

*  

 
 
 
 


 