El Ashash
{{Multiple issues|
 
 
 
 
 
 
}}
{{Infobox film
| name           = El Aashash  (Arabic: القشاش) 
| image          = El Ashash poster.jpg
| alt            = 
| caption        = Film poster
| film name      = 
| director       = Ismael Farouk
| producer       = Walid Al Kurdi
| writer         = Mohamed Samir Mabrouk
| screenplay     = 
| story          = 
| based on       =  
| narrator       = 
| starring       =  
| music          = El Esaba Band
| cinematography = 
| editing        = 
| studio         = New Century Production
| distributor    = Arabia Cinema Distribution
| released       =  
| runtime        = 90 minutes
| country        = Egypt
| language       = Arabic
| budget         = 
| gross          = 
}} Egyptian drama film written by Mohamed Samir Mabrouk, produced by Walid Al Kurdi, and directed by Ismael Farouk.

==Plot== Shaabi belly dancer (Horeya Farghaly) who helps him to escape.

==Cast==
 
* Mohamed Farag
* Horeya Farghaly
* Dalal Abdel Aziz
* Marwa Adbelmenem
* Soleiman Eid
* Ihab Fahmi
* Hassan Hosny
* Heba Magdy
* Hanan Metaweh
* Alaa Morsy
* Hanan Youssef
 

==References==
 

==External links==
* 
* 

 
 


 