The Zulu's Heart
{{Infobox film
| name           = The Zulus Heart
| image          = 
| caption        = 
| director       = D. W. Griffith
| producer       = 
| writer         = D. W. Griffith
| starring       = Charles Inslee
| music          = 
| cinematography = G. W. Bitzer
| editing        = 
| distributor    = 
| released       =  
| runtime        = 13 minutes (one Reel#Motion picture terminology|reel)
| country        = United States
| language       = Silent
| budget         = 
}}
 silent short short drama film directed by D. W. Griffith.   

==Cast==
* Charles Inslee as The Zulu Chief
* George Gebhardt as A Zulu Warrior
* Harry Solter as A Boer
* Florence Lawrence as The Boers Wife
* Gladys Egan as The Boers Daughter
* John R. Cumpson as A Zulu Warrior
* Arthur V. Johnson as A Zulu Warrior
* W. Chrystie Miller
* Alfred Paget
* Mack Sennett

==References==
 

==External links==
*  

 

 
 
 
 
 
 
 
 
 
 