The Maniac Cook
{{Infobox film
| name           = The Maniac Cook
| image          = 
| caption        = 
| director       = D. W. Griffith
| producer       = 
| writer         = D. W. Griffith
| starring       = Anita Hendrie
| music          = 
| cinematography = G. W. Bitzer
| editing        = 
| distributor    = 
| released       =  
| runtime        = 9 minutes (one Reel#Motion picture terminology|reel)
| country        = United States
| language       = Silent
| budget         = 
}}
 silent short short drama film directed by D. W. Griffith.   

==Cast==
* Anita Hendrie as Margie, the Cook
* Marion Leonard as Mrs. Holland
* Harry Solter as Mr. Holland
* Clara T. Bracy
* George Gebhardt as Policeman David Miles
* Mack Sennett as Policeman

==References==
 

==External links==
*  

 

 
 
 
 
 
 
 
 
 
 