A Rural Elopement
{{Infobox film
| name           = A Rural Elopement
| image          = 
| caption        = 
| director       = D. W. Griffith
| producer       = 
| writer         = D. W. Griffith
| starring       = Linda Arvidson
| music          = 
| cinematography = G. W. Bitzer
| editing        = 
| distributor    = 
| released       =  
| runtime        = 9 minutes (one Reel#Motion picture terminology|reel)
| country        = United States
| language       = Silent
| budget         = 
}}
 silent short short drama film directed by D. W. Griffith.   

==Cast==
* Linda Arvidson as Cynthia Stebbins
* George Gebhardt as Hank Hopkins
* Harry Solter as Hungry Henry David Miles as Dad Stebbins
* John R. Cumpson as In Crowd
* Guy Hedlund
* Marion Leonard as In Crowd
* Owen Moore as In Crowd
* Mack Sennett as In Crowd

==References==
 

==External links==
*  

 

 
 
 
 
 
 
 
 
 
 