A Yank on the Burma Road
{{Infobox film
| name           = A Yank on the Burma Road
| image_size     =
| image	         = 
| caption        =
| director       = George B. Seitz
| producer       = 
| writer         = Hugo Butler
| based on = 
| starring       = Laraine Day Barry Nelson
| music          =
| cinematography =
| editing        =
| distributor    = Metro-Goldwyn-Mayer
| released       = 1942
| runtime        = 67 minutes
| country        = United States English
| budget         = $300,000  . 
| gross          = $552,000 
| preceded_by    =
| followed_by    =
}}
A Yank on the Burma Road is a 1942 film. It is also known as China Caravan and Yanks on the Burma Road.

==Reception==
The film made $355,000 in the US and Canada and $197,000 elsewhere, making a profit of $64,000. 

==References==
 

==External links==
* 
*  at TCMDB
 

 
 
 
 
 
 
 
 
 
 
 
 


 