Little Mister Jim
{{Infobox film
| name           = Little Mister Jim
| image_size     =
| image	         = 
| caption        =
| director       = Fred Zinnemann
| producer       = 
| writer         = 
| based on =  James Craig 
| music          =
| cinematography =
| editing        =
| distributor    = Metro-Goldwyn-Mayer
| released       = 1946
| runtime        = 
| country        = United States English
| budget         = $1,085,000  . 
| gross          = $787,000 
| preceded_by    =
| followed_by    =
}}
Little Mister Jim is a 1946 film.

==Reception==
According to MGM records the movie was not a hit, earning $533,000 in the US and Canada and $254,000 elsewhere, making a loss to the studio of $640,000. 

==References==
 

==External links==
* 
*  at TCMDB

 

 
 
 
 
 
 


 