Northwest Rangers
{{Infobox film
| name           = Northwest Rangers
| image_size     =
| image	         = 
| caption        =
| director       = Joseph M. Newman
| producer       = 
| writer         = 
| based on =  James Craig William Lundigan  John Carradine David Snell
| cinematography =
| editing        =
| distributor    = Metro-Goldwyn-Mayer
| released       = 1942
| runtime        = 
| country        = United States English
| budget         = $311,000  . 
| gross          = $459,000 
| preceded_by    =
| followed_by    =
}}
Northwest Rangers is a 1942 film.

==Reception==
The film earned $313,000 in the US and Canada and $146,000 elsewhere, making a loss of $12,000. 
==References==
 
==External links==
* 
*  at TCMDB

 

 
 
 
 
 
 

 