2 Seconds
{{Infobox film
| name           = 2 Seconds
| image          = 
| alt            = 
| caption        =
| director       = Manon Briand
| producer       = Roger Frappier
| writer         = Manon Briand
| starring       =  
| music          = Dominique Grand Sylvain-Charles Grand 
| cinematography = Louise Archambault Pierre Crépô James Gray 
| editing        = Richard Comeau
| studio         = Max Films Productions
| distributor    = 
| released       = September 12, 1998
| runtime        = 
| country        = Canada
| language       = 
| budget         = 
| gross          = 
}}
 Canadian drama downhill racer. 

==References==
 

== External links ==
* 

 
 
 
 
 
 
 
 
 
 
 
 


 
 