It's a Dog's Life (film)
{{Infobox film
| name           = Its a Dogs Life
| image_size     =
| image	         = 
| caption        =
| director       = 
| producer       = 
| writer         = 
| based on =  Jeff Richards Jarma Lewis Dean Jagger
| music          =
| cinematography =
| editing        =
| distributor    = Metro-Goldwyn-Mayer
| released       = 1955
| runtime        = 
| country        = United States English
| budget         = $891,000  . 
| gross          = $509,000 
| preceded_by    =
| followed_by    =
}}
Its a Dogs Life is a 1955 film.

==Reception==
According to MGM records the movie earned $357,000 in the US and Canada and $152,000 elsewhere, making a loss to the studio of $848,000. 

==References==
 

==External links==
* 
*  at TCMDB

 
 
 
 
 
 


 