Underwater Warrior
{{Infobox film
| name           = Underwater Warrior
| image_size     =
| image	         = 
| caption        =
| director       = Andrew Marton
| producer       = 
| writer         = 
| based on = 
| starring       = Dan Dailey
| music          =
| cinematography =
| editing        = Charles Craft
| distributor    = Metro-Goldwyn-Mayer
| released       = 1958
| runtime        = 
| country        = United States English
| budget         = $384,000  . 
| gross          = $795,000 
| preceded_by    =
| followed_by    =
}}
Underwater Warrior is a 1958 diving film.

==Reception==
According to MGM records the movie earned $405,000 in the US and Canada and $390,000 elsewhere, making a profit of $34,000. 

==References==
 

==External links==
* 
*  at TCMDB

 
 
 
 
 
 


 