Handle with Care (1958 film)
{{Infobox film
| name           = Handle with Care
| image_size     =
| image	         = 
| caption        =
| director       = David Friedkin
| producer       = 
| writer         = 
| based on =  Dean Jones Royal Dano
| music          =
| cinematography =
| editing        =
| distributor    = Metro-Goldwyn-Mayer
| released       = 1958
| runtime        = 
| country        = United States English
| budget         = $426,000  . 
| gross          = $325,000 
| preceded_by    =
| followed_by    =
}}
Handle with Care is a 1958 film.

==Reception==
According to MGM records the movie earned $175,000 in the US and Canada and $150,000 elsewhere, making a loss to the studio of $270,000. 

==References==
 

==External links==
* 
*  at TCMDB

 
 
 
 
 
 


 