My Dear Miss Aldrich
{{Infobox film
| name           = My Dear Miss Aldrich
| image_size     =
| image	         = 
| caption        =
| director       = George B. Seitz E. J. Babille (assistant)
| producer       = 
| writer         = Herman J. Mankiewicz
| based on = 
| starring       = Edna May Oliver Walter Pidgeon Maureen OSullivan David Snell
| cinematography = William S. Gray
| distributor    = Metro-Goldwyn-Mayer
| released       =   }}
| runtime        = 
| country        = United States English
| budget         = $216,000  . 
| gross          = $358,000 
| preceded_by    =
| followed_by    =
}}
My Dear Miss Aldrich is a 1937 film.

==Reception==
According to MGM records the movie earned $238,000 in the US and Canada and $120,000 elsewhere, making a $1,000 profit. 

==References==
 

==External links==
*  at TCMDB
* 

 
 
 
 
 
 
 


 