Frontier Rangers
{{Infobox film
| name           = Frontier Rangers
| image_size     =
| image	         = 
| caption        =
| director       = Jacques Tourneur
| producer       = 
| writer         = 
| based on = 
| starring       = Buddy Ebsen Don Burnett 
| music          =
| cinematography =
| editing        =
| distributor    = Metro-Goldwyn-Mayer
| released       = 1959
| runtime        = 
| country        = United States English
| budget         = $74,000  . 
| gross          = $650,000 
| preceded_by    =
| followed_by    =
}} Northwest Passage (1959).

==Reception==
According to MGM records the movie earned $650,000 outside the US and Canada resulting in a profit of $159,000. 

==References==
 

==External links==
* 
*  at New York Times

 
 
 
 
 
 


 