Stronger Than Desire
{{Infobox film
| name           = Stronger Than Desire
| image_size     =
| image	        =File:Stronger Than Desire lobby card 2.JPG
| caption        =Lobby card
| director       = Leslie Fenton
| producer       = 
| writer         = 
| based on = remake of 1932 film Evelyn Prentice

| starring       = Walter Pidgeon Virginia Bruce Ann E. Todd David Snell
| cinematography =
| editing        =
| distributor    = Metro-Goldwyn-Mayer
| released       = 1939
| runtime        = 
| country        = United States English
| budget         = $258,000  . 
| gross          = $423,000 
| preceded_by    =
| followed_by    =
}}
Stronger Than Desire is a 1939 film.

==Reception==
According to MGM records the movie earned $263,000 in the US and Canada and $160,000 elsewhere, making a profit of $1,000. 

==References==
 

==External links==
* 
*  at TCMDB

 
 
 
 
 
 
 
 
 


 