Sky Murder
{{Infobox film
| name           = Sky Murder
| image_size     =
| image	         = 
| caption        =
| director       = George B. Seitz
| producer       = 
| writer         = 
| based on = 
| starring       = Walter Pidgeon Donald Meek David Snell
| cinematography =
| editing        =
| distributor    = Metro-Goldwyn-Mayer
| released       = 1940
| runtime        = 
| country        = United States English
| budget         = $212,000  . 
| gross          = $437,000 
| preceded_by    =
| followed_by    =
}} Nick Carter.

==Reception==
According to MGM records the movie earned $270,000 in the US and Canada and $167,000 elsewhere, making a profit of $64,000. 

==References==
 

==External links==
* 
*  at TCMDB

 
 
 
 
 
 
 


 