Murder at 45 R.P.M.
{{Infobox film
| name           = Murder at 45 R.P.M.
| image_size     =
| image	         = 
| caption        =
| director       = Étienne Périer (director)|Étienne Périer
| producer       = 
| writer         = 
| based on = 
| starring       = Danielle Darrieux Michel Auclair Jean Servais 
| music          =
| cinematography =
| editing        =
| distributor    = Metro-Goldwyn-Mayer
| released       = 1960
| runtime        = 
| country        = France
| language       = French
| budget         = $250,000  . 
| gross          = $600,000 
| preceded_by    =
| followed_by    =
}}
Murder at 45 RPM is a 1960 film.

==Reception==
According to MGM records the movie made a profit of $9,000. 

==References==
 

==External links==
* 
*  at TCMDB

 
 
 
 
 


 
 