Times Square Lady
{{Infobox film
| name           =Times Square Lady
| image_size     =
| image	         = 
| caption        =
| director       = George B. Seitz
| producer       = 
| writer         = 
| based on = 
| starring       = Robert Taylor
| music          =
| cinematography =
| editing        =
| distributor    = Metro-Goldwyn-Mayer
| released       =1935
| runtime        = 
| country        = United States English
| budget         = $310,000  . 
| gross          = $114,000 
| preceded_by    =
| followed_by    =
}}
Times Square Lady is a 1935 film.

==Reception==
According to MGM records the movie earned $310,000 in the US and Canada and $114,000 elsewhere, making a profit of $131,000. 

==References==
 

==External links==
*  at TCMDB
* 

 

 
 
 
 
 
 
 


 