Texas Trail (1937 film)
{{Infobox film
| name           = 
| image          = 
| image_size     = 
| border         = 
| alt            = 
| caption        = 
| film name      = 
| director       = David Selman
| producer       = 
| writer         = Clarence E. Mulford Jack ODonnell
| screenplay     = 
| story          = 
| based on       = Tex (1922)
| narrator       =  William Boyd Russell Hayden George "Gabby" Hayes
| music          = 
| cinematography = 
| editing        = 
| studio         = Paramount Pictures
| distributor    = 
| released       =  
| runtime        = 58 minutes
| country        = 
| language       = 
| budget         = 
| gross          = 
}} William Boyd, Russell Hayden and George "Gabby" Hayes.   

Directed by David Selman, and based on Clarence E. Mulfords 1922 novel, Tex, the film takes place during the Spanish–American War.   Hopalong Cassidy is asked by a fort commander to round up 500 horses for government troops.  Meanwhile, a gang of outlaws plot to rustle the horses. 

==References==
 

==External links==
* 

 
 
 
 


 