The Chaser (1938 film)
{{Infobox film
| name           = The Chaser
| image_size     =
| image	         = 
| caption        =
| director       = 
| producer       = 
| writer         = 
| based on = 
| starring       = Dennis OKeefe Lewis Stone Lana Turner
| music          =
| cinematography =
| editing        =
| distributor    = Metro-Goldwyn-Mayer
| released       = 1938
| runtime        = 
| country        = United States English
| budget         = $161,000  . 
| gross          = $332,000 
| preceded_by    =
| followed_by    =
}}
The Chaser is a 1938 film.

==Reception==
According to MGM records the movie earned $220,000 in the US and Canada and $102,000 elsewhere, making a $27,000 profit. 

==References==
 

==External links==
*  at TCMDB
* 

 
 
 
 
 
 
 


 