Surya (film)
{{Infobox film
| name           = Surya
| image          = Surya.jpeg
| image_size     = 
| border         = 
| alt            = 
| caption        = Theatrical release poster
| film name      = Surya
| director       = Haranath Chakraborty
| producer       = 
| writer         = 
| screenplay     = 
| story          = 
| based on       =  
| narrator       =  See below
| music          = Babul Bose
| cinematography = 
| editing        = 
| studio         = 
| distributor    = 
| released       = 2004
| runtime        = 
| country        = India Bengali
| budget         = INR 7,580,000  (estimated)
| gross          = 
}}
 Bengali film directed by Haranath Chakraborty. The film features actors Prosenjit Chatterjee and Anu Chowdhury in the lead roles.  The film was a remake of Telugu film Aadi (2002 film)|Aadi.

== Cast ==
* Prosenjit Chatterjee
* Anu Chowdhury
* Arunima Ghosh
* Ranjit Mallik
* Dulal Lahiri Rajesh Sharma
* Dipankar Dey
* Debesh Raychowdhury
* Anamika Saha
* Mrinal Mukherjee
== References ==
 
==External links==
*  
 

 
 
 
 

 