Strange Gods
{{Infobox film
| name           = Strange Gods
| image          =Strange Gods.jpg
| image size     =
| caption        =
| director       = Román Viñoly Barreto
| producer       = Luis Giudici
| writer         = Hugo Moser
| narrator       =
| starring       = Enrique Fava Olga Zubarry
| music          =
| cinematography = Ricardo Younis
| editor         = José Serra
| distributor    =
| released       = 1958
| runtime        = 84 minutes
| country        = Argentina
| language       = Spanish
| budget         =
}}
 1958 Argentina|Argentine film directed by Román Viñoly Barreto and starring  Enrique Fava and Olga Zubarry. It was entered into the 8th Berlin International Film Festival.   

==Cast==
* Enrique Fava
* Olga Zubarry

==References==
 

== External links ==
*  

 
 
 
 
 

 