La potranca
{{Infobox film
| name           =La potranca
| image          =La potranca.jpg
| image_size     =
| caption        =
| director       =Román Viñoly Barreto
| producer       =
| writer         =Raúl Valverde San Román and Román Viñoly Barreto
| narrator       =
| starring       =
| music          =Herminio Giménez
| cinematography =Ricardo Younis
| editor       =
| distributor    =
| released       =  21 March 1963 (Mexico)
| runtime        =
| country        = Argentina Spanish
| budget         =
}}
 1960 Argentina|Argentine-Mexico|Mexican film directed by Román Viñoly Barreto.

==Cast== Mario Lozano
*  Maruja Montes
*  Guillermo Battaglia
*  Rolando Chaves
*  Néstor Deval
*  Oscar Orlegui Roberto Blanco

==External links==
*  

 

 
 
 
 
 
 

 