Aami Sei Meye
{{Infobox film
| name           = Aami sei Meye
| image          = aamiseimeye.jpeg
| image_size     = 
| border         = 
| alt            = 
| caption        = Theatrical release poster
| film name      = 
| director       = Prosenjit Chatterjee
| producer       =  
| writer         = 
| screenplay     = 
| story          = 
| based on       =  
| narrator       =  Alamgir Sanghamitra Bandyopadhyay Asrani Sahin Alam 
| music          = Tabun Sutradhar
| cinematography = 
| editing        = 
| studio         = 
| distributor    = 
| released       = 1998 
| runtime        = 
| country        = India Bengali
| budget         = 
| gross          = 
}}
 Bengali film Alamgir in the lead roles. Music of the film has been composed by Tabun Sutradhar.

== Cast ==
* Prosenjit Chatterjee
* Rituparna Sengupta
* Ranjit Mallick
* Jaya Prada
* Abhishek Chatterjee Alamgir
* Sanghamitra Bandyopadhyay
* Asrani
* Sahin Alam

==Music==
The films music was composed by Tabun Satradhar. It contained the chartbuster "Aguner Din Sesh Hobe Ekdin", sung by Kumar Sanu and Kavita Krishnamurthy. 
== References ==
 

==External links==
*   at the Gomolo
*  

 
 
 
 


 