Jezioro Bodenskie
{{Infobox film
| name           = Jezioro Bodenskie
| image          = 
| image size     = 
| alt            = 
| caption        = 
| director       = Janusz Zaorski
| producer       = 
| writer         = 
| screenplay     = 
| story          =
| based on       = 
| narrator       = 
| starring       = 
| music          = 
| cinematography = 
| editing        = 
| studio         = 
| distributor    = 
| released       = 1986
| runtime        = 
| country        = Poland
| language       = 
| budget         = 
| gross          = 
| preceded by    = 
| followed by    = 
}}
Jezioro Bodenskie is a 1986 Polish film directed by Janusz Zaorski. It won the Golden Leopard at the 1986 Locarno International Film Festival.

==Reception==
It won the Golden Leopard at the 1986 Locarno International Film Festival. 

==References==
 

==External links==
* 

 
 

 
 
 
 