Unfriend (film)
 
{{Infobox film
| name           = Unfriend
| image          = 
| caption        = 
| director       = Joselito Altarejos
| producer       = 
| writer         = Zig Madamba Dulay
| starring       = Angelo Ilagan
| music          = 
| cinematography = 
| editing        = 
| distributor    = 
| released       =  
| runtime        = 93 minutes
| country        = Philippines
| language       = Filipino
| budget         = 
}}

Unfriend is a 2014 Philippine drama film directed by Joselito Altarejos. The film had its premiere in the Panorama section of the 64th Berlin International Film Festival.   

==Cast==
* Angelo Ilagan
* Boots Anson-Roa
* Sandino Martin

==See also==
* List of lesbian, gay, bisexual or transgender-related films of 2014

==References==
 

==External links==
*  

 
 
 
 
 
 
 
 
 
 

 
 