Skin of Man, Heart of Beast
{{Infobox film
| name           = Peau d’homme, cœur de bête
| image          = 
| image size     = 
| alt            = 
| caption        = 
| director       = Hélène Angel
| producer       = 
| writer         = 
| screenplay     = Hélène Angel
| story          =
| based on       = 
| narrator       = 
| starring       = 
| music          = Philippe Miller Martin Wheler
| cinematography = Isabelle Razavet
| editing        = Laurent Rouan Eric Renault
| studio         = 
| distributor    = 
| released       = 
| runtime        = 94 minutes
| country        = France
| language       = 
| budget         = 
| gross          = 
| preceded by    = 
| followed by    = 
}}
Skin of Man, Heart of Beast ( ) is a French film directed by Hélène Angel. It won the Golden Leopard at the 1999 Locarno International Film Festival.

==Reception==
It won the Golden Leopard at the 1999 Locarno International Film Festival. 

==References==
 

==External links==
* 

 

 
 
 

 