Kokkuri-san Movie - Shin Toshi Densetsu -
{{Infobox film
| name           = Kokkuri-san Movie - Shin Toshi Densetsu -
| image          = 
| image size     = 
| border         = 
| alt            = 
| caption        = 
| director       = 
| producer       = 
| writer         = 
| screenplay     = 
| story          = 
| based on       =  
| narrator       = 
| starring       = Mariya Suzuki Momoko Kaechi Mao Kanjo
| music          = 
| cinematography = 
| editing        = 
| studio         = 
| distributor    = 
| released       =   
| runtime        = 
| country        = Japan
| language       = Japanese
| budget         = 
| gross          = 
}}

  is an upcoming 2014 Japanese horror film starring Mariya Suzuki.  

==Cast==
*Mariya Suzuki
*Momoko Kaechi
*Mao Kanjo

==See also==
* 

==References==
 

 
 
 
 


 
 