L'hippopotamours
{{Infobox film
| name           = Lhippopotamours 
| image          =
| caption        =
| director       = 
| producer       = 
| writer         = 
| based on =  
| starring       =Louis Jourdan
| music          = 
| cinematography = 
| editing        = 
| studio         = 
| distributor    = 
| released       = 1976
| runtime        = 
| country        = France
| awards         = French
| budget         = 
| preceded_by    =
| followed_by    =
}}
Lhippopotamours is a 1976 French film. 
==References==
 

 