Escape to Love
{{Infobox film
| name           = Escape to Love
| image          =
| caption        =
| director       = Herb Stein
| producer       = 
| writer         = 
| based on =  
| starring       =Patricia Davis Louis Jourdan
| music          = 
| cinematography = 
| editing        = 
| studio         = 
| distributor    = 
| released       = 1986
| runtime        = 
| country        = USA
| awards         =
| language       = English
| budget         = 
| preceded_by    =
| followed_by    =
}}
Escape to Love is a film. It was shot in 1982 but not released until 1986. 
==References==
 
==External links==
*  at IMDB

 