Once Upon a Time in Kolkata
{{Infobox film
| name           =  Once Upon A Time In Kolkata
| image          = Once Upon A Time In Kolkata poster.jpg
| image_size     = 300px
| border         = 
| alt            = 
| caption        = Theatrical release poster
| film name      = 
| director       = Satarupa Sanyal
| producer       = 
| writer         = 
| screenplay     = Satarupa Sanyal
| story          = 
| based on       =  
| narrator       =  See below
| music          = Samantak Sinha
| cinematography = Shamik Talukdar
| editing        = Dipak Mandol
| studio         = Akash Movies
| distributor    = 
| released       =  
| runtime        = 
| country        = India
| language       = Bengali
| budget         = 115 minutes
| gross          = 
}}
 Bengali thriller film directed by Satarupa Sanyal. The film features Ritabhari Chakraborty in the lead role.       

== Cast ==
* Om as Arjan Panda
* Ritabhari Chakraborty as Sreelekha
* Rony Chakraborty as Sayan
* Nimisha Dey Sarkar as Puja
* Sudip Mukherjee as Banerjeeda
* Dwijen Banerjee as Jiten (cop)
* Rajatava Dutta as Landlord
* Anindya Banerjee as Baptu

== References ==
 

 
 
 
 


 