Bayou Romance
 
{{Infobox film
| name           = Bayou Romance 
| image          =
| caption        =
| director       = 
| producer       = 
| writer         = 
| based on =  
| starring       =Michael Ansara Annie Potts Louis Jourdan
| music          = 
| cinematography = 
| editing        = 
| studio         = 
| distributor    = 
| released       = 1982
| runtime        = 
| country        = 
| awards         =
| language       = English
| budget         = 
| preceded_by    =
| followed_by    =
}}
Bayou Romance is a 1982 film.
==External links==
*  at IMDB

 
 