Rakhe Hari Mare Ke
{{Infobox film
| name           = Rakhe Hari Mare Ke 
| image          = rakhe.jpeg
| image_size     = 
| border         = 
| alt            = 
| caption        = Theatrical release poster
| film name      = 
| director       = Ratan Adhikari
| producer       = Pritam Jalan
| writer         = 
| screenplay     = 
| story          = 
| based on       =  
| narrator       = 
| starring       = Prosenjit Chatterjee Rachana Banerjee Raima Sen Laboni Sarkar Subhasish Mukhopadhyay
| music          = Babul Bose
| cinematography = 
| editing        = 
| studio         = 
| distributor    = 
| released       = 2003 
| runtime        = 
| country        = India Bengali
| budget         = 
| gross          = 
}}
 Bengali film directed by Ratan Adhikari and produced by Pritam Jalan. The film features actors Prosenjit Chatterjee, Rachana Banerjee, Raima Sen in the lead roles. Music of the film has been composed by Babul Bose   
== Cast ==
* Prosenjit Chatterjee
* Rachana Banerjee
* Raima Sen
* Laboni Sarkar
* Sabyasachi Chakraborty
* Subhasish Mukhopadhyay Rajesh Sharma
* Kaushik Banerjee
* Ramaprasad Banik
* Bhola Tamang

== References ==
 
==External links==
*  
*  
*  
*  
 
 
 
 
 

 