Aandha Prem
{{Infobox film
| name           = Aandha Prem
| image          = aandhaprem.jpeg
| image_size     = 
| border         = 
| alt            = 
| caption        = vcd cover
| film name      = 
| director       = Narayan Chatterjee
| producer       = Shiv Films
| writer         = 
| screenplay     = 
| story          = 
| based on       =  
| narrator       =  See below
| music          = Babul Bose
| cinematography = 
| editing        = 
| studio         = 
| distributor    = 
| released       = 2003
| runtime        = 
| country        = India
| language       = Bengali
| budget         = 
| gross          = 
}}
 Bengali film directed by Narayan Chatterjee under the banner of  Shiv Films. The film features actors Prosenjit Chatterjee and Rachana Banerjee in the lead roles. Music of the film has been composed by Babul Bose.   
== Cast ==
* Prosenjit Chatterjee
* Rachana Banerjee
* Laboni Sarkar
* Dipankar Dey
* Anuradha Ray
* Mrinal Mukherjee
* Koushik Bandyopadhyay
* Nabamita Chattopadhyay
* Joy Badlani
* Kalyani Mondal

== References ==
 

==External links==
*  
*  
*  
*  
*  
*  

 
 
 
 
 

 