Hello Babies
 
{{Infobox film
| name           = Hello Babies
| image          = Hello Babies poster.jpg
| image size     = 
| border         = 
| alt            = 
| caption        = Hong Kong poster
| director       = Vincent Kok
| producer       = 
| writer         = 
| screenplay     = 
| story          = 
| based on       = 
| narrator       =  Raymond Wong Ronald Cheng Fiona Sit Sandra Ng
| music          = 
| cinematography = 
| editing        = 
| studio         = 
| distributor    = 
| released       =   
| runtime        = 
| country        = China Hong Kong
| language       = 
| budget         = 
| gross          = United States dollar|US$11.17 million (China)
}}

Hello Babies (Chinese: 六福喜事) is a 2014 Chinese-Hong Kong film directed by Vincent Kok.

==Cast== Raymond Wong
*Ronald Cheng
*Fiona Sit
*Sandra Ng

==Reception==
The film has grossed United States dollar|US$11.17 million at the Chinese box office.  It was one of the highest grossing local films in 2014.   

==References==
 

 

 
 
 