The Apostles (film)
{{Infobox film
| name           = The Apostles
| image          = The Apostles film poster.jpg
| alt            = 
| caption        = 
| director       = Joe Chien
| producer       = 
| writer         = 
| starring       = Josie Ho Fan Hsia Lam Suet Lam Chi-chung
| music          = 
| cinematography = 
| editing        = 
| studio         = 
| distributor    = 
| released       =   
| runtime        = 91 minutes
| country        = China
| language       = Mandarin
| budget         = 
| gross          = United States dollar|US$1.13 million (China)
}}
The Apostles ( ) is a 2014 Chinese thriller film directed by Joe Chien. It was released in China on 17 January.  

==Cast==
*Josie Ho
*Fan Hsia
*Lam Suet
*Lam Chi-chung

==Reception==
The film has grossed United States dollar|US$1.13 million at the Chinese box office. 

==References==
 

==External links==
*  
*  

 

 
 
 
 
 