Kamisama no Karute 2
{{Infobox film
| name           = Kamisama no Karute 2
| image          = 
| image size     = 
| border         = 
| alt            = 
| caption        = 
| director       = Yoshihiro Fukagawa
| producer       = 
| writer         = 
| screenplay     = 
| story          = 
| based on       =  
| narrator       = 
| starring       = Sho Sakurai Aoi Miyazaki Tatsuya Fujiwara
| music          = 
| cinematography = 
| editing        = 
| studio         = 
| distributor    = 
| released       =   
| runtime        = 116 minutes
| country        = Japan
| language       = Japanese
| budget         = 
| gross          = US$7,259,785
}}

  is a 2014 Japanese film directed by Yoshihiro Fukagawa and a sequel of Kamisama no Karute.  It was released on 21 March 2014. 

==Cast==
*Sho Sakurai
*Aoi Miyazaki 
*Tatsuya Fujiwara

==Reception==
As of April 17, 2014, the film has grossed US$7,259,785 in Japan. 

==References==
 

==External links==
* 

 

 
 
 
 


 