Karama Has No Walls
{{Infobox film
| name           = Karama Has No Walls
| image          = 
| caption        = 
| director       = Sara Ishaq
| producer       = Sara Ishaq 
| writer         = 
| starring       = 
| music          = 
| cinematography = 
| editing        = Sara Ishaq 
| studio         = 
| distributor    = 
| released       =  
| runtime        = 26 minutes
| country        = 
| language       = 
}} Yemen revolution. 

{| class="wikitable" width="95%"
! colspan="5" style="background: LightSteelBlue;" | Awards
|-
! Award
! Date of ceremony
! Category
! Recipients and nominees
! Result
|-
| Academy Award 
| March 2, 2014 Best Short Subject Documentary
| Sara Ishaq
|  
|-
|}

==References==
 

==External links==
*  
*  

 
 
 
 

 