Dil Mangey Kuchh Aur
 
{{Infobox film
| name           = Dil Mangey Kuchh Aur
| image          = 
| alt            = 
| caption        = 
| film name      =  
| director       = Rajesh Dubeay
| producers      = Rohit Kumar  Neeta Garbade
| writer         =  
| screenplay     = 
| story          = 
| based on       =  
| starring       = Tanisha Singh  Mushtaq Khan  Arun Bal  Harsh Vasisht
| narrator       =  
| music          = 
| cinematography = 
| editing        = 
| studio         = Bhoomika Productions
| distributor    =  
| released       =  
| runtime        = 
| country        = 
| language       = Hindi
| budget         = 
| gross          =  
}}

Dil Mangey Kuchh Aur is a Bollywood movie directed by Rajesh Dubeay starring Tanisha Singh, Mushtaq Khan, Arun Bal, and Harsh Vasisht. 

==References==
 

 
 
 

 