Notebook (2013 film)
{{Infobox film
| name           = Notebook
| image          = 
| alt            = 
| caption        = 
| film name      = 
| director       = ???
| producer       = Joshi Pragya
| writer         = 
| screenplay     = 
| story          = 
| based on       =  
| starring       = Jivan Luitel, Shen Sapkota, Neeta Dhungana
| narrator       = 
| music          = 
| cinematography = 
| editing        = 
| studio         = Pragya Films
| distributor    = 
| released       =  
| runtime        = 2:01:03
| country        = Nepal Nepali
| budget         = 
| gross          = 
}}
Notebook is Nepali romance film produced by Joshi Pragya for Pragya Films, starring Jivan Luitel, Shen Sapkota, Neeta Dhungana, Sushma Karki, Sunil Thapa, Dhruba Koirala, Laya Sangraula, Sashita Phuyal, and Pavitra Adhikari.  

==References==
 

 
 
 


 