Shattered (2011 film)
{{Infobox film
| name           = Shattered
| image          = Shattered 2012 film.jpg
| alt            = 
| caption        = Promotional poster
| director       = Gilbert Lukalia
| producer       = Carol Nguta
| writer         = 
| starring       =  
| music          = 
| cinematography = 
| editing        = 
| studio         = 
| distributor    = Dream House Productions
| released       =  
| runtime        = 
| country        = Kenya, Nigeria
| language       = English
| budget         =
}}

Shattered is a 2011 Kenyan film directed by Gilbert Lukalia with Nollywood actress Rita Dominic as Keziah Njema playing the lead role. It won 2 awards at the 2012 African Movie Academy Awards. Rita Dominic also won the 2012 best actress award at the Kalasha Film and Television Awards in Kenya.    

==Cast==

*Rita Dominic as Keziah Njema
*Mumbi Maina      as Mumbi Miana
*Robert Burale    as Frank Njema
*Allan Adika      as Jomo
*Naomi Wambui

==References==
 

 
 
 
 
 
 

 