Manaivikku Mariyadhai
{{Infobox film
| name           = Manaivikku Mariyadhai
| image          = 
| image_size     =
| caption        = 
| director       = V. C. Guhanathan
| producer       = Ramasamy
| writer         = Pugazhmani
| screenplay     = 
| starring       = Pandiarajan Kushboo Manivannan
| music          = Sirpi
| cinematography = 
| editing        =
| distributor    = 
| studio         = 
| released       = 1 October 1999
| runtime        =
| country        = India
| language       = Tamil
| budget         =
| preceded_by    =
| followed_by    =
| website        =
}}
 1999 Tamil language film directed by Guhunathan and produced by Ramasamy. The film featured Pandiarajan alongside Kushboo, while Manivannan plays a supporting role. The film, which had music composed by Sirpi, opened in October 1999. 

==Cast==
*Pandiarajan 
*Kushboo
*Manivannan
*Vadivelu Ranjith
*S. N. Lakshmi

==References==
 

 
 
 
 


 