Transatlantic (1960 film)
{{Infobox film
| name           = Transatlantic 
| image          = 
| image_size     =
| caption        =
| director       = Ernest Morris
| producer       = Edward J. Danziger Harry Lee Danziger
| writer         = Brian Clemens
| narrator       = Pete Murray
| music          = 
| cinematography = 
| editing        =
| studio         = 
| distributor    = 
| released       = 1960
| runtime        = 
| country        = United Kingdom
| language       = English
| budget         =
| gross          =
| preceded_by    =
| followed_by    =
| website        =
}}
Transatlantic is a 1960 British film. 
==References==
 
==External links==
*  at IMDB
 
 
 
 

 