Martín Rivas (film)
{{Infobox film
| name           =Martín Rivas 
| image          =
| image_size     =
| caption        =
| director       =Carlos F. Borcosque
| producer       =
| writer         =Carlos F. Borcosque
| narrator       =
| starring       =
| music          =
| cinematography =Andrés Martorell De Llanza 
| editing       =
| studio    =Estudios Cinematograficos Borcosque
| released       = 1925
| runtime        =
| country        = Chile
| language       = Silent
| budget         =
}}

Martín Rivas  is a 1925 Chilean silent film, the fourth film of Carlos F. Borcosque.   

==Cast==
*Juan Cerecer 		
*Jorge Infante 	 		
*Rafael Larson 			
*Sílvia Villalaz

==References==
 

==External links==
*  

 

 
 
 
 
 


 
 