Diablo fuerte
{{Infobox film
| name           =Diablo fuerte
| image          =
| image_size     =
| caption        =
| director       =Carlos F. Borcosque
| producer       =
| writer         =Carlos F. Borcosque
| narrator       =
| starring       =
| music          =
| cinematography =Andrés Martorell De Llanza 
| editing       =
| studio    =Estudios Cinematograficos Borcosque
| released       = 1925
| runtime        =
| country        = Chile
| language       = Silent
| budget         =
}}

Diablo fuerte is a 1925 Chilean silent film directed by Carlos F. Borcosque.    It stars boxer Luis Vicentini.

==References==
 

==External links==
*  

 

 
 
 
 

 
 