Winds of Chance
{{Infobox film
| name           = Winds of Chance
| image          = 
| image size     = 
| alt            = 
| caption        = 
| director       = Frank Lloyd
| producer       = Frank Lloyd
| writer         = 
| screenplay     = 
| story          = 
| based on       =  
| narrator       = 
| starring       = Anna Q. Nilsson Ben Lyon
| music          = 
| cinematography = Norbert F. Brodin
| editing        =  Frank Lloyd Productions
| distributor    = 
| released       =  
| runtime        = 100 minutes
| country        = United States
| language       = Silent film
| budget         = 
| gross          = 
| preceded by    = 
| followed by    = 
}}

Winds of Chance is a 1925 American silent film.

==Cast==
 
* Anna Q. Nilsson as Countess Courteau
* Ben Lyon as Pierce Phillips
* Lloyd Hughes as Lionel Tressilian 
* Viola Dana as Rouletta Kirby 
* Hobart Bosworth as Sam Kirby
* Victor McLaglen as Poleon Doret
* Dorothy Sebastian as Laura
* Claude Gillingwater as Tom Linton
* Charles Crockett as Jerry Larry Fisher as Frank McCaskey
* Fred Kohler as Joe McCaskey
* Wade Boteler as Jack McCaskey
 

==References==
 

==External links==
*  
*   at Silentera.com

 

 
 
 
 
 
 
 
 
 


 