No Safety Ahead
{{Infobox film
| name           = No Safety Ahead
| image          = 
| image_size     =
| caption        =
| director       = Max Varnel
| producer       = Edward J. Danziger Harry Lee Danziger
| writer         = 
| narrator       =
| starring       = James Kenney Susan Beaumont Denis Shaw
| music          = 
| cinematography = 
| editing        =
| studio         = Danziger Productions
| distributor    = 
| released       = 1959
| runtime        = 
| country        = United Kingdom
| language       = English
| budget         =
| gross          =
| preceded_by    =
| followed_by    =
| website        =
}}
No Safety Ahead is a 1959 British film. 

==Plot==
An office clerk unwittingly joins a gang.

==References==
 

==External links==
*  at IMDB

 
 


 