Date at Midnight
 
 
{{Infobox film
| name           = Date at Midnight
| image          = 
| image_size     =
| caption        =
| director       = Godfrey Grayson
| producer       = Edward J. Danziger Harry Lee Danziger
| writer         = 
| narrator       =
| starring       = Jean Aubrey 
| music          = 
| cinematography = 
| editing        =
| studio         = 
| distributor    = 
| released       = 1959
| runtime        = 
| country        = United Kingdom
| language       = English
| budget         =
| gross          =
| preceded_by    =
| followed_by    =
| website        =
}}
Date at Midnight is a 1959 British film. 

==References==
 

==External links==
*  at IMDB
 

 
 


 