Mistreatment (film)
 
{{Infobox film
| name           = Mistreatment
| image          = 
| caption        = 
| director       = Lars Lennart Forsberg
| producer       = 
| writer         = 
| starring       = Knut Pettersen
| music          = 
| cinematography = 
| editing        = 
| distributor    = 
| released       =  
| runtime        = 104 minutes
| country        = Sweden
| language       = Swedish
| budget         = 
}}

Mistreatment ( , also known as Assault and Battery) is a 1969 Swedish drama film directed by Lars Lennart Forsberg. The film won the Guldbagge Award for Best Film and Forsberg won the Guldbagge Award for Best Director at the 7th Guldbagge Awards.   

==Cast==
* Knut Pettersen as Knut Nilssen
* Björn Granath as Björn
* Berit Persson as Berit
* Bjoern Kanvert as Dir Hedqvist
* Hans Hellberg as Author

==References==
 

==External links==
*  
*  

 

 
 
 
 
 
 
 
 
 
 
 