Escort for Hire
{{Infobox film
| name           = Escort for Hire
| image          = 
| image_size     =
| caption        =
| director       = Godfrey Grayson
| producer       = Edward J. Danziger Harry Lee Danziger
| writer         = 
| narrator       = Pete Murray
| music          = 
| cinematography = 
| editing        =
| studio         = 
| distributor    = 
| released       = 1960
| runtime        = 
| country        = United Kingdom
| language       = English
| budget         =
| gross          =
| preceded_by    =
| followed_by    =
| website        =
}} Pete Murray, Noel Trevarthen, Jan Holden and Peter Butterworth.

==References==
 

==External links==
*  at IMDB
 

 
 


 