The Reunion (2013 film)
 
{{Infobox film
| name           = The Reunion
| image          = 
| caption        = 
| director       = Anna Odell
| producer       = 
| writer         = Anna Odell
| starring       = Sandra Andreis
| music          = 
| cinematography = Ragna Jorming
| editing        = 
| distributor    = 
| released       =  
| runtime        = 88 minutes
| country        = Sweden
| language       = Swedish
| budget         = 
}}

The Reunion ( ) is a 2013 Swedish drama film directed by Anna Odell. The film won the Guldbagge Award for Best Film at the 49th Guldbagge Awards.   

==Cast==
* Sandra Andreis as Louise
* Kamila Benhamza as Camilla Anders Berg as Anders
* Jimmy Carlberg as Jimmy C Erik Ehn as Erik
* Niklas Engdahl as Nille
* Per Fenger-Krog as Per
* Robert Fransson as Robban

==References==
 

==External links==
*  
*  

 

 
 
 
 
 
 
 
 
 