Man Accused
{{Infobox film
| name           = Man Accused
| image          = 
| image_size     =
| caption        =
| director       = Montgomery Tully
| producer       = Edward J. Danziger Harry Lee Danziger
| writer         = 
| narrator       = Ronald Howard
| music          = 
| cinematography = 
| editing        =
| studio         = 
| distributor    = 
| released       = 1959
| runtime        = 
| country        = United Kingdom
| language       = English
| budget         =
| gross          =
| preceded_by    =
| followed_by    =
| website        =
}}
Man Accused is a 1959 British film. 

==References==
 

==External links==
*  at IMDB

 

 
 
 

 