A Pizza in Jordbro
 
{{Infobox film
| name           = A Pizza in Jordbro
| image          = 
| caption        = 
| director       = Rainer Hartleb
| producer       = 
| writer         = 
| starring       = 
| music          = 
| cinematography = Staffan Lindqvist
| editing        = 
| distributor    = 
| released       =  
| runtime        = 75 minutes
| country        = Sweden
| language       = Swedish
| budget         = 
}}
 Best Director.   

==References==
 

==External links==
*  
*  

 

 
 
 
 
 
 
 
 
 