Moon Over Her Shoulder
{{Infobox film
| name           = Moon Over Her Shoulder
| image          = 
| image_size     = 
| caption        = 
| director       = Alfred L. Werker
| producer       = Walter Morosco
| writer         = Walter Bullock
| starring       = 
| music          = 
| cinematography = Lucien Andriot
| editing        = J. Watson Webb, Jr.
| distributor    = Twentieth Century-Fox
| released       = October 24, 1941
| runtime        = 68 minutes
| country        = United States
| language       = English
| budget         = 
}}
Moon Over Her Shoulder is a 1941 motion picture comedy directed by Alfred L. Werker.

==Cast== John Sutton as Phillip Rossiter
*Lynn Bari as Susan Rossiter
*Alan Mowbray as Grover Sloan
*Leonard Carey as Dusty
*Dan Dailey as Rex Gibson

==References==
*"  The New York Times November 5, 1941

==External links==
*  
* 
*  
* .

 

 
 


 