Jephtah's Daughter: A Biblical Tragedy
{{Infobox film
| name           = Jephtahs Daughter: A Biblical Tragedy
| image          = 
| image_size     = 
| caption        = 
| director       = 
| producer       = 
| writer         = Reverend Madison C. Peters (scenario)
| story          = 
| based on       =
| narrator       = 
| starring       = Annette Kellerman
| music          = 
| cinematography = 
| editing        =  Vitagraph Company
| distributor    = Vitagraph Company
| released       =  
| runtime        = 184 meters  or 605 feet   
| country        = United States
| language       = Silent
| budget         = 
| gross          = 
}}
 National Film and Television Archive of the British Film Institute has a print.  

==See also==
* List of rediscovered films

==References==
 

 
 
 
 
 
 
 


 