Shadow Man (2014 film)
{{Infobox film
| name           = Shadow Man
| image          = Shadowman2014.jpg
| alt            = 
| caption        = 
| director       = Majo C. Mathew
| producer       = K. M. Sebastian
| writer         = 
| starring       = Riyaz Khan
| music          = Benny Johnson
| cinematography = Santhosh Manappally
| editing        = Renjith
| studio         = 
| distributor    = 
| released       =  
| runtime        = 75 minutes
| country        = India
| language       = Malayalam
| budget         = 
| gross          = 
}} suspense thriller film directed by Majo C. Mathew. The only character in the film is played by Riyaz Khan. Other characters can be said to be a shadow and a dog.  

==Plot==
Surya (Riyaz Khan) is a Real estate agent. One day he is getting trapped in a site where he goes to look on for his boss. There comes a shadow following him...
 
==Cast==
*Riyaz Khan as Surya
*A shadow
*A dog

==References==
 

==External links==
* 

 
 
 
 


 