Mr. and Mrs. (film)
{{Infobox film
| name               = Mr. & Mrs.
| image              = Mr and Mrs film poster.jpg
| alt                = 
| caption            = Theatrical poster
| director           = Ikechukwu Onyeka
| producer           = Chinwe Egwuagu
| writer         = Chinwe Egwuagu
| starring       =  
| music          = J-Martins
| cinematography = Tom Robson
| editing        = Papel Image Technology
| studio         =  Chinwe Egwuagu Productions
| distributor   = Peculiar Communications Ltd
| released       =  
| runtime        = 99 minutes
| country        = Nigeria
| language       = English
| budget         = 
| gross          = ₦6,050,000  
}}
 Joseph Benjamin, Barbara Soky, Thelma Okodua and Paul Apel.

==Cast==
*Nse Ikpe Etim as Susan Abbah Joseph Benjamin as Kenneth Abbah
*Barbara Soky as Mrs Abbah
*Thelma Okodua as Linda
*Paul Apel as Charles
*Chioma Nwosu as Mrs Brown
*Mpie Mapetla as Monica
*Nonye Ike as Kate
*Beauty Benson as Maggie
*Paul Sambo as Mr Brown
*Babajide Bolarinwa as Mr Abbah

==Home Media== Gold coast the same week. 

==References==
 

==External links==
*  
*  

 
 
 
 
 
 
 
 


 
 