Blue Water White Death
 
{{Infobox film
| name           = Blue Water White Death
| image          = 
| image_size     = 
| caption        = 
| director       = Peter Gimbel James Lipscomb
| producer       = 
| writer         = 
| narrator       = 
| starring       = Ron & Valerie Taylor
| music          = 
| cinematography = 
| editing        = 
| studio         = Cinema Center Films
| released       = 1971
| runtime        = 
| country        = USA
| language       = English
| budget         = 
}}
Blue Water, White Death is a 1971 American documentary about sharks.
==References==
 
==External links==
*  at IMDB

 
 
 
 
 
 

 