Bandhu (2007 film)
{{Infobox film
| name           = Bandhu 
| image          = Bandhu.jpeg
| image_size     = 
| border         = 
| alt            = 
| caption        = Dvd cover
| film name      = 
| director       = Prashanta Nanda
| producer       = Kusum Dhanuka
| writer         = 
| screenplay     = 
| story          = Prashanta Nanda
| based on       =  
| narrator       =  See below
| music          = Prashanta Nanda Shanti Raj
| cinematography = 
| editing        = 
| studio         = 
| distributor    = Eskay Movies
| released       = 2007
| runtime        = 
| country        = India
| language       = Bengali
| budget         = 
| gross          = 
}}
 Bengali film directed by Prashanta Nanda and produced by Kusum Dhanuka. The film features actors Prosenjit Chatterjee and Swastika Mukherjee in the lead roles. Music of the film has been composed by Prashanta Nanda and Shanti Raj    

== Cast ==
* Prosenjit Chatterjee
* Swastika Mukherjee
* Victor Banerjee
* Rajatava Dutta
* Soma Chakraborty
* Dola Chowdhury
* Shyamal Dutta
* Nayana Das
* Master Tithi Bose

== References ==
 

==External links==
* 

 
 
 
 


 