Allah Made Me Funny - Official Muslim Comedy Show - Live HMV Apollo
{{Infobox film
| name           = Allah Made Me Funny - Official Muslim Comedy Show - Live HMV Apollo
| image	         = Allah Made Me Funny - Live HMV Apollo poster.jpg
| image size     = 
| caption        = Promotional poster
| director       = Pedro Cavalho
| producer       = Waleed Jahangir
| writer         = 
| screenplay     = 
| story          = 
| based on       = 
| narrator       =  Mohammed "Mo" Bryant "Preacher" Moss
| music          = 
| cinematography = 
| editing        = 
| studio         = Tiffin Beats 
| distributor    = 
| released       =  
| runtime        = 111 minutes
| country        = United States
| language       = English
| budget         = 
| gross          = 
}}
 American concert Mohammed "Mo" Bryant "Preacher" Moss).

==Production and release==
The film features Amer, Usman and Moss performing live stand-up at Hammersmith Apollo (known at the time as HMV Apollo) in Hammersmith, London organized by Mumbai Rouge on April 17, 2009.               

The concert DVD was released on October 5, 2009.      

==See also==
* 
* 

==References==
 

 
 
 
 
 
 
 
  
 
 
 


 