Yo soy Boricua, pa'que tu lo sepas! (film)
{{Infobox film
| name           = Yo soy Boricua, paque tu lo sepas! (Im Puerto Rican, Just So You Know!)
| image          = 
| alt            = 
| caption        = 
| film name      = 
| director       = Liz Garbus, Rosie Perez
| producer       = 
| writer         = Roger M. Sherman
| screenplay     = 
| story          = 
| based on       =  
| narrator       = 
| starring       = 
| music          = 
| cinematography = 
| editing        = 
| studio         = 
| distributor    = 
| released       =  
| runtime        = 
| country        = 
| language       = 
| budget         = 
| gross          = 
}}
Yo soy Boricua, paque tu lo sepas! is a documentary film co-directed by Liz Garbus and Rosie Perez, in which Perez explores Puerto Rican culture and history, from New York Citys Puerto Rican Day Parade to a broader examination of Puerto Ricos past. 

==References==
 
==External links==
* 

 
 
 
 
 
 


 
 