Dreaming of Rita
 
{{Infobox film
| name           = Dreaming of Rita
| image          = 
| caption        = 
| director       = Jon Lindström
| producer       = Börje Hansson
| writer         = Rita Holst Jon Lindström
| starring       = Marika Lagercrantz
| music          = 
| cinematography = Kjell Lagerroos
| editing        = 
| distributor    = 
| released       =  
| runtime        = 104 minutes
| country        = Sweden
| language       = Swedish
| budget         = 
}}
 Best Actress at the 29th Guldbagge Awards.   

==Cast==
* Marika Lagercrantz as Rita
* Philip Zandén as Steff
* Yaba Holst as Sandra
* Adam Blänning as Adam
* Per Oscarsson as Bob
* Patrik Ersgård as Erik
* Lise Ringheim as Sabine
* Gert Fylking as Rolling
* Beryl Kornhill as Astrid

==References==
 

==External links==
*  
*  

 
 
 
 
 
 
 
 