Rock You Sinners
{{Infobox film
| name           = Rock You Sinners
| image          =
| image_size     =
| caption        =
| director       = Denis Kavanagh 
| producer       = 
| writer         = 
| narrator       =
| starring       = Philip Gibert
| music          =
| cinematography = 
| editing        = 
| studio         = 
| distributor    =
| released       = 1957
| runtime        =
| country        = United Kingdom
| language       = English
| budget         =
| gross          =
| website        =
}}
Rock You Sinners is a 1957 British musical film.
==External links==
*  at BFI Screenonline
*  at IMDB

 