My Old Classmate
 
{{Infobox film
| name           = My Old Classmate
| image          = My Old Classmate poster.jpg
| alt            = 
| caption        = 
| director       = Frant Gwo
| producer       = Gao Xiaosong 
| writer         = 
| starring       = Zhou Dongyu   Lin Gengxin
| music          = 
| cinematography = 
| editing        = 
| studio         = Skywheel Entertainment   Beijing Enlight Pictures
| distributor    = 
| released       =   
| runtime        = 98 minutes
| country        = China
| language       = Mandarin
| budget         = 
| gross          = US$73,060,000 
}}

My Old Classmate (Chinese: 同桌的妳) is a 2014 Chinese drama-romance film directed by Frant Gwo  and starring Zhou Dongyu and Lin Gengxin.  The film was released on April 25, 2014.   

==Cast==
* Zhou Dongyu
* Lin Gengxin
* Mike Sui
* Wang Xiaokun
* Gong Geer
* Li Mincheng
* Zhao Siyuan
* Cao Yang
* Michael Gralapp

==Reception==
The film earned a total of   internationally. 

==References==
 

 
 
 
 
 
 


 