The Judas Project
 
{{Infobox film
| name           = The Judas Project
| image          = 
| alt            = 
| caption        = 
| director       = James H. Barden
| producer       = 
| writer         = 
| starring       = 
| music          = 
| cinematography = 
| editing        = 
| studio         = 
| distributor    =
| released       = 
| runtime        = 
| country        = United States
| language       = English
| budget         = 
| gross          = 
}}
The Judas Project is a 1990 action drama film loosely based on Judas Iscariot. The film gained a mostly negative reviews from critics.  

== References ==
 

==External links==
* 

 
 
 