Run (2014 film)
 
{{Infobox film
| name           = Run
| image          = 
| caption        = 
| director       = Philippe Lacôte
| producer       = Claire Gadea Ernest Kouamé 
| writer         = Philippe Lacôte
| starring       = Abdoul Karim Konaté
| music          = Sebastian Escoffet
| cinematography = Daniel Miller 
| editing        = Barbara Bossuet 
| distributor    = Bac Films
| released       =  
| runtime        = 100 minutes
| country        = France Ivory Coast
| language       = French
| budget         = 
}}

Run is a 2014 French-Ivorian drama film directed by Philippe Lacôte. It was selected to compete in the Un Certain Regard section at the 2014 Cannes Film Festival.   

==Cast==
* Abdoul Karim Konaté as Run
* Isaach de Bankolé as Assa
* Djinda Kane as Claire 

==References==
 

==External links==
*  

 
 
 
 
 
 
 
 
 
 