Next to Her
 
{{Infobox film
| name           = Next to Her
| image          = 
| caption        = 
| director       = Asaf Korman
| producer       = 
| writer         = Liron Ben-Shlush
| starring       = Dana Ivgy
| music          = 
| cinematography = 
| editing        = 
| distributor    = 
| released       =  
| runtime        = 
| country        = Israel
| language       = Hebrew
| budget         = 
}}

Next to Her ( ; At Li Layla) is a 2014 Israeli drama film directed by Asaf Korman. It was selected to be screened as part of the Directors Fortnight section of the 2014 Cannes Film Festival.   

==Cast==
* Dana Ivgy as Gabby
* Liron Ben-Shlush as Chelli
* Jacob Daniel as Zohar

==References==
 

==External links==
*  

 
 
 
 
 
 
 
 
 