Death Is Here 3
{{Infobox film
| name           = Death is Here 3
| image          = Death is Here 3 poster.jpg
| alt            = 
| caption        = 
| director       = David Kuan
| producer       = 
| writer         = 
| starring       = 
| music          = 
| cinematography = 
| editing        = 
| studio         = 
| distributor    = 
| released       =   
| runtime        = 93 minutes
| country        = China
| language       = Mandarin
| budget         = 
| gross          = Renminbi|¥35.2 million
}}
Death Is Here 3 (Chinese: 笔仙惊魂3) is a 2014 Chinese horror film directed by David Kuan. 

==Reception==
The film has grossed Renminbi|¥35.2 million in China. 

==See also==
*BiXian Panic

==References==
 

 
 

 
 
 
 