Team Batista Final: Kerberos no Shōzō
 

{{Infobox film
| name           = Team Batista Final: Kerberos no Shōzō
| image          = 
| image size     = 
| border         = 
| alt            = 
| caption        = 
| director       = 
| producer       = 
| writer         = 
| screenplay     = 
| story          = 
| based on       =  
| narrator       =  Hidetoshi Nishijima Ai Kato Chiaki Kuriyama
| music          = 
| cinematography = 
| editing        = 
| studio         = 
| distributor    = 
| released       =   
| runtime        = 127 minutes
| country        = Japan
| language       = Japanese
| budget         = 
| gross          = US$6,987,812 	
}}
 mystery suspense suspense film. 

==Cast==
*Atsushi Itō
*Tōru Nakamura (actor)|Tōru Nakamura
*Mirei Kiritani
*Tori Matsuzaka  Hidetoshi Nishijima
*Ai Kato 
*Chiaki Kuriyama

==Reception==
As of April 17, 2014, the film has grossed US$$6,987,812 in Japan. 

==References==
 

==External links==
*   
* 

 
 
 
 
 


 