Thermae Romae II
{{Infobox film
| name           = Thermae Romae II
| image          = 
| image size     = 
| border         = 
| alt            = 
| caption        = 
| director       = Hideki Takeuchi
| producer       = 
| writer         = 
| screenplay     = 
| story          = 
| based on       =  
| narrator       =  Hiroshi Abe Aya Ueto Kazuki Kitamura Takashi Sasano
| music          = 
| cinematography = 
| editing        = 
| studio         = 
| distributor    = 
| released       =   
| runtime        = 112 minutes
| country        = Japan
| language       = Japanese
| budget         = 
| gross          = Yen|¥4.2 billion (Japan)	
}}

  is a 2014 Japanese comedy film directed by Hideki Takeuchi and based on the manga series Thermae Romae by Mari Yamazaki.  

==Cast== Hiroshi Abe
*Aya Ueto
*Kazuki Kitamura
*Takashi Sasano
*Anthony Ripoll

==Reception==
The film has grossed Yen|¥4.2 billion in Japan. 

==References==
 

==External links==
* 

 
 

 
 
 
 
 
 