Police Story (1996 film)
{{Infobox film
| name           = Police Story
| image          = 
| image_size     = 
| director       =Thriller Manju
| producer       =Gajula Nageswara Rao
| writer         =Thriller Manju
| screenplay     =Thriller Manju
| story          =Bombay David Sai Kumar P. J. Sarma Satya Prakash Sobha Raj Avinash Sudheer Babu Lawrence Desouza Rock Line Venkatesh
| music          =Sadhu Kokila
| cinematography =J. G. Krishna
| editing        =R. Janardhan
| studio         = 
| distributor    = 
| released       =1996
| runtime        = 166 minutes
| country        = India
| language       = Kannada
| budget         = 
| gross          = 
}}
 Sai Kumar as a super cop. The film was simultaneously dubbed into Telugu, Tamil and Hindi, emerged as a blockbuster, and remained a cult classic.  

==References==
 

 
 
 


 