Bad Johnson
{{Infobox film
| name           = Bad Johnson
| image          = File:Bad Johnson movie poster.jpg
| alt            = 
| caption        = 
| film name      = 
| director       = Huck Botko
| producer       = Reid Brody Danny Roman
| writer         = Jeff Tetreault
| screenplay     = 
| story          = 
| based on       =  
| narrator       = 
| starring       = Cam Gigandet Jamie Chung Nick Thune Joe Wong
| cinematography = Luke Geissbuhler
| editing        = Peter Tarter
| studio         = 
| distributor    = Gravitas Ventures
| released       =  
| runtime        = 88 minutes
| country        = United States
| language       = English
| budget         = 
| gross          = 
}}
Bad Johnson is a 2014 comedy directed by Huck Botko.    

==Plot==
Rich is a sex addict who ruins every relationship through infidelity. He wishes that his penis would leave him alone. He wakes up one day to find his penis has taken on human form. 

== Cast==
* Cam Gigandet ... Rich Johnson
* Nick Thune ... Richs Penis
* Katherine Cunningham ... Lindsay Young Kevin Miller ... Josh Nelson
* Jamie Chung ... Jamie

==References==
 

==External links==
*  
*  
 
*  
*  

 
 
 
 


 