Fantasia (2014 film)
 
{{Infobox film
| name           = Fantasia
| image          = Wang Chao Cannes 2014 Fantasia.jpg
| caption        = Presentation of Fantasia at the Cannes film Festival Wang Chao
| producer       = 
| writer         = Wang Chao
| starring       = Jian RenZi
| music          = 
| cinematography = 
| editing        = 
| distributor    = 
| released       =  
| runtime        = 
| country        = China
| language       = Chinese
| budget         = 
}}
 Wang Chao. It was selected to compete in the Un Certain Regard section at the 2014 Cannes Film Festival.   

==Cast==
* Jian RenZi as Sister
* Hu RuiJie as Xiao Lin
* Su Su as Mother Zhang Xu as Father

==Reception==
In Film Business Asia, Derek Elley gave the film a rating of 5 out of 10, calling it an "average, uninventive indie". 

==References==
 

==External links==
*  

 

 
 
 
 
 
 
 
 
 