Naked Africa
{{Infobox film
| name           = Naked Africa 
| image          = Nakafpos.jpg
| image_size     =
| caption        = Film poster
| director       = Ray Phoenix
| producer       =Cedric Worth
| writer         = 
| based on       =
| starring       = 
| music          =
| cinematography =
| editing        =
| studio         = Jaywall Productions
| distributor    =American International Pictures
| released       = 1957
| runtime        = 
| country        = United States
| language       = English
| budget         =
| gross          =
}} shockumentaries Mondo Cane and Africa Addio.
==References==
 
==External links==
*  at IMDB

 
 