People and Masks Part 2
{{Infobox film
| name           = People and Masks Part 2
| image          = 
| alt            = 
| caption        = 
| film name      = 
| director       = Harry Piel 
| producer       =
| writer         = Harry Piel
| screenplay     = 
| story          = 
| based on       =  
| narrator       = 
| starring       ={{Plain list| 
*Hedda Vernon
*Ludwig Trautmann
}}
| music          = 
| cinematography = Alfons Hepke
| editing        = 
| studio         = Vitascope
| distributor    = Vitascope
| released       =  
| runtime        = 
| language       = German
| budget         = 
| gross          =  
}}
 German silent film directed by Harry Piel and featuring Hedda Vernon and Ludwig Trautmann in the lead roles.

== Cast ==
*Hedda Vernon
*Ludwig Trautmann

 

== External links ==
* 

 
 
 
 


 