Portrait of a Sinner
{{Infobox film
| name           = Portrait of a Sinner 
| image          =
| image_size     =
| caption        =
| director       = Robert Siodmak
| producer       =
| writer         = 
| based on       =
| starring       = William Bendix Tony Britton Donald Wolfit
| music          =
| cinematography =
| editing        =
| studio         =
| distributor    =American International Pictures (US)
| released       = 1960
| runtime        = 
| country        = 
| language       = English
| budget         =
| gross          =
}}
Portrait of a Sinner is a 1960 film. 

==References==
 

==External links==
*  at IMDB

 
 
 


 