Navajo Run
{{Infobox film
| name           = Navajo Run
| image          =
| image_size     =
| caption        =
| director       = Johnny Seven
| producer       =
| writer         = 
| based on       =
| starring       = Johnny Seven
| music          =
| cinematography =
| editing        =
| studio         =
| distributor    =American International Pictures (US)
| released       = 1964
| runtime        = 
| country        = 
| language       = English
| budget         =
| gross          =
}} Western film Johnny Seven.

==External links==
*  at IMDB
*  at TCMDB

 
 
 


 