Capitão Falcão
{{Infobox film
| name           = Capitão Falcão
| image          = 
| image size     = 
| border         = 
| alt            = 
| caption        = 
| director       = João Leitão
| producer       = 
| writer         = 
| screenplay     = João Leitão Núria Leon Bernardo
| story          = 
| based on       =  
| narrator       =  David Chan José Pinto (actor)|José Pinto Rui Mendes Luís Vicente Miguel Guilherme Carla Maciel Bruno Nogueira Nuno Lopes Ricardo Carriço
| music          = 
| cinematography = 
| editing        = 
| studio         = 
| distributor    = 
| released       =  
| runtime        = 
| country        = Portugal
| language       = Portuguese
| budget         = 
| gross          = 
}}
 action adventure adventure film directed by João Leitão. It was released on April 23, 2015. 

==Plot==
The film is set in Portugal during the 1960s.

==Cast==
*Gonçalo Waddington as Capitão Falcão David Chan as Puto Perdiz
*José Pinto (actor)|José Pinto as António de Oliveira Salazar
*Rui Mendes
*Luís Vicente as Vladimir Lenin
*Miguel Guilherme as Capitão Gaivota
*Carla Maciel
*Bruno Nogueira
*Nuno Lopes
*Ricardo Carriço

==Production==
The film was shot in Santarém District|Santarém and Lisbon.

==References==
 

==External links==
*   
* 

 
 
 
 
 
 
 
 
 
 
 

 
 