Whole (film)
 
{{Infobox film name           = Whole image          = caption        = DVD cover director       = Melody Gilbert producer       = Melody Gilbert music          = CXR  cinematography = Melody Gilbert editing        = Charlie Gerszewski distributor  Sundance Channel released       = May 2004 runtime        = 56 minutes language       = English budget         = preceded_by    = followed_by    = mpaa_rating    = tv_rating      =
}}
 Sundance Channel in 2004. 

==External links==
* 
*http://www.whole-documentary.com/

==References==
 

 
 
 
 


 