Tough (film)
{{Infobox film
| name           = Tough
| image          =
| image_size     =
| caption        =
| director       = 
| producer       =
| writer         = 
| based on       = 
| starring       = Dion Gossett
| music          =
| cinematography =
| editing        =
| studio         =  distributor = Dimension Pictures
| released       = 1974 
| runtime        =
| country        = USA
| language       = English
| budget         =
| gross          =
}}
Tough is a 1974 blaxploitation film about a young teenager who rebels against authority.

It was also known as Johnny Tough.

The film is a homage to The 400 Blows (1959).  

==Cast==
*Dion Gossett
*Christopher Townes
*Renny Roker
*Rich Holmes
*Sandy Reed
*Philip Hadler

==References==
 

==External links==
*  at IMDB
*  at TCMDB

 
 
 
 
 


 