A Place Without Parents
{{Infobox film
| name           = A Place without Parents
| image          =
| image_size     =
| caption        =
| director       = 
| producer       =
| writer         = 
| based on       = 
| starring       = Nicholas Wahler
| music          =
| cinematography =
| editing        =
| studio         =  distributor = Dimension Pictures
| released       = 1974
| runtime        =
| country        = USA
| language       = English
| budget         =
| gross          =
}}
A Place without Parents is a 1974 American film. It was also known as Pigeon.

==External links==
* 

 
 
 
 
 


 