The Muthers
{{Infobox film
| name           = The Muthers
| image          =
| image_size     =
| caption        =
| director       = Cirio H. Santiago 
| producer       =
| writer         = 
| based on       = 
| starring       = Jeannie Bell Rosanne Katon
| music          =
| cinematography =
| editing        =
| studio         =  distributor = Dimension Pictures
| released       = 1976
| runtime        =
| country        = Philippines
| language       = English
| budget         =
| gross          =
}}
The Muthers is a 1976 women in prison film. 
==References==
 
==External links==
*  at IMDB
 
 
 
 
 