Dixie Dynamite
{{Infobox film
| name           = Dixie Dynamite 
| image          =
| image_size     =
| caption        = Lee Frost
| producer       =
| writer         = 
| based on       = 
| starring       = Warren Oates Christopher George
| music          =
| cinematography =
| editing        =
| studio         =  distributor = Dimension Pictures
| released       = 1977
| runtime        =
| country        = USA
| language       = English
| budget         =
| gross          =
}} Lee Frost. Steve McQueen appears uncredited in a scene as a motorbike driver. 

==References==
 

==External links==
*  at YouTube
*  at IMDB

 
 
 
 


 