Cheering Section
{{Infobox film
| name           = Cheering Section 
| image          =
| image_size     =
| caption        =
| director       = Harry Kerwin
| producer       =
| writer         = 
| based on       = 
| starring       = 
| music          =
| cinematography =
| editing        =
| studio         =  distributor = Dimension Pictures
| released       = 1977
| runtime        =
| country        = USA
| language       = English
| budget         =
| gross          =
}}
Cheering Section is a 1977 film. 

==References==
 

==External links==
*  at IMDB

 
 
 
 


 