Tomcats (1977 film)
{{Infobox film
| name           = Tomcats 
| image          =
| image_size     =
| caption        =
| director       = 
| producer       =
| writer         = Wayne Crawford
| based on       = 
| starring       = 
| music          =
| cinematography =
| editing        =
| studio         =  distributor = Dimension Pictures
| released       = 1977 
| runtime        =
| country        = USA
| language       = English
| budget         =
| gross          =
}}
Tomcats is a 1977 American film. It was also known as Deadbeat and Getting Even. 
==References==
 
==External links==
*  at IMDB

 
 
 


 