Out of the Darkness (1978 film)
{{Infobox film
| name           = Out of the Darkness 
| image          =
| image_size     =
| caption        =
| director       = Lee Madden
| producer       =
| writer         = 
| based on       = 
| starring       = Donald Pleasence Nancy Kwan Ross Hagen Jennifer Rhodes
| music          =
| cinematography =
| editing        =
| studio         =  distributor = Dimension Pictures
| released       =1978 
| runtime        =
| country        = USA
| language       = English
| budget         =
| gross          =
}}
Out of the Darkness is a 1978 film starring Donald Pleasence and Nancy Kwan. It was also known as Night Creature.
==External links==
*  at IMDB
*  at TCMDB

 
 
 

 