The Cohens and the Kellys in Scotland
{{Infobox film
| name           = The Cohens and the Kellys in Scotland
| image	         =	
| caption        = 
| director       = 
| producer       = 
| writer         = 
| based on       = 
| starring       = George Sidney
| cinematography = 
| editing        = 
| distributor    = 
| studio         = Universal
| released       =  
| runtime        = 84 minutes
| country        = United States
| language       = 
| budget         = 
}}
The Cohens and the Kellys in Scotland is a 1930 American comedy film. It is one of The Cohens and the Kellys series. 

==References==
 

==External links==
* 

 
 
 
 

 