Hello, My Dolly Girlfriend
{{Infobox film
| name           = Hello, My Dolly Girlfriend
| image          = 
| image size     = 
| border         = 
| alt            = 
| caption        = 
| director       = Takashi Ishii
| producer       = Takashi Achiwa Ujikatsu Omori
| writer         = 
| screenplay     = 
| story          = 
| based on       =  
| narrator       = 
| starring       = Tasuku Emoto Kokone Sasaki Naoto Takenaka Rumi Kazama Rina Sakuragi Yuki Mamiya
| music          = 
| cinematography = 
| editing        = 
| studio         = 
| distributor    = 
| released       =  
| runtime        = 112 minutes
| country        = Japan
| language       = Japanese
| budget         = 
| gross          = 
}}
 erotic romance film directed by Takashi Ishii and starring Tasuku Emoto, Kokone Sasaki and Naoto Takenaka. 

==Cast==
*Tasuku Emoto
*Kokone Sasaki
*Naoto Takenaka
*Rumi Kazama
*Rina Sakuragi
*Yuki Mamiya

==Reception==
It was chosen as the 8th best film at the 23rd Japan Film Professional Awards  and was runner-up in Kinema Junpos 2013 top 10 Japanese films. 

In Screen Daily, Mark Adams called it an "often uncomfortably perverse and exploitative film". 

==References==
 

==External links==
*   
* 

 

 
 
 
 
 
 


 
 