Sport and Speed
{{Infobox film
| name           = Sport and Speed
| image	         =	
| caption        = 
| director       = Ray Densham
| producer       = Nat Cohen
| writer         = Ray Densham
| based on       = 
| starring       = Eamonn Andrews
| cinematography = 
| editing        = 
| distributor    = Anglo-Amalgamated
| studio         = 
| released       = 1952
| runtime        = 2,649 feet 
| country        = United Kingdom
| language       = English
| budget         = 
}}
Sport and Speed is a 1952 documentary.

==References==
 

==External links== BFI

 
 


 