Dragon Nest: Warrior's Dawn
{{Infobox film
| name           = Dragon Nest: Warrior’s Dawn
| image          = Dragon Nest Warrior Dawn poster.jpg
| image size     = 
| border         = 
| alt            = 
| caption        = 
| director       = Song Yuefeng
| producer       = 
| writer         = 
| screenplay     = 
| story          = 
| based on       = Dragon Nest
| narrator       = 
| starring       = Hu Ge Jing Tian Xu Jiao Xia Zitong
| music          = 
| cinematography = 
| editing        = 
| studio         = 
| distributor    = 
| released       =   
| runtime        = 88 minutes
| country        = China United States
| language       = english
| budget         = US$22 million
| gross          = US$9,200,000 
}}
 adventure fantasy fantasy romance film directed by Song Yuefeng and based on the Dragon Nest video game.   

==Cast==
*Chen Dawei as Lambert, the protagonist.
*Hu Ge as Velskud.
*Jing Tian as Argenta, the Silver Dragon.
*Xu Jiao as Liya.
*Xia Zitong as Kasarana.
*Shang Hong as Terramai.
*Meng Xiang Long as Barnac.

==References==
 

==External links==
* 
* 

 
 
 
 
 
 
 
 
 
 
 
 
 
 
 
 
 


 
 
 