Jaan Pechaan
{{Infobox film
| name           = Jaan Pechaan
| image          = 
| alt            = 
| caption        = 
| director       = Kamal Saigal
| producer       = Ravie Sonie
| writer         = 
| starring       = Utpal Dutt Radha Asrani Birbal Sudha Chandran Meera Madhuri Arun Mathur Shekhar Suman Satish Shah      
| music          = Iqbal Gill
| cinematography = 
| editing        = 
| studio         = 
| distributor    = 
| released       =   }}
| runtime        = 
| country        = India
| language       = Hindi
| budget         = 
| gross          = 
}}
Jaan Pechaan is a 1991 family|family-drama Indian Hindi film directed by Kamal Saigal and produced by Ravie Sonie.  It starred Utpal Dutt, Radha Asrani, Birbal, Sudha Chandran, Meera Madhuri, Arun Mathur, Shekhar Suman and Satish Shah in lead roles.   Music for the film was scored by Iqbal Gill.   

== References ==
 

== External links ==
*  
*  

 
 
 


 