Onna no Hosomichi: Nureta Kaikyo
{{Infobox film
| name           = Onna no Hosomichi: Nureta Kaikyo
| image          = 
| image size     = 
| border         = 
| alt            = 
| caption        = 
| director       = Kazunari Takeda
| producer       = 
| writer         = 
| screenplay     = 
| story          = 
| based on       =  
| narrator       = 
| starring       = Miyako Yamaguchi Megumi Ogawa Kan Mikami Kōjirō Kusanagi Renji Ishibashi
| music          = 
| cinematography = 
| editing        = 
| studio         = 
| distributor    = 
| released       =   
| runtime        = 71 minutes
| country        = Japan
| language       = Japanese
| budget         = 
| gross          = 
}}
 erotic drama film directed by Kazunari Takeda. It was released on 12 April 1980. 

==Cast==
*Miyako Yamaguchi
*Megumi Ogawa
*Kan Mikami
*Kōjirō Kusanagi
*Renji Ishibashi

==Reception==
It was chosen as the 7th best film at the 2nd Yokohama Film Festival. 

==References==
 

 
 
 
 
 
 

 
 
 