Roco Kingdom 3
{{Infobox film
| name           = Roco Kingdom 3
| image          = Roco Kingdom 3 poster.jpg
| image size     = 
| border         = 
| alt            = 
| caption        = 
| director       = Gong Bingsi
| producer       = 
| writer         = 
| screenplay     = 
| story          = 
| based on       =  
| narrator       =  Yang Ying Yan Mengmeng Huang Zhenji Xin Shan Tang Xiaoxi 
| music          = 
| cinematography = 
| editing        = 
| studio         = 
| distributor    = 
| released       =   
| runtime        = 85 minutes
| country        = China
| language       = Mandarin
| budget         = 
| gross          = US$7,050,000 
}}
 Chinese animated fantasy adventure film directed by Gong Bingsi. It was released on 10 July 2014. 

==Cast== Yang Ying
*Yan Mengmeng
*Huang Zhenji
*Xin Shan  
*Tang Xiaoxi 

==See also==
* 

==References==
 

 
 
 
 
 
 
 
 
 

 
 
 
 