Billy Connolly Live 1994
{{Infobox film
|  name           = Billy Connolly Live 1994|
  image          = Billy Connolly Live 1994.jpg|
  writer         = |
  starring       = Billy Connolly|
  director       = |
  producer       =  |
  studio         =   |
  distributor    =  |
  released   =  1994 |
  runtime        =   |
  country =  United Kingdom |
  language =   |
  music          =  |
  awards         = |
  budget         =
}}
Live 1994 is a live comedy video by Billy Connolly from one of 20 nights at the Hammersmith Apollo.  It was the best-selling comedy VHS tape in the UK in 1994.  Connollys performances at the Apollo had been well received by critics.  

==References==
 
 

 
 
 


 
 