Chelovek menyaet kozhu
 
{{Infobox film
| name           = Chelovek menyaet kozhu
| image          = 
| image_size     =
| caption        = 
| studio    = 
| director       = Rafail Perelshtejn
| producer       = 
| writer         = L. Rutitski <!--
                  -->Dmitri Vasiliu
| narrator       =
| starring       = See below
| music          = S. Sayfiddinov
| cinematography = Mark Kaplan
| editing        = 
| distributor    =
| released       = 1960
| runtime        = 
| country        = Soviet Union
| language       = Russian
| budget         =
| gross          =
}}
 Soviet film directed by Rafail Perelshtejn.

== Cast ==
*Asli Burkhanov 
*Sergei Golovanov 
*Izolda Izvitskaya
*Abdulkhair Kasymov
*Sergei Kurilov Natalia Medvedeva
*Ninel Myshkova as Yelena Myshkova
*Sergei Stolyarov
*Pavel Volkov
*Pavel Volkov
*Vladimir Yemelyanov

== External links ==
* 

 
 
 

 