A Noble Spirit
{{Infobox film
| name           = A Noble Spirit
| image          = 
| image size     = 
| border         = 
| alt            = 
| caption        = 
| director       = Miao Yue
| producer       = 
| writer         = 
| screenplay     = 
| story          = 
| based on       =  
| narrator       =  Maggie Jiang Jin Chen
| music          = 
| cinematography = 
| editing        = 
| studio         = 
| distributor    = 
| released       =   
| runtime        = 105 minutes
| country        = China
| language       = Mandarin
| budget         = 
| gross          = $0.37 
}}
 biographical documentary Maggie Jiang Jin Chen.  

==Cast==
*Rinchen Ngawang Maggie Jiang Jin Chen

==Reception==
The film has grossed $0.37 at the Chinese box office. 

==References==
 

 
 
 
 
 
 
 
 

 
 