Russian Soil
{{Infobox film
| name           = Russian Soil
| image          =
| caption        =
| director       =
| producer       =
| writer         =
| narrator       =
| music          =
| cinematography =
| editing        =
| distributor    = Amkino Corporation
| released       =  
| runtime        = 
| country        = USSR
| language       = Russian
| budget         =
}} short documentary Best Documentary Short. 

==References==
 

==External links==
* 

 
 
 
 
 
 
 
 
 


 