The Nurse from Brooklyn
{{Infobox film
| name           = The Nurse from Brooklyn
| image          = The Nurse from Brooklyn.jpg
| alt            = 
| caption        = 
| director       = S. Sylvan Simon
| producer       = 
| writer         =  Paul Kelly, and Larry J. Blake
| music          = 
| cinematography = 
| editing        = 
| studio         = Universal Pictures 
| distributor    = 
| released       =  
| runtime        = 65 minutes
| country        = United States
| language       = English
| budget         = 
| gross          = 
}} Paul Kelly, and Larry J. Blake. 

==References==
 

==External links==
*  at the Internet Movie Database

 
 
 
 
 
 
 
 
 
 
 