Chinna Marumagal
{{Infobox film
| name           = Chinna Marumagal
| image          =
| image_size     =
| caption        =
| director       = Prasanthkumar Kayar
| writer         =
| screenplay     = Mohini Delhi Ganesh
| music          = Sriraj M S
| cinematography =
| editing        =
| studio         =
| distributor    =
| released       =  
| country        = India Tamil
}} 1992 Cinema Indian Tamil Tamil film, Mohini and Delhi Ganesh in lead roles. The film had musical score by Sriraj M S. 

==Cast==
*Sivaji Ganesan
*Siva Mohini
*Delhi Ganesh Thyagu
*Vadivukkarasi

==References==
 

==External links==
*  

 
 
 
 


 