Paarambariyam
{{Infobox film
| name           = Paarambariyam
| image          =
| image_size     =
| caption        =
| director       = Manobala
| producer       = R. Jambunathan
| writer         =
| screenplay     = Pandiyan Senthil
| music          = Shankar Ganesh
| cinematography =
| editing        =
| studio         =
| distributor    =
| released       =  
| country        = India Tamil
}} 1993 Cinema Indian Tamil Tamil film, Pandiyan and Senthil in lead roles. The film had musical score by Shankar Ganesh. 

==Cast==
*Sivaji Ganesan
*B. Saroja Devi Pandiyan
*Senthil Chitra
*Nirosha

==References==
 

 
 
 
 
 


 