Aakramana
 
 
{{Infobox film
| name           = Aakramana
| image          =  
| alt            = 
| caption        = 
| director       = Prashanth Kumar N
| producer       = Vimal Jain,	Suresh Jain, Vimal Jain
| starring       = Raghu Mukherjee Daisy Shah Shilpi Sharma
| music          = Satish Aryan
| Studio         = Sthayi Digital Studio
| cinematography = K G Ritheesh
| editing        = Bala Jeevan
| released       =   
| runtime        = 
| country        = India
| language       = Kannada
| budget         = 
| gross          = 
}}
 Kannada horror film.          This movie is an experimental movie    made both in 2D and 3D format and it is the first 3D horror movie in Kannada.

==Cast==
* Raghu Mukherjee
* Daisy Shah
* Shilpi Sharma
* Makarand Deshpande
* Avinash
* Kishori Balal
* Danny Kuttapa
* Marco
* Ramesh Pandit
* Prakash Shenoy
* K.P. Sridhar
* Sudarshan

==Soundtrack==
{| class="wikitable sortable"
|-
! Title !! Singers 
|-
| Manase Manasa || Kunal Ganjawala
|-
| Vinimaya(Female) || Priyanka Jois
|-
| Bul Bul || Satish Aryan 
|-
| Vinimaya(Male) || Rajesh Krishnan 
|-
| Aakramana || Satish Aryan
|}

==References==
 

==External links==
*  
 

 
 
 
 
 
 
 
 
 


 
 