Operation Blue Jay
 
Operation Blue Jay was the code name for the construction of Thule Air Base in Greenland. It started as a secret project, but was made public in September 1952.

==Documentary==
{{Infobox film
| name           = Operation Blue Jay
| image          = 
| caption        = 
| director       = 
| producer       = 
| writer         = 
| narrator       = 
| starring       = 
| music          = 
| cinematography = 
| editing        = 
| distributor    = 
| released       =  
| runtime        = 
| country        = United States
| language       = English
| budget         = 
}} Best Documentary Short.     

==References==
 

==External links==
* 
* 

 
 
 
 
 
 
 
 
 
 
 
 

 
 