The Magical Brush
{{Infobox film
| name           = The Magical Brush
| image          = The Magical Brush poster.jpg
| image size     = 
| border         = 
| alt            = 
| caption        = 
| director       = Frankie Chung
| producer       = 
| writer         = 
| screenplay     = 
| story          = 
| based on       =  
| narrator       =  Wu Lei Guo Yifeng Wu Wenlun
| music          = 
| cinematography = 
| editing        = 
| studio         = 
| distributor    = 
| released       =   
| runtime        = 87 minutes
| country        = China
| language       = Mandarin
| budget         = 
| gross          = US$8,520,000 
}}
 Chinese animated fantasy film directed by Frankie Chung. It was released on 25 July 2014. 

==Cast==
*Shao Yichen
*Meng Xianglong
*Hong Haitian Wu Lei
*Guo Yifeng
*Wu Wenlun

==References==
 

 
 
 
 
 
 
 
 

 
 
 