Vengeful Heart
{{Infobox film
| name           = Vengeful Heart
| image          = 
| image size     = 
| border         = 
| alt            = 
| caption        = 
| director       = Victor Vũ
| producer       = 
| writer         = 
| screenplay     = 
| story          = 
| based on       =  
| narrator       = 
| starring       = 
| music          = 
| cinematography = 
| editing        = 
| studio         = 
| distributor    = 
| released       =   
| runtime        = 
| country        = Vietname
| language       = Vietnamese
| budget         = 
| gross          = 91 billion Vietnamese dong|đồng (Vietnam)
}}

Vengeful Heart (Vietnamese: Quả tim máu) is a 2014 Vietnamese horror film directed by Victor Vũ. It was released on February 2014.

==Reception==
The film grossed 91 billion Vietnamese dong|đồng (US$4.3m) in Vietnam. Its the highest-grossing Vietnamese film. 

==References==
 

==External links==
* 

 

 
 
 
 
 


 
 