Happy Heroes 2
{{Infobox film
| name           = Happy Heroes 2
| image          = Happy Heroes 2 poster.jpg
| image size     = 
| border         = 
| alt            = 
| caption        = 
| director       = Huang Weiming
| producer       = 
| writer         = 
| screenplay     = 
| story          = 
| based on       =  
| narrator       =  Zhang Lin
| music          = 
| cinematography = 
| editing        = 
| studio         = 
| distributor    = 
| released       =   
| runtime        = 
| country        = China
| language       = Mandarin
| budget         = 
| gross          = US$4,210,000 
}}
 Chinese animated Happy Heroes (2013). It was released on 18 July 2014. 

==Cast==
*Zu Qing
*Gao Quansheng
*Liu Hongyun
*Deng Yuting
*Yan Yanzi
*Li Tuan Zhang Lin

==Reception==
The film has grossed Chinese yuan|¥16.1 million in China. 

==References==
 

 
 
 
 
 
 
 

 
 
 