Fires on the Plain (2014 film)
 
{{Infobox film
| name           = Fires on the Plain
| image          = 
| caption        = 
| director       = Shinya Tsukamoto
| producer       = 
| writer         = 
| starring       = Shinya Tsukamoto Yusaku Mori Yuko Nakamura Tatsuya Nakamura Lily Franky
| music          = 
| cinematography = 
| editing        = 
| distributor    = 
| released       =  
| runtime        = 87 minutes
| country        = Japan
| language       = Japanese Filipino
| budget         = 
}}
 same name by Kon Ichikawa. It was selected to compete for the Golden Lion at the 71st Venice International Film Festival.      

==Cast==
* Riri Furanki
* Tatsuya Nakamura
* Yuko Nakamura
* Shinya Tsukamoto

==References==
 

==External links==
*  

 

 
 
 
 
 
 
 
 
 
 
 
 
 


 
 