Dik Trom (film)
{{Infobox film
| name           = Dik Trom
| image          = 
| alt            = 
| caption        = 
| director       = Arne Toonen
| producer       = 
| writer         = 
| starring       = 
| music          = 
| cinematography = 
| editing        = 
| studio         = 
| distributor    = 
| released       =  
| runtime        = 
| country        = Netherlands
| language       = Dutch
| budget         = 
| gross          = 
}}

Dik Trom is a Dutch film from 2010 directed by Arne Toonen. Unlike the previous Dik Trom films, this film is not based on the childrens book series Dik Trom, but features a new story. 

==External links==
*    
*  

 

 