The Widow Couderc
{{Infobox film
| name           = The Widow Couderc
| image          = The Widow Couderc.jpg
| alt            = 
| caption        = 
| film name      = La veuve Couderc
| director       = Pierre Granier-Deferre
| producer       = 
| writer         = Pascal Jardin
| starring       = Simone Signoret Alain Delon
| music          = Philippe Sarde
| cinematography = Walter Wottitz
| editing        = 
| studio         = 
| distributor    = 
| released       =  
| runtime        = 89 minutes
| country        = France
| language       = French
| budget         = 
| gross          = 2,008,203 admissions (France) 
}} novel of the same name by Georges Simenon.

==Cast==
* Simone Signoret - Tati Couderc
* Alain Delon - Jean Lavigne
* Ottavia Piccolo - Félicie
* Jean Tissier - Henri Couderc
* Monique Chaumette - Françoise
* Boby Lapointe - Désiré
* Pierre Collet - commissaire Mallet
* François Valorbe - colonel Luc de Mortemont
==References==
 
==External links==
*  

 
 
 
 
 


 
 