Om Shakti
{{Infobox film
| name           = Om Sakthi
| image          =
| image_size     =
| caption        =
| director       = S. A. Chandrasekhar
| producer       = M. Muthuraman
| writer         =
| starring       = Vijayakanth Menaka
| music          = M. S. Viswanathan
| cinematography = D. D. Prasad
| editing        = P. R. Gowthamraj
| art direction  = Babu
| released       =  
| country        = India Tamil
}}
 1982 Cinema Indian Tamil Tamil film, directed by S. A. Chandrasekhar, starring Vijayakanth and Menaka in lead roles. The film had musical score by M. S. Viswanathan and was released on 1981.  

==Cast==
*Vijayakanth
*Menaka
*Jaishankar

==References==
 

 
 
 
 


 