Dating Fever
{{Infobox film
| name           = Dating Fever
| image          = 
| image size     = 
| border         = 
| alt            = 
| caption        = 
| director       = Han Jing
| producer       = 
| writer         = 
| screenplay     = 
| story          = 
| based on       =  
| narrator       = 
| starring       = 
| music          = 
| cinematography = 
| editing        = 
| studio         = 
| distributor    = 
| released       =   
| runtime        = 106 minutes
| country        = China
| language       = Mandarin
| budget         = 
| gross          = 
}}

Dating Fever (Chinese: 我為相親狂) is a 2013 Chinese romantic comedy film directed by Han Jing.

==Reception==
On Film Business Asia, Derek Elley gave the film a grade of 6 out of 10, calling it a "frothy slice of throwaway rom-com fun" with "a lively young cast". 

==References==
 

 
 
 


 
 