Sumangali (1983 film)
{{Infobox film
| name           = Sumangali
| image          =
| image_size     =
| caption        =
| director       = Dasari Yoganand|D. Yoganand
| producer       = D. Yoganand
| writer         = Asha
| screenplay     = Sujatha Prabhu Prabhu Y. G. Mahendra
| music          = M. S. Viswanathan
| cinematography = G.Or. Nathan
| editing        =  R. Vittal
| studio         =
| distributor    =
| released       =  
| country        = India
| language       = Tamil
}}
 1983 Cinema Indian Tamil Tamil film, Prabhu and Y. G. Mahendra in lead roles. The film had musical score by M. S. Viswanathan.    

==Cast==
* Sivaji Ganesan Sujatha
* Prabhu
* Y. G. Mahendran
* V. K. Ramasamy (actor)|V. K. Ramasamy
* Pushpalatha
* Silk Smitha

==References==
 

==External links==
*  

 
 
 
 
 


 