The Way to Love
{{Infobox film
| name           = The Way to Love
| image          = 
| image_size     =
| caption        = 
| director       = Norman Taurog
| producer       = 
| writer         = 
| narrator       =
| starring       = Maurice Chevalier Ann Dvorak
| music          = 
| cinematography = 
| editing        = 
| distributor    = 
| released       = 1933
| runtime        = 
| country        = United States English
| budget         = 
| gross          = 
}}
The Way to Love is a 1933 American film.

==External links==
* 

 

 
 
 
 
 
 
 


 