The Medicine Men (1929 film)
{{Infobox film
| name           = The Medicine Men
| image          = 
| image_size     =
| caption        = 
| director       = Norman Taurog
| producer       = 
| writer         = 
| narrator       = Bobby Clark
| music          = 
| cinematography = 
| editing        = 
| distributor    = 
| released       = 1929
| runtime        = 
| country        = United States English
| budget         = 
| gross          = 
}}
The Medicine Men is a 1929 film directed by Norman Taurog.

==External links==
* 

 

 
 
 
 
 


 