Follow the Leader (1930 film)
{{Infobox film
| name           = Follow the Leader
| image          = 
| image_size     =
| caption        = 
| director       = Norman Taurog
| producer       = 
| writer         = 
| narrator       =
| starring       = Ed Wynn Ginger Rogers
| music          = 
| cinematography = 
| editing        = 
| distributor    = 
| released       = 1930
| runtime        = 
| country        = United States English
| budget         = 
| gross          = 
}}
Follow the Leader is a 1930 film.

==External links==
* 

 

 
 
 
 
 
 


 