Le Destin fabuleux de Désirée Clary
 
{{Infobox film
| name           =  Le Destin fabuleux de Désirée Clary
| image          =  Le destin fabuleux de desiree clary poster guitry.jpg
| caption        = 
| director       = Sacha Guitry with the technical collaboration of René Le Hénaff
| producer       =  
| writer         = Sacha Guitry
| starring       = Jean-Louis Barrault Aimé Clariond Gaby Morlay   Yvette Lebon
| music          = Adolphe Borchard
| cinematography = 
| editing        = 
| distributor    = 
| released       =  
| runtime        = 
| country        = France
| language       = French
| budget         = 
| gross = 
| preceded_by    = 
| followed_by    = 
}} a dynasty.

==Plot== Joseph and Bernadotte

== Cast ==
* Sacha Guitry : narrator 
*  
*  
*  
*  , as a young woman
* Gaby Morlay : Désirée Clary 
*  
*  
*  
*  
*  
* Jeanne Fusier-Gir : Albertine, servant
* Germaine Laugier : Madame Clary 
* Pierre Magnier : Monsieur Clary 
*  
*  
*  
*  
* Jean Davy : Berthier
*  
*  
*  
* Maurice Lagrenée : Duke of Richelieu
*  
*  

== References ==
 

== External links ==
*  

 
 
 
 
 
 