Prince of the Saddle
{{infobox film
| title          = Prince of the Saddle
| image          =
| imagesize      =
| caption        =
| director       =
| producer       = Fred J. Balshofer
| writer         = Fred Church
| cinematography =
| editing        =
| distributor    =
| released       =  
| runtime        = 5 reels
| country        = USA
| language       = Silent/English titles
}} lost  Fred Church and Pauline Curley. 

==Cast== Fred Church
*Pauline Curley
*  - (*as Boris Bullock, aka Kit Carson)

==References==
 

==External links==
* 
* 
* 

 
 
 
 
 
 
 


 
 