Anbai Thedi
{{Infobox film
| name           = Anbai Thedi
| image          =
| image_size     =
| caption        =
| director       = Muktha Srinivasan
| producer       = Muktha V. Ramaswamy
| writer         = Kalaignanam
| screenplay     = Cho
| music          = M. S. Viswanathan
| cinematography = N. Balakrishnan
| editing        = L. Balu
| studio         =
| distributor    = Muktha Films
| released       =  
| country        = India Tamil
}}
 1973 Cinema Indian Tamil Tamil film, Cho in lead roles. The film had musical score by M. S. Viswanathan.    

==Cast==
*Sivaji Ganesan
*Jayalalithaa
*Major Sundarrajan Cho
*Sreekanth
*R. S. Manohar
*Senthamari
*C. R. Vijayakumari Manorama
*S. N. Parvathi

==References==
 

==External links==
*  
*  

 
 
 
 
 


 