The Doll Doctor
{{Infobox film
| name           = The Doll Doctor
| image          = 
| alt            = 
| caption        = 
| film name      =  Jack Harvey
| producer       = 
| writer         = 
| screenplay     = 
| story          = 
| based on       =   Jack Lewis
| narrator       = 
| music          = 
| cinematography = 
| editing        = 
| studio         = 
| distributor    = 
| released       =1916  
| runtime        = 
| country        = USA
| language       = Silent
| budget         = 
| gross          = 
}} Jack Harvey. Jack Lewis. 

==References==
 

==External links==
*  at the Internet Movie Database

 

 
 
 
 
 
 
 
 


 