The Woman Who Believed
{{Infobox film
| name           = The Woman Who Believed
| image          =
| alt            =
| caption        = Jack Harvey
| producer       =
| writer         =
| screenplay     =
| story          =
| based on       =  
| starring       = Walter Miller and Anna Luther
| cinematography =
| editing        =
| studio         =
| distributor    =
| released       =  
| runtime        =
| country        = United States
| language       = Silent
| budget         =
| gross          =
}} Jack Harvey. Walter Miller and Anna Luther.

==References==
 

==External links==
*  at the Internet Movie Database

 

 
 
 
 
 
 
 