Getting 'Em Right
{{Infobox film
| name           = Getting &#39;Em Right
| image          = 
| alt            = 
| caption        = 
| film name      =  Jack Harvey
| producer       = 
| writer         = 
| screenplay     = 
| story          = 
| based on       =  
| starring       = George Larkin, Jane Thomas, and Ollie Kirby
| narrator       = 
| music          = 
| cinematography = 
| editing        = 
| studio         = 
| distributor    = 
| released       =1925  
| runtime        = 56 minutes
| country        = USA
| language       = Silent
| budget         = 
| gross          = 
}} Jack Harvey. It stars George Larkin, Jane Thomas, and Ollie Kirby. 

==References==
 

==External links==
*  at the Internet Movie Database

 
 
 
 
 
 
 
 
 
 