The Flying Twins
{{Infobox film
| name           = The Flying Twins
| image          = 
| alt            = 
| caption        = 
| film name      =  Jack Harvey
| producer       = 
| writer         = 
| screenplay     = 
| story          = 
| based on       =  
| starring       = Marion Fairbanks, Madeline Fairbanks, and Boyd Marshall
| narrator       = 
| music          = 
| cinematography = 
| editing        = 
| studio         = 
| distributor    = 
| released       =1915  
| runtime        = 
| country        = USA
| language       = Silent
| budget         = 
| gross          = 
}} Jack Harvey. It stars Marion Fairbanks, Madeline Fairbanks, and Boyd Marshall. 

==References==
 

==External links==
*  at the Internet Movie Database

 

 
 
 
 
 
 
 
 


 