Ali Baba 40 Dongalu
{{Infobox film
| name           = Ali Baba 40 Dongalu
| image          = 
| image_size     =
| caption        =
| director       = B. Vittalacharya
| producer       = 
| writer         = 
| narrator       =
| starring       = N. T. Rama Rao Jayalalitha
| music          = 
| cinematography = 
| editing        =
| studio         = Sri Gautami Films
| distributor    =
| released       = 4 April 1970
| runtime        = 
| country        = India
| language       = Telugu
| budget         =
}} Telugu Swashbuckler swashbuckling Adventure adventure fantasy Alibabavum 40 Thirudargalum which inturn is based on Ali Baba and the Forty Thieves.

==Cast==
*N. T. Rama Rao as Ali Baba
*Nagabhushanam as Cassim
*Kaikala Satyanarayana
*Jayalalithaa
*Suryakantham Raja Babu as Sisinri
*Allu Rama Lingaiah as doctor
*Rama Prabha
*Raavi Kondala Rao

==External links==
 

 

 
 
 
 
 
 
 
 
 
 


 
 