The Undertow (1915 film)
{{Infobox film
| name           = The Undertow
| image          =
| alt            =
| caption        = Jack Harvey
| producer       =
| writer         =
| screenplay     =
| story          =
| based on       =  
| starring       = Ethel Jewett, Ernest C. Warde, and Bert Delaney
| cinematography =
| editing        =
| studio         = Thanhouser Company
| distributor    =
| released       =  
| runtime        =
| country        = United States
| language       = Silent
| budget         =
| gross          =
}} Jack Harvey for the Thanhouser Company. It stars Ethel Jewett, Ernest C. Warde, and Bert Delaney.   

==References==
 

==External links==
*  at the Internet Movie Database

 

 
 
 
 
 
 
 
 
 


 