$1,000 Reward
{{Infobox film
| name           = $1,000 Reward
| image          = 
| alt            = 
| caption        = 
| film name      =  Jack Harvey
| producer       = 
| writer         = 
| screenplay     = 
| story          = 
| based on       =  
| starring       = Madeline Fairbanks, Marion Fairbanks, Jane Fairbanks
| narrator       = 
| music          = 
| cinematography = 
| editing        = 
| studio         = Thanhouser Company
| distributor    = 
| released       =February 26, 1915  
| runtime        = 
| country        = USA
| language       = Silent
| budget         = 
| gross          = 
}} Jack Harvey for the Thanhouser Company. It stars Madeline Fairbanks, Marion Fairbanks, Jane Fairbanks.   

==References==
 

==External links==
*  at the Internet Movie Database

 

 
 
 
 
 
 
 
 


 