The White Rose (1914 film)
 
{{Infobox film
| name           = The White Rose
| image          = 
| alt            = 
| caption        = 
| film name      =  Jack Harvey
| producer       = 
| writer         = 
| screenplay     = 
| story          = 
| based on       =  
| starring       = Boyd Marshall, Muriel Ostriche, and Ernest C. Warde
| narrator       = 
| music          = 
| cinematography = 
| editing        = 
| studio         = Thanhouser Company
| distributor    = 
| released       =December 25, 1914  
| runtime        = 
| country        = USA
| language       = Silent
| budget         = 
| gross          = 
}} Jack Harvey for the Thanhouser Company. It stars Boyd Marshall, Muriel Ostriche, and Ernest C. Warde.   

==References==
 

==External links==
*  at the Internet Movie Database

 

 
 
 
 
 
 
 
 
 


 