Ana Arabia
{{Infobox film
| name           = Ana Arabia
| image          = Ana Arabia.jpg
| caption        =  
| director       = Amos Gitai
| producer       =
| writer         =Amos Gitaï
| starring       = 
| music          =
| cinematography = Giora Bejach
| editing        = 
| distributor    =
| released       = 2013
| runtime        =  
| country        =  
| language       =  
| budget         =
}}

Ana Arabia ("I Am Arab") is a 2013 French-Israeli drama film written and directed by Amos Gitai. It was entered into the main competition at the 70th Venice International Film Festival.  It consists of a single long take. 

==Cast==

* Yuval Scharf : Yael
* Yussuf Abu-Warda : Yussuf
* Sarah Adler : Miriam
* Assi Levy : Sarah
* Uri Gavriel : Hassan
* Norman Issa : Norman

==References==
 

==External links==
* 
 
 
  
 
  
 
  
  
  
 