Lulu (2014 film)
 
{{Infobox film
| name           = Lulu
| image          = 
| caption        = 
| director       = Luis Ortega
| producer       = 
| writer         = Luis Ortega
| starring       = Nahuel Pérez Biscayart
| music          = 
| cinematography = 
| editing        = 
| distributor    = 
| released       =  
| runtime        = 84 minutes
| country        = Argentina
| language       = Spanish
| budget         = 
}}

Lulu is a 2014 Argentine drama film directed by Luis Ortega. It was selected to be screened in the Contemporary World Cinema section at the 2014 Toronto International Film Festival.   

==Cast==
* Nahuel Pérez Biscayart
* Ailín Salas
* Daniel Melingo

==References==
 

==External links==
*  

 
 
 
 
 
 
 
 