Dulhan (1938 film)
{{Infobox film
| name           = Dulhan
| image          = 
| image_size     = 
| caption        = 
| director       = Premankur Atorthy
| producer       = Imperial Film Company
| writer         = 
| narrator       = 
| starring       = Rattan Bai W. M. Khan Ghulam Mohammed Jilloobai
| music          = 
| cinematography = 
| editing        = 
| distributor    =
| studio         = Imperial Film Company
| released       = 1938
| runtime        = 
| country        = India
| language       = Hindi
| budget         = 
| gross          = 
| preceded_by    = 
| followed_by    = 
| website        = 
}} 1938 social Hindi film directed by Premankur Atorthy.    It was produced by the Imperial Film Company.    The music direction was by Ram Gopal Pande.    The film starred Rattan Bai, W. M. Khan, Ghulam Mohammed and Jilloobai.    

==Cast==
*Rattan Bai
*W. M. Khan
*Ghulam Mohammed
*Jilloobai



==References==
 

==External links==
* 

 

 
 
 
 

 