Partners in Crime (film)
 
{{Infobox film
| name           = Partners in Crime
| image          = 
| caption        = 
| director       = Chang Jung-Chi
| producer       = 
| writer         = 
| starring       = Teng-Hui Huang
| music          = 
| cinematography = 
| editing        = 
| distributor    = 
| released       =  
| runtime        = 89 minutes
| country        = Taiwan
| language       = Mandarin
| budget         = 
}}

Partners in Crime is a 2014 Taiwanese crime film directed by Chang Jung-Chi. It was screened in the Contemporary World Cinema section at the 2014 Toronto International Film Festival.   

==Cast==
* Teng-Hui Huang
* Tsai-yi Huang
* Chia-yen Ko
* Lieh Lee
* Soso Tseng
* Chen-Ling Wen as Chu Ching-Yi
* Chien-He Wu

==References==
 

==External links==
*  

 
 
 
 
 
 
 
 