Where I Am King
 
{{Infobox film
| name           = Where I Am King
| image          = 
| caption        = 
| director       = Carlos Siguion-Reyna
| producer       = 
| writer         = Bibeth Orteza
| starring       = Robert Arevalo
| music          = 
| cinematography = 
| editing        = 
| distributor    = 
| released       =  
| runtime        = 91 minutes
| country        = Philippines
| language       = Tagalog
| budget         = 
}}

Where I Am King ( ) is a 2014 Philippine comedy film directed by Carlos Siguion-Reyna. It was selected to be screened in the Contemporary World Cinema section at the 2014 Toronto International Film Festival.   

==Cast==
* Robert Arevalo
* Liza Lorena
* Rez Cortez
* Aiza Seguerra
* Cris Villonco
* Ciara Sotto
* Rafa Siguion-Reyna
* Eric Quizon
* Ali Sotto
* Audie Gemora

==References==
 

==External links==
*  

 
 
 
 
 
 
 
 