Manidharil Manikkam
{{Infobox film
| name           = Manidharil Manikkam
| image          =
| image_size     =
| caption        =
| director       = C. V. Rajendran
| producer       =
| writer         =
| screenplay     = Manorama
| music          = M. S. Viswanathan
| cinematography =
| editing        =
| studio         = Vasanth Movies
| distributor    = Vasanth Movies
| released       =  
| country        = India Tamil
}}
 1973 Cinema Indian Tamil Tamil film, Manorama in lead roles. The film had musical score by M. S. Viswanathan.   

==Cast==
*Sivaji Ganesan
*Prameela
*A. V. M. Rajan Manorama

==References==
 

==External links==
*  

 
 
 
 
 


 