The Rainmakers (film)
{{Infobox film
| name           = The Rainmakers
| image          = 
| alt            =
| caption        = 
| director       = Fred Guiol
| producer       = Associate producer Lee Marcus
| screenplay     = Grant Garrett Leslie Goodwins
| story          = Albert Traynor Fred Guiol Dorothy Lee
| music          = Musical director Roy Webb Ted McCord
| editing        = John Lockert RKO Radio Pictures
| distributor    = 
| released       =   }}
| runtime        = 79 minutes
| country        = United States
| language       = English
| budget         = 
| gross          =  
}}
 Dorothy Lee.

==Cast==
*Bert Wheeler  
*Robert Woolsey   Dorothy Lee  
*Berton Churchill  
*George Meeker  
*Frederic Roland  
*Edgar Dearing  

==References==
 

== External links ==
* 
* 
* 
* 
*  at TV Guide (A version of this 1987 write-up was originally published in The Motion Picture Guide)

 
 
 
 
 
 
 
 