Freckles (1935 film)
{{Infobox film
| name           = Freckles
| image          = 
| alt            =
| caption        = 
| film name      =  William Hamilton Charles Kerr (associate)
| producer       = Pandro S. Berman William Sistrom (associate)
| writer         = 
| screenplay     = Dorothy Yost
| story          = Mary Mayes (adaptation)
| based on       =   --> Tom Brown Virginia Weidler
| narrator       = 
| music          = Alberto Colombo
| cinematography = Robert de Grasse
| editing        = Desmond Marquette RKO Radio Pictures
| distributor    = 
| released       =   }}
| runtime        = 69 minutes
| country        = United States 
| language       = English
| budget         = 
| gross          =  
}}
 William Hamilton Paramount in Tom Brown, Virginia Weidler, and Carol Stone.

==References==
 

 
 
 
 


 