Laddie (1935 film)
{{Infobox film
| name           = Laddie
| image          = 
| alt            =
| caption        = 
| film name      = 
| director       = George Stevens Gene Yarbrough (assistant)
| producer       = Pandro S. Berman William Sistrom (associate)
| writer         = Ray Harris Dorothy Yost
| screenplay     = 
| story          = 
| based on       =   John Beal Gloria Stuart Virginia Weidler
| narrator       = 
| music          = Roy Webb
| cinematography = Harold Wenstrom
| editing        = James Morley RKO Radio Pictures
| distributor    = 
| released       =   }}
| runtime        = 70 minutes
| country        = United States
| language       = English
| budget         = 
| gross          =  
}}
 John Beal, Gloria Stuart, and Virginia Weidler.

==References==
 