Tunnel (film)
{{Infobox film
| name               = Tunnel
| image              = Tunnel 2014 film.jpg
| alt                = 
| caption            = 
| director           = Stanlee Ohikhuare
| producer           =  
| screenplay         = Adejumoke Atunde
| starring       =  
| music          = 
| cinematography = 
| editing        = 
| studio         = Parables Entertainment
| distributor   = 
| released       =  
| runtime        = 
| country        = Nigeria
| language       = English
| budget         = 
| gross          =
}}
 Waje Iruobe and Lepacious Bose. The film tells a story on the life and struggles of a young pastor and his journey to ultimate fulfillment.  

==Cast==
*Nse Ikpe Etim
*Femi Jacobs as Pastor Lade Olagbesan Waje Iruobe as Sade
*Patrick Doyle
*Femi Akeredolu
*Lepacious Bose

==Release==
The film premiered on 16 March 2014.  It was released on IROKOtv on 4 September 2014. 

==Reception==
Nollywood Reinvented gave it a 35% rating and praised the storyline and acting but felt it was not engaging enough.    

==References==
 

==External links==
* 

 
 
 
 
 