Thangai
{{Infobox film
| name           = Thangai
| image          =
| image_size     =
| caption        =
| director       = A. C. Tirulokchandar
| producer       = K. Balaji
| writer         = Aroordhas (dialogues)
| screenplay     = A. C. Tirulokchandar Kanchana V. Gopalakrishnan
| music          = M. S. Viswanathan
| cinematography = T. Muthuswamy
| editing        = B. Kandhasamy
| studio         =  Sujatha Cine Arts
| distributor    =  Sujatha Cine Arts
| released       =  
| country        = India Tamil
}}
 1967 Cinema Indian Tamil Tamil film, Kanchana and V. Gopalakrishnan in lead roles. The film had musical score by M. S. Viswanathan.   

==Cast==
*Sivaji Ganesan
*K. R. Vijaya
*R. Muthuraman Kanchana
*K. Balaji
*Nagesh
*Major Sundarrajan

==References==
 

==External links==
*  

 

 
 
 
 
 
 
 


 