To Beat the Band
{{Infobox film
| name           = To Beat the Band
| image          = 
| alt            =
| caption        = 
| film name      = 
| director       = Ben Stoloff Kenny Holmes (assistant)
| producer       = Zion Myers
| writer         = 
| screenplay     = Rian James
| story          = George Marion, Jr.
| based on       =   Roger Pryor Fred Keating
| narrator       = 
| music          = 
| cinematography = Nick Musuraca
| editing        = George Crone RKO Radio Pictures
| distributor    = 
| released       =   }}
| runtime        = 67 minutes
| country        = United States
| language       = English
| budget         = 
| gross          =  
}}
 Roger Pryor, and Fred Keating, and features Johnny Mercer in a small role.  It was released by RKO Radio Pictures on November 8, 1935.

==References==
 

 
 
 
 
 


 