Grand Old Girl
{{Infobox film
| name           = Grand Old Girl
| image          = 
| alt            =
| caption        = 
| film name      =  John Robertson Charles Kerr
| producer       = Cliff Reid
| writer         = 
| screenplay     = Milton Krims John Twist Arthur T. Horman
| story          = Wanda Tuchock
| based on       =   Alan Hale
| narrator       = 
| music          = Albert Colombo
| cinematography = Lucien Andriot
| editing        = George Crone RKO Radio Pictures
| distributor    = 
| released       =   }}
| runtime        = 72 minutes
| country        = United States
| language       = English
| budget         = 
| gross          =  
}}
 John Robertson Alan Hale, Ben Alexander.

==References==
 

==External links==
* 

 

 
 
 
 
 

 