Two in Revolt
{{Infobox film
| name           = Two in Revolt
| image          = 
| alt            =
| caption        = 
| film name      = 
| director       = Glenn Tryon Sid Fogel (assistant)
| producer       = Samuel J. Briskin Robert Sisk (associate)
| writer         = 
| screenplay     = Ferdinand Reyher Frank Howard Clark Jerry Hutchison Earl Johnson Thomas Storey
| based on       =   Louise Latimer Moroni Olsen
| narrator       = 
| music          = Alberto Colombo
| cinematography = Jack MacKenzie
| editing        = Fred Knudtson RKO Radio Pictures
| distributor    = 
| released       =   }}
| runtime        = 65 minutes
| country        = United States
| language       = English
| budget         = 
| gross          =  
}}
 Earl Johnson Louise Latimer, and Moroni Olsen.

==References==
 

 

 


 