They Wanted to Marry
{{Infobox film
| name           = They Wanted to Marry
| image          = 
| alt            =
| caption        = 
| film name      = 
| director       = Lew Landers
| producer       = Samuel J. Briskin Zion Myers
| writer         = 
| screenplay     = Paul Yawitz Ethel Borden
| story          = Larry Bachmann Daniel L. Teilhet
| based on       =   Gordon Jones
| narrator       = 
| music          = 
| cinematography = Russell Metty
| editing        = Desmond Marquette RKO Radio Pictures
| distributor    = 
| released       =   }}
| runtime        = 60 minutes
| country        = United States
| language       = English
| budget         = 
| gross          =  
}}
 Gordon Jones.

==References==
 

==External links==
* 

 

 
 
 
 
 
 


 