Everybody's Doing It (1938 film)
{{Infobox film
| name           = Everybodys Doing It
| image          = 
| alt            =
| caption        = 
| film name      = 
| director       = Christy Cabanne
| producer       = William Sistrom
| writer         = 
| screenplay     = J. Robert Bren Edmund Joseph Harry Segall George Beck
| based on       =  
| starring       = Preston Foster Sally Eilers
| narrator       = 
| music          = Frank Tours
| cinematography = Nicholas Musuraca Paul Vogel
| editing        = Ted Cheesman RKO Radio Pictures
| distributor    = 
| released       =   }}
| runtime        = 67 minutes
| country        = United States
| language       = English
| budget         = 
| gross          =  
}}
 George Becks story. RKO produced and distributed the film, releasing it on January 14, 1938.  The movie stars Preston Foster and Sally Eilers.

==References==
 

==External links==
* 

 
 
 
 
 
 
 


 