Lawless Valley
{{Infobox film
| name           = Lawless Valley
| image          = 
| alt            =
| caption        = 
| film name      =  David Howard Harry Mancke (assistant)
| producer       = Bert Gilroy Lee Marcus (associate)
| writer         =  Oliver Drake
| story          = 
| based on       =  
| starring       = 
| narrator       = 
| music          = Roy Webb
| cinematography = Harry Wild
| editing        = Fred Knudtson RKO Radio Pictures
| distributor    = 
| released       =   }}
| runtime        = 60 minutes
| country        = United States
| language       = English
| budget         = 
| gross          =  
}}
 David Howard Oliver Drake, George OBrien and Kay Sutton.

==References==
 

==External links==
* 

 
 
 
 
 
 
 
 
 


 