Trouble in Sundown
{{Infobox film
| name           = Trouble in Sundown
| image          = 
| alt            =
| caption        = 
| film name      =  David Howard Sam Ruman (assistant)
| producer       = Bert Gilroy
| writer         =  Oliver Drake Dorrell McGowan Stuart McGowan
| story          = Charles F. Royal
| based on       =   George OBrien Rosalind Keith Ray Whitley Chill Wills
| narrator       = 
| music          = Roy Webb
| cinematography = Harry Wild
| editing        = Frederic Knudtson RKO Radio Pictures
| distributor    = 
| released       =   }}
| runtime        = 60 minutes
| country        = United States
| language       = English
| budget         = 
| gross          =  
}}
 David Howard Oliver Drake, George OBrien, Rosalind Keith, Ray Whitley, and Chill Wills, the film was produced and distributed by RKO Radio Pictures, released on March 24, 1939.

==References==
 

 

 
 
 
 