Inside the Girls
{{Infobox film
| name           = Inside the Girls
| image          = Inside the Girls poster.jpg
| image size     = 
| border         = 
| alt            = 
| caption        = 
| director       = Liang Ting
| producer       = 
| writer         = 
| screenplay     = 
| story          = 
| based on       =  
| narrator       = 
| starring       = 
| music          = 
| cinematography = 
| editing        = 
| studio         = 
| distributor    = 
| released       =   
| runtime        = 103 minutes
| country        = China
| language       = 
| budget         = 
| gross          = chinese yuan|¥12.36 million (China)
}}
 thriller film directed by Liang Ting. It was released on September 12, 2014. 

==Cast==
*Wen Xin
*Cheng Yi
*Yin Zheng
*Zhao Duo-na 
*Jelly
*Wang Qianyi
*Du Shuangyu
*Jing Gangshan

==Box office==
By September 28, it had earned chinese yuan|¥12.36 million at the Chinese box office. 

==References==
 

 
 
 
 

 
 