Stage to Chino
{{Infobox film
| name           = Stage to Chino
| image          = 
| alt            =
| caption        = 
| film name      =  Kenneth Holmes (assistant)
| producer       = Bert Gilroy
| writer         = 
| screenplay     = Morton Grant Arthur V. Jones
| story          = Norton S. Parker
| based on       =  
| starring       = 
| narrator       = 
| music          = Paul Sawtell
| cinematography = J. Roy Hunt
| editing        = Frederic Knudtson RKO Radio Pictures
| distributor    = 
| released       =   }}
| runtime        = 60 minutes
| country        = United States
| language       = English
| budget         = 
| gross          =  
}}
 George OBrien, Virginia Vale, and the vocal group, Pals of the Golden West.

==References==
 

 

 
 
 