Sued for Libel
{{Infobox film
| name           = Sued for Libel
| image          = 
| alt            =
| caption        = 
| film name      = 
| director       = Leslie Goodwins Doran Cox
| producer       = Cliff Reid
| writer         = 
| screenplay     = Jerry Cady
| story          = Wolfe Kaufman
| based on       =   Linda Hayes Lilian Bond Morgan Conway
| narrator       = 
| music          = Roy Webb
| cinematography = Jack MacKenzie
| editing        = Desmond Marquette RKO Radio Pictures
| distributor    = 
| released       =   }}
| runtime        = 66 minutes
| country        = United States
| language       = English
| budget         = 
| gross          =  
}}
 Linda Hayes, Lilian Bond, and Morgan Conway.

==References==
 

 

 
 
 