Prairie Law
{{Infobox film
| name           = Prairie Law
| image          = 
| alt            =
| caption        = 
| film name      =  David Howard
| producer       = Bert Gilroy
| writer         = 
| screenplay     = Doris Schroeder Arthur V. Jones
| story          = Bernard McConville
| based on       =   George OBrien Virginia Hale Dick Hogan
| narrator       = 
| music          = Paul Sawtell
| cinematography = J. Roy Hunt Harry Wild
| editing        = Frederic Knudtson RKO Radio Pictures
| distributor    = 
| released       =   }}
| runtime        = 60 minutes
| country        = United States
| language       = English
| budget         = 
| gross          =  
}}
 David Howard George OBrien, Virginia Hale (in her only film role), and Dick Hogan.

==References==
 

 

 
 
 