The Ramparts We Watch
{{Infobox film
| name           = The Ramparts We Watch
| image          = 
| alt            =
| caption        = 
| film name      = 
| director       = Louis de Rochemont
| producer       = Louis de Rochemont Thomas Orchard (associate)
| writer         = 
| screenplay     = Robert L. Richards Cedric R. Worth
| story          = 
| based on       =  
| starring       = 
| narrator       = 
| music          = Louis De Francesco
| cinematography = Charles E. Gilson John A. Geisel
| editing        = Lothar Wolff
| studio         = The March of Time
| distributor    = RKO Radio Pictures
| released       =   }}
| runtime        = 87 minutes
| country        = United States
| language       = English
| budget         = 
| gross          =  
}}

The Ramparts We Watch is a 1940 American  .

==References==
 

 
 
 
 
 
 


 