Highways by Night
{{Infobox film
| name           = Highways by Night
| image          = 
| alt            =
| caption        = 
| film name      =  Peter Godfrey James Anderson (assistant)
| producer       = Herman Schlom
| writer         =  Frank Fenton
| story          = 
| based on       =   Richard Carlson Jane Randolph
| narrator       = 
| music          = C. Bakaleinikoff Roy Webb
| cinematography = Robert de Grasse
| editing        = Harry Marker RKO Radio Pictures
| distributor    = 
| released       =   }}
| runtime        = 62 minutes
| country        = United States
| language       = English
| budget         = 
| gross          =  
}}
 Peter Godfrey Frank Fenton, Richard Carlson and Jane Randolph.

==References==
 

 
 
 
 
 


 