Mateo (2014 film)
 
{{Infobox film
| name           = Mateo
| image          = 
| caption        =  Maria Gamboa
| producer       = 
| writer         = Maria Gamboa Carlos Hernández
| music          = 
| cinematography = 
| editing        = 
| distributor    = 
| released       =  
| runtime        = 86 minutes
| country        = Colombia
| language       = Spanish
| budget         = 
}}
 Maria Gamboa. Best Foreign Language Film at the 87th Academy Awards, but was not nominated.      

==Cast== Carlos Hernández
* Felipe Botero
* Samuel Lazcano

==See also==
* List of submissions to the 87th Academy Awards for Best Foreign Language Film
* List of Colombian submissions for the Academy Award for Best Foreign Language Film

==References==
 

==External links==
*  

 
 
 
 
 
 
 