Rats and Cats
{{Infobox film
| name           = Rats and Cats
| image          = 
| image size     =
| caption        = 
| director       = Tony Rogers
| producer       = 
| writer         = 
| based on = 
| narrator       =
| starring       = Adam Zwar Jason Gann
| music          = 
| cinematography = 
| editing        = 
| studio = 
| distributor    = 
| released       = 2007
| runtime        = 
| country        = Australia English
| budget         = 
| gross = 
| preceded by    =
| followed by    =
}}
Rats and Cats is a 2007 Australian comedy film.
==External links==
*  At the Movies
*  at SBS
*  at Sydney Morning Herald
 
 
 