Minnaminugu
{{Infobox film
| name           = Minnaminugu
| image          =
| image_size     =
| caption        =
| director       = Ramu Kariyat
| producer       =
| writer         =
| screenplay     = Ponjikkara Rafi
| music          = MS Baburaj
| released       =  
| cinematography =
| editing        =
| studio         =
| lyrics         =
| distributor    =
| starring       = Premji, Manavalan Joseph
| country        = India Malayalam
}}
 Indian Malayalam Malayalam film, directed by Ramu Kariyat.    The film stars Premji, Manavalan Joseph in lead roles.    The film had musical score by C Ramachandran, SM Subbaiah Naidu. 

==Cast==
* Premji 
* Manavalan Joseph 
* Santha Devi

==References==
 

==External links==
*  

 
 
 


 