The Eighth House
{{Infobox film
| name           = The Eighth House
| image          = The Eighth House poster.jpg
| alt            = 
| caption        = 
| director       = Zhang Li 
| producer       = 
| writer         = 
| starring       = 
| music          = 
| cinematography = 
| editing        = 
| studio         = Beijing Chuangci Kongjian Entertainment Co.,Ltd Shanghai Chuangci Media Co.,Ltd Gaoquan Media (Wuhan) Co.,Ltd Zijingcheng (Beijing) Education Consulting Co.,Ltd Beijing Chuangci Media Co.,Ltd E Mei Film Group
| distributor    = 
| released       =   
| runtime        = 90 minutes
| country        = China
| language       = Mandarin
| budget         = 
| gross          = chinese yuan|¥6.41 million (China)
}}
 romantic thriller thriller film directed by Zhang Li. It was released on September 19, 2014. 

==Cast==
*Tino Bao
*Ni Jingyang 
*Chang Le
*Da Qing
*Lin Peng

==Reception==
By September 28, it had earned chinese yuan|¥6.41 million at the Chinese box office. 

==References==
 

 
 
 
 
 
 
 
 


 
 
 