Double Deal (1950 film)
{{Infobox film
| name           = Double Deal
| image          = 
| alt            =
| caption        = 
| film name      = 
| director       = Abby Berlin
| producer       = James T. Vaughn
| writer         = 
| screenplay     = Lee Berman Charles S. Belden Don McGuire
| based on       =  
| starring       = 
| narrator       = 
| music          = Constantin Bakaleinikoff
| cinematography = Frank Redman
| editing        = Robert Swink RKO Radio Pictures
| distributor    = RKO Radio Pictures
| released       =   }}
| runtime        = 65 minutes
| country        = United States
| language       = English
| budget         = 
| gross          =  
}}
 Don McGuire.  The film stars Marie Windsor and Richard Denning.

==References==
 

 
 
 
 
 
 
 
 


 