Sunset Pass (1946 film)
{{Infobox film
| name           = Sunset Pass
| image          = 
| alt            =
| caption        = 
| film name      = 
| director       = William Berke Harry Mancke (assistant) Doran Cox (assistant)
| producer       = Herman Schlom
| writer         = 
| screenplay     = Norman Houston
| story          = 
| based on       =  
| starring       = 
| narrator       = 
| music          = Constantin Bakaleinikoff
| cinematography = Frank Redman
| editing        = Samuel E. Beetley RKO Radio Pictures
| distributor    = 
| released       =   }}
| runtime        = 60 minutes
| country        = United States
| language       = English
| budget         = 
| gross          =  
}}
 James Warren, Harry Woods, Steve Brodie, Harry Harvey.

==References==
 

 
 
 
 

 