Naked Sea
{{Infobox film
| name           = Naked Sea
| image          = "Naked_Sea"_(1954).jpg
| alt            =
| caption        = 
| film name      = 
| director       = Allen H. Miner
| producer       = Allen H. Miner Gerald Schnitzer (associate)
| writer         = Gerald Schnitzer
| screenplay     = 
| story          = 
| based on       =  
| starring       = 
| narrator       = 
| music          = Laurindo Almeida George Fields
| cinematography = Allen H. Miner
| editing        = Allen H. Miner
| studio         = Theatre Productions RKO Radio Pictures
| released       =   }}
| runtime        = 70 minutes
| country        = United States
| language       = English
| budget         = 
| gross          =  
}}
 35mm (with no apparent loss of quality) for theatrical distribution.   The fishing boat used its normal crew, captained by Joachim Qualen.

==Critical reception== hurricane and the eruption of a Galápagos Islands volcano."  

==References==
 

  

 
 
 
 