The Way Out (1956 film)
{{Infobox film
| name           = The Way Out
| image          = 
| alt            =
| caption        = 
| film name      = 
| director       = Montgomery Tully Bill Shore
| producer       = Alex C. Snowden
| writer         = Montgomery Tully
| based on       =   John Bentley
| music          = Richard Taylor
| cinematography = Philip Grindrod
| editing        = Geoffrey Miller
| studio         = Todon Productions RKO Radio Pictures
| released       =   }}
| runtime        = 78 minutes
| country        = Great Britain United States
| language       = English
| budget         = 
| gross          =  
}}
 John Bentley.

==References==
 

 
 
 
 


 