Aparna (1993 film)
{{Infobox film
| name = Aparna
| image = 
| caption = 
| director = 	PK Radhakrishnan
| writer = 
| starring = 
| producer = 
| music = 
| editor =
| released = 1993
| runtime = Malayalam
| budget =
}}
 1993 Cinema Indian feature film directed by PK Radhakrishnan.    

==References==
 

 
 
 

 