Dear Dead Delilah
{{Infobox film
| name           = Dear Dead Delilah
| image          = 
| alt            = 
| caption        = 
| director       = John Farris
| producer       = 
| based on       = 
| screenplay     =  Robert Gentry
| music          = 
| cinematography = 
| editing        = 
| studio         = 
| distributor    = 
| released       = 1972
| runtime        = 
| country        = United States
| language       = English
| budget         = 
| gross          = 
}}

Dear Dead Delilah is a 1972 horror movie.

==Plot==
A terminally ill matriarch in a Southern mansion finds herself surrounded by murderous relatives after her estate.

==External links==
*  

 
 
 
 


 