Moksham (2005 film)
{{Infobox film
| name           =Moksham
| image          = 
| image size     =
| caption        =
| director       =
| producer       =
| writer         = 
| narrator       =
| starring       =
| music          = 
| cinematography = 
| editing        =
| distributor    = 
| released       = 2005
| runtime        =
| country        = India Malayalam
| budget         =
| gross          =
| preceded by    =
| followed by    =
}}
Moksham is a Malayalam language film directed by Rajeevnath. It was released in 2005.  

==References==
 

 
 
 

 