Kanakachilanka (1990 film)
{{Infobox film
| name           =Kanakachilanka
| image          = 
| image size     =
| caption        =
| director       =
| producer       =
| writer         = 
| narrator       =
| starring       =
| music          = 
| cinematography = 
| editing        =
| distributor    = 
| released       = 1990
| runtime        =
| country        = India Malayalam
| budget         =
| gross          =
| preceded by    =
| followed by    =
}}
Kanakachilanka is a Malayalam language film. It was released in 1990.  

==References==
 

 
 
 

 