Yōseiki Suikoden
{{Infobox animanga/Header
| name            = Yōseiki Suikoden
| image           = 
| caption         = 
| ja_kanji        = 妖世紀水滸伝
| ja_romaji       = 
| genre           =  
}}
{{Infobox animanga/Print
| type            = light novel
| title           = 
| author          = Hitoshi Yoshioka
| illustrator     = 
| publisher       = 
| publisher_en    = 
| demographic     = 
| imprint         = 
| magazine        = 
| magazine_en     = 
| published       = 
| first           = 
| last            = 
| volumes         = 14
| volume_list     = 
}}
{{Infobox animanga/Video
| type            = ova
| title           = Suikoden Demon Century
| director        = Hiroshi Negishi
| producer        = 
| writer          = 
| music           = 
| studio          = 
| licensee        = 
| released        =  
| first           = 
| last            = 
| runtime         = 
| episodes        = 
| episode_list    = 
}}
 
  is a Japanese light novel series written by Hitoshi Yoshioka. It was adapted into an original video animation film, Suikoden Demon Century, directed by Hiroshi Negishi and released on September 25, 1993.     It was released on VHS in the United States. 

==Characters==
*Takateru
*Amamoto
*Miyuki

==Reception==
On Anime News Network, Justin Sevakis said of the anime: "Suikoden is appalling. It is the pinnacle of lazy storytelling; the end result of commercialism without the actual commercial appeal." 

==References==
 

==External links==
* 
* 

 
 
 
 
 
 


 
 