Zero Point Five Love
{{Infobox film
| name           = Zero Point Five Love
| image          = Zero Point Five Love poster.jpg
| alt            = 
| caption        = 
| director       = GengXiao
| producer       = 
| writer         = 
| starring       = 
| music          = 
| cinematography = 
| editing        = 
| studio         = Hebei Zhibao Media Co.,Ltd Beijing Shangshi Zhiguang Media Technology Co.,Ltd
| distributor    = 
| released       =   
| runtime        = 85 minutes
| country        = China
| language       = Mandarin
| budget         = 
| gross          = chinese yuan|¥0.54 million (China)
}}

Zero Point Five Love ( ) is a 2014 Chinese romance film directed by GengXiao. It was released on September 12, 2014.   

==Cast==
*Purba Rgyal
*Jessie
*Jie Xi
*Yue Ming Li

==Reception==
It has earned chinese yuan|¥0.54 million at the Chinese box office. 

==References==
 

 
 
 
 


 
 