Famous (2012 film)
 

{{Infobox film
| name           = Famous
| image =  Famousthemovie.jpg
| caption = Poster of film
| director       = Krishnan Unnikrishnan
| producer       =  
| writer         = Krishnan Unnikrishnan
| starring       =  
| music          =  
| narrator       =  
| cinematography = Viraj Singh
| editing        = Claire Tailyour
| studio         = 
| released       = 
| runtime        = 19 minutes
| country        = India USA
| language       = English
}}

Famous is a 2012 Indo-American short movie directed by Krishnan Unnikrishnan and starring Karanvir Bohra and Reshma Gajjar.

==External links==
 

 
 
 
 
 


 