Waller's Last Trip
{{Infobox film
| name           = Wallers Last Trip
| image          = 
| alt            =  
| caption        =  Christian Wagner
| producer       = 
| writer         = 
| based on       = 
| starring       = Rolf Illig Volker Prechtel Herbert Knaup
| music          = 
| cinematography = 
| editing        = 
| studio         = 
| distributor    = 
| released       =  
| runtime        = 95 minutes
| country        = Germany
| language       = German
| budget         = 
| gross          = 
}} Christian Wagner.

== Cast ==
* Rolf Illig - Waller (old)
* Volker Prechtel - Karg
* Herbert Knaup - Waller (young)
* Crescentia Dünßer - Angelika Heindl
* Sibylle Canonica - Rosina
* Rainer Egger - Albin
* Irm Hermann - Ordensschwester

==References==
 

==External links==
*  

 
 

 