Gangster Payday
 
 
{{Infobox film
| name           = Gangster Payday
| image          = Gangster Payday poster.jpg
| image size     = 
| border         = 
| alt            = 
| caption        = 
| director       = Lee Po-cheung
| producer       = 
| writer         = 
| screenplay     = 
| story          = 
| based on       =  
| narrator       =  Anthony Wong Charlene Choi Wong You-nam
| music          = 
| cinematography = 
| editing        = 
| studio         = Star Alliance Movies (HK) Co Ltd Sundream Motion Pictures Ltd
| distributor    = 
| released       =   
| runtime        = 
| country        = Hong Kong
| language       = Cantonese
| budget         = 
| gross          = 
}}
 action comedy comedy drama film directed by Lee Po-cheung. It was the closing film at the 19th Busan International Film Festival. It was released on 6 November.  

==Cast== Anthony Wong
*Charlene Choi
*Wong You-nam Michael Chan
*Ng Chi-hung
*Philip Keung
*Deep Ng
*Wilson Tsui
*Joe Cheung
*Carrie Ng
*Arthur Wong
*Law Wing-cheung

==References==
 

==External links==
*  

 
 
 
 
 
 


 
 
 