Shi Er Sheng Xiao Cheng Shi Ying Xiong
{{Infobox film
| name           = Shi Er Sheng Xiao Cheng Shi Ying Xiong
| image          = Shi Er Sheng Xiao Cheng Shi Ying Xiong poster.jpg
| alt            = 
| caption        = 
| director       = Ge Haitao
| producer       = 
| writer         = 
| starring       = 
| music          = 
| cinematography = 
| editing        = 
| studio         = Anhui Film Group Anhui Tongren Media Co.,Ltd
| distributor    = 
| released       =   
| runtime        = 80 minutes
| country        = China
| language       = 
| budget         = 
| gross          = chinese yuan|¥0.48 million (China)
}}
 Chinese animated comedy film directed by Ge Haitao. It was released on October 3, 2014 in China.    

==Voice cast==
*Su Qianyun
*Ding Runqi Wang Yan
*Xie Lili

==Reception==
By October 7, the film had earned chinese yuan|¥0.48 million at the Chinese box office. 

==References==
 

 
 
 
 
 
 

 
 
 