Ultimate Teacher
{{Infobox film
| name           = Ultimate Teacher
| image          = 
| image size     = 
| border         = 
| alt            = 
| caption        = 
| director       = Toyoo Ashida
| producer       = 
| writer         = 
| screenplay     = 
| story          = 
| based on       =  
| narrator       = 
| starring       = 
| music          = 
| cinematography = 
| editing        = 
| studio         = 
| distributor    = 
| released       =   
| runtime        = 60 minutes
| country        = Japan
| language       = Japanese
| budget         = 
| gross          = 
}}

  is a 1988 Japanese original video animation film directed by Toyoo Ashida. It was released on February 6, 1988.  It was released in English by Central Park Media.   

==Characters==
*Hinako Shiratori
*Ganpachi Chabane

==Reception==
On Anime News Network, Justin Sevakis said that "the animation is about TV quality for the era, meaning flat colors and virtually no detail, but a full range of motion that handles the speed required for such rapid-fire comedy." 

==References==
 

==External links==
* 
* 

 
 
 
 
 
 
 

 
 