Nabat (film)
 
{{Infobox film
| name           = Nabat
| image          = 
| caption        = 
| director       = Elchin Musaoglu
| producer       = 
| writer         = 
| starring       = Fatemeh Motamed-Arya
| music          = 
| cinematography = 
| editing        = 
| distributor    = 
| released       =  
| runtime        = 105 minutes
| country        = Azerbaijan
| language       = Azerbaijani
| budget         = 
}}
 Best Foreign Language Film at the 87th Academy Awards, but was not nominated.      

==Cast==
* Fatemah Motamed-Aria as Nabat
* Vidadi Aliyev as Iskender
* Sabir Mammadov as Major
* Farhad Israfilov as Davud

==See also==
* List of submissions to the 87th Academy Awards for Best Foreign Language Film
* List of Azerbaijani submissions for the Academy Award for Best Foreign Language Film

==References==
 

==External links==
*  

 
 
 
 
 
 
 