Prasanna (1951 film)
{{Infobox film
| name           = Prasanna
| image          =
| image_size     =
| caption        =
| director       = Velswamykavi
| producer       = 
| writer         = 
| screenplay     =
| music          =
| starring       = 
| cinematography =
| editing        =
| studio         =
| lyrics         = 
| distributor    =
| released       = September 9, 1951
| country        = India Malayalam
}}
 Indian Malayalam Malayalam film, directed by Velswamykavi.  

==Cast==
* Velukutty Nair
* Kanchana
* Radhamani

==References==
 

==External links==
*  

 
 
 


 