Elvira Madigan (1943 film)
{{Infobox film
| name            = Elvira Madigan
| image           = 
| image_size      = 
| caption         = 
| director        = Ake Ohberg
| writer          = 
| starring        = Eva Henning
| cinematography  = 
| producer        = 
| editing         = 
| distributor     = 
| released        = 1943
| country         = Sweden
| runtime         =  minutes  Swedish
| budget          =  
| gross = 
}}
Elvira Madigan is a 1943 Swedish film based on the famous true story of Elvira Madigan.
 1967 film on the same story.

==External links==
*  at IMDB
*  at Swedish Film Institute

 

 