Alor Michil
 
{{Infobox film
| name           = Alor Michil image =Alor_Michil_film_poster.gif caption = Alor Michil DVD Cover
| director       = Narayan Ghosh Mita
| starring       =  
| released       = 1974
| studio         = Jhorna Pictures
| language       = Bengali
| writer         = Narayan Ghosh Mita
}}
 the independence Abdur Razzak, Babita, Faruk and Anwar Hussain in lead roles. 

==Plot==
 

==Cast== Abdur Razzak
* Faruk
* Bobita Anwar Hossain

==Soundtrack==
{{infobox album
| Name          = Alor Michil
| Type            = Soundtrack
| Artist           = Khan Ataur Rahman
}}
{{Track listing
| headline         = Songs
| extra_column           = Playback
| all_lyrics        = Amjad Hossain
| all_music           = Khan Ataur Rahman

| title1          = Ei Prithibir Pore
| extra1          = Sabina Yasmin

| title2          = Jaliye Dao
| extra2         = Abdul Jabbar
}}

==References==
 

 
 
 
 
 
 

 