Monster Hunt
{{Infobox film
| name           = Monster Hunt
| image          = 
| image size     = 
| border         = 
| alt            = 
| caption        = 
| director       = Raman Hui
| producer       = 
| writer         = 
| screenplay     = 
| story          = 
| based on       =  
| narrator       = 
| starring       = 
| music          = 
| cinematography = 
| editing        = 
| studio         = Edko Films Ltd
| distributor    = 
| released       =   
| runtime        = 
| country        = China
| language       = Mandarin
| budget         = US$40 million 
| gross          = 
}}
 fantasy adventure film directed by Raman Hui.  It is scheduled for release on July 17, 2015. 

==Cast==
*Bai Baihe
*Kai Ko
*Sandra Ng
*Wallace Chung
*Eric Tsang

==References==
 

==External links==
* 

 

 
 
 
 
 
 

 
 
 