Apokalips X
 
 
{{Infobox film
| name           = Apokalips X
| image          =
| caption        =
| alt            =
| director       = Mamat Khalid
| producer       = Gayatri Su-Lin Pillai
| writer         = Mamat Khalid Peter Davis Zoie Tam Miera Leyana Iqram Dinzly
| music          =
| cinematography =
| editing        =
| studio         =
| distributor    =
| released       =  
| runtime        = 87 minutes
| country        = Malaysia
| language       = Malay, English
| budget         =
| gross          =
}}

Apokalips X is a 2014 Malaysian action film directed and written by Mamat Khalid. 

==Cast==
* Farid Kamil as X
* Jehan Miskin as Kala Peter Davis as Sri Gala
* Zoie Tam as Kulat
* Miera Leyana as Qi Qi
* Iqram Dinzly as Razor

==References==
 

==External links==
*  

 
 

 
 
 
 
 
 
 