Vazhimariya Paravakal
{{Infobox film 
| name           = Vazhimariya Paravakal
| image          =
| caption        =
| director       = S Jagadeesan
| producer       =
| writer         =
| screenplay     =
| starring       =
| music          =
| cinematography =
| editing        =
| studio         =
| distributor    =
| released       =  
| country        = India Malayalam
}}
 1980 Cinema Indian Malayalam Malayalam film, directed by S Jagadeesan .   

==Cast==

 

==References==
 

==External links==
*  

 
 
 


 