Tujhe Nahin Chhodunga
 
{{Infobox film
| name           = Tujhe Nahin Chhodunga
| image          = 
| image_size     = 
| caption        = 
| director       = Iqbal Khan	 
| producer       = 
| writer         = 
| narrator       = 
| starring       =Zeenat Aman Akbar Khan
| music          = C.P. Bhatti
| cinematography = 
| editing        = 
| distributor    = 
| released       = 1989
| runtime        = 
| country        = India Hindi
| budget         = 
| gross          = 
| preceded_by    = 
| followed_by    = 
| website        = 
}}

 Tujhe Nahin Chhodunga  is a 1989 Bollywood film directed by Iqbal Khan and starring Akbar Khan, Shekhar Suman, Swapna (actress)|Swapna, Suresh Oberoi, Shafi Inamdar, Amrish Puri and Zeenat Aman.


 
 
 

 