Kasam Vardi Ki
 
 
{{Infobox film
| name           = Kasam Vardi Ki
| image          = 
| image_size     = 
| caption        = 
| director       = Shibu Mitra	 
| producer       = Jimmy Narula
| writer         = 
| narrator       = 
| starring       =Jeetendra Chunky Pandey
| music          = Bappi Lahiri
| cinematography = 
| editing        = 
| distributor    = 
| released       = 10 Nov 1989
| runtime        = 
| country        = India Hindi
| budget         = 
| gross          = 
| preceded_by    = 
| followed_by    = 
| website        = 
}}

 Kasam Vardi Ki  is a 1989 Bollywood film directed by Shibu Mitra and starring Jeetendra, Chunky Pandey, Mohan Gokhale, Anupam Kher, Raj Kiran, Kiran Kumar and Raza Murad.

==Soundtrack==
{| border="10" cellpadding="10" cellspacing="0" style="margin: 1em 1em 1em 0; background: #f9f9f9; border: 1px #aaa solid; border-collapse: collapse; font-size: 95%;"
|- bgcolor="#CCCCCC" align="center"
! # !! Title !! Singer(s)
|-
| 1
| "Dil Kahin Kho Gaya"
| Asha Bhosale
|}

==References==
 

==External links==
* 

 
 
 

 