Mathruka Kudumbam
{{Infobox film 
| name           = Mathruka Kudumbam
| image          =
| caption        =
| director       = M. Krishnan Nair (director)|M. Krishnan Nair PRS Pillai
| producer       =
| writer         =
| screenplay     =
| starring       =
| music          =
| cinematography =
| editing        =
| studio         =
| distributor    =
| released       =  
| country        = India Malayalam
}}
 1982 Cinema Indian Malayalam Malayalam film, directed by M. Krishnan Nair (director)|M. Krishnan Nair.   

==Cast==

 

==References==
 

==External links==
*  

 
 
 


 