Nattbuss 807
{{Infobox film
| name           = Nattbuss 807
| image          = 
| alt            =
| caption        = 
| director       = David Flamholc
| producer       = Leon Flamholc
| writer         = Leon Flamholc
| based on       = 
| starring       = 
| music          = Kenneth Cosimo   Joachim Cohen   David Flamholc
| cinematography = 
| editing        = 
| studio         = Caravan Film
| distributor    = 
| released       =  
| runtime        = 100 minutes
| country        = Sweden Swedish
| budget         = 
| gross          = 
}} Swedish 1997 1997 thriller film directed by David Flamholc. The film is based on true story, the 1993 murder of a young boy in Vendelsö, Haninge kommun|Vendelsö during the Stockholm Water Festival. 

==References==
 

==External links==
*  
*  at Svensk Filmdatabas
* 

 
 