Raeeszada
 
{{Infobox film
| name           = Raeeszada
| image          = 
| image_size     = 
| caption        = 
| director       = Bharat Kapoor	 
| producer       = Pooja Kapoor
| writer         = 
| narrator       = 
| starring       =Govinda Sonam
| music          = Bappi Lahiri
| cinematography = 
| editing        = 
| distributor    = 
| released       = 1990
| runtime        = 
| country        = India Hindi
| budget         = 
| gross          = 
| preceded_by    = 
| followed_by    = 
| website        = 
}}

 Raeeszada  is a 1990 Bollywood film directed by Bharat Kapoor and starring Govinda, Sonam, Shashi Kapoor, Asha Parekh, Johny Lever, Gulshan Grover, Kulbhushan Kharbanda and Anupam Kher.

==Soundtrack==
{| border="10" cellpadding="10" cellspacing="0" style="margin: 1em 1em 1em 0; background: #f9f9f9; border: 1px #aaa solid; border-collapse: collapse; font-size: 95%;"
|- bgcolor="#CCCCCC" align="center"
! # !! Title !! Singer(s)
|-
| 1
| "Main Hu Dil Ka Raiszada"
| Mohammed Aziz
|}

 

 
 
 


 