The Fighting Generation
{{Infobox film
| name           = The Fighting Generation
| image          = 
| image_size     = 
| caption        = 
| director       = Alfred Hitchcock    (uncredited)
| producer       = David O. Selznick
| writer         = Stephen Longstreet
| story          = 
| based on       =
| narrator       = 
| starring       = Jennifer Jones
| music          = 
| cinematography = 
| editing        = 
| studio         = 
| distributor    = 
| released       =  
| runtime        = 1 minute 52 seconds   
| country        = United States
| language       = English
| budget         = 
| gross          = 
}} call sheet,  but in the end, only Jones appears on-screen.

It survives in the Academy Film Archive. 

==References==
 

==External links==
* 

 

 
 
 
 
 
 

 