Mahatma Gandhi: 20th Century Prophet
{{Infobox film
| name           = Mahatma Gandhi: 20th Century Prophet
| image          = 
| alt            = 
| caption        = 
| director       = Stanley Neal 	
| producer       = Stanley Neal 
| screenplay     = Quentin Reynolds
| starring       = Quentin Reynolds
| music          = Charles Koff 
| cinematography =
| editing        = 
| studio         = American Academy of Asian Studies Stanley Neal Productions Inc.
| distributor    = United Artists
| released       =  
| runtime        = 81 minutes
| country        = United States
| language       = English
| budget         = 
| gross          = 
}}

Mahatma Gandhi: 20th Century Prophet is a 1953 American documentary film directed by Stanley Neal and written by Quentin Reynolds. The documentary follows the life of Mahatma Gandhi. The film was released on April 28, 1953, by United Artists. 

==Plot==
 

== References ==
 

== External links ==
*  

 
 
 
 
 
 
 
 
 
 

 