South of the Clouds (2014 film)
{{Infobox film
| name           = South of the Clouds
| image          = South of the Clouds 2014 poster.jpg
| image size     = 
| border         = 
| alt            = 
| caption        = 
| director       = Guo Shuang Feng Yuan
| producer       = 
| writer         = 
| screenplay     = 
| story          = 
| based on       =  
| narrator       = 
| starring       =
| music          = 
| cinematography = 
| editing        = 
| studio         = Zhejiang Tianguang Diying Production Co., Ltd CPC Yunnan Provincial Party Committee Propaganda Department Honghe Prefecture Committee Propaganda Department Of The CPC Maitreya Communist Party Propaganda Department Youth Film Studio 
| distributor    = 
| released       =   
| runtime        = 96 minutes
| country        = China
| language       = Mandarin
| budget         = 
| gross          = chinese yuan|¥2.02 million (China)
}}
 comedy romance film directed by Guo Shuang and Feng Yuan. It was released on October 17. 

==Cast==
*Aarif Rahman
*Isabella
*Wu Xin
*Rombo Shyy
*Liu Zhuoting
*Zhang Yilong
*Cai Lu
*Cui Baoyue
*Liu Lei
*Zhou Wei
*Wang Xiaoshan

==Reception==
By October 20, the film had earned chinese yuan|¥2.02 million at the Chinese box office.   

==References==
 

 
 
 


 
 