Irapada
{{Infobox film
| name                = Irapada
| image               = 
| alt                 = 
| caption            = 
| director            = Kunle Afolayan
| producer            = 
| starring            = Kunle Afolayan
| cinematography      = 
| editing             = 
| screenplay          =   
| studio         = 
| distributor   = 
| released            =  
| runtime            = 
| country             = Nigeria
| budget         = 
| gross          =₦5,000,000 (domestic gross)  
}}

Irapada (English: Redemption) is a 2006 Nigerian supernatural thriller film, produced and directed by Kunle Afolayan.  In 2007 It won the Africa Movie Academy Award for Best Film in an African Language. It was also featured as one of the Best African Films of the 21st century on CNN African Voices in 2013.    It was released on DVD in July 2008.   

==References==
 

 
 

 
 
 
 