Kadinte Makkal
{{Infobox film
| name           = Kadinte Makkal
| image          =
| caption        =
| director       = PS Prakash
| producer       =
| writer         = Ramesh Naidu MT Vasudevan Nair (dialogues)
| screenplay     = PS Prakash
| starring       =
| music          = Ramesh Naidu
| cinematography = PS Prakash
| editing        =
| studio         = Sangeethalaya
| distributor    = Sangeethalaya
| released       =  
| country        = India Malayalam
}}
 1986 Cinema Indian Malayalam Malayalam film, directed by PS Prakash.  The film had musical score by Ramesh Naidu.   

==Cast==

 

==References==
 

==External links==
*  

 
 
 


 