Pakarathinu Pakaram
{{Infobox film
| name           = Pakarathinu Pakaram
| image          =
| caption        =
| director       = T Krishna
| producer       =
| writer         =
| screenplay     =
| starring       =
| music          =
| cinematography =
| editing        =
| studio         = Ushakiran Movies
| distributor    = Ushakiran Movies
| released       =  
| country        = India Malayalam
}}
 1986 Cinema Indian Malayalam Malayalam film, directed by T Krishna.   
It is a remake of telugu film Pratighatana. 
==Cast==

 

==References==
 

==External links==
*  

 
 
 


 