Feiyu Show
{{Infobox film
| name           = Feiyu Show
| image          = Feiyu Show poster.jpg
| alt            = 
| caption        = 
| director       = Sun Hong 
| producer       = 
| writer         = 
| starring       =
| music          = 
| cinematography = 
| editing        = 
| studio         = Qingying Interaction（Beijing）AD Co.,Ltd Beijing Iqiyi Co.,Ltd Beijing Shiyue Network Technology Co.,Ltd Beijing Yiheng Dongfang Education Technology Co.,Ltd 
| distributor    = 
| released       =   
| runtime        = 78 minutes
| country        = China
| language       = Mandarin
| budget         = 
| gross          = chinese yuan|¥0.23 million (China)
}}

Feiyu Show ( ) is a 2014 Chinese documentary film directed by Sun Hong. It was released in China on October 23, 2014. 

==Cast==
*Xiaofei
*Yu Zhou 

==Reception==
As of October 28, the film had earned chinese yuan|¥0.23 million at the Chinese box office. 

==References==
 

  

 
 
 

 
 