Hasina Aur Nagina
{{Infobox film
| name           =Hasina Aur Nagina
| image          = hasina_aur_nagina_1325148826.jpg 
| image_size     = 
| caption        = 
| director       = Gautam Bhatia 
| producer       = Gautam Bhatia
| writer         =
| narrator       = 
| starring       = Sadashiv Amrapurkar
Jagdeep
Kiran Kumar
Ekta Sohini
| music          = Dilip Sen-Sameer Sen
| cinematography = 
| editing        = 
| distributor    = 
| released       = 1996
| genres          =Drama, Family, Romance
| runtime        = 
| country        = India Hindi
| budget         = 
| gross          = 
| preceded_by    = 
| followed_by    = 
| website        = 
}}
 1996 and stars Sadashiv Amrapurkar
Jagdeep
Kiran Kumar
Ekta Sohini

==References==
 

==External links==
*  

 
 
 


 