Padaleeputhram
{{Infobox film
| name           =Padaliputhram
| image          =
| caption        =
| director       =Baiju Thomas
| producer       = 
| writer         = 
| screenplay     =
| starring       =MG Soman, Maathu
| music          = 
| cinematography = 
| editing        = 
| studio         = 
| distributor    = 
| released       = 1993
| country        = India Malayalam
}}
 1993 Cinema Indian Malayalam Malayalam film, directed by Baiju Thomas and starring MG Soman and Maathu in lead roles.   

==Cast==

 

==References==
 

==External links==
*  

 
 
 


 