Aalavattam (film)
{{Infobox film
| name           =Aalavattam
| image          =
| caption        =
| director       =Raju Ambaran
| producer       = 
| writer         = 
| screenplay     = Urvashi
| music          = 
| cinematography = 
| editing        = 
| studio         = 
| distributor    = 
| released       = 1993
| country        = India Malayalam
}}
 1993 Cinema Indian Malayalam Malayalam film, directed by Raju Ambaran and starring Nedumudi Venu and Shanthi Krishna in lead roles.    

==Cast==
* Sukumari	
* Jagathy Sreekumar
* Innocent	
* KPAC Lalitha
* Nedumudi Venu	
* Premkumar	
* Sankaradi	
* Sreenivasan
* Siddique	
* Ilavarasi	
* Poojappura Ravi	
* Shanthi Krishna
* TP Madhavan

==References==
 

==External links==
*  

 
 
 

 