Yaadhavam
{{Infobox film
| name           =Yaadhavam
| image          =
| caption        = Jomon
| producer       = 
| writer         = 
| screenplay     = Madhu Kushboo|Khushboo Narendra Prasad Biyon
| music          = 
| cinematography = 
| editing        = 
| studio         = 
| distributor    = 
| released       = 1993
| country        = India Malayalam
}}
 1993 Cinema Indian Malayalam Malayalam film, directed by Jomon and starring Madhu and Suresh Gopi in lead roles.    

==Cast== Madhu
* Suresh Gopi Khushboo
* Narendra Prasad
* Biyon

==References==
 

==External links==
*  

 
 
 

 