Angélique (film)
{{Infobox film
| name           = Angélique
| image          = 
| alt            = 
| caption        = 
| director       = Ariel Zeitoun
| producer       = 
| writer         = 
| starring       = Nora Arnezeder Tomer Sisley
| music          =
| cinematography = Peter Zeitlinger
| editing        = 
| studio         = 
| distributor    = 
| released       =  
| runtime        = 113 minutes
| country        = France
| language       = French
| budget         = 
| gross          = 
}} Angelique series of novels by Anne Golon. 

==Cast==
* Nora Arnezeder - Angélique
* Tomer Sisley - le marquis de Plessis-Bellière
* Gérard Lanvin - le comte Joffrey de Peyrac
* Simon Abkarian  - lavocat François Desgrez
* Salomé Degeer - Angélique, jeune Louis XIV
* Matthieu Boujenah - le marquis dAndijos

==References==
 

==External links==
*  

 
 
 
 
 


 
 