La Princesse de Clèves (film)
{{Infobox film
| name           = La Princesse de Clèves
| image          = La Princesse de Clèves (film).jpg
| alt            = 
| caption        = 
| director       = Jean Delannoy
| producer       = 
| writer         = 
| starring       = Marina Vlady Jean Marais
| music          = Georges Auric
| cinematography = Henri Alekan
| editing        = 
| studio         = 
| distributor    = 
| released       =  
| runtime        = 101 minutes
| country        = France, Italy
| language       = French
| budget         = 
| gross          = 
}} novel of the same name.

==Cast==
* Marina Vlady - La princesse de Clèves
* Jean Marais - Le prince de Clèves
* Jean-François Poron - Jacques, Duke of Nemours
* Henri Piégay - Le vidame de Chartres
* Annie Ducaux - Diane de Poitiers
* Lea Padovani - Catherine de Medici

==External links==
*  

 
 
 
 
 
 

 
 