Nizhal
{{Infobox film
| name           =Nizhal
| image          =
| caption        =
| director       =Santhosh
| producer       = 
| writer         = 
| screenplay     = Sarayu
| music          = 
| cinematography = 
| editing        = 
| studio         = 
| distributor    = 
| released       = 2009
| country        = India Malayalam
}}
 2009 Cinema Indian Malayalam Malayalam film, Sarayu in the lead roles.    

==Cast==
* Sarayu
* Jagan
* Freddy	
* Kalpana	
* Ambika Mohan	
* Devan
* Kulappulli Leela	
* Kunchan	
* Machan Varghese	
* Saikumar
* Salim Kumar

==References==
 

 
 
 

 