Mrithasanjeevini
{{Infobox film
| name           =Mrithasanjeevini
| image          =
| caption        =
| director       =P Devaraj
| producer       = 
| writer         = 
| screenplay     =
| starring       =Ashokan (actor)|Ashokan, Uma Maheswari 
| music          = 
| cinematography = 
| editing        = 
| studio         = 
| distributor    = 
| released       = 1989
| country        = India Malayalam
}}
 1989 Cinema Indian Malayalam Malayalam film, directed by P Devaraj.  

==References==
 

==External links==
*  

 
 
 


 