Prabhatham Chuvanna Theruvil
{{Infobox film
| name           =Prabhatham Chuvanna Theruvil
| image          =
| caption        =
| director       =NP Suresh
| producer       = 
| writer         = 
| screenplay     = Anuradha
| music          = 
| cinematography = 
| editing        = 
| studio         = 
| distributor    = 
| released       = 1989
| country        = India Malayalam
}}
 1989 Cinema Indian Malayalam Malayalam film, Anuradha in the lead roles.    

==Cast==
* Jagathy Sreekumar	
* Innocent	
* Ratheesh	
* Anuradha
* Chithra	
* Janardanan	
* Jayamalini	
* Lalithasree
* Mala Aravindan	
* TG Ravi

==References==
 

==External links==
*  

 
 
 

 