Idayan
{{Infobox film
| name           =Idayan
| image          =
| caption        =
| director       =Santosh Sauparnika
| producer       = 
| writer         = 
| screenplay     =
| starring       =John Mathew, Rajeev Rangan
| music          = 
| cinematography = 
| editing        = 
| studio         = 
| distributor    = 
| released       = 2010
| country        = India Malayalam
}}
 2010 Cinema Indian Malayalam Malayalam historical film, directed by Santosh Sauparnika, starring John Mathew and Rajeev Rangan in the lead roles.   

==Cast==
* John Mathew
* Rajeev Rangan
* Santosh
* Sidhraj

==References==
 

 
 
 

 