Annu Good Friday
{{Infobox film
| name           =Annu Good Friday
| image          =
| caption        =
| director       =Beypore Mani
| producer       = 
| writer         = 
| screenplay     =
| starring       =Lalu Alex, Shari
| music          = 
| cinematography = 
| editing        = 
| studio         = 
| distributor    = 
| released       = 1992
| country        = India Malayalam
}}
 1992 Cinema Indian Malayalam Malayalam film, directed by Beypore Mani, starring Lalu Alex and Shari in lead roles.    

==Cast==
* Lalu Alex	
* Mala Aravindan
* Shari	
* VK Sreeraman

==References==
 

==External links==
* 

 
 
 

 