Mr & Mrs (1992 film)
{{Infobox film
| name           =Mr & Mrs 
| image          =
| caption        =
| director       =Sajan
| producer       = 
| writer         = 
| screenplay     =
| starring       =Siddique (actor)|Siddique, Jagadish
| music          = 
| cinematography = 
| editing        = 
| studio         = 
| distributor    = 
| released       = 1992
| country        = India Malayalam
}}
 1992 Cinema Indian Malayalam Malayalam film, Siddique and Jagadish in the lead roles.   

==Cast==
* Suchithra Murali Siddique
* Jagadish
* Ravali (Mythili)
* Sukumari
* Jagathy Sreekumar
* Sainudeen
* Krishnankutty Nair
* Mala Aravindan Usha
* Sajitha Betti

==References==
 

==External links==
* 

 
 
 
 


 