Rajashilpi
{{Infobox film
| name           =Rajashilpi
| image          =
| caption        =
| director       =R Sukumaran
| producer       = 
| writer         = 
| screenplay     =
| starring       =Lalettan, Bhanupriya
| music          = 
| cinematography = 
| editing        = 
| studio         = 
| distributor    = 
| released       = 1992
| country        = India Malayalam
}}
 1992 Cinema Indian Malayalam Malayalam film, directed by R Sukumaran, starring Mohanlal and Bhanupriya in the lead roles.    

==Cast==
* Mohanlal
* Bhanupriya
* Srividya	
* Nedumudi Venu	
* TR Omana	
* Captain Raju
* Jagannadhan	
* Narendra Prasad	
* Santhakumari	
* Shyama

==References==
 

==External links==
* 

 
 
 

 