Ellarum Chollanu
{{Infobox film
| name           =Ellarum Chollanu
| image          =
| caption        =
| director       =Kaladharan
| producer       = 
| writer         = 
| screenplay     =
| starring       =Mukesh (actor)|Mukesh, Jagathy Sreekumar
| music          = 
| cinematography = 
| editing        = 
| studio         = 
| distributor    = 
| released       = 1992
| country        = India Malayalam
}}
 1992 Cinema Indian Malayalam Malayalam film, Mukesh and Jagathy Sreekumar in the lead roles.    

==Cast==
* Sukumari	
* Jagathy Sreekumar	
* Mukesh	
* Ashokan
* Maniyanpilla Raju	
* Mamukkoya	
* Saikumar	
* Suma Ranganath
* Vijayaraghavan

==References==
 

==External links==
* 

 
 
 

 