Chevalier Michael
{{Infobox film
| name           =Chevalier Michael
| image          =
| caption        =
| director       =PK Baburaj
| producer       = 
| writer         = 
| screenplay     =
| starring       =Thilakan and Vinodini
| music          = 
| cinematography = 
| editing        = 
| studio         = 
| distributor    = 
| released       = 1992
| country        = India Malayalam
}}
 1992 Cinema Indian Malayalam Malayalam film, directed by PK Baburaj, starring Thilakan and Vinodini in the lead roles.    

==Cast==
* Thilakan
* Vinodini
* Anand Babu
* Jagathy Sreekumar	
* KPAC Lalitha	
* Mahesh	
* Rajan P Dev
* Sharmily

==References==
 

 
 
 

 