Kudumbasammetham
{{Infobox film
| name           =Kudumbasammetham
| image          =
| caption        =
| director       =Jayaraj
| producer       = 
| writer         = 
| screenplay     =
| starring       =Manoj K. Jayan,Monisha Unni
| music          = 
| cinematography = 
| editing        = 
| studio         = 
| distributor    = 
| released       = 1992
| country        = India Malayalam
}}
 1992 Cinema Indian Malayalam Malayalam film, directed by Jayaraj, starring Madhu and Srividya in the lead roles.    

==Cast==
* Madhu
* Srividya
* Manoj K Jayan
* Monisha
* Kaviyoor Ponnamma	
* Maniyanpilla Raju	
* Adoor Bhavani	
* Adoor Pankajam
* Kanakalatha	
* Narendra Prasad	
* TP Madhavan

==References==
 

==External links==
* 

 
 
 

 