Ente Ponnu Thampuran
{{Infobox film
| name           =Ente Ponnu Thampuran
| image          =
| caption        =
| director       =AT Abu
| producer       = 
| writer         = 
| screenplay     =
| starring       =Suresh Gopi, Urvashi
| music          = 
| cinematography = 
| editing        = 
| studio         = 
| distributor    = 
| released       = 1992
| country        = India Malayalam
}}
 1992 Cinema Indian Malayalam Malayalam film, directed by AT Abu, starring Suresh Gopi and Urvashi in the lead roles.    

==Cast==
* Jagathy Sreekumar	
* Innocent	
* Suresh Gopi	
* Urvasi
* KPAC Lalitha	
* Rajan P Dev	
* Siddique	
* Baby Chaithanya
* Kuthiravattam Pappu	
* Lalithasree	
* Mala Aravindan	
* Mamukkoya
* Paravoor Bharathan	
* Philomina

==References==
 

==External links==
* 

 
 
 

 