Rhythm (2010 film)
{{Infobox film
| name           =Rhythm
| image          =
| caption        =
| director       =MS Pradeep Kumar
| producer       = 
| writer         = 
| screenplay     =
| starring       =Shaan, Anjali
| music          = 
| cinematography = 
| editing        = 
| studio         = 
| distributor    = 
| released       = 2010
| country        = India Malayalam
}}
 2010 Cinema Indian Malayalam Malayalam film, directed by MS Pradeep Kumar, starring Shaan and Anjali in the lead roles.     

==Cast==
* Anjali
* Shaan
* Rajan P Dev
* Shankar
* Adithyan
* Dhanyatha
* Jagannadha Varma
* Kochu Preman
* Mamukkoya	
* Shanavas 	
* Prashanth
 
==References==
 

 
 
 

 