Chuvanna Kaippathi
{{Infobox film
| name           =Chuvanna Kaippathi
| image          =
| caption        =
| director       =V Somasekharan
| producer       = 
| writer         = 
| screenplay     =
| starring       =
| music          = 
| cinematography = 
| editing        = 
| studio         = 
| distributor    = 
| released       = 1992
| country        = India Malayalam
}}
 1992 Cinema Indian Malayalam Malayalam film, directed by V Somasekharan.    

==References==
 

==External links==
* 

 
 
 

 