Mizhiyorangalil
{{Infobox film
| name           =Mizhiyorangalil
| image          =
| caption        =
| director       =	J Williams
| producer       = 
| writer         = 
| screenplay     =
| starring       =Mohanlal, Seema
| music          = 
| cinematography = 
| editing        = 
| studio         = 
| distributor    = 
| released       = 1992
| country        = India Malayalam
}}
 1992 Cinema Indian Malayalam Malayalam film, directed by J Williams, starring Mohanlal and Seema in the lead roles.    

==Cast==
* Mohanlal	
* Seema	
* Rahman

==References==
 

==External links==
* 

 
 
 

 