Enquiry (film)
{{Infobox film
| name           =Enquiry
| image          =
| caption        =
| director       =UV Ravindranath
| producer       = 
| writer         = 
| screenplay     =
| starring       =Innocent (actor)|Innocent, Ashokan 
| music          = 
| cinematography = 
| editing        = 
| studio         = 
| distributor    = 
| released       = 1990
| country        = India Malayalam
}}
 1990 Cinema Indian Malayalam Malayalam film, Innocent and Ashokan  in the lead roles.    

==Cast==
* Innocent	
* Ashokan	
* Captain Raju	
* Abhilasha
* Mala Aravindan	
* Mamukkoya	
* Sreenath	
* Valsala Menon
* Jayalalitha

==References==
 

==External links==
* 

 
 
 

 