Kadalora Kattu
{{Infobox film
| name           =Kadalora Kattu
| image          =
| caption        =
| director       =Jomon
| producer       = 
| writer         = 
| screenplay     =
| starring       =Suresh Gopi, Manoj K. Jayan
| music          = 
| cinematography = 
| editing        = 
| studio         = 
| distributor    = 
| released       = 1991
| country        = India Malayalam
}}
 1991 Cinema Indian Malayalam Malayalam film, directed by Jomon, starring Suresh Gopi and Manoj K. Jayan in the lead roles.    

==Cast==
* Sukumari	
* Suresh Gopi as Balan	
* Manoj K Jayan as Babychan	
* KPAC Lalitha
* Chithra as Cicely	
* Jagannadhan	
* Kunchan	Maathu as Jayanthi
* Mohan Jose	
* Sabitha Anand	
* Saikumar as Vijayan	
* Vijayaraghavan
* Rajan P Dev	
* Thampi Kannanthanam

==References==
 

==External links==
* 

 
 
 

 