Minda Poochakku Kalyanam
{{Infobox film
| name           =Minda Poochakku Kalyanam
| image          =
| caption        =
| director       =Alleppey Ashraf
| producer       = 
| writer         = 
| screenplay     =
| starring       =Suresh Gopi, Lissy Priyadarsan
| music          = 
| cinematography = 
| editing        = 
| studio         = 
| distributor    = 
| released       = 1990
| country        = India Malayalam
}}
 1990 Cinema Indian Malayalam Malayalam film, directed by Alleppey Ashraf, starring Suresh Gopi and Lissy Priyadarsan in the lead roles.    

==Cast==
* Suresh Gopi
* Lissy Priyadarsan
* Jagathy Sreekumar
* Mukesh	
* Sreenivasan

==References==
 

==External links==
* 

 
 
 

 