Ezhunnallathu
{{Infobox film
| name           =Ezhunnallathu
| image          =
| caption        =
| director       =Harikumar
| producer       = 
| writer         = 
| screenplay     = Mukesh
| music          = 
| cinematography = 
| editing        = 
| studio         = 
| distributor    = 
| released       = 1991
| country        = India Malayalam
}}
 1991 Cinema Indian Malayalam Malayalam film, Mukesh in the lead roles.    

==Cast==
* Jayaram
* Mukesh
* Sithara
* Siddique
* Jagathy Sreekumar	
* Innocent	
* Kaviyoor Ponnamma	
* Suchithra Murali
* Rajan P Dev

==References==
 

==External links==
* 

 
 
 

 