Rathilayangal
{{Infobox film
| name           =Rathilayangal
| image          =
| caption        =
| director       =Khomineni
| producer       = 
| writer         = 
| screenplay     =
| starring       =
| music          = 
| cinematography = 
| editing        = 
| studio         = 
| distributor    = 
| released       = 1990
| country        = India Malayalam
}}
 1990 Cinema Indian Malayalam Malayalam film, directed by Khomineni.   

==Cast==

 

==References==
 

==External links==
* 

 
 
 


 