Vasavadatta (film)
{{Infobox film
| name           =Vasavadatta
| image          =
| caption        =
| director       =KS Gopalakrishnan
| producer       = 
| writer         = 
| screenplay     =
| starring       =
| music          = 
| cinematography = 
| editing        = 
| studio         = 
| distributor    = 
| released       = 1991
| country        = India Malayalam
}}
 1991 Cinema Indian Malayalam Malayalam film, directed by KS Gopalakrishnan.   

==Cast==

 

==References==
 

==External links==
* 

 
 
 


 