Manmadha Sarangal
{{Infobox film
| name           =Manmadha Sarangal
| image          =
| caption        =
| director       =Baby
| producer       = 
| writer         = 
| screenplay     =
| starring       =
| music          = 
| cinematography = 
| editing        = 
| studio         = 
| distributor    = 
| released       = 1991
| country        = India Malayalam
}}
 1991 Cinema Indian Malayalam Malayalam film, directed by Baby.   

==Cast==
* Uma Maheswari
* Ravi Varma
* Jayarekha	
* Thodupuzha Vasanthy

==References==
 

==External links==
* 

 
 
 

 