Gamanam
{{Infobox film
| name           =Gamanam
| image          =
| caption        =
| director       =	Sriprakash
| producer       = 
| writer         = 
| screenplay     =
| starring       =Babu Antony, Charmila
| music          = 
| cinematography = 
| editing        = 
| studio         = 
| distributor    = 
| released       = 1994
| country        = India Malayalam
}}
 1994 Cinema Indian Malayalam Malayalam film, directed by Sriprakash, starring Thilakan and Lakshmi in the lead roles.    

==Cast==
* Thilakan	
* Lakshmi	
* Baiju	
* Vijayakumar
* Delhi Ganesh	
* Ganesh Kumar	
* Maathu

==References==
 

==External links==
* 

 
 
 

 