Sasinas
{{Infobox film
| name           =Sasinas
| image          =
| caption        =
| director       =Thejas Perumanna
| producer       = 
| writer         = 
| screenplay     =
| starring       =Manoj K Jayan, Thilakan
| music          = 
| cinematography = 
| editing        = 
| studio         = 
| distributor    = 
| released       = 1995
| country        = India Malayalam
}}
 1995 Cinema Indian Malayalam Malayalam film, directed by Thejas Perumanna, starring Manoj K Jayan and Thilakan in the lead roles.    

==Cast==
* Sukumari	
* Manoj K Jayan	
* Thilakan	
* Nedumudi Venu
* Jose Prakash	
* Rajan P Dev	
* Ganesh Kumar	
* KTS Padannayil
* Kasthuri	
* Kunchan	
* Kuthiravattam Pappu	
* NF Varghese

==References==
 

==External links==
* 

 
 
 

 