Poonthenaruvi Chuvannu
{{Infobox film
| name           =Poonthenaruvi Chuvannu
| image          =
| caption        =
| director       =Balu
| producer       = 
| writer         = 
| screenplay     =
| starring       =Ravi Varma, Uma Maheswari
| music          = 
| cinematography = 
| editing        = 
| studio         = 
| distributor    = 
| released       = 1991
| country        = India Malayalam
}}
 1991 Cinema Indian Malayalam Malayalam film, directed by Balu, starring Ravi Varma and Uma Maheswari in the lead roles.    

==Cast==
* Uma Maheswari
* Ravi Varma
* Jayarekha	
* Thodupuzha Vasanthy

==References==
 

==External links==
* 

 
 
 

 