Cheppukilukkana Changathi
{{Infobox film
| name           =Cheppukilukkana Changathi
| image          =
| caption        =
| director       =	Kaladharan
| producer       = 
| writer         = 
| screenplay     =
| starring       =Mukesh (actor)|Mukesh, Saranya Ponvannan
| music          = 
| cinematography = 
| editing        = 
| studio         = 
| distributor    = 
| released       = 1991
| country        = India Malayalam
}}
 1991 Cinema Indian Malayalam Malayalam film, Mukesh and Saranya Ponvannan in the lead roles.   

==Cast==
* Mukesh
* Saranya Ponvannan
* KPAC Lalitha	
* Mahesh	
* Jagadish	
* Mamukkoya
* Vijayaraghavan	
* Sandra Thomas

==References==
 

==External links==
* 

 
 
 

 