Kidilol Kidilam
{{Infobox film
| name           =Kidilol Kidilam
| image          =
| caption        =
| director       =Paulson
| producer       = 
| writer         = 
| screenplay     =
| starring       =Sukumaran, Rekha
| music          = 
| cinematography = 
| editing        = 
| studio         = 
| distributor    = 
| released       = 1995
| country        = India Malayalam
}}
 1995 Cinema Indian Malayalam Malayalam film, directed by Paulson, starring Sukumaran and Rekha in the lead roles.    

==Cast==
* Rekha	
* Sainudeen	
* Rajan P Dev	
* Tony
* Sukumaran	
* Bobby Kottarakkara	
* Janardanan	
* Keerthi Gopinath
* Kunjandi	
* Kuthiravattam Pappu	
* Mala Aravindan	
* Mavelikkara Ponnamma
* Narendra Prasad	
* Rajeev Rangan	
* Seenath	
* Vinu Chakravarthy

==References==
 

==External links==
* 

 
 
 

 