Ilayum Mullum
{{Infobox film
| name           =Ilayum Mullum
| image          =
| caption        =
| director       =KP Sasi
| producer       = 
| writer         = 
| screenplay     =
| starring       =Thilakan, Pallavi Joshi
| music          = 
| cinematography = 
| editing        = 
| studio         = 
| distributor    = 
| released       = 1994
| country        = India Malayalam
}}
 1994 Cinema Indian Malayalam Malayalam film, directed by KP Sasi, starring Thilakan and Pallavi Joshi in the lead roles.    

==Cast==
* Thilakan
* Pallavi Joshi
* Shanthi Krishna
* Kanya	
* Sabnam	
* Shammi Thilakan	

==References==
 

==External links==
* 

 
 
 

 