Komban (2007 film)
{{Infobox film
| name           =Komban
| image          =
| caption        =
| director       =Mammy Century
| producer       = 
| writer         = 
| screenplay     =
| starring       =Jagadish, Salim Kumar
| music          = 
| cinematography = 
| editing        = 
| studio         = 
| distributor    = 
| released       = 2007
| country        = India Malayalam
}}
 2007 Cinema Indian Malayalam Malayalam film, directed by Mammy Century, starring Jagadish and Salim Kumar in the lead roles.   

==Cast==
* Jagadish
* Salim Kumar

==References==
 

==External links==
* 

 
 
 

 