Oraal
{{Infobox film
| name           =Oraal
| image          =
| caption        =
| director       =Kukku Surendran
| producer       = 
| writer         = 
| screenplay     =
| starring       =Vishnu, Geethu Mohandas
| music          = 
| cinematography = 
| editing        = 
| studio         = 
| distributor    = 
| released       = 2005
| country        = India Malayalam
}}
 2005 Cinema Indian Malayalam Malayalam film, Mukesh and Shreya Reddy in the lead roles.    

==Cast==
* Mukesh	
* Anoop Chandran	
* Krishnan	
* Raj Kumar
* Shreya Reddy	
* Thara Balachandran

==References==
 

==External links==
* 

 
 
 

 