Kaakki
{{Infobox film
| name           =Kaakki
| image          =
| caption        =
| director       =Bibin Prabhakar
| producer       = 
| writer         = 
| screenplay     = Prithviraj
| music          = 
| cinematography = 
| editing        = 
| studio         = 
| distributor    = 
| released       = 2007
| country        = India Malayalam
}}
 2007 Cinema Indian Malayalam Malayalam film, Mukesh and Prithviraj in the lead roles.    

==Cast==
* Mukesh
* Prithviraj as Unnikrishnan
* Nedumudi Venu	
* Bheeman Raghu	
* Bindu Panicker	
* Chandra Lakshman
* Janardanan	
* Mamukkoya	
* Manasa	
* Meera Vasudev
* Santhosh Jogi	
* Sudheesh as Harikrishnan

==References==
 

==External links==
* 

 
 
 

 