Thaniye
{{Infobox film
| name           =Thaniye
| image          =
| caption        =
| director       =	Babu Thiruvalla
| producer       = 
| writer         = 
| screenplay     =
| starring       =Nedumudi Venu, Lakshmi Gopalaswamy
| music          = 
| cinematography = 
| editing        = 
| studio         = 
| distributor    = 
| released       = 2007
| country        = India Malayalam
}}
 2007 Cinema Indian Malayalam Malayalam film, directed by Babu Thiruvalla, starring Nedumudi Venu and Lakshmi Gopalaswamy in the lead roles.    

==Cast==
* KPAC Lalitha	
* Nedumudi Venu	
* Ashokan	
* Vijay Menon
* Lakshmi Gopalaswamy	
* Mamukkoya	
* NK Gopalakrishnan	
* Nedumpram Gopi
* Sreekala

==References==
 

==External links==
* 

 
 
 

 