Bharthavudyogam
{{Infobox film
| name           =Bharthaavudyogam
| image          =
| caption        =
| director       =Suresh Vinu
| producer       = 
| writer         = 
| screenplay     =
| starring       =Jagadish, Jagathy Sreekumar
| music          = 
| cinematography = 
| editing        = 
| studio         = 
| distributor    = 
| released       = 2001
| country        = India Malayalam
}}
 2001 Cinema Indian Malayalam Malayalam film, directed by Suresh Vinu, starring Jagadish and Jagathy Sreekumar in the lead roles.    

==Cast==
* Jagathy Sreekumar	
* Kalabhavan Mani	
* Cochin Haneefa	
* Siddique
* Athira 
* Devi Chandana	
* Indrans	
* Jagadish
* Kozhikode Narayanan Nair	
* Ponnamma Babu	
* Salim Kumar	
* Suma Jayaram

==References==
 

==External links==
* 

 
 
 

 