Jyothirgamaya
{{Infobox film
| name           =Jyothirgamaya
| image          =
| caption        =
| director       =NB Raghunath
| producer       = 
| writer         = 
| screenplay     =
| starring       =
| music          = 
| cinematography = 
| editing        = 
| studio         = 
| distributor    = 
| released       = 2001
| country        = India Malayalam
}}
 2001 Cinema Indian Malayalam Malayalam film, directed by NB Raghunath.    

==Cast==
* Vijayaraghavan	

==References==
 

==External links==
* 

 
 
 

 