Nanma
{{Infobox film
| name           =Nanma
| image          =
| caption        =
| director       =Sarathchandran Wayanad
| producer       = 
| writer         = 
| screenplay     = Rahman
| music          = 
| cinematography = 
| editing        = 
| studio         = 
| distributor    = 
| released       = 2007
| country        = India Malayalam
}}
 2007 Cinema Indian Malayalam Malayalam film, Rahman in the lead roles.    

==Cast==
* Kalabhavan Mani	
* Adithyan	
* Dhanya Mary Varghese	
* Rahman
* Manikandan

==References==
 

==External links==
* 

 
 
 

 