Bhadra (2001 film)
{{Infobox film
| name           =Bhadra
| image          =
| caption        =
| director       =Mammy Century
| producer       = 
| writer         = 
| screenplay     =
| starring       =Shankar Panicker|Shankar, Vinaya Prasad 
| music          = 
| cinematography = 
| editing        = 
| studio         = 
| distributor    = 
| released       = 2001
| country        = India Malayalam
}}
 2001 Cinema Indian Malayalam Malayalam film, Shankar and Vinaya Prasad in the lead roles.    

==Cast==
* Shankar
* Vinaya Prasad
* Biju	
* Captain Raju	
* Anitha	
* Jagadish
* Kanakalatha	
* Mala Aravindan
* Ponnamma Babu	
* Sarath Haridas

==References==
 

==External links==
* 

 
 
 

 