Fort Kochi (film)
{{Infobox film
| name           =Fort Kochi
| image          =
| caption        =
| director       =Benny P Thomas
| producer       = 
| writer         = 
| screenplay     = Vijayaraghavan
| music          = 
| cinematography = 
| editing        = 
| studio         = 
| distributor    = 
| released       = 2001
| country        = India Malayalam
}}
 2001 Cinema Indian Malayalam Malayalam film, Vijayaraghavan in the lead role.    

==Cast==
* Vijayaraghavan	

==References==
 

==External links==
* 

 
 
 

 