Ente Hridayathinte Udama
{{Infobox film
| name           =Ente Hridayathinte Udama
| image          =
| caption        =
| director       =Bharath Gopi
| producer       = 
| writer         = 
| screenplay     =
| starring       =Lal, Vani Viswanath
| music          = 
| cinematography = 
| editing        = 
| studio         = 
| distributor    = 
| released       = 2002
| country        = India Malayalam
}}
 2002 Cinema Indian Malayalam Malayalam film, directed by Bharath Gopi, starring Lal and Vani Viswanath in the lead role.    

==Cast==
* Lal
* Vani Viswanath
* Jagathy Sreekumar	
* P Sreekumar	
* Yamuna	
* Jagannadhan
* Kuttyedathi Vilasini	
* Risabava	
* Saikumar	
* Sajan Palluruthi
* Titus Abraham

==References==
 

==External links==
* 

 
 
 

 