Swapna Halliyil Orunaal
{{Infobox film
| name           =Swapna Halliyil Orunaal
| image          =
| caption        =
| director       =Gopalji
| producer       = 
| writer         = 
| screenplay     = Krishna Kumar , Narendra Prasad
| music          = 
| cinematography = 
| editing        = 
| studio         = 
| distributor    = 
| released       = 2002
| country        = India Malayalam
}}
 2002 Cinema Indian Malayalam Malayalam film, Krishna Kumar and Narendra Prasad in the lead role.    

==Cast==
* Krishna Kumar (KK)	
* Bindu Krishna	
* Hrishi	
* Mala Aravindan
* Narendra Prasad
* Priyadarsini	
* Ravi Menon	
* Girija (New)

==References==
 

==External links==
* 

 
 
 

 