Kakke Kakke Koodevide
{{Infobox film
| name           =Kakke Kakke Koodevide
| image          =
| caption        =
| director       =P Rajasekharan
| producer       = 
| writer         = 
| screenplay     =
| starring       =Vijayaraghavan (actor)|Vijayaraghavan, Geethu Mohandas
| music          = 
| cinematography = 
| editing        = 
| studio         = 
| distributor    = 
| released       = 2002
| country        = India Malayalam
}}
 2002 Cinema Indian Malayalam Malayalam film, Vijayaraghavan and Geethu Mohandas in the lead role.    

==Cast==
* Jagathy Sreekumar	
* Kalpana	
* Vishnu	
* Ashwin Thampi
* Geethu Mohandas	
* MS Thrippoonithura	
* Vijayaraghavan

==References==
 

==External links==
* 

 
 
 

 