Saudhamini
{{Infobox film
| name           =Saudhamini
| image          =
| caption        =
| director       = P Gopikumar
| producer       = 
| writer         = 
| screenplay     =
| starring       =Krishna, Sruthi
| music          = 
| cinematography = 
| editing        = 
| studio         = 
| distributor    = 
| released       = 2003
| country        = India Malayalam
}}
 2003 Cinema Indian Malayalam Malayalam film, directed by  P Gopikumar, starring Krishna and Sruthi in the lead role.    

==Cast==
* Captain Raju	
* Ambika Mohan	
* Bindu Krishna	
* Chithra
* Jagadish	
* Jagannadha Varma	
* JayaKrishnan	
* Kalamandalam Kesavan
* Kulappulli Leela	
* Krishna	
*Mamukkoya	
* Sruthi
* Sumitha	
* Vallathol Unnikrishnan

==References==
 

==External links==
* 

 
 
 

 