India Gate (film)
{{Infobox film
| name           =India Gate
| image          =
| caption        =
| director       =TS Saji
| producer       = 
| writer         = 
| screenplay     =
| starring       =Devan, Vani Viswanath
| music          = 
| cinematography = 
| editing        = 
| studio         = 
| distributor    = 
| released       = 2002
| country        = India Malayalam
}}
 2002 Cinema Indian Malayalam Malayalam film, directed by TS Saji, starring Devan and Vani Viswanath in the lead role.    

==Cast==
* Ajith Kumar
* Anjali	
* Bheeman Raghu	
* Devan
* P. V. Jagadish Kumar	
* MS Thrippoonithura	
* Nandulal	
* Niranjana
* Rona	
* Shammi Thilakan	
* Vani Viswanath

==References==
 

==External links==
* 

 
 
 

 