Lonely Island (film)
{{Infobox film
| name           = Lonely Island
| image          = Lonely Island film poster.jpg
| alt            = 
| caption        = 
| director       = Lian Tao Wang Kunhao
| producer       = 
| writer         = 
| starring       =
| music          = 
| cinematography = 
| editing        = 
| studio         = Beijing Dongfang Huamian Film Co.,Ltd Beijing Hangmei Entertainment Co.,Ltd Pearl River Pictures Co., Ltd Beijing Yingshuo Media Co.,Ltd Beijing Bige Mowei Media Co.,Ltd 
| distributor    = 
| released       =   
| runtime        = 83 minutes
| country        = China
| language       = Mandarin
| budget         = 
| gross          = chinese yuan|¥2.46 million (China)
}}
 suspense thriller thriller horror film directed by Lian Tao and Wang Kunhao. It was released on October 31.    

==Cast==
*Li Yiyi
*Tian Suhao
*Mao Yi

==Reception==
By November 3, the film had earned chinese yuan|¥2.46 million at the Chinese box office. 

==References==
 

 
 
 
 
 
 
 


 
 
 