Sigappu Malargal
{{Infobox film
| name           = Sigappu Malargal
| image          = 
| image_size     =
| caption        =
| director       = S. A. Chandrasekhar
| producer       = 
| writer         = S. A. Chandrasekhar (dialogues)
| screenplay     = S. A. Chandrasekhar
| story          =  Sulakshana S. S. Chandran
| music          = Shankar Ganesh
| cinematography = 
| editing        =
| studio         = Vidya Creations
| distributor    = Vidya Creations
| released       =  
| runtime        = 
| country        = India Tamil
}}
 1986 Cinema Indian Tamil Tamil film, Sulakshana and S. S. Chandran in lead roles. The film had musical score by Shankar Ganesh. 

==Cast==
*Vijayakanth Sulakshana
*S. S. Chandran

==References==
 

==External links==
*  

 
 
 
 
 


 