Avalkkoru janmam koodi
{{Infobox film
| name           =Avalkkoru janmam koodi
| image          =
| caption        =
| director       =NP Suresh
| producer       = 
| writer         = 
| screenplay     =
| starring       =Sathaar, Mala Aravindan
| music          = 
| cinematography = 
| editing        = 
| studio         = 
| distributor    = 
| released       = 1990
| country        = India Malayalam
}}
 1990 Cinema Indian Malayalam Malayalam film, directed by NP Suresh, starring Sathaar and Mala Aravindan in the lead role.   

==Cast==
* Sathaar	
* Mala Aravindan	

==References==
 

==External links==
* 

 
 
 

 