Nerkku Nere
{{Infobox film
| name           =Nerkku Nere
| image          =
| caption        =
| director       =PN Menon
| producer       = 
| writer         = 
| screenplay     = Kalpana
| music          = 
| cinematography = 
| editing        = 
| studio         = 
| distributor    = 
| released       = 2004
| country        = India Malayalam
}}
 2004 Cinema Indian Malayalam Malayalam film, Kalpana in the lead role.    

==Cast==
* Nedumudi Venu	
* Kalpana	
* Mohan Ayiroor	
* Mallika 
* Oduvil Unnikrishnan
* Ramu Mangalappally	
* Shobha Mohan

==References==
 

==External links==
* 

 
 
 

 