Ammayude Swantham Kunju Mary
{{Infobox film
| name           =Ammayude Swantham Kunju Mary
| image          =
| caption        =
| director       =Vinayan
| producer       = 
| writer         = 
| screenplay     =
| starring       =Nedumudi Venu, Devan
| music          = 
| cinematography = 
| editing        = 
| studio         = 
| distributor    = 
| released       = 1990
| country        = India Malayalam
}}
 1990 Cinema Indian Malayalam Malayalam film, directed by Vinayan, starring Nedumudi Venu and Devan in the lead role.   

==Cast==
* Vijayan	
* Harish Kumar	
* Ravi Menon	
* Shari
* Sudheer

==References==
 

==External links==
* 

 
 
 

 