Kakkakarumban
{{Infobox film
| name           =Kakkakarumban
| image          =
| caption        =
| director       =MA Venu
| producer       = 
| writer         = 
| screenplay     =
| starring       =Meenakshi, Sidharth Bharathan
| music          = 
| cinematography = 
| editing        = 
| studio         = 
| distributor    = 
| released       = 2004
| country        = India Malayalam
}}
 2004 Cinema Indian Malayalam Malayalam film, directed by MA Venu, starring Sidharth Bharathan and Meenakshi in the lead role.    

==Cast==
* Meenakshi	
* Sidharth Bharathan

==References==
 

==External links==
* 

 
 
 

 