Youth Festival
{{Infobox film
| name           =Youth Festival
| image          =
| caption        =
| director       =Jose Thomas
| producer       = 
| writer         = 
| screenplay     =
| starring       =Sidharth Bharathan, Bhavana
| music          = 
| cinematography = 
| editing        = 
| studio         = 
| distributor    = 
| released       = 2004
| country        = India Malayalam
}}
 2004 Cinema Indian Malayalam Malayalam film, directed by Jose Thomas, starring Sidharth Bharathan and Bhavana in the lead role.    

==Cast==
* Bhavana	
* Cochin Haneefa	
* Aby Kunjumon	
* CI Paul
* Charmila	
* Kishor Satya	
* Salim Kumar	
* Sidharth Bharathan

==References==
 

==External links==
* 

 
 
 

 