Mercara (film)
{{Infobox film
| name           =Mercara
| image          =
| caption        =
| director       =Jude Attippetti
| producer       = 
| writer         = 
| screenplay     =
| starring       =Vishak Koshi, Jasal, Abhirami
| music          = 
| cinematography = 
| editing        = 
| studio         = 
| distributor    = 
| released       = 1999
| country        = India Malayalam
}} 1999 Cinema Indian Malayalam Malayalam film, directed by Jude Attippetti, starring Vishak Koshi and Abhirami in the lead role.    

==Cast==
* Vishak Koshi
* Jasal
* Abhirami
	
==References==
 

==External links==
* 

 
 
 

 