Varum Varathirikilla
{{Infobox film
| name           =Varum Varathirikilla
| image          =
| caption        =
| director       =Prakash Koleri
| producer       = 
| writer         = 
| screenplay     =
| starring       =Jagannatha Varma, Unnimary
| music          = 
| cinematography = 
| editing        = 
| studio         = 
| distributor    = 
| released       = 1999
| country        = India Malayalam
}} 1999 Cinema Indian Malayalam Malayalam film, directed by Prakash Koleri, starring Jagannatha Varma and Unnimary in the lead role.    

==Cast==
* Jagannatha Varma
* Unnimary	

==References==
 

==External links==
* 

 
 
 

 