Onnaamvattam Kandappol
{{Infobox film
| name           =Onnaamvattam Kandappol
| image          =
| caption        =
| director       =KK Haridas
| producer       = 
| writer         = 
| screenplay     =
| starring       =Kalabhavan Mani, Praveena
| music          = 
| cinematography = 
| editing        = 
| studio         = 
| distributor    = 
| released       = 1999
| country        = India Malayalam
}}
 1999 Cinema Indian Malayalam Malayalam film, directed by KK Haridas, starring Kalabhavan Mani and Praveena in the lead role.    

==Cast==
* Jagathy Sreekumar	
* Kalabhavan Mani	
* Harishree Ashokan	
* Indrans
* Praveena	
* Sudheesh	

==References==
 

==External links==
* 

 
 
 

 