Ormacheppu
{{Infobox film
| name           =Ormacheppu
| image          =
| caption        =
| director       =Lohithadas
| producer       = 
| writer         = 
| screenplay     =
| starring       =
| music          = 
| cinematography = 
| editing        = 
| studio         = 
| distributor    = 
| released       = 1998
| country        = India Malayalam
}} 1998 Cinema Indian Malayalam Malayalam film Dileep in the lead roles.   

==Cast==
* Lal as Jeevan
* Chanchal as Sameera
* Dileep as Radhakrishnan	
* Biju Menon	
* Janardanan as Kurian	
* Risabava as Jose
* Sreehari as Kunjammavan

==References==
 

==External links==
* 

 
 
 


 