Poothiruvathira Ravil
{{Infobox film
| name           =Poothiruvathira Ravil
| image          =
| caption        =
| director       = VR Gopinath
| producer       = 
| writer         = 
| screenplay     =
| starring       =
| music          = 
| cinematography = 
| editing        = 
| studio         = 
| distributor    = 
| released       = 1998
| country        = India Malayalam
}} 1998 Cinema Indian Malayalam Malayalam film Vijayaraghavan and Chippy in the lead roles.  

==Cast==
* Kaviyoor Ponnamma	
* Maniyanpilla Raju	
* Aliyar	
* Babu Namboothiri
* Beena Antony	
* Chippy	
* Jagannadha Varma	
* Radhamma
* Vijayaraghavan

==References==
 

==External links==
* 

 
 
 


 