Moonu Kodiyum Munnooru Pavanum
{{Infobox film
| name           =Moonu Kodiyum Munnooru Pavanum
| image          =
| caption        =
| director       =	Balu Kiriyath
| producer       = 
| writer         = 
| screenplay     =
| starring       =
| music          = 
| cinematography = 
| editing        = 
| studio         = 
| distributor    = 
| released       = 1997
| country        = India Malayalam
}} 1997 Cinema Indian Malayalam Malayalam film directed by Balu Kiriyath and starring Jagadish and Vinduja Menon in the lead roles.   

==Cast==
* Harishree Ashokan	
* Jagadish	
* Narendra Prasad	
* Shaju
* Shammi Thilakan	
* Vinduja Menon
* Karthika Kannan

==References==
 

==External links==
* 

 
 
 


 