Ancharakalyanam
{{Infobox film
| name           =Ancharakalyanam
| image          =
| caption        =
| director       =VM Vinu
| producer       = 
| writer         = 
| screenplay     =
| starring       =
| music          = 
| cinematography = 
| editing        = 
| studio         = 
| distributor    = 
| released       = 1997
| country        = India Malayalam
}} 1997 Cinema Indian Malayalam Malayalam film Jagadish and Kalabhavan Mani in the lead roles.   

==Cast==
* Jagadish	
* Kalabhavan Mani	
* Kalpana	
* Janardanan
* Kanakalatha	
* Meena	
* Usha	
* Usharani

==References==
 

==External links==
* 

 
 
 


 