Manikya Koodaram
{{Infobox film
| name           =Manikya Koodaram
| image          =
| caption        =
| director       =George Mannur
| producer       = 
| writer         = 
| screenplay     =
| starring       =
| music          = 
| cinematography = 
| editing        = 
| studio         = 
| distributor    = 
| released       = 1997
| country        = India Malayalam
}} 1997 Cinema Indian Malayalam Malayalam film Vijayakumar and Ashokan  in the lead roles.  

==Cast==
* Thilakan	
* Ashokan	
* Meera	
* Tony
* Vijayakumar	
* Abbi	
* Bindu Varappuzha	
* Bobby Kottarakkara
* Charmila	
* Elias Babu	
* Krishnaprasad	
* Omana Ouseph
* Santhakumari	
* Shammi Thilakan	
* VK Sreeraman	
* Vayalar Rana

==References==
 

==External links==
* 

 
 
 


 