Nagarapuraanam
{{Infobox film
| name           =Nagarapuraanam
| image          =
| caption        =
| director       =Ambadi Krishnan
| producer       = 
| writer         = 
| screenplay     =
| starring       =
| music          = 
| cinematography = 
| editing        = 
| studio         = 
| distributor    = 
| released       = 1997
| country        = India Malayalam
}} 1997 Cinema Indian Malayalam Malayalam film directed by Ambadi Krishnan and starring Jagadish and Thilakan in the lead roles.   

==Cast==
* Thilakan	
* Jagadish	
* Mamukkoya	
* Meera
* Kanya Bharathi
* Praseetha
* V Viswanathamenon

==References==
 

==External links==
* 

 
 
 


 