Manichilanka
{{Infobox film
| name           =Manichilanka
| image          =
| caption        =
| director       =
| producer       = 
| writer         = 
| screenplay     =
| starring       =
| music          = 
| cinematography = 
| editing        = 
| studio         = 
| distributor    = 
| released       = 1997
| country        = India Malayalam
}} 1997 Cinema Indian Malayalam Malayalam film directed by PM Abdul Azeez and starring Thilakan and Raghavan in the lead roles.  

==Cast==
* Thilakan	
* Raghavan	
* Raji P Menon

==References==
 

==External links==
* 

 
 
 


 