Fashion Parade
{{Infobox film
| name           =Fashion Parade
| image          =
| caption        =
| director       =	PK Radhakrishnan
| producer       = 
| writer         = 
| screenplay     =
| starring       =
| music          = 
| cinematography = 
| editing        = 
| studio         = 
| distributor    = 
| released       = 1997
| country        = India Malayalam
}} 1997 Cinema Indian Malayalam Malayalam film directed by PK Radhakrishnan and starring Sudheesh and MG Soman in the lead roles.   

==Cast==

 

==References==
 

==External links==
* 

 
 
 


 