Kokomma
{{Infobox film
| name           = Kokomma
| image          = 
| alt            = 
| caption        = 
| director       = Tom Robson
| producer       = Uduak Isong Oguamanam
| writer         =  
| starring       = Belinda Effah Ekere Nkanga  Ini Ikpe
| music          = 
| cinematography = 
| editing        = 
| studio         = Royal Arts Academy
| distributor    = 
| released       =  
| runtime        = 
| country        = Nigeria
| language       = Ibibio
| budget         = 
| gross          = 
}}
 Most Promising Actor for her comic role in the film.   It was released on DVD in September 2012. 

==Cast==
*Belinda Effah
*Ini Ikpe
*Ekere Nkanga

== References ==
 

 
 
 

 