Meghasangeetham
{{Infobox film
| name           =Meghasangeetham
| image          =
| caption        =
| director       =Ajayan Thoppil Bhasi
| producer       = 
| writer         = 
| screenplay     =
| starring       =
| music          = 
| cinematography = 
| editing        = 
| studio         = 
| distributor    = 
| released       = 1996
| country        = India Malayalam
}} 1996 Cinema Indian Malayalam Malayalam film Murali and Sreelekshmi in the lead roles.  

==Cast==	
* Vijayaraghavan	
* Renuka (Prashanthi)

==References==
 

==External links==
* 

 
 
 


 