Blindside (film)
{{Infobox film
| name           = Blindside
| image          = 
| image_size     = 
| caption        =  Paul Lynch
| writer         = 
| narrator       = 
| starring       = 
| music          = 
| cinematography = 
| editing        = 
| studio         = 
| distributor    = 
| released       = June 29, 1988
| runtime        = 98 mins.
| country        = United States
| language       = English
| budget         = 
| gross          = 
| preceded_by    = 
| followed_by    = 
| website        = 
| amg_id         = 
}} Paul Lynch and starring Harvey Keitel. 

==Cast==
*Harvey Keitel as Penfield Gruber 
*Lori Hallier as Julie
*Lolita Davidovich as Adele

==References==
 

==External links==
* 

 

 
 
 


 