Soorya Puthrikal
{{Infobox film
| name           =Soorya Puthrikal
| image          =
| caption        =
| director       =Suresh Menon
| producer       = 
| writer         = 
| screenplay     =
| starring       =
| music          = 
| cinematography = 
| editing        = 
| studio         = 
| distributor    = 
| released       = 1996
| country        = India Malayalam
}} 1996 Cinema Indian Malayalam Malayalam film directed by Suresh Menon and starring Jayaram and Jayabharathi in the lead roles.   

==Cast==
* Jayabharathi	
* Innocent	
* Jayaram	
* Divya Unni
* Jagadish	
* Narendra Prasad

==References==
 

==External links==
* 

 
 
 


 