Kireedamillatha Rajakkanmar
{{Infobox film
| name           =Kireedamillatha Rajakkanmar
| image          =
| caption        =
| director       =Kalabhavan Ansar
| producer       = 
| writer         = 
| screenplay     =
| starring       =
| music          = 
| cinematography = 
| editing        = 
| studio         = 
| distributor    = 
| released       = 1996
| country        = India Malayalam
}} 1996 Cinema Indian Malayalam Malayalam film Annie in the lead roles.   

==Cast==
* Premkumar
* Annie
* Jagadish
* Jagathy Sreekumar	
* Innocent	
* Kalabhavan Mani	
* Abbi
* Kanya Bharathi

==References==
 

==External links==
* 

 
 
 


 