Aakaashathekkoru Kilivaathil
{{Infobox film
| name           =Aakaashathekkoru Kilivaathil
| image          =
| caption        =
| director       =Arun
| producer       = 
| writer         = 
| screenplay     =
| starring       =
| music          = 
| cinematography = 
| editing        = 
| studio         = 
| distributor    = 
| released       = 1996
| country        = India Malayalam
}} 1996 Cinema Indian Malayalam Malayalam film directed by Arun and starring Ratheesh and Geetha in the lead roles.  

==Cast==
* Anju Aravind
* Sudheesh	

==References==
 

==External links==
* 

 
 
 


 