All Men Are Liars (1919 film)
{{Infobox film
| name           = All Men Are Liars 
| image          =
| caption        =
| director       = Sidney Morgan 
| producer       = Frank E. Spring 
| writer         = Joseph Hocking  (novel)   Sidney Morgan Bruce Gordon   Jessie Earle
| music          = 
| cinematography = 
| editing        = 
| studio         = Progress Films
| distributor    = Butchers Film Service
| released       = January 1919  
| runtime        = 
| country        = United Kingdom 
| awards         =
| language       = Silent   English intertitles
| budget         =
| preceded_by    =
| followed_by    =
}} silent drama Bruce Gordon and Jessie Earle.

==Cast==
*    Alice Russon as Hope   Bruce Gordon as Stephen  
* Jessie Earle as Isobel  George Harrington as Luke  

==References==
 

==Bibliography==
* Low, Rachael. The History of the British Film 1918-1929. George Allen & Unwin, 1971.

==External links==
*  

 

 
 
 
 
 
 
 
 
 

 