Padanayakan
{{Infobox film
| name           =Padanayakan
| image          =
| caption        =
| director       =Nissar
| producer       = 
| writer         = 
| screenplay     =
| starring       =
| music          = 
| cinematography = 
| editing        = 
| studio         = 
| distributor    = 
| released       = 1996
| country        = India Malayalam
}} 1996 Cinema Indian Malayalam Malayalam film Vijayaraghavan and Dileep in the lead roles.   

==Cast==
* Dileep	
* KPAC Lalitha	
* Kalabhavan Mani	
* Meera
* Sainudeen	
* Baburaj	
* Rajan P Dev	
* Tony
* Chippy	
* Machan Varghese	
* Mafia Sasi	
* Vijayaraghavan as Pappettan

==References==
 

==External links==
* 

 
 
 


 