The Desert Rider
{{Infobox film
| name           = The Desert Rider
| image          = 
| alt            = 
| caption        = 
| director       = Nick Grinde
| producer       =  Oliver Drake
| story          = Milton H. Bren Ted Shane  Harry Woods Jess Cavin
| music          = 
| cinematography = Arthur Reed
| editing        = William LeVanway 
| studio         = Metro-Goldwyn-Mayer
| distributor    = Metro-Goldwyn-Mayer
| released       =  
| runtime        = 60 minutes
| country        = United States
| language       = English
| budget         = 
| gross          = 
}}
 Western silent Oliver Drake. Harry Woods and Jess Cavin.   The film was released on May 11, 1929, by Metro-Goldwyn-Mayer.

==Plot==
 

== Cast ==
*Tim McCoy as Jed Tyler
*Raquel Torres as Dolores Alvarado
*Bert Roach as Friar Bernardo
*Edward Connelly as Padre Quintada Harry Woods as Williams
*Jess Cavin as Black Bailey

== References ==
 

== External links ==
*  

 

 
 
 
 
 
 
 
 


 
 