Sukhavasam
{{Infobox film
| name           =Sukhavasam
| image          =
| caption        =
| director       =PK Radhakrishnan
| producer       = 
| writer         = 
| screenplay     =
| starring       =
| music          = 
| cinematography = 
| editing        = 
| studio         = 
| distributor    = 
| released       = 1996
| country        = India Malayalam
}} 1996 Cinema Indian Malayalam Malayalam film directed by PK Radhakrishnan and starring MG Soman and Indrans in the lead roles.   

==Cast==
* Indrans	
* Kuthiravattam Pappu	
* MG Soman	
* Priyanka
* Vijaya

==References==
 

==External links==
* 

 
 
 


 