Kinnam Katta Kallan
{{Infobox film
| name           =Kinnam Katta Kallan
| image          =
| caption        =
| director       =KK Haridas
| producer       = 
| writer         = 
| screenplay     =
| starring       =
| music          = 
| cinematography = 
| editing        = 
| studio         = 
| distributor    = 
| released       = 1996
| country        = India Malayalam
}} 1996 Cinema Indian Malayalam Malayalam film directed by KK Haridas and starring Jagadish and Jagathy Sreekumar in the lead roles.  

==Cast==
* Jagathy Sreekumar	
* Innocent	
* Sreenivasan	
* Rajan P Dev
* Devayani	
* Harishree Ashokan	
* Indrans	
* Jagadish
* Kanakalatha	
* Mala Aravindan	
* Mansoor Ali Khan	
* Spadikam George

==References==
 

==External links==
* 

 
 
 


 