Aswathy (1991 film)
{{Infobox film
| name           =Aswathy
| image          =
| caption        =
| director       = 	Keyaar
| producer       = 
| writer         = 
| screenplay     =
| starring       =
| music          = 
| cinematography = 
| editing        = 
| studio         = 
| distributor    = 
| released       = 1991
| country        = India Malayalam
}}
 1991 Cinema Indian Malayalam Malayalam film directed by  Keyaar.   

==Cast==
* Hari	
* Lalithasree	
* Ramu

==References==
 

==External links==
* 

 
 
 

 