Avalariyathe
{{Infobox film
| name           =Avalariyathe
| image          =
| caption        =
| director       =Asha Khan
| producer       = 
| writer         = 
| screenplay     =
| starring       =
| music          = 
| cinematography = 
| editing        = 
| studio         = 
| distributor    = 
| released       = 1992
| country        = India Malayalam
}}
 1992 Cinema Indian Malayalam Malayalam film, directed by Asha Khan, starring Prathapachandran and Sathaar in the lead roles.   

==Cast==
* Prathapachandran	
* Sathar	
* Bobby Kottarakkara

==References==
 

==External links==
* 

 
 
 

 