Sooryachakram
{{Infobox film
| name           =Sooryachakram
| image          =
| caption        =
| director       =K Krishnan
| producer       = 
| writer         = 
| screenplay     =
| starring       =
| music          = 
| cinematography = 
| editing        = 
| studio         = 
| distributor    = 
| released       = 1992
| country        = India Malayalam
}}
 1992 Cinema Indian Malayalam Malayalam film, Saikumar and Jagathy Sreekumar in the lead roles.    

==Cast==
*Jagathy Sreekumar	
* Sreelatha Namboothiri	
* Mahesh	
* Maniyanpilla Raju
* Prathapachandran	
* Jagannadha Varma	
* Jagannadhan	
* Kollam Ajith
* Nirmala	
* Saikumar	
* Santhakumari

==References==
 

==External links==
* 

 
 
 

 