Kallu Karthyayani
{{Infobox film
| name           =Kallu Karthyayani
| image          =
| caption        =
| director       =	PK Joseph
| producer       = 
| writer         = 
| screenplay     =
| starring       =
| music          = 
| cinematography = 
| editing        = 
| studio         = 
| distributor    = 
| released       = 1979
| country        = India Malayalam
}}
 1979 Cinema Indian Malayalam Malayalam film directed by PK Joseph, starring Jayan and Prameela in lead roles.   

==Cast==
*Jayan	
* Prameela	
* Prathapachandran	
* Radhadevi
* Thodupuzha Radhakrishnan	
* Treesa

==References==
 

==External links==
* 

 
 
 

 