Upasana (film)
{{Infobox film
| name           =Upasana
| image          =
| caption        =
| director       =KG Rajasekharan
| producer       = 
| writer         = 
| screenplay     =
| starring       =
| music          = 
| cinematography = 
| editing        = 
| studio         = 
| distributor    = 
| released       = 1979
| country        = India Malayalam
}}
 1979 Cinema Indian Malayalam Malayalam film directed by KG Rajasekharan.   

==Cast==
* Jayan	
* Jayabharathi	

==References==
 

==External links==
* 

 
 
 

 