Nizhalukal Roopangal
{{Infobox film
| name           =Nizhalukal Roopangal
| image          =
| caption        =
| director       =	MC Manimala
| producer       = 
| writer         = 
| screenplay     =
| starring       =
| music          = 
| cinematography = 
| editing        = 
| studio         = 
| distributor    = 
| released       = 1979
| country        = India Malayalam
}}
 1979 Cinema Indian Malayalam Malayalam film directed by MC Manimala.    

==Cast==
 

==References==
 

==External links==
* 

 
 
 

 