Toile no Pieta
{{Infobox film
| name           = Toile no Pieta
| image          = 
| alt            =
| caption        = 
| film name      = 
| director       = Daishi Matsunaga
| producer       = Shinji Ogawa Morio Amagi
| writer         = 
| screenplay     = 
| story          = 
| based on       =  
| starring       = Yojiro Noda
| narrator       = 
| music          = 
| cinematography = 
| editing        = 
| studio         =       
| distributor    = 
| released       =     
| runtime        = 
| country        = Japan
| language       = Japanese
| budget         = 
| gross          =  
}}

  is an upcoming Japanese film directed by Daishi Matsunaga. It is scheduled to be released in the summer of 2015.  

==Cast==
*Yojiro Noda as Hiro Sonoda

==References==
 

 
 
 

 