Muhammadum Musthafayum
{{Infobox film 
| name           = Muhammadum Musthafayum
| image          =  
| caption        = 
| director       = 
| producer       = 
| writer         = 
| screenplay     = 
| starring       = 
| music          = M. S. Viswanathan
| cinematography = 
| editing        = 
| studio         = 
| distributor    = 
| released       =  
| country        = India Malayalam
}}
 1978 Cinema Indian Malayalam Malayalam film.  The film had musical score by M. S. Viswanathan.  

==Cast==

 

==Soundtrack==
The music was composed by M. S. Viswanathan and lyrics was written by PT Abdurahiman.

{| border="2" cellpadding="4" cellspacing="0" style="margin: 1em 1em 1em 0; background: #f9f9f9; border: 1px #aaa solid; border-collapse: collapse; font-size: 95%;"
|- bgcolor="#CCCCCF" align="center"
| No. || Song || Singers ||Lyrics || Length (m:ss)
|-
| 1 || Ahadavanaaya || Vilayil Valsala || PT Abdurahiman || 
|}

==References==
 

==External links==

 
 
 


 