Hotel Kaveri
{{Infobox film
| name           =Hotel kaveri
| image          =
| caption        =
| director       =MM Nesan
| producer       = 
| writer         = 
| screenplay     =
| starring       =
| music          = 
| cinematography = 
| editing        = 
| studio         = 
| distributor    = 
| released       = 1975
| country        = India Malayalam
}}
 1975 Cinema Indian Malayalam Malayalam film directed by MM Nesan.    

==References==
 

==External links==
* 

 
 
 

 