Hrdinové mlčí
{{Infobox film
| name           = Hrdinové mlčí 
| image          = 
| alt            = 
| caption        = 
| film name      = 
| director       =Miroslav Cikán
| producer       = 
| writer         = 
| screenplay     = 
| story          = 
| based on       =  
| starring       =  Ladislav Boháč, Zdeněk Dítě, and František Filipovský. 
| narrator       = 
| music          = 
| cinematography = 
| editing        = 
| studio         =  Ceskoslovenská Filmová Spolecnost, Nationalfilm 
| distributor    = 
| released       =1946  
| runtime        =70 minutes
| country        =Czechoslovakia
| language       = 
| budget         = 
| gross          = 
}}
Hrdinové mlčí   is a 1946 Czechoslovak drama film, directed by Miroslav Cikán.  It stars  Ladislav Boháč, Zdeněk Dítě, and František Filipovský. 

==References==
 

==External links==
*  at the Internet Movie Database

 
 
 
 
 
 
 
 