Dobře situovaný pán
{{Infobox film
| name           = Dobře situovaný pán 
| image          = Dobre situovaný pán.jpg
| alt            = 
| caption        = 
| film name      = 
| director       =Miroslav Cikán
| producer       = 
| writer         = 
| screenplay     = 
| story          = 
| based on       =  
| starring       = Jaroslav Marvan, Antonie Nedosinská, and Vera Ferbasová. 
| narrator       = 
| music          = 
| cinematography = 
| editing        = 
| studio         = Nationalfilm
| distributor    = 
| released       =1939  
| runtime        =
| country        =Czechoslovakia
| language       = 
| budget         = 
| gross          = 
}}
Dobře situovaný pán  is a 1939 Czechoslovak film, directed by Miroslav Cikán.  It stars Jaroslav Marvan, Antonie Nedošínská, and Věra Ferbasová. 

==References==
 

==External links==
*  at the Internet Movie Database

 
 
 
 
 
 