Bharyamar Sookshikkuka
{{Infobox film
| name           =Bharyamar Sookshikkuka
| image          =
| caption        =
| director       =	KS Sethumadhavan
| producer       = 
| writer         = 
| screenplay     =
| starring       =
| music          = 
| cinematography = 
| editing        = 
| studio         = 
| distributor    = 
| released       = 1968
| country        = India Malayalam
}}
 1968 Cinema Indian Malayalam Malayalam film directed by KS Sethumadhavan.    

==Cast==
* Prem Nazir as Suresh
* Sheela as Shobha
* Adoor Bhasi as SR Pothuval	
* Ammini as Madhavi Amma	
* Kamalam as Mala Sinha	
* Sankaradi as Devadas
* TR Omana as Devaki Amma	
* KP Ummer as Dr. Pothuval	
* Kamaladevi as Vasanthi	
* Paravoor Bharathan as Dileep

==References==
 

==External links==
* 

 
 
 

 