Její pastorkyně
{{Infobox film
| name           = Její pastorkyně
| image          = 
| alt            = 
| caption        = 
| film name      = 
| director       =Miroslav Cikán
| producer       = 
| writer         = 
| screenplay     = 
| story          = 
| based on       =  
| starring       = Marie Ptáková, Leopolda Dostalová, and Jirí Dohnal. 
| narrator       = 
| music          = 
| cinematography = 
| editing        = 
| studio         = Lloydfilm
| distributor    = 
| released       =1938  
| runtime        =
| country        =Czechoslovakia
| language       = 
| budget         = 
| gross          = 
}}
Její pastorkyně is a 1938 Czechoslovak film directed by Miroslav Cikán.  It stars Marie Ptáková, Leopolda Dostalová, and Jirí Dohnal, and is based on a play by Gabriela Preissová. 

==References==
 

==External links==
*  at the Internet Movie Database

 
 
 
 
 
 
 