Případ Z-8
{{Infobox film
| name           = Případ Z-8
| image          = 
| alt            = 
| caption        = 
| film name      = 
| director       =Miroslav Cikán
| producer       = 
| writer         = 
| screenplay     = 
| story          = 
| based on       =  
| starring       =  Josef Bek, Milica Kolofiková, and Jirina Petrovická. 
| narrator       = 
| music          = 
| cinematography = 
| editing        = 
| studio         =  Ceskoslovenský Státní Film 
| distributor    = 
| released       =1948  
| runtime        =
| country        =Czechoslovakia
| language       = 
| budget         = 
| gross          = 
}}
Případ Z-8 is a 1948 Czechoslovak drama film, directed by Miroslav Cikán.  It stars  Josef Bek, Milica Kolofiková, and Jiřina Petrovická. 

==References==
 

==External links==
*  at the Internet Movie Database

 
 
 
 
 
 
 
 