The Loss of the Birkenhead
{{Infobox film
| name           = The Loss of the Birkenhead
| image          =
| caption        =
| director       = Maurice Elvey
| producer       = 
| writer         =  Fred Groves   A.V. Bramble 
| music          = 
| cinematography = 
| editing        = 
| studio         = British & Colonial Kinematograph Company 
| distributor    = Ruffells Films
| released       = July 1914
| runtime        = 
| country        = United Kingdom 
| awards         =
| language       = Silent   English intertitles
| budget         =
| preceded_by    =
| followed_by    =
}} silent historical historical drama Fred Groves HMS Birkenhead in 1852.

==Cast==
*  Elisabeth Risdon as Deborah  Fred Groves as Seth 
* A.V. Bramble   
* M. Gray Murray   
* Joyce Templeton   
* Beatrix Templeton

==References==
 

==Bibliography==
* Murphy, Robert. Directors in British and Irish Cinema: A Reference Companion. British Film Institute, 2006.

==External links==
*  

 

 
 
 
 
 
 
 
 
 
 
 
 

 