Vaadaka Veettile Athidhi
{{Infobox film
| name           =Vaadaka Veettile Athidhi
| image          =
| caption        =
| director       =P Ramdas
| producer       = 
| writer         = 
| screenplay     =
| starring       =
| music          = 
| cinematography = 
| editing        = 
| studio         = 
| distributor    = 
| released       = 1981
| country        = India Malayalam
}}
 1981 Cinema Indian Malayalam Malayalam film directed by P Ramdas.   

==Cast==
* Hari
* Shubha
* KPAC Lalitha	
* Manavalan Joseph
* Raghavan	
* Paul Vengola
* Adoor Pankajam
* Jayabharathi	
* MG Soman

==References==
 

==External links==
* 

 
 
 

 