Oru Sisu Jananam
{{Infobox film
| name           =Oru Sisu Jananam
| image          =
| caption        =
| director       =	PRS Pillai
| producer       = 
| writer         = 
| screenplay     =
| starring       =
| music          = 
| cinematography = 
| editing        = 
| studio         = 
| distributor    = 
| released       = 1982
| country        = India Malayalam
}}
 1982 Cinema Indian Malayalam Malayalam film directed by 	PRS Pillai.   

==Cast==
* Jose Prakash	
* Adoor Bhavani	

==References==
 

==External links==
* 

 
 
 

 