Naadam (film)
{{Infobox film
| name           =Naadam
| image          =
| caption        =
| director       = Lawrence Gaulbert
| producer       = 
| writer         = 
| screenplay     =
| starring       =
| music          = 
| cinematography = 
| editing        = 
| studio         = 
| distributor    = 
| released       = 1983
| country        = India Malayalam
}}
 1983 Cinema Indian Malayalam Malayalam film directed by  Lawrence Gaulbert.    

==Cast==
* Achankunju	
* Devan	
* Devi	
* Sindhoori
* Lekshmi	
* Mahadevan

==References==
 

==External links==
* 

 
 
 

 