The Traces of Light
{{Infobox film
| name           = The traces of light
| image          = The Traces of Light Movie Poster.jpg
| alt            = 
| caption        =
| film name      =  
| director       = Hossein Shahabi
| producer       = Hossein Sharifi
| writer         = Hossein Shahabi
| starring       =  
| music          = Hossein Shahabi
| cinematography = Nader Badad Afshord
| editing        = Hossein Shahabi
| studio         = Baran film house
| distributor    = Baran Film House
| released       =  
| runtime        = 96 minutes
| country        = Iran
| language       = Persian
| budget         = 
| gross          = 
}} Iranian drama film written and directed by Hossein Shahabi (Persian: حسین شهابی)      

==Cast==

* Shahram Khazaei
* Rahim Fallah
* Karim Nobakht
* Reza Novini
* Shahed Gorbani
* Kimia Saboori
* Mahin Bageri

==References==
 
 

 

 
 
 