Bright Shadow
{{Infobox film
| name           = Bright Shadow
| image          = Bright_Sadow_Film_Poster.jpg
| alt            = 
| caption        = Movie Poster
| film name      =  
| director       = Hossein Shahabi
| producer       = Hossein Sharifi
| writer         = Hossein Shahabi
| starring       =  
| music          = Hossein Shahabi
| cinematography = Hamid Angaji
| editing        = Hossein Shahabi
| studio         = Baran film house
| distributor    = Baran Film House
| released       =  
| runtime        = 
| country        = Iran
| language       = Persian
| budget         = 
| gross          = 
}} Iranian drama film  written and directed by Hossein Shahabi (Persian: حسین شهابی)     

==Cast==
* Samin Gholami
* Nader Parchami
* Mahmood Shirazi
* Karim Nobakht
* Sara Kermani
* Azar Roohi
* Nader Karimian Sedaghat

==References==
 
 
 
 
 