Un po' di cielo
{{Infobox film
| name           =Un po di cielo
| image          =Un-po-di-cielo-img-84930.jpg
| image_size     =
| caption        =
| director       =
| producer       =Giorgio Moser
| writer         =
| narrator       =
| starring       =
| music          =Angelo Francesco Lavagnino
| cinematography =Pier Ludovico Pavoni
| editor       =
| distributor    =
| released       = 1955
| runtime        =
| country        = Italy Italian
| budget         =
}} 1955 Italy|Italian  film. It stars actor Gabriele Ferzetti. 

==Cast==
* Gabriele Ferzetti as Frank Lo Giudice		
* Constance Smith   as 	Nora	
* Fausto Tozzi  as 	 	Roberto Maltoni
* Aldo Fabrizi 	 as  Pietro Maltoni
* Peppino De Filippo   as Fabrizio Pagani 
* Tina Pica as Antonietta

==References==
 

==External links==
* 

 
 
 
 

 