Mounanombaram
{{Infobox film
| name           =Mounanombaram
| image          =
| caption        =
| director       = Sasikumar
| producer       = 
| writer         = 
| screenplay     =
| starring       =
| music          = 
| cinematography = 
| editing        = 
| studio         = 
| distributor    = 
| released       = 1985
| country        = India Malayalam
}}
 1985 Cinema Indian Malayalam Malayalam film directed by Sasikumar.   

==Cast==
* Sukumari	
* Jagathy Sreekumar	
* Thilakan	
* Kaviyoor Ponnamma
* Beena	
* Ratheesh	
* Rohini	
* Sankaradi
* Shankar	
* Menaka Sureshkumar	
* Sukumaran	
* Jalaja
* Kuttyedathi Vilasini	
* Master Suresh

==References==
 

==External links==
* 

 
 
 

 