Agnipravesham
{{Infobox film
| name           =Agnipravesham
| image          =
| caption        =
| director       =CP Vijayakumar
| producer       = 
| writer         = 
| screenplay     =
| starring       =
| music          = 
| cinematography = 
| editing        = 
| studio         = 
| distributor    = 
| released       = 1989
| country        = India Malayalam
}}
 1989 Cinema Indian Malayalam Malayalam film directed by CP Vijayakumar.  

==Cast==
* Sukumari	
* Jagathy Sreekumar	
* Captain Raju	
* KPAC Sunny
* Kollam Ajith	 Kuyili	
* Lalu Alex	
* MG Soman
* Mala Aravindan	
* Shivaji	
* Sugandhi	
* Vanithasree
* Migdad

==References==
 

==External links==
* 

 
 
 


 