Soundaryappinakkam
{{Infobox film
| name           =Soundaryappinakkam
| image          =
| caption        =
| director       = Rajasenan
| producer       = 
| writer         = 
| screenplay     =
| starring       =
| music          = 
| cinematography = 
| editing        = 
| studio         = 
| distributor    = 
| released       = 1985
| country        = India Malayalam
}}
 1985 Cinema Indian Malayalam Malayalam film directed by Rajasenan.   

==Cast==
* Captain Raju	
* Shankar	
* Menaka Sureshkumar	
* Savitha

==References==
 

==External links==
* 

 
 
 

 