Manasa Maine Varu
{{Infobox film
| name           =Manasa Maine Varu
| image          =
| caption        =
| director       =P Ramu
| producer       = 
| writer         = 
| screenplay     =
| starring       =
| music          = 
| cinematography = 
| editing        = 
| studio         = 
| distributor    = 
| released       = 1987
| country        = India Malayalam
}}
 1987 Cinema Indian Malayalam Malayalam film directed by P Ramu.   

==Cast==
* Innocent	
* Santhosh	
* Ganesh Kumar	
* Ramu
* Saritha

==References==
 

==External links==
* 

 
 
 

 