Aamukham
{{Infobox film
| name           =Aamukham
| image          =
| caption        =
| director       =	Rajeevnath
| producer       = 
| writer         = 
| screenplay     =
| starring       =
| music          = 
| cinematography = 
| editing        = 
| studio         = 
| distributor    = 
| released       = 1988
| country        = India Malayalam
}}
 1988 Cinema Indian Malayalam Malayalam film directed by Rajeevnath.   

==Cast==
* Titty Joy George
* Gopalakrishnan
* Amir Abbas

==References==
 

==External links==
* 

 
 
 

 