Ariyaatha Bandham
{{Infobox film
| name           =Ariyaatha Bandham
| image          =
| caption        =
| director       =Sasikumar
| producer       = 
| writer         = 
| screenplay     =
| starring       =
| music          = 
| cinematography = 
| editing        = 
| studio         = 
| distributor    = 
| released       = 1986
| country        = India Malayalam
}}
 1986 Cinema Indian Malayalam Malayalam film directed by Sasikumar.   

==Cast==
* Kaviyoor Ponnamma	
* Ratheesh	
* Shankar	
* Menaka Sureshkumar
* Baby Lakshmi

==References==
 

==External links==
* 

 
 
 

 