Nisheedhini
{{Infobox film
| name           =Nisheedhini
| image          =
| caption        =
| director       =Thankachan
| producer       = 
| writer         = 
| screenplay     =
| starring       =
| music          = 
| cinematography = 
| editing        = 
| studio         = 
| distributor    = 
| released       = 2000
| country        = India Malayalam
}}
 2000 Cinema Indian Malayalam Malayalam film directed by Thankachan.   

==Cast==
* Bhaskar	 
* Prathapachandran 
* Devan	 
* Maria 
* Shajith	 
* Tomy	 
* Usman	 
* Vijay Shankar 
* Hema 

==References==
 

==External links==
* 

 
 
 

 