Madhumaasam
{{Infobox film
| name           =Madhumaasam
| image          =
| caption        =
| director       = AT Joy
| producer       = 
| writer         = 
| screenplay     =
| starring       =
| music          = 
| cinematography = 
| editing        = 
| studio         = 
| distributor    = 
| released       = 2000
| country        = India Malayalam
}} 2000 Cinema Indian Malayalam Malayalam film directed by  AT Joy.   

== Cast ==
* Nedumudi Venu
* Himabindu	
* Kalamandalam Jayakumar
* Meena Krishna 
* Attingal Njekkad Raju	
* Pallikkal Sherir	
* Sreekandakurup

==References==
 

==External links==
* 

 
 
 

 