Shayanam
{{Infobox film
| name           =Shayanam
| image          =
| caption        =
| director       =MP Sukumaran Nair
| producer       = 
| writer         = 
| screenplay     =
| starring       =
| music          = 
| cinematography = 
| editing        = 
| studio         = 
| distributor    = 
| released       = 2000
| country        = India Malayalam
}}
 2000 Cinema Indian Malayalam Malayalam film directed by MP Sukumaran Nair.   

==Cast==
* Jayalakshmi	
* Kalpana	
* MK Kamalam	
* Mullanezhi
* Ajayan	
* Babu Antony	
* Babu Namboothiri	
* Gladis
* Indrans	
* Joseph Chacko	
* KG Devakiyamma	
* Meena Ganesh
* Ramadevi	
* S Gopalakrishnan	
* Harilal

==References==
 

==External links==
* 

 
 
 

 