Priyankari
{{Infobox film
| name           =Priyankari
| image          =
| caption        =
| director       =	KS Sivachandran
| producer       = 
| writer         = 
| screenplay     =
| starring       =
| music          = 
| cinematography = 
| editing        = 
| studio         = 
| distributor    = 
| released       = 2000
| country        = India Malayalam
}}
 2000 Cinema Indian Malayalam Malayalam film directed by KS Sivachandran.   

==Cast==
* Soumya	
* Bheeman Raghu	
* Bobby Kottarakkara	
* Idavela Babu
* Nisha Chowdhary	
* Pushpa	
* Tharun Sagar	
* Girija (New)

==References==
 

==External links==
* 

 
 
 

 