Kochu Kochu Thettukal (2000 film)
{{Infobox film
| name           =Kochu Kochu Thettukal
| image          =
| caption        =
| director       =Jayadevan
| producer       = 
| writer         = 
| screenplay     =
| starring       =
| music          = 
| cinematography = 
| editing        = 
| studio         = 
| distributor    = 
| released       = 2000
| country        = India Malayalam
}}
 2000 Cinema Indian Malayalam Malayalam film directed by Jayadevan.   

==Cast==
* Nedumudi Venu

==References==
 

==External links==
* 

 
 
 

 