The Revelation of the Pyramids
 

{{Infobox film
| name           = The Revelation of the Pyramids
| image          = 
| image_size     = 
| border         = 
| alt            = 
| caption        = 
| film name      = The Revelation of the Pyramids
| director       = Patrice Pooyard
| producer       = 
| writer         = Jacques Grimault Olivier Krasker-Rosen Patrice Pooyard Brian Cox
| starring       = 
| music          = 
| cinematography = 
| editing        = 
| studio         = 
| distributor    = 
| released       = February 10th, 2010
| runtime        = 106 minutes
| country        = France
| language       = French English
| budget         = 
| gross          = 
}}


The Revelation of the Pyramids is a 2010 documentary directed by Patrice Pooyard.

==External links==
*   

 
 
 
 
 