Vedathi
{{Infobox film
| name           =Vedathi
| image          =
| caption        =
| director       =KS Gopalakrishnan
| producer       = 
| writer         = 
| screenplay     =
| starring       =
| music          = 
| cinematography = 
| editing        = 
| studio         = 
| distributor    = 
| released       = 2000
| country        = India Malayalam
}}
 2000 Cinema Indian Malayalam Malayalam film directed by KS Gopalakrishnan.   

==Cast==
* Manoj	
* Sindhu	
* John	
* Lekha Pande
* Riyaz Khan	
* Shakkeela	
* Vimal Raj 

==References==
 

==External links==
* 

 
 
 

 