Unnimaya
{{Infobox film
| name           =Unnimaya
| image          =
| caption        =
| director       = AK Jayan Poduval
| producer       = 
| writer         = 
| screenplay     =
| starring       =
| music          = 
| cinematography = 
| editing        = 
| studio         = 
| distributor    = 
| released       = 2000
| country        = India Malayalam
}} 2000 Cinema Indian Malayalam Malayalam film directed by  AK Jayan Poduval.    

==Cast==
* Gayathri 
* Asokan	
* James	
* Hemanth Ravan	
* Jagannadha Varma
* Maria	
* Salim Kumar

==References==
 

==External links==
* 

 
 
 

 