Dos locos en escena
{{Infobox film
| name           = Dos locos en escena
| image          = 
| image_size     = 
| border         = 
| alt            = 
| caption        = 
| film name      = 
| director       = Agustín P. Delgado
| producer       = Mario A. Zacarías
| writer         = Agustín P. Delgado
| screenplay     = Roberto Gómez Bolaños
| story          = 
| based on       =  
| narrator       = 
| starring       = Marco Antonio Campos Gaspar Henaine Flor Silvestre Marina Camacho
| music          = Francisco Argote
| cinematography = Agustín Jiménez
| editing        = José W. Bustos
| studio         = Producciones Zacarías
| distributor    = 
| released       =  
| runtime        = 94 minutes
| country        = Mexico
| language       = Spanish
| budget         = 
| gross          = 
}}
Dos locos en escena ("Two Crazy Ones on the Scene") is a 1960 Mexican comedy film starring Viruta and Capulina, Flor Silvestre, and Marina Camacho.

==External links==
* 
 

 
 

 