Who Killed Gail Preston?
{{Infobox film
| name           = Who Killed Gail Preston?
| image          = Who Killed Gail Preston.jpg
| alt            = 
| caption        = 
| film name      = 
| director       =  Leon Barsha
| producer       = 
| writer         = 
| screenplay     = 
| story          = 
| based on       =  
| starring       = Don Terry, Rita Hayworth, and Robert Paige
| narrator       = 
| music          = 
| cinematography = 
| editing        = 
| studio         =
| distributor    = 
| released       =1938  
| runtime        = 61 minutes
| country        = USA
| language       = English
| budget         = 
| gross          = 
}}
Who Killed Gail Preston? is a 1938 American crime film, directed by Leon Barsha. It stars Don Terry, Rita Hayworth, and Robert Paige.   

==References==
 

==External links==
*  at the Internet Movie Database

 
 
 
 
 

 