Criminals of the Air
{{Infobox film
| name           = Criminals of the Air
| image          = Criminals in the Air.jpg
| alt            = 
| caption        = 
| film name      =  Charles C. Coleman
| producer       = 
| writer         = 
| screenplay     = 
| story          = 
| based on       =  
| starring       = Rosalind Keith, Charles Quigley, and Rita Hayworth
| narrator       = 
| music          = 
| cinematography = 
| editing        = 
| studio         =
| distributor    = 
| released       =1937  
| runtime        = 61 minutes
| country        = USA
| language       = English
| budget         = 
| gross          = 
}} Charles C. Coleman. It stars Rosalind Keith, Charles Quigley, and Rita Hayworth.   

==References==
 

==External links==
*  at the Internet Movie Database
 
 
 
 
 
 
 

 