Haunted Road
{{Infobox film
| name           = Haunted Road
| image          = Haunted Road poster.jpg
| alt            =
| caption        = 
| film name      = 
| director       = Yijian Tong 
| producer       = 
| writer         = 
| screenplay     = 
| story          = 
| based on       =  
| starring       = Su-a Hong Jo Jiang Musi Ni Ling Peng Renata Tan Taiyu Gao Yue Xu
| narrator       = 
| music          = 
| cinematography = 
| editing        = 
| studio         =  Xiaoxiang Film Group Zhejiang Hewen Entertainment Co., Ltd Dongyang Futian Entertainment Co.,Ltd Bale Hudong （Beijing）Media Co.,Ltd Beijing Jiale Chuangxin Entertainment Co.,Ltd     
| distributor    = 
| released       =  
| runtime        = 90 minutes
| country        = China
| language       = Mandarin
| budget         = 
| gross          = chinese yuan|¥13.04 million (China) 
}}

Haunted Road (  thriller film directed by Yijian Tong. It was released on November 13, 2014. 

==Cast==
*Su-a Hong
*Jo Jiang
*Musi Ni
*Ling Peng
*Renata Tan
*Taiyu Gao
*Yue Xu

==Reception==

===Box office===
By November 21, 2014, the film had earned chinese yuan|¥13.04 million at the Chinese box office. 

==References==
 

==External links==
* 

 
 
 
 
 
 


 
 
 