Convicted (1938 film)
{{Infobox film
| name           = Convicted
| image          = 
| alt            = 
| caption        = 
| film name      = 
| director       =  Leon Barsha
| producer       = 
| writer         = 
| screenplay     = 
| story          = 
| based on       =  
| starring       = Charles Quigley, Rita Hayworth, and Marc Lawrence
| narrator       = 
| music          = 
| cinematography = 
| editing        = 
| studio         =
| distributor    = 
| released       =1938  
| runtime        = 58 minutes
| country        = USA
| language       = English
| budget         = 
| gross          = 
}}
Convicted is a 1938 American action film, directed by Leon Barsha. It stars Charles Quigley, Rita Hayworth, and Marc Lawrence.   

==References==
 

==External links==
*  at the Internet Movie Database

 
 
 
 
 
 


 