Enchanted (1942 film)
 
{{Infobox film
| name           = Enchanted
| image          = 
| caption        = 
| director       = Otakar Vávra
| producer       = 
| writer         = Otakar Vávra
| starring       = Natasa Gollová
| music          = 
| cinematography = 
| editing        = 
| distributor    = 
| released       =  
| runtime        = 94 minutes
| country        = Czechoslovakia
| language       = Czech
| budget         = 
}}

Enchanted ( ) is a 1942 Czechoslovak drama film directed by Otakar Vávra.   

==Cast==
* Natasa Gollová as Lenka Bártová
* Adina Mandlová as Milada Janská
* Marie Glázrová as Jitka Zykanová
* Karel Höger as Dr. Pavel Chvojka
* Jan Pivec as Jan Karas
* Leopolda Dostalová as Hojtasová, statkárka
* Václav Vydra as Rupert Hojtas, její tchán
* Stanislava Strobachová as Olga, jeho vnucka

==References==
 

==External links==
*  

 

 
 
 
 
 
 
 
 
 