The Masked Lover
 
{{Infobox film
| name           = The Masked Lover
| image          = 
| caption        = 
| director       = Otakar Vávra
| producer       = 
| writer         = Honoré de Balzac Otakar Vávra
| starring       = Lída Baarová
| music          = 
| cinematography = 
| editing        = 
| distributor    = 
| released       =  
| runtime        = 83 minutes
| country        = Czechoslovakia
| language       = Czech
| budget         = 
}}

The Masked Lover ( ) is a 1940 Czechoslovak drama film directed by Otakar Vávra.   

==Cast==
* Lída Baarová as Lenka Rossetiová
* Ewald Balser
* Josef Belský as Judge Rudolf Deyl
* Gustav Nezval as Leon z Costy
* Ladislav Pesek as Leonuv sluha
* Jirí Steimar as Albert Angely
* Jirina Steimarová as Emilie

==References==
 

==External links==
*  

 

 
 
 
 
 
 
 
 
 
 