The Shadow (1937 film)
{{Infobox film
| name           = The Shadow
| image          = 
| alt            = 
| caption        = 
| film name      =  Charles C. Coleman
| producer       = 
| writer         = 
| screenplay     = 
| story          = 
| based on       =  
| starring       = Rita Hayworth, Charles Quigley, and Marc Lawrence
| narrator       = 
| music          = 
| cinematography = 
| editing        = 
| studio         =
| distributor    = 
| released       =1937  
| runtime        = 59 minutes
| country        = USA
| language       = English
| budget         = 
| gross          = 
}} Charles C. Coleman. It stars Rita Hayworth, Charles Quigley, and Marc Lawrence.   

==References==
 

==External links==
*  at the Internet Movie Database

 

 
 
 
 
 
 

 