Voice in the Night (film)
{{Infobox film
| name           = Voice in the Night 
| image          = 
| alt            = 
| caption        = 
| film name      =  Charles C. Coleman
| producer       = 
| writer         = 
| screenplay     = 
| story          = 
| based on       =  
| starring       = Tim McCoy, Billie Seward, and Joseph Crehan
| narrator       = 
| music          = 
| cinematography = 
| editing        = 
| studio         =
| distributor    = 
| released       =1934  
| runtime        = 59 minutes
| country        = USA
| language       = English
| budget         = 
| gross          = 
}} Charles C. Coleman. It stars Tim McCoy, Billie Seward, and Joseph Crehan.   

==References==
 

==External links==
*  at the Internet Movie Database
 
 
 
 
 
 

 