Parole Racket
{{Infobox film
| name           = Parole Racket
| image          = 
| alt            = 
| caption        = 
| film name      =  Charles C. Coleman
| producer       = 
| writer         = 
| screenplay     = 
| story          = 
| based on       =  
| starring       = Paul Kelly, Rosalind Keith, Thurston Hall
| narrator       = 
| music          = 
| cinematography = 
| editing        = 
| studio         =
| distributor    = 
| released       =1936  
| runtime        = 62 minutes
| country        = USA
| language       = English
| budget         = 
| gross          = 
}} Charles C. Coleman. It stars Paul Kelly, Rosalind Keith, Thurston Hall.   

==References==
 

==External links==
*  at the Internet Movie Database
 
 
 
 
 
 

 