Missing Daughters
{{Infobox film
| name           = Missing Daughters
| image          = 
| alt            = 
| caption        = 
| film name      =  Charles C. Coleman
| producer       = 
| writer         = 
| screenplay     = 
| story          = 
| based on       =  
| starring       = Richard Arlen, Rochelle Hudson, and Marian Marsh
| narrator       = 
| music          = 
| cinematography = 
| editing        = 
| studio         =
| distributor    = 
| released       =1939  
| runtime        = 59 minutes
| country        = USA
| language       = English
| budget         = 
| gross          = 
}} Charles C. Coleman. It stars Richard Arlen, Rochelle Hudson, and Marian Marsh.   

==References==
 

==External links==
*  at the Internet Movie Database
 
 
 
 
 
 

 