Spirit of the West (film)
{{Infobox film
| name           = Spirit of the West 
| image          = 
| alt            = 
| caption        = 
| film name      = 
| director       =  Otto Brower
| producer       = 
| writer         = 
| screenplay     = 
| story          = 
| based on       =  
| starring       = Hoot Gibson, Doris Hill, and Hooper Atchley
| narrator       = 
| music          = 
| cinematography = 
| editing        = 
| studio         =
| distributor    = 
| released       =1932  
| runtime        = 62 minutes
| country        = USA
| language       = English
| budget         = 
| gross          = 
}}
Spirit of the West is a 1932 American western film, directed by Otto Brower. It stars Hoot Gibson, Doris Hill, and Hooper Atchley.   

==References==
 

==External links==
*  at the Internet Movie Database
 
 
 
 
 
 

 