The Santa Fe Trail (1930 film)
 
{{Infobox film
| name           = The Santa Fe Trail
| image          =
| alt            =
| caption        =
| director       = Otto Brower Edwin H. Knopf
| producer       =
| writer         = Hal G. Evarts Sam Mintz Edward E. Paramore Jr.
| screenplay     =
| story          =
| based on       =  
| starring       = Richard Arlen Rosita Moreno Eugene Pallette
| narrator       =
| music          =
| cinematography =
| editing        =
| studio         =
| distributor    = Paramount Pictures
| released       =   
| runtime        = 65 minutes
| country        = United States
| language       = English
| budget         =
| gross          =
}}
The Santa Fe Trail is a 1930 American western film, directed by Otto Brower and Edwin H. Knopf, released by Paramount Pictures, and starring Richard Arlen, Rosita Moreno, and Eugene Pallette.   

==References==
 

==External links==
* 

 

 
 
 
 
 
 

 