Sunset Pass (1929 film)
{{Infobox film
| name           = Sunset Pass
| image          = 
| alt            = 
| caption        = 
| film name      = 
| director       =  Otto Brower
| producer       = 
| writer         = 
| screenplay     = 
| story          = 
| based on       =   Jack Holt, Nora Lane and John Loder
| narrator       = 
| music          = 
| cinematography = 
| editing        = 
| studio         =
| distributor    = 
| released       =  
| runtime        = 
| country        = United States
| language       = Silent
| budget         = 
| gross          = 
}} Jack Holt, Nora Lane and John Loder.   

==References==
 

==External links==
*  at the Internet Movie Database

 

 
 
 
 
 
 

 