Panic on the Air
 
{{Infobox film
| name           = Panic on the Air
| image          = 
| caption        = 
| director       = D. Ross Lederman
| producer       = 
| writer         = Harold Shumate Theodore S. Tinsley
| starring       = Lew Ayres
| music          = 
| cinematography = 
| editing        = 
| distributor    = 
| released       =  
| runtime        = 54 minutes
| country        = United States
| language       = English
| budget         = 
}}

Panic on the Air is a 1936 American drama film directed by D. Ross Lederman.   

==Cast==
* Lew Ayres as Jerry Franklin
* Florence Rice as Mary Connor aka Cremer
* Benny Baker as Andy
* Edwin Maxwell as Gordon Charles C. Wilson as Chief Insp. Fitzgerald
* Murray Alper as Marvin Danker
* Wyrley Birch as Maj. Bliss
* Robert Emmett Keane as Cillani
* Gene Morgan as Lefty Dugan Eddie Lee as McNulty

==References==
 

==External links==
*  

 

 
 
 
 
 
 
 
 
 