A Dangerous Adventure
 
{{Infobox film
| name           = A Dangerous Adventure
| image          = 
| caption        = 
| director       = D. Ross Lederman
| producer       = 
| writer         = Owen Francis Francis Rathmell John Rathmell
| starring       = Don Terry
| music          = 
| cinematography = 
| editing        = 
| distributor    = 
| released       =  
| runtime        = 58 minutes
| country        = United States
| language       = English
| budget         = 
}}

A Dangerous Adventure is a 1937 American drama film directed by D. Ross Lederman.   

==Cast==
* Don Terry as Tim Sawyer
* Rosalind Keith as Linda Gale
* Russell Hicks as Allen
* John Gallaudet as Hadley
* Nana Bryant as Marie
* Frank C. Wilson as Depan
* Marc Lawrence as Calkins
* Joe Sawyer as Dutch

==References==
 

==External links==
*  

 

 
 
 
 
 
 
 
 
 