Stop, Look and Love
{{Infobox film
| name           = Stop, Look and Love
| image          = 
| alt            = 
| caption        = 
| film name      = 
| director       =  Otto Brower
| producer       = 
| writer         = 
| screenplay     = 
| story          = 
| based on       =  
| starring       =  Jean Rogers, William Frawley, and Robert Kellard
| narrator       = 
| music          = 
| cinematography = 
| editing        = 
| studio         =
| distributor    = 
| released       =1939  
| runtime        = 58 minutes
| country        = USA
| language       = English
| budget         = 
| gross          = 
}}
Stop, Look and Love is a 1939 American comedy film, directed by Otto Brower. It stars  Jean Rogers, William Frawley, and Robert Kellard.   

==References==
 

==External links==
*  at the Internet Movie Database
 
 
 
 
 
 

 