Fighting for Justice
{{Infobox film
| name           = Fighting for Justice
| image          = 
| alt            = 
| caption        = 
| film name      = 
| director       =  Otto Brower
| producer       = 
| writer         = 
| screenplay     = 
| story          = 
| based on       =  
| starring       = Tim McCoy, Joyce Compton, and Robert Fraze
| narrator       = 
| music          = 
| cinematography = 
| editing        = 
| studio         =
| distributor    = 
| released       =1932  
| runtime        = 60 minutes
| country        = USA
| language       = English
| budget         = 
| gross          = 
}}
Fighting for Justice is a 1932 American western  film, directed by Otto Brower. It stars Tim McCoy, Joyce Compton, and Robert Fraze.   

==References==
 

==External links==
*  at the Internet Movie Database
 
 
 
 
 
 

 