A Viuvinha (film)
 
{{Infobox film
| name           =  A Viuvinha
| image          =  
| caption        =
| director       = Luiz de Barros
| producer       = 
| writer         = Based on the novel A Viuvinha by José de Alencar.
| starring       = 
| music          = 
| cinematography =  João Stamato
| editing        = 
| studio         = Carioca Filmes
| released       = 1914
| runtime        =  
| country        = Brazil
| language       =Silent
| budget         = 
}}

A Viuvinha is a 1914 Brazilian silent romantic drama film directed by Luiz de Barros and starring Linda Bianchi and Gita de Barros. 

==Cast==
*Linda Bianchi 		
*Gita de Barros 
*Luiz de Barros 		
*Fausto Muniz

==References==
 

==External links==
*  

 

 
 
 
 
 
 
 


 
 
 