On Their Own
{{Infobox film
| name           = On Their Own
| image          = 
| alt            = 
| caption        = 
| film name      = 
| director       =  Otto Brower
| producer       = 
| writer         = 
| screenplay     = 
| story          = 
| based on       =  
| starring       = Spring Byington, Kenneth Howell, and George Ernes
| narrator       = 
| music          = 
| cinematography = 
| editing        = 
| studio         =
| distributor    = 
| released       =1939  
| runtime        = 65 minutes
| country        = USA
| language       = English
| budget         = 
| gross          = 
}}
On Their Own is a 1939 American comedy film, directed by Otto Brower. It stars Spring Byington, Kenneth Howell, and George Ernes.   

==References==
 

==External links==
*  at the Internet Movie Database
 
 
 
 
 
 

 