Perdida
 
{{Infobox film
| name           =  Perdida
| image          =  
| caption        =
| director       = Luiz de Barros
| producer       = 
| writer         = Based on a play by Oscar Lopes
| starring       = 
| music          = 
| cinematography =  João Stamato, Paulino Botelho
| editing        = 
| studio         = Guanabara Filme
| released       =16 October 1914
| runtime        =  
| country        = Brazil
| language       =Silent
| budget         = 
}}

Perdida is a 1916 Brazilian silent drama film directed by Luiz de Barros and starring Erico Braga, Yole Burlini, and Leopoldo Froes. 

==Cast==
*Erico Braga 		
*Yole Burlini as Nanette Lubin
*Leopoldo Froes as Ricardo de Toneleiros
*Gabriela Montani 	
*Maria Reis 			
*Miss Rosalie	

==References==
 

==External links==
*  

 

 
 
 
 
 
 
 


 
 