Chandranilekkoru Vazhi
{{Infobox film
| name           =Chandranilekkoru Vazhi
| image          =
| caption        =
| director       = Biju Varkey
| producer       = 
| writer         = 
| screenplay     =
| starring       =
| music          = 
| cinematography = 
| editing        = 
| studio         = 
| distributor    = 
| released       = 2008
| country        = India Malayalam
}} 2008 Cinema Indian Malayalam Malayalam film directed by Biju Varkey.    

==Cast==
* Jagathy Sreekumar	
* Nedumudi Venu	
* Rekha	
* Charuhasan
* Divya Viswanath	
* Kozhikode Sharada	
* Madhu Warrier	
* Nishant Sagar
* TG Ravi	
* Vijaya Kumari

==References==
 

==External links==
* 

 
 
 

 