Kovalam (film)
{{Infobox film
| name           =Kovalam
| image          =
| caption        =
| director       =Jagadeesh Chandran
| producer       = 
| writer         = 
| screenplay     =
| starring       =
| music          = 
| cinematography = 
| editing        = 
| studio         = 
| distributor    = 
| released       = 2008
| country        = India Malayalam
}} 2008 Cinema Indian Malayalam Malayalam film directed by Jagadeesh Chandran.   

==Cast==
* Jagathy Sreekumar	
* Captain Raju	
* Madhupal	
* Indrans
* Nishant Sagar

==References==
 

==External links==
* 

 
 
 

 