The Boss of the Rancho
{{Infobox film
| name           = The Boss of the Rancho
| image          = Boss of the Rancho 1919.jpg
| caption        = lobby poster
| director       = E. A. Middleton
| producer       = Frohman Amusement Corporation William L. Sherrill
| writer         =
| starring       = Texas Guinan
| cinematography =
| editing        =
| distributor    =
| released       =  
| runtime        = 2 reels
| country        = United States
| language       = Silent..English titles
}}
The Boss of the Rancho is a 1919 silent film western short starring Texas Guinan.

This Guinan short survives at George Eastman House. 

==Cast==
*Texas Guinan

==References==
 

==External links==
* 

 
 
 
 
 
 


 