Bipasha: The Black Beauty
{{Infobox film
| name           = Bipasha: The Black Beauty
| image          = 
| alt            =
| caption        = 
| film name      = 
| director       = Shailendra Singh Rajput
| producer       = Prem G Gangwani Prakash Raj
| writer         = 
| screenplay     = Shailendra Singh Rajput
| story          = 
| based on       = 
| starring       = 
| narrator       = 
| music          = Saurabh Mukherjee
| cinematography = Pramod Fatak
| editing        = Anil Patil
| studio         = Sidatar Films Suman Films International
| distributor    = Alfa Studios
| released       =  
| runtime        = 
| country        = India
| language       = Hindi
| budget         = 
| gross          = 
}}
Bipasha: The Black Beauty is a 2006 film.

== Cast ==
* Needhi Gill
* Rishabh Takoo
* Suman Agarwal
* Anil Nagrath
* Rahul Roy
* Mohit Mattu
* Raju Shrestha
* Anand Abhyankar
* Razak Khan
* Pappu Polyester
* Bhakti Kapoor

== External links ==
*  

 
 
 


 