Aan Pillai Singam
{{Infobox film
| name           = Aan Pillai Singam
| image          = 
| image_size     =
| caption        =
| director       = S. P. Muthuraman
| producer       = Ramachandran
| writer         = 
| screenplay     = 
| story          =  Sujatha M. N. Rajam
| music          = Vijaya Bhaskar
| cinematography = Babu
| editing        = R. Vittal
| studio         = Arun Chandra Combines
| distributor    = Arun Chandra Combines
| released       =  
| runtime        = 105 minutes
| country        = India Tamil
}}
 1975 Cinema Indian Tamil Tamil film, Sujatha and M. N. Rajam in lead roles. The film had musical score by Vijaya Bhaskar.  

==Cast==
 
*Sivakumar
*Sripriya Sujatha
*M. N. Rajam Cho
*R. Muthuraman
*Suruli Rajan
*Senthamarai Vijayakumar
*S. A. Ashokan
 

==References==
 

==External links==
*  

 

 
 
 
 
 
 


 