I Do (2012 Chinese film)
{{Infobox film
| name           = I Do

| image          = idochinese.jpg film name= |traditional= |pinyin=Wǒ Yuànyì}}
| caption        = film poster
| director       = Sun Zhou
| producer       = Zhang Weiping
| writer         = Chen Tong Sun Zhou
| starring       =  
| music          = Cyril Morin
| cinematography = Bao Dexi
| editing        = 
| studio         = 
| distributor    = 
| released       = 10 February 2012
| runtime        = 106 minutes
| country        = China
| language       = Mandarin
| budget         = 
| gross          = 
}}

I Do is a 2012 Chinese film directed by Sun Zhou.

==External links==
*  

 
 
 