Tomb Robber
{{Infobox film
| name           = Tomb Robber
| image          = Tomb Robber poster.jpg
| alt            =
| caption        = 
| film name      = 
| director       = Yu Dao
| producer       = 
| writer         = 
| screenplay     = 
| story          = 
| based on       =  
| starring       = 
| narrator       = 
| music          = 
| cinematography = 
| editing        = 
| studio         = Yunwen（Beijing）Pictures Co., Ltd Hebei Film and TV Production Center Chengde Feifan Entertainment Co.,Ltd Beijing Post-Digital Movie Culture Co.,Ltd Beijing Shengli Chuanqi Entertainment Co.,Ltd The Ministry of Public Security Shield Entertainment Center Youth Film Studio  
| distributor    = 
| released       =  
| runtime        = 95 minutes
| country        = China
| language       = Mandarin
| budget         = 
| gross          = chinese yuan|¥5.04 million (China) 
}}
 adventure suspense suspense thriller film directed by Yu Dao. It was released on December 5, 2014. 

==Cast==
*Michael Tong
*Muqi Miya
*Li Bingyuan
*Li Tao Guo Da
*Zhang Shan

==Reception==

===Box office===
By December 8, 2014, the film had earned chinese yuan|¥5.04 million at the Chinese box office. 

==References==
 

 
 
 
 
 
 
 


 
 
 