Raja Pandi
{{Infobox film 
| name           = Raja Pandi 
| image          = 
| caption        =  Manoj Kumar 
| producer       = Muktha Ravi
| writer         = 
| screenplay     =  Sukanya Vadivelu Kasthuri  Deva 
| cinematography = 
| editing        = 
| studio         = Mukhthaa Arts
| distributor    = Mukhthaa Arts
| released       =  
| country        = India  Tamil
}}
 1994 Cinema Indian Tamil Tamil film, Manoj Kumar Kasthuri in lead roles. The film had musical score by Deva (music director)|Deva.   

==Cast==
*Sarath Kumar  Sukanya 
*Vadivelu  Kasthuri 
*Senthil  Latha 
*K. R. Vijaya

==References==
 

==External links==

 
 
 


 