Smile Please (film)
 
 
 
{{Infobox film
| name           = Smile Please
| image          = 
| image_size     =
| caption        = 
| director       = Yunus Patel
| producer       =  
| writer         = 
| narrator       = 
| starring       =Devang Patel
| music          =Devang Patel
| cinematography = 
| editing        = 	 
| distributor    = Winner Enterprises
| released       = December 17, 2004
| runtime        = 
| country        = India Hindi
| budget         = 
| gross          = 
| preceded_by    = 
| followed_by    = 
| website        = 
}}

Smile Please is a 2004 Bollywood film directed by Yunus Patel and stars Devang Patel, Sajeed Ali, Avantika Verma, Simran Sud, Sudha Chandran and Shakti Kapoor

==External links==
*  
*   at Bollywood Hungama
 
 
 
 
 

 