Kızımın Kanı
{{Infobox film
| name           = Kızımın Kanı
| image          = 
| alt            = 
| caption        = 
| film name      = 
| director       =Halit Refiğ
| producer       = 
| writer         = 
| screenplay     = 
| story          = 
| based on       =  
| starring       = Tarik Akan, Mine Baysan, and Neslihan Acar
| narrator       = 
| music          = 
| cinematography = 
| editing        = 
| studio         =
| distributor    = 
| released       =1987  
| runtime        =
| country        =Turkey
| language       = Turkish
| budget         = 
| gross          = 
}}
Kızımın Kanı is a 1987 Turkish adventure film, directed by Halit Refiğ and starring Tarik Akan, Mine Baysan, and Neslihan Acar. 

==References==
 

==External links==
*  at the Internet Movie Database

 

 
 
 
 
 
 


 