İhtiras Fırtınası
{{Infobox film
| name           = İhtiras Fırtınası
| image          = 
| alt            = 
| caption        = 
| film name      = 
| director       =Halit Refiğ
| producer       = 
| writer         = 
| screenplay     = 
| story          = 
| based on       =  
| starring       = Gülsen Bubikoglu, Cihan Ünal, and Zuhal Olcay
| narrator       = 
| music          = 
| cinematography = 
| editing        = 
| studio         =
| distributor    = 
| released       =1983  
| runtime        =
| country        =Turkey
| language       = Turkish
| budget         = 
| gross          = 
}}
İhtiras Fırtınası is a 1983 Turkish romantic drama film, directed by Halit Refiğ and starring Gülsen Bubikoglu, Cihan Ünal, and Zuhal Olcay. 

==References==
 

==External links==
*  at the Internet Movie Database

 

 
 
 
 
 
 


 