Haremde Dört Kadın
{{Infobox film
| name           = Haremde Dört Kadın
| image          = 
| alt            = 
| caption        = 
| film name      = 
| director       =Halit Refiğ
| producer       = 
| writer         = 
| screenplay     = 
| story          = 
| based on       =  
| starring       = Tanju Gürsu, Nilüfer Aydan, and Pervin Par
| narrator       = 
| music          = 
| cinematography = 
| editing        = 
| studio         =
| distributor    = 
| released       =1965  
| runtime        =
| country        =Turkey
| language       = Turkish
| budget         = 
| gross          = 
}}
Haremde Dört Kadın is a 1965 Turkish drama film, directed by Halit Refiğ and starring Tanju Gürsu, Nilüfer Aydan, and Pervin Par. 

==References==
 

==External links==
*  at the Internet Movie Database

 

 
 
 
 
 
 


 