Vurun Kahpeye
{{Infobox film
| name           = Vurun Kahpeye
| image          = 
| alt            = 
| caption        = 
| film name      = 
| director       =Halit Refiğ
| producer       = 
| writer         = 
| screenplay     = 
| story          = 
| based on       =  
| starring       = Hale Soygazi, Tugay Toksöz, and Tanju Gürsu
| narrator       = 
| music          = 
| cinematography = 
| editing        = 
| studio         =
| distributor    = 
| released       =1973  
| runtime        =
| country        =Turkey
| language       = Turkish
| budget         = 
| gross          = 
}}
Vurun Kahpeye is a 1973 Turkish drama film, directed by Halit Refiğ and starring Hale Soygazi, Tugay Toksöz, and Tanju Gürsu. 

==References==
 

==External links==
*  at the Internet Movie Database

 

 
 
 
 
 


 