Leyla İle Mecnun
{{Infobox film
| name           = Leyla İle Mecnun
| image          = 
| alt            = 
| caption        = 
| film name      = 
| director       =Halit Refiğ
| producer       = 
| writer         = 
| screenplay     = 
| story          = 
| based on       =  
| starring       = Orhan Gencebay, Gülsen Bubikoglu, and Raik Alniaçik
| narrator       = 
| music          = 
| cinematography = 
| editing        = 
| studio         =
| distributor    = 
| released       =1982  
| runtime        =
| country        =Turkey
| language       = Turkish
| budget         = 
| gross          = 
}}
Leyla İle Mecnun is a 1982 Turkish romantic drama film, directed by Halit Refiğ and starring Orhan Gencebay, Gülsen Bubikoglu, and Raik Alniaçik. 

==References==
 

==External links==
*  at the Internet Movie Database

 

 
 
 
 
 
 


 