Yaşam Kavgası
{{Infobox film
| name           = Yaşam Kavgası
| image          = 
| alt            = 
| caption        = 
| film name      = 
| director       =Halit Refiğ
| producer       = 
| writer         = 
| screenplay     = 
| story          = 
| based on       =  
| starring       = Fatma Girik, Can Gürzap, and Ahmet Mekin
| narrator       = 
| music          = 
| cinematography = 
| editing        = 
| studio         =
| distributor    = 
| released       =1978  
| runtime        =
| country        =Turkey
| language       = Turkish
| budget         = 
| gross          = 
}}
Yaşam Kavgası is a 1978 Turkish drama film, directed by Halit Refiğ and starring Fatma Girik, Can Gürzap, and Ahmet Mekin. 

==References==
 

==External links==
*  at the Internet Movie Database

 

 
 
 
 
 
 


 