İki Yabancı
{{Infobox film
| name           = İki Yabancı
| image          = 
| alt            = 
| caption        = 
| film name      = 
| director       =Halit Refiğ
| producer       = 
| writer         = 
| screenplay     = 
| story          = 
| based on       =  
| starring       = Hakan Ural, Brıgıtte Braun, and Kuzey Vargın
| narrator       = 
| music          = 
| cinematography = 
| editing        = 
| studio         =
| distributor    = 
| released       =1990  
| runtime        =
| country        =Turkey
| language       = Turkish
| budget         = 
| gross          = 
}}
İki Yabancı is a 1990 Turkish drama film, directed by Halit Refiğ and starring Hakan Ural, Brıgıtte Braun, and Kuzey Vargın. 

==References==
 

==External links==
*  at the Internet Movie Database

 

 
 
 
 
 
 


 