Son Darbe
{{Infobox film
| name           = Son Darbe
| image          = 
| alt            = 
| caption        = 
| film name      = 
| director       =Halit Refiğ
| producer       = 
| writer         = 
| screenplay     = 
| story          = 
| based on       =  
| starring       = Tarık Akan, Nilgün Akçaoğlu and Yıldırım Gencer
| narrator       = 
| music          = 
| cinematography = 
| editing        = 
| studio         =
| distributor    = 
| released       =1985  
| runtime        =
| country        =Turkey
| language       = Turkish
| budget         = 
| gross          = 
}}
Son Darbe is a 1985 Turkish adventure film, directed by Halit Refiğ and starring Tarık Akan, Nilgün Akçaoğlu and Yıldırım Gencer. 

==References==
 

==External links==

 

 
 
 
 
 


 