Ali Cengiz Oyunu
{{Infobox film
| name           = Ali Cengiz Oyunu
| image          = 
| alt            = 
| caption        = 
| film name      = 
| director       =Halit Refiğ
| producer       = 
| writer         = 
| screenplay     = 
| story          = 
| based on       =  
| starring       = Izzet Günay, Gülistan Güzey, and Hulusi Kentmen
| narrator       = 
| music          = 
| cinematography = 
| editing        = 
| studio         =
| distributor    = 
| released       =1971  
| runtime        =
| country        =Turkey
| language       = Turkish
| budget         = 
| gross          = 
}}
Ali Cengiz Oyunu is a 1971 Turkish romance film, directed by Halit Refiğ and starring Izzet Günay, Gülistan Güzey, and Hulusi Kentmen. 

==References==
 

==External links==
*  at the Internet Movie Database

 

 
 
 
 
 


 