Alev Alev
{{Infobox film
| name           = Alev Alev
| image          = 
| alt            = 
| caption        = 
| film name      = 
| director       =Halit Refiğ
| producer       = 
| writer         = 
| screenplay     = 
| story          = 
| based on       =  
| starring       = Tarik Akan, Gülsen Bubikoglu, and Cüneyt Arkin
| narrator       = 
| music          = 
| cinematography = 
| editing        = 
| studio         =
| distributor    = 
| released       =1984  
| runtime        =
| country        =Turkey
| language       = Turkish
| budget         = 
| gross          = 
}}
Alev Alev is a 1984 Turkish action film, directed by Halit Refiğ and starring Tarik Akan, Gülsen Bubikoglu, and Cüneyt Arkin. 

==References==
 

==External links==
*  at the Internet Movie Database

 

 
 
 
 
 


 