Moon and Cherry
{{Infobox film
| name           = Moon and Cherry
| image          = 
| alt            =
| caption        = 
| film name      = 
| director       = Yuki Tanada
| producer       = 
| writer         = 
| screenplay     = 
| story          = 
| based on       =  
| starring       = 
| narrator       = 
| music          = 
| cinematography = 
| editing        = 
| studio         =       
| distributor    = 
| released       =  
| runtime        = 82 minutes
| country        = Japan
| language       = Japanese
| budget         = 
| gross          =  
}} romance youth comedy film directed by Yuki Tanada. It was released on December 25.   

==Cast==
*Noriko Eguchi as Mayama   
*Tasuku Nagaoka as Tadokoro 
*Misako Hirata 
*Yoshikazu Ebisu 
*Shungiku Uchida 
*Akira Emoto as Sakamoto 

==Reception==
On Midnight Eye, Tom Mes called it "a lively, hugely enjoyable romp". 

==References==
 

==External links==
* 

 
 
 


 
 