Yuriko's Aroma
{{Infobox film
| name           = Yurikos Aroma
| image          = 
| alt            =
| caption        = 
| film name      = 
| director       = Kōta Yoshida
| producer       = 
| writer         = 
| screenplay     = 
| story          = 
| based on       =  
| starring       = 
| narrator       = 
| music          = 
| cinematography = 
| editing        = 
| studio         =       
| distributor    = 
| released       =  
| runtime        = 74 minutes
| country        = Japan
| language       = Japanese
| budget         = 
| gross          =  
}} erotic comedy comedy drama film directed by Kōta Yoshida. It was released on May 8.   

==Cast==
*Noriko Eguchi as Yuriko   
*Shōta Sometani 
*Saori Hara 
*Noriko Kijima 
*Jun Miho 

==Reception==
On Midnight Eye, Tom Mes said that "Yoshidas handling of the material is impressive." 

==References==
 

==External links==
* 

 

 
 
 
 
 
 
 
 


 
 
 