The Chechako
 
{{Infobox film
| name           = The Chechako
| image          = 
| alt            = 
| caption        = 
| director       = Hobart Bosworth
| producer       = 
| screenplay     = Hettie Grey Baker
| story          = Jack London Jack Conway Myrtle Stedman Joe Ray Gordon Sackville
| music          = 
| cinematography = Gus Peterson 
| editing        = 
| studio         = Hobart Bosworth Productions
| distributor    = Paramount Pictures
| released       =  
| runtime        = 
| country        = United States
| language       = English
| budget         = 
| gross          =
}}
 drama silent Jack Conway, Myrtle Stedman, Joe Ray and Gordon Sackville. It is based on the novel Smoke Bellew by Jack London. The film was released on November 23, 1914, by Paramount Pictures.  

== Cast == Jack Conway as Smoke Bellew
*Myrtle Stedman as Joy Gastell
*Joe Ray as Shorty
*Gordon Sackville as Big Olof

== References ==
 

== External links ==
*  

 
 
 
 
 
 
 
 

 