It's No Laughing Matter
{{Infobox film
| name           = Its No Laughing Matter
| image          =
| alt            = 
| caption        = 
| director       = Lois Weber 
| producer       = Phillips Smalley Lois Weber
| writer         = Lois Weber  Frank Elliott
| music          = 
| cinematography = Dal Clawson 
| editing        = 
| studio         = Hobart Bosworth Productions
| distributor    = Paramount Pictures
| released       =  
| runtime        = 
| country        = United States
| language       = English
| budget         = 
| gross          =
}}
 comedy silent Frank Elliott. The film was released on January 14, 1915, by Paramount Pictures.  

==Plot==
 

== Cast ==
*Macklyn Arbuckle as Hi Judd
*Cora Drew as Mrs. Judd
*Myrtle Stedman as Bess Judd
*Charles Marriott as Jim Skinner
*Adele Farrington as Widow Wilkins Frank Elliott as Sam

== References ==
 

== External links ==
*  

 
 
 
 
 
 
 

 