The Governor's Lady (film)
{{Infobox film
| name           = The Governors Lady
| image          =
| alt            = 
| caption        = 
| director       = George Melford 
| producer       = Jesse L. Lasky
| writer         = Alice Bradley William C. de Mille  Tom Forman
| music          = 
| cinematography = 
| editing        = 
| studio         = Jesse L. Lasky Feature Play Company
| distributor    = Paramount Pictures
| released       =  
| runtime        = 
| country        = United States
| language       = English
| budget         = 
| gross          =
}}
 drama silent Tom Forman. The film was released on March 14, 1915, by Paramount Pictures.  

==Plot==
 

== Cast == 
*May Allison as Katherine Strickland
*Edith Wynne Matthison 
*James Neill as Daniel Slade
*Theodore Roberts as Senator Strickland Tom Forman as Robert Hayes 

== References ==
 

== External links ==
*  

 

 
 
 
 
 
 
 

 