Objev na Střapaté hůrce
 
{{Infobox film
| name           = Objev na Střapaté hůrce
| image          = 
| caption        = 
| director       = Karel Steklý
| producer       = 
| writer         = Joseph Picek Karel Steklý
| starring       = Otomar Korbelár
| music          = 
| cinematography = 
| editing        = 
| distributor    = 
| released       =  
| runtime        = 69 minutes
| country        = Czechoslovakia
| language       = Czech
| budget         = 
}}

Objev na Střapaté hůrce is a 1962 Czechoslovak drama film directed by Karel Steklý.   

==Cast==
* Otomar Korbelár
* Otto Simánek
* Walter Taub

==References==
 

==External links==
*  

 

 
 
 
 
 
 
 
 