Mstitel
 
{{Infobox film
| name           = Mstitel
| image          = 
| caption        = 
| director       = Karel Steklý
| producer       = 
| writer         = Karel Matej Capek-Chod Karel Steklý
| starring       = Radoslav Brzobohatý
| music          = 
| cinematography = 
| editing        = 
| distributor    = 
| released       =  
| runtime        = 84 minutes
| country        = Czechoslovakia
| language       = Czech
| budget         = 
}}

Mstitel is a 1959 Czechoslovak drama film directed by Karel Steklý.   

==Cast==
* Radoslav Brzobohatý as Len
* Ivanka Devátá as Marynka
* Jan Pivec as Konopik
* Libuse Ridelová as Kabourková
* Josef Beyvl as Cverenc
* Gustav Nezval as Zedník krystof

==References==
 

==External links==
*  

 

 
 
 
 
 
 
 
 