Temno
 
{{Infobox film
| name           = Temno
| image          = 
| caption        = 
| director       = Karel Steklý
| producer       = 
| writer         = Alois Jirásek Karel Steklý
| starring       = Otýlie Benísková
| music          = 
| cinematography = 
| editing        = 
| distributor    = 
| released       =  
| runtime        = 115 minutes
| country        = Czechoslovakia
| language       = Czech
| budget         = 
}}

Temno is a 1950 Czechoslovak drama film directed by Karel Steklý.   

==Cast==
* Otýlie Benísková
* Zdenek Bittl
* Vítezslav Bocek
* Ladislav Bohác
* Terezie Brzková
* Gabriela Bártlová
* Otto Cermák
* Eduard Cupák Rudolf Deyl
* Karel Dostal Eman Fiala
* Helena Friedlová
* Ruzena Gottliebová
* Frantisek Holar

==References==
 

==External links==
*  

 

 
 
 
 
 
 
 
 
 