Close Range Love (film)
{{Infobox film
| name           = Close Range Love
| image          = 
| alt            =
| caption        = 
| film name      = 
| director       = Naoto Kumazawa
| producer       = 
| writer         = 
| screenplay     = 
| story          = 
| based on       =  
| starring       = Tomohisa Yamashita Asami Mizukawa Hirofumi Arai
| narrator       = 
| music          = 
| cinematography = 
| editing        = 
| studio         =       
| distributor    = 
| released       =  
| runtime        = 118 minutes
| country        = Japan
| language       = Japanese
| budget         = 
| gross          = US$9.8 million (Japan) 
}} of the same name. 

==Plot==
A high school student falls in love with her English teacher. 

==Cast==
*Tomohisa Yamashita
*Asami Mizukawa
*Hirofumi Arai

==Development==
The trailer and poster for the film were released on October 6, 2014. 

==Reception== the number one spot in the Japanese box office for three weeks.   

==References==
 

==External links==
*   
* 

 
 
 
 
 

 
 