The Spider (1916 film)
{{Infobox film
| name           = The Spider
| image          = 
| alt            = 
| caption        = 
| director       = Robert G. Vignola
| producer       = Daniel Frohman William Clifford
| starring       = Pauline Frederick Thomas Holding Frank Losee
| music          = 
| cinematography = 
| editing        = 
| studio         = Famous Players Film Company
| distributor    = Paramount Pictures
| released       =  
| runtime        = 
| country        = United States
| language       = English
| budget         = 
| gross          =
}}
 drama silent William Clifford. The film stars Pauline Frederick, Thomas Holding and Frank Losee. The film was released on January 27, 1916, by Paramount Pictures.  

==Plot==
 

== Cast ==
*Pauline Frederick as Valerie St. Cyr / Joan Marche
*Thomas Holding as Julian St. Saens
*Frank Losee as Count Du Poissy

== References ==
 

== External links ==
*  

 
 
 
 
 
 
 
 

 