The Dupe
{{multiple issues|
 
 
}}

{{Infobox film
| name           = The Dupe
| image          =
| alt            = 
| caption        = 
| director       = Frank Reicher
| producer       = Jesse L. Lasky Margaret Turnbull
| starring       = Blanche Sweet Ernest Joy Veda McEvers Thomas Meighan
| music          = 
| cinematography = Dent Gilbert 
| editing        = 
| studio         = Jesse L. Lasky Feature Play Company
| distributor    = Paramount Pictures
| released       =  
| runtime        = 50 minutes
| country        = United States
| language       = English
| budget         = 
| gross          =
}}
 drama silent Margaret Turnbull. The film stars Blanche Sweet, Ernest Joy, Veda McEvers and Thomas Meighan. The film was released on July 2, 1916, by Paramount Pictures.  

==Plot==
 

== Cast ==
*Blanche Sweet as Ethel Hale
*Ernest Joy as Mr. Strong
*Veda McEvers as Mrs. Strong
*Thomas Meighan as Jimmy Regan

== References ==
 

== External links ==
*  

 
 
 
 
 
 
 


 