Each Pearl a Tear
{{Infobox film
| name           = Each Pearl a Tear
| image          =
| alt            = 
| caption        = 
| director       = George Melford
| producer       = Jesse L. Lasky
| screenplay     = Beatrice DeMille Leighton Osmun 
| story          = E. Lloyd Sheldon Ben Alexander
| music          = 
| cinematography = Percy Hilburn 
| editing        = 
| studio         = Jesse L. Lasky Feature Play Company
| distributor    = Paramount Pictures
| released       =  
| runtime        = 50 minutes
| country        = United States
| language       = English
| budget         = 
| gross          =
}}
 drama silent Ben Alexander.   The film was released on August 31, 1916, by Paramount Pictures.

==Plot==
 

== Cast ==
*Fannie Ward as Diane Winston
*Charles Clary as Pul Lorillard
*Jack Dean as John Clarke
*Paul Weigel as Roger Winston
*Jane Wolfe as Mrs. Van Sant  Ben Alexander

== References ==
 

== External links ==
*  

 

 
 
 
 
 
 
 

 