A Girl Like That
{{Infobox film
| name           = A Girl Like That
| image          = 
| alt            = 
| caption        =
| director       = Dell Henderson
| producer       = Daniel Frohman
| screenplay     = Paul West Roswell Dague  John T. Dillon
| music          = 
| cinematography = Lewis W. Physioc
| editing        = 
| studio         = Famous Players Film Company
| distributor    = Paramount Pictures
| released       =  
| runtime        = 50 minutes
| country        = United States
| language       = English
| budget         = 
| gross          =
}}
 drama silent John T. Dillon.   The film was released on January 18, 1917, by Paramount Pictures.

The film is now lost film|lost. 

==Plot==
 

== Cast ==
*Irene Fenwick as Nell Gordon
*Owen Moore as Jim Brooks
*Thomas OKeefe as Bill Whipple
*Eddie Sturgis as Joe Dunham
*Harry Lee as John Gordon John T. Dillon as Tom Hoadley 
*Olive Thomas as Fannie Brooks
*William J. Butler as Clergyman

== References ==
 

== External links ==
*  
*  

 
 
 
 
 
 
 
 

 