The Last Summer of the Rich
 
{{Infobox film
| name           = The Last Summer of the Rich
| image          = 
| caption        = 
| director       = Peter Kern
| producer       = 
| writer         = Peter Kern
| starring       = Amira Casar
| music          = 
| cinematography = 
| editing        = 
| distributor    = 
| released       =  
| runtime        = 
| country        = Austria
| language       = Germany
| budget         = 
}}

The Last Summer of the Rich ( ) is a 2015 Austrian drama film directed by Peter Kern. It was screened in the Panorama section of the 65th Berlin International Film Festival.   

==Cast==
* Amira Casar as Hanna von Stezewitz
* Nicole Gerdon as Sarah
* Winfried Glatzeder as Boris
* Margarete Tiesel
* Nicole Beutler as Katharina Lehrnickel

==References==
 

==External links==
*  

 
 
 
 
 
 
 
 
 
 
 