Pandirimancham
 
{{Infobox film
| name           = Pandirimancham
| image          =
| caption        =
| writer         =
| story          =
| screenplay     =
| producer       = Balaram
| director       = Omkaar
| starring       = Jagapathi Babu Amurtha
| music          = Raj-Koti
| cinematography =
| editing        =
| studio         = Sri Anupama Productions
| released       =  
| runtime        =
| country        = India
| language       = Telugu
| budget         =
}}

Pandirimancham is a 1991 Telugu cinema|Telugu, drama film produced by Balaram on Sri Anupama Productions banner, directed by Omkaar. Starring Jagapathi Babu, Amurtha in the lead roles and music composed by Raj-Koti.

==Cast==
*Jagapathi Babu 
*Amurtha

==References==
 

 
 
 


 