Asadhyulu
 
{{Infobox film
| name           = Asadhyulu
| image          =
| caption        =
| writer         =
| story          =
| screenplay     =
| producer       = K. Anitha
| director       = G. Yomen Suresh Shobana Nirosha
| music          = Ilaiyaraaja
| cinematography =
| editing        =
| studio         = Neo Art Creations
| released       =  
| runtime        =
| country        = India
| language       = Telugu
| budget         =
}}

Asadhyulu ( , Psychological film produced by K. Anitha on Neo Art Creations banner, directed by G. Yomen. Starring Jagapathi babu, Suresh (actor)|Suresh, Shobana, Nirosha in the lead roles and music composed by Ilaiyaraaja.

==Cast==
*Jagapathi babu  Suresh 
*Shobana 
*Nirosha
*Raghuvaran as Dr. Gopal Sudhakar

==References==
 

 
 
 


 