Adventures of Omanakuttan
 

{{Infobox film
| name           = Adventures Of Omanakuttan
| image          = 
| alt            = 
| caption        = 
| film name      = Adventures Of Omanakuttan
| director       = Rohith V.S
| producer       = 4M Entertainments
| writer         = Sameer Abdul
| screenplay     = 
| story          = 
| starring       = Asif Ali  Bhavana
| narrator       = 
| music          = Dawn Vincent  Arun Muraleedharan
| cinematography = Akhil George
| editing        = Livingston Mathew
| studio         = Shows369
| distributor    = Popcorn Entertainments   (World wide Release)   
| released       =  
| runtime        = 149mins
| country        = India
| language       = Malayalam
| budget         = 4.5cr
| gross          = 
}}

Adventures Of Omanakuttan (  film  directed by Rohith VS and Written by Sameer Abdul.

== Cast ==
* Asif Ali as Omanakuttan
* Bhavana as Pallavi
* Aju Varghese 
* Saiju Kurup 
* Nedumudi Venu 
* Srinda 
* Lolithan

== Production ==
The movie will start rolling on March 12

==References==
 

1. 
2. 
3. 

 
 
 
 


 