Mamathe
{{Infobox film
| name           = Mamathe
| image          =
| caption        = 
| director       = Y. R. Swamy
| producer       = S Heerabai
| writer         = Y. R. Swamy
| screenplay     =  Leelavathi B Narasimharaju
| music          = Chellapilla Satyam
| cinematography = R Madhu
| editing        = 
| studio         = 
| distrubutor    = 
| released       =  
| country        = India Kannada
}}
 1968 Cinema Indian Kannada Kannada film, Narasimharaju in lead roles. The film had musical score by Chellapilla Satyam.   

==Cast==
*Kalyan Kumar Leelavathi
*B Vijayalakshmi Narasimharaju
*K. S. Ashwath

==References==
 

==External links==
*  

 

 
 
 


 