Out to Win (2015 film)
{{Infobox film
| name           = Out to Win
| image          = 
| alt            = 
| caption        = 
| film name      =  
| director       = Malcolm Ingram
| producers      = Malcolm Ingram Doug Langway Matt Thomas
| writers        = 
| screenplay     = 
| story          = 
| based on       =  
| starring       = 
| narrator       =  
| music          = 
| cinematography = 
| editing        = 
| studio         = TCB Productions
| distributor    = 
| released       = March 15, 2015
| runtime        = 
| country        = United States
| language       = English
| budget         = 
| gross          =  
}} Wade Davis, Brittney Griner, Billie Jean King, David Kopay, Martina Navratilova and Michael Sam. 

The film had its premiere on March 15, 2015 at SXSW. 

==References==
 

==External links==
* 

 
 
 
 
 
 

 