A Sporting Chance
{{Infobox film
| name           = A Sporting Chance
| image          = 
| alt            = 
| caption        =
| director       = George Melford
| producer       = Jesse L. Lasky
| screenplay     = Roger Hartman Will M. Ritchey  Jack Holt Herbert Standing Anna Q. Nilsson Howard Davies
| music          =  	
| cinematography = Paul P. Perry 
| editor         = 
| studio         = Famous Players-Lasky Corporation
| distributor    = Paramount Pictures
| released       =  
| runtime        = 50 minutes
| country        = United States
| language       = English
| budget         = 
| gross          =
}}
 comedy silent Jack Holt, Herbert Standing, Anna Q. Nilsson and Howard Davies. The film was released on July 13, 1919, by Paramount Pictures.  

==Plot==
 

==Cast==
*Ethel Clayton as Carey Brent Jack Holt as Paul Sayre
*Herbert Standing as Peter Brent
*Anna Q. Nilsson as Pamela Brent
*Howard Davies as Ralph Seward 

== References ==
 

== External links ==
*  
 
 
 
 
 
 
 
 
 