The Unbearable Lightness of Inspector Fan
{{Infobox film
| name           = The Unbearable Lightness of Inspector Fan
| image          = The Unbearable Lightness of Inspector Fan poster.jpg
| alt            = 
| caption        = 
| film name      = 暴走神探 
| director       = Clara Law 
| producer       =  
| writer         =  
| screenplay     = 
| story          = 
| based on       =  
| starring       = 
| narrator       =  
| music          = 
| cinematography = 
| editing        = 
| production companies = Le Vision Pictures (Beijing) Co.,Ltd Wuxian Yinghua Film Production Co.,Ltd
| distributor    = Le Vision Pictures (Beijing) Co.,Ltd 
| released       =   
| runtime        = 123 minutes
| country        = China  Hong Kong
| language       = Mandarin
| budget         = 
| gross          = US$3.74 million  
}} comedy action action romance romance suspense film directed by Clara Law. The film is a Chinese-Hong Kong co-production. It was released on January 16, 2015. 

==Cast==
*Ethan Juan
*Zhou Dongyu
*Yang Zishan Yang Yang
*Jack Kao
*Zhao Lixin 
*Jin Song 
*Zhang Jingjing 
*Liu Yiwei 
*Du Haitao
*Guo Qiucheng 

==Reception==
By January 25, 2015, the film had earned US$3.74 million at the Chinese box office.   

==References==
 

==External links==
* 

 

 
 
 
 
 
 
 
 
 
 
 
 
 
 


 
 
 
 
 