Out of My Hand (film)
 
{{Infobox film
| name           = Out of My Hand
| image          = 
| caption        = 
| director       = Takeshi Fukunaga
| producer       = 
| writer         = Donari Braxton Takeshi Fukunaga
| starring       = Bishop Blay
| music          = 
| cinematography = 
| editing        = 
| distributor    = 
| released       =  
| runtime        = 90 minutes
| country        = United States
| language       = English
| budget         = 
}}

Out of My Hand is a 2015 American drama film directed by Takeshi Fukunaga. It was screened in the Panorama section of the 65th Berlin International Film Festival.   

==Cast==
* Bishop Blay
* Duke Murphy Dennis
* Zenobia Kpoto

==References==
 

==External links==
*  

 
 
 
 
 
 
 