Love, Theft and Other Entanglements
 
{{Infobox film
| name           = Love, Theft and Other Entanglements
| image          = 
| caption        = 
| director       = Muayad Alayan
| producer       = 
| writer         = Muayad Alayan Rami Musa Alayan
| starring       = Sami Metwasi
| music          = 
| cinematography = 
| editing        = 
| distributor    = 
| released       =  
| runtime        = 90 minutes
| country        = Palestine
| language       = Arabic
| budget         = 
}}

Love, Theft and Other Entanglements ( ) is a 2015 Palestinian drama film directed by Muayad Alayan. It was screened in the Panorama section of the 65th Berlin International Film Festival.   

==Cast==
* Sami Metwasi
* Maya Abu Alhayyat
* Riyad Sliman
* Ramzi Maqdisi
* Kamel Elbasha

==References==
 

==External links==
*  

 
 
 
 
 
 
 