The Summer of Sangailé
 
{{Infobox film
| name           = The Summer of Sangailé
| image          = 
| caption        = 
| director       = Alanté Kavaïté
| producer       = 
| writer         = Alanté Kavaïté
| starring       = Aiste Dirziute
| music          = 
| cinematography = 
| editing        = 
| distributor    = 
| released       =  
| runtime        = 88 minutes
| country        = Lithuania
| language       = Lithuanian
| budget         = 
}}

The Summer of Sangailé ( ) is a 2015 Lithuanian drama film directed by Alanté Kavaïté. It was screened in the Panorama section of the 65th Berlin International Film Festival.    The film won the directing award in the dramatic world cinema category at the 2015 Sundance Film Festival. 

==Cast==
* Aiste Dirziute
* Julija Steponaityte

==References==
 

==External links==
*  

 
 
 
 
 
 
 
 
 
 