In the Name of the Führer
{{Infobox film
| name           = In the Name of the Führer
| image          = 
| image size     = 
| alt            = 
| caption        = 
| director       = Lydia Chagoll
| producer       = 
| writer         = 
| screenplay     = 
| story          =
| based on       = 
| narrator       = 
| starring       = 
| music          = 
| cinematography = 
| editing        = 
| studio         = 
| distributor    = 
| released       = 1977
| runtime        = 87 minutes
| country        = Belgium
| language       = 
| budget         = 
| gross          = 
| preceded by    = 
| followed by    = 
}}
In the Name of the Führer ( ) is a 1977 Belgian documentary film directed by Lydia Chagoll. It received the André Cavens Award for Best Film given by the Belgian Film Critics Association (UCC). 

==References==
 

==External links==
* 

 

 
 
 
 


 