Devasundari
{{Infobox film
| name           = Devasundari
| image          =
| caption        = 
| director       = C V Raju
| producer       = M H M Munaas
| writer         = 
| screenplay     =  Rajkumar B. Narasimharaju
| music          = C N Panduranga
| cinematography = D. S. Kotnis
| editing        = 
| studio         = 
| distrubutor    = 
| released       =  
| country        = India Kannada
}}
 1962 Cinema Indian Kannada Kannada film, Narasimharaju in lead roles. The film had musical score by C N Panduranga.   

==Cast== Rajkumar
*B. Saroja Devi
*Kalyan Kumar Narasimharaju

==References==
 

==External links==
*  

 
 
 


 