Baalyam
{{Infobox film
| name           =Baalyam
| image          =
| caption        =
| director       = Jose Nattayam
| producer       = 
| writer         = 
| screenplay     =
| starring       =
| music          = 
| cinematography = 
| editing        = 
| studio         = 
| distributor    = 
| released       = 2006
| country        = India Malayalam
}} 2006 Cinema Indian Malayalam Malayalam film directed by  Jose Nattayam.    

==Cast==
* Jagathy Sreekumar	
* Charulatha	
* Mamukkoya	
* Narendra Prasad
* Paravoor Bharathan	
* Spadikam George	
* Vineeth Kumar	
* Yadu Krishnan
* Yamuna

==References==
 

==External links==
* 

 
 
 

 