Taste of China
{{Infobox film
| name           = Taste of China
| image          = Taste of China poster.jpg
| alt            = 
| caption        = 
| film name      = 味道中国 
| directors      = Huang Yinghao Zhang Wei Wang Bing Jin Ying
| producer       =  
| writer         =  
| screenplay     = 
| story          = 
| based on       =  
| starring       = 
| narrator       =  
| music          = 
| cinematography = 
| editing        = 
| production companies = DocuChina.Co.Ltd SMG Pictures
| distributor    = 
| released       =  
| runtime        = 86 minutes
| country        = China
| language       = Mandarin
| budget         = 
| gross          =   
}}
Taste of China ( ) is a 2015 Chinese documentary film directed by Huang Yinghao, Zhang Wei, Wang Bing and Jin Ying. It was released on January 23, 2015. 

==Cast==
*Yang Zhenhua
*Chen Hanzong
*Chen Junfan
*Mao Xiejun
*You Qiang

==Reception==
By January 23, the film had earned   at the Chinese box office. 

==References==
 

 
 
 


 
 