Déjà Vu (2015 film)
 
{{Infobox film
| name           = Déjà Vu
| image          = Déjà Vu 2015 poster.jpg
| alt            = 
| caption        = 
| film name      =  
| director       = Huang Wei 
| producer       =  
| writer         =  
| screenplay     = 
| story          = 
| based on       =  
| starring       = Liu Yang Xia Yan Jampa Tseten 
| narrator       =  
| music          = 
| cinematography = 
| editing        = 
| production companies = Huang Tai Ji Chunguang Yinghua（Beijing）Media Co.,Ltd
| distributor    = Beijing Lanjing shengshi Media Co.,ltd
| released       =  
| runtime        = 90 minutes
| country        = China
| language       = Mandarin
| budget         = 
| gross          =   
}}
Déjà Vu ( ) is a 2015 Chinese comedy film directed by Huang Wei. It was released on January 23, 2015. 

==Cast==
*Liu Yang
*Xia Yan
*Jampa Tseten

==Reception==
By January 23, the film had earned   at the Chinese box office. 

==References==
 

 
 
 
 


 
 