Fleeing the Trap
{{Infobox film
| name           = Fleeing the Trap
| image          = Fleeng the Trap poster movie 1971.jpg
| image_size     = 
| caption        = 
| director       = Jalal Moghadam
| producer       = 
| writer         = Jalal Moghadam
| music          = Morteza Hannaneh
| starring       = Behrouz Vossoughi   Davoud Rashidi   Shahin Khalili (Niloofar)  Shamsi Fazlolahi   Abbass Nazeri   Jalal Pishvaeian
| distributor    =
| released       = 1971
| runtime        = 110 minutes
| country        =   Persian
| budget         = 
| preceded_by    = 
| followed_by    = 
}}
 action romance film directed by Jalal Moghadam and starring Behrouz Vossoughi, Davoud Rashidi, Jalal Pishvaeian and Shahin Khalili (Niloofar). 


==References==
 

 
 
 
 
 


 
 
 