Meghatheertham
{{Infobox film
| name           =Meghatheertham
| image          =
| caption        =
| director       =U Unni
| producer       = 
| writer         = 
| screenplay     =
| starring       =
| music          = 
| cinematography = 
| editing        = 
| studio         = 
| distributor    = 
| released       = 2009
| country        = India Malayalam
}} 2009 Cinema Indian Malayalam Malayalam film directed by U Unni.    

==Cast==
* Vinu Mohan
* Aparna Nair
* Kaviyoor Ponnamma	 Siddique
* Saikumar	
* Manikuttan

==References==
 

==External links==
* 

 
 
 

 