Njaan Sanchaari
{{Infobox film
| name           =Njaan Sanchaari
| image          =
| caption        =
| director       =
| producer       = 
| writer         = 
| screenplay     =
| starring       =
| music          = 
| cinematography = 
| editing        = 
| studio         = 
| distributor    = 
| released       = 2010
| country        = India Malayalam
}} 2010 Cinema Indian Malayalam Malayalam film directed by Ajith Nair.    

==Cast==
* Usha	
* Urmila Unni	
* Shammi Thilakan	
* Santhakumari
* Punnapra Prashanth	
* Priyanka	
* Ponnamma Babu	
* Maya Moushmi

==References==
 

==External links==
* 

 
 
 

 