Pramukhan
{{Infobox film
| name           =Pramukhan
| image          =
| caption        =
| director       = Salim Baba
| producer       = 
| writer         = 
| screenplay     =
| starring       =
| music          = 
| cinematography = 
| editing        = 
| studio         = 
| distributor    = 
| released       = 2009
| country        = India Malayalam
}} 2009 Cinema Indian Malayalam Malayalam film directed bySalim Baba.    

==Cast==
* Kalabhavan Mani

==References==
 

==External links==
* 

 
 
 

 