Big Father, Small Father and Other Stories
 
{{Infobox film
| name           = Big Father, Small Father and Other Stories
| image          = 
| caption        = 
| director       = Phan Dang Di
| producer       = 
| writer         = 
| starring       = Do Thi Hai Yen
| music          = 
| cinematography = 
| editing        = 
| distributor    = 
| released       =  
| runtime        = 100 minutes 
| country        = Vietnam
| language       = Vietnamese
| budget         = 
}}

Big Father, Small Father and Other Stories ( ) is a 2015 Vietnamese drama film directed by Phan Dang Di. It was screened in the main competition section of the 65th Berlin International Film Festival.   

==Cast==
* Do Thi Hai Yen as Van
* Truong The Vinh

==References==
 

==External links==
*  

 
 
 
 
 
 
 