Veera Vikrama
{{Infobox film
| name           = Veera Vikrama
| image          =
| caption        = 
| director       = S R Rajan
| producer       = S R Rajan
| writer         = 
| screenplay     =  Leelavathi S R Rajan B. Jayashree
| music          = T A Moti
| cinematography = G Chandran
| editing        = 
| studio         = 
| distrubutor    = 
| released       =  
| country        = India Kannada
}}
 1965 Cinema Indian Kannada Kannada film, directed and produced by S R Rajan. The film stars Udaykumar, Leelavathi (actress)|Leelavathi, S R Rajan and B. Jayashree in lead roles. The film had musical score by T A Moti.   

==Cast==
*Udaykumar Leelavathi
*S R Rajan
*B. Jayashree

==References==
 

==External links==

 
 


 