On Line (film)
{{Infobox film
| name           = On Line
| image          = On Line film poster.jpg
| alt            = 
| caption        = 
| film name      = 时光大战 
| director       = Li Changxin 
| producer       =  
| writer         =  
| screenplay     = 
| story          = 
| based on       =  
| starring       = 
| narrator       =  
| music          = 
| cinematography = 
| editing        = 
| studio         = Beijing Zhongyi Yingxiang International Media Co.,Ltd 
| distributor    = Beijing G-POINT Film Culture Media Co., Ltd. 
| released       =   
| runtime        = 90 minutes
| country        = China
| language       = Mandarin
| budget         = 
| gross          =   
}} science fiction action film directed by Li Changxin. It was released on January 30, 2015. 

==Cast==
*Liu Mengmeng
*Li Ning
*Kang Enhe
*Zhang Weixun
*Luo Guangmin
*Tong Yang
*Du Yifei

==Reception==
By January 30, the film had earned   at the Chinese box office. 

==References==
 

 
 
 
 


 
 
 