Sworn Virgin
 
{{Infobox film
| name           = Sworn Virgin
| image          = 
| caption        = 
| director       = Laura Bispuri
| producer       = 
| writer         = Elvira Dones Laura Bispuri
| starring       = Alba Rohrwacher
| music          = 
| cinematography = 
| editing        = 
| distributor    = 
| released       =  
| runtime        = 90 minutes
| country        = Italy Switzerland Germany Albania Kosovo
| language       = Italian
| budget         = 
}}

Sworn Virgin ( ) is a 2015 internationally co-produced drama film directed by Laura Bispuri. It was screened in the main competition section of the 65th Berlin International Film Festival.   

==Cast==
* Alba Rohrwacher
* Flonja Kodheli
* Lars Eidinger
* Emily Ferratello
* Luan Jaha

==References==
 

==External links==
*  

 
 
 
 
 
 
 
 
 
 
 
 
 
 