Revenge on the Brother
 

{{Infobox film
| name           = Revenge on the Brother
| image          = Revenge on the brother movie poster - 1931.jpg
| image_size     = 250
| caption        = 
| director       = Ebrahim Moradi
| producer       = Ebrahim Moradi   Reza Shahabi 
| writer         = Ebrahim Moradi
| music          = 
| starring       = Abdolhossein Lojasti Reza Shahabi   Ahmad Moradi   Kazem Poor Hassan   Lida Matavesian  
| distributor    =
| released       = 1931
| runtime        = 55 minutes (as written on the poster)
| country        =   silent
| budget         = 
| preceded_by    = 
| followed_by    = 
}}
 silent drama drama film directed by Ebrahim Moradi, and starring Abdolhossein Lojasti, Reza Shahabi, Ahmad Moradi, Kazem Poor Hassan and Lida Matavesian. 


==References==
 

 
 
 
 
 

 
 
 