Paradise in Service
 
{{Infobox film
| name           = Paradise in Service
| image          = 
| caption        = 
| director       = Doze Niu
| producer       = 
| writer         = Doze Niu
| starring       = Ethan Juan
| music          = 
| cinematography = 
| editing        = 
| distributor    = 
| released       =  
| runtime        = 133 minutes
| country        = Taiwan
| language       = Mandarin
| budget         = 
}}

Paradise in Service ( ) is 2014 Taiwanese drama film directed by Doze Niu. It was screened in the Panorama section of the 65th Berlin International Film Festival.   

==Cast==
* Ethan Juan
* Jianbin Chen
* Regina Wan
* Ivy Yi-Han Chen (as Yi Han Chen)
* Bo-Chieh Wang

==References==
 

==External links==
*  

 
 
 
 
 
 
 
 