The Knights of the Quest
{{Infobox film
| name           = I Cavalieri che fecero limpresa
| image          =  
| caption        = 
| director       = Pupi Avati
| producer       =   
| writer         = Pupi Avati 
| starring       =   
| music          = Riz Ortolani
| cinematography = 
| editing        = 
| distributor    =  
| released       =  
| runtime        = 147 minutes
| country        = Italy, France
| language       = Italian, French
| budget         = 
| gross          = 
|}} Italian film directed by Pupi Avati starring Edward Furlong, Raoul Bova and Thomas Kretschmann. 

==References==
 

==External links==
*  

 
 
 
 
 
 
 


 
 