Vitreous Flower Destroys the World
{{Infobox film
| name           = Vitreous Flower Destroys the World
| image          = 
| alt            = 
| caption        = 
| film name      = ガラスの花と壊す世界 
| director       = Masashi Ishihama 
| producer       =  
| writer         =  
| screenplay     = Fumihiko Shimo
| story          = 
| based on       = D.Backup 
| starring       = 
| narrator       =  
| music          = 
| cinematography = 
| editing        = 
| studio         = A-1 Pictures 
| distributor    =  
| released       =  
| runtime        = 
| country        = Japan
| language       = Japanese
| budget         = 
| gross          =  
}} Japanese animated film produced by A-1 Pictures, directed by Masashi Ishihama and written by Fumihiko Shimo. It is scheduled for release in 2015. 

==References==
 

==External links==
*   
* 

 
 
 
 


 
 