The Mystery of Death
{{Infobox film
| name           = The Mystery of Death
| image          = The Mystery of Death poster.jpg
| alt            = 
| caption        = 
| film name      = 死亡之谜 
| director       = Ben Wong
| producer       =  
| writer         =  
| screenplay     = 
| story          = 
| based on       =  
| starring       = 
| narrator       =  
| music          = 
| cinematography = 
| editing        = 
| production companies = Beijing Lehua Yuanyu Media Co.,Ltd Shanghai Huahua Media Co.,Ltd Tibet Yuehua Media Co.,Ltd Beijing Jiale Chuangxin Entertainment Co.,Ltd Dadi Century Films（Beijing）Co.,Ltd
| distributors   = 
| released       =  
| runtime        = 86 minutes
| country        = China
| language       = Mandarin Cantonese
| budget         = 
| gross          =   
}} adventure suspense suspense thriller film directed by Ben Wong. It was released on February 6, 2015. 

==Cast==
*Deric Wan
*Huang Zheng
*Josephine Yu
*Sui Shuyang
*Yang Xinrui

==Reception==
By February 9, the film had earned   at the Chinese box office. 

==References==
 

 
 
 
 
 
 
 


 
 
 