Le Paon de Nuit
{{Infobox film
| name           = Le Paon de Nuit
| image          = 
| alt            = 
| caption        = 
| film name      = 夜孔雀　如果沒有遇見你 
| director       = Dai Sijie 
| producer       =  
| writer         =  
| screenplay     = Dai Sijie Nadine Perront
| story          = 
| based on       =   Liu Ye Yu Shaoqun
| narrator       =  
| music          = 
| cinematography = Farhad Saba
| editing        = 
| production companies = SMG Pictures Hi-Show Entertainment Co Ltd Oudina Production
| distributor    =  
| released       =  
| runtime        = 
| country        = China France
| language       = 
| budget         = 
| gross          =  
}} Liu Ye and Yu Shaoqun. The film is scheduled to be released at the end of 2015.   

==Plot==
The film is set in Chengdu, China and in France.  

==Cast==
*Leon Lai 
*Liu Yifei  Liu Ye 
*Yu Shaoqun 

==Production==
The film was shot in Paris, France and in Chengdu, China.  

==References==
 

==External links==
* 

 
 
 
 
 
 
 
 
 
 
 
 


 
 
 