The Sunset Legion
{{Infobox film
| name           = The Sunset Legion
| image          = 
| alt            = 
| caption        = 
| director       = Lloyd Ingraham Alfred L. Werker
| producer       = Jesse L. Lasky Adolph Zukor
| screenplay     = Frances Marion Garrett Graham Harry Woods
| music          = 
| cinematography = Mack Stengler
| editing        = W. Duncan Mansfield
| studio         = Famous Players-Lasky Corporation
| distributor    = Paramount Pictures
| released       =  
| runtime        = 70 minutes
| country        = United States
| language       = English
| budget         = 
| gross          =
}}
 Western silent Harry Woods. The film was released on April 21, 1928, by Paramount Pictures.  
 
==Plot==
 

== Cast ==
*Fred Thomson as Masked Rider / Whittling Cowboy
*Edna Murphy as Susan
*William Courtright as Old Bill Harry Woods as Honest John 
*Silver King the Horse as Silver

== References ==
 

== External links ==
*  

 

 
 
 
 
 
 
 
 
 
 