I Did It (film)
 
{{Infobox film
| name           = I Did It
| image          = 
| caption        = 
| director       = D. W. Griffith
| producer       = 
| writer         = D. W. Griffith
| starring       = Adele DeGarde
| music          = 
| cinematography = G. W. Bitzer
| editing        = 
| distributor    = 
| released       =  
| runtime        = 4 minutes (one Reel#Motion picture terminology|reel)
| country        = United States
| language       = Silent
| budget         = 
}}
 silent short short drama film directed by D. W. Griffith.   

==Cast==
* Adele DeGarde as Gladys, The Little Girl
* Anita Hendrie as The Mother
* Linda Arvidson as A Visitor
* Gladys Egan as The Little Boy
* Arthur V. Johnson 
* Florence Lawrence Dorothy West as The Maid

==References==
 

==External links==
*  

 

 
 
 
 
 
 
 
 
 
 