Mountains May Depart
 
{{Infobox film
| name           = Mountains May Depart
| image          = 
| alt            = 
| caption        = 
| film name      = 山河故人 
| director       = Jia Zhangke 
| producer       = Shozo Ichiyama 
| writer         = Jia Zhangke  
| screenplay     = 
| story          = 
| based on       =  
| starring       = Zhao Tao
| narrator       =  
| music          = 
| cinematography = 
| editing        = 
| production companies = Xstream Pictures Shanghai Film Group MK2
| distributors   = Ad Vitam (France)
| released       =  
| runtime        = 
| country        = China France
| language       = 
| budget         = 
| gross          =  
}}
Mountains May Depart ( ) is an upcoming drama film directed by Jia Zhangke. The film is Jias eighth feature film and is currently in production.   It has been selected to compete for the Palme dOr at the 2015 Cannes Film Festival.   

==Plot==
The film has three parts, set in the 1990s, the present and in Australia in the year 2025, respectively.   

==Cast==
*Zhao Tao 
*Sylvia Chang Zhang Yi
*Dong Zijian

==References==
 

==External links==
* 

 

 
 
 
 
 
 
 
 
 
 
 
 
 
 