The Cat Has Nine Lives
 
{{Infobox film
| name           = The Cat Has Nine Lives
| image          = 
| caption        = 
| director       =  
| producer       = 
| writer         = Ula Stöckl
| starring       =  
| music          = 
| cinematography = 
| editing        = 
| distributor    = 
| released       =  
| runtime        = 92 minutes
| country        = West Germany
| language       = German
| budget         = 
}}

The Cat Has Nine Lives ( ) is a 1968 West German drama film written and directed by  . It was screened in the Berlinale Classics section of the 65th Berlin International Film Festival.   

==Cast==
*   as Katharina
* Kristine De Loup as Anne
* Jürgen Arndt (actor)|Jürgen Arndt as Stefan
* Elke Kummer as Ehefrau von Stefan
* Alexander Kaempfe as Sascha
* Antje Ellermann
* Hartmut Kirste as Manfred
*   as Gabriele

==References==
 

==External links==
*  

 
 
 
 
 
 
 
 