Way Down East (1935 film)
{{Infobox film
| name           = Way Down East
| image          = 
| image size     = 
| border         = 
| alt            = 
| caption        =  Henry King
| producer       = Winfield Sheehan
| writer          = 
| screenplay  = Howard Estabrook William Hurlbut
| story           =
| based on     =  
| narrator       = 
| starring       = Rochelle Hudson Henry Fonda
| music          =  Ernest Palmer
| editing        = Robert Bischoff
| studio         = 
| distributor    = Fox Film Corporation
| released       =  
| runtime        = 80 minutes
| country        = United States
| language      = English
| budget         =
| gross          =
}}
 Margaret Hamilton, Andy Devine and Spring Byington. 
 Lottie Blair Parker.

==Cast==
Rochelle Hudson	...	
Anna Moore 
Henry Fonda	...	
David Bartlett 
Slim Summerville	...	
Constable Seth Holcomb 
Edward Trevor	...	
Lennox Sanderson  Margaret Hamilton	...	
Martha Perkins  Russell Simpson	...	
Squire Amasa Bartlett 
Andy Devine	...	
Hi Holler 
Spring Byington	...	
Mrs. Louisa Bartlett 
Astrid Allwyn	...	
Kate 
Sara Haden	...	
Cordelia Peabody 
Al Lydell	...	
Hank Woolwine 
Harry C. Bradley	...	
Mr. Peabody 
Phil La Toska	...	
Abner 
Clem Bevans	...	
Doc Wiggin  Kay Hammond	...	
Mrs. Emma Stackpole

==External links==
*   in the Internet Movie Database

 
 
 
 
 
 
 
 
 
 
 

 