Ju-on: The Final
{{Infobox film
| name           = Ju-on: The Final
| image          = 
| alt            = 
| caption        = 
| film name      = 呪怨 -ザ・ファイナル- 
| director       = Masayuki Ochiai 
| producer       = Takashige Ichise 
| writer         = Masayuki Ochiai Takashige Ichise 
| screenplay     = 
| story          = 
| based on       =  
| starring       = Airi Taira
| narrator       =  
| music          = 
| cinematography = 
| editing        = 
| studio         =  
| distributor    =  
| released       =  
| runtime        = 
| country        = Japan
| language       = Japanese
| budget         = 
| gross          =  
}}
  is an upcoming Japanese  . The film is scheduled to be released on June 20, 2015.    

==Plot==
Following the events of  , Mai, the older sister of elementary schoolteacher Yui Shono, goes to look for her sister, who disappeared after a visit to her truant student, Toshio Saeki.  

==Cast==
* Airi Taira as Mai
* Renn Kiriyama as Sota Kitamura
* Nonoka Ono
* Yurina Yanagi
* Miyabi Matsuura
* Hikakin
* Misaki Saisho as Kayako Saeki
* Kai Kobayashi as Toshio Saeki

==References==
 

==External links==
* 

 
 

 
 
 
 
 
 


 
 