Saints and Soldiers: The Void
{{Infobox film
| name           = Saints and Soldiers: The Void
| image          = 
| caption        = 
| director       = Ryan Little
| producer       = 
| writer           = Ryan Little
| screenplay    = 
| story            = Ryan Little Adam Gregory Matt Meese Stacey Harkey
| distributor    = 
| music          = James Schafer 
| cinematography = 
| editing         = 
| released       = 2014
| runtime        = 
| country         = United States
| language       = English German
| budget         = 
| gross          = 
}}

Saints and Soldiers: The Void is the third instalment in the Saints and Soldiers franchise, following  .

==Plot== M18 Hellcat Harz mountains to search for a holdout group of Nazi die-hards.

==External links==
*  
 
 

 
 
 
 
 
 
 

 