La La La at Rock Bottom
{{Infobox film
| name           = La La La at Rock Bottom
| image          = 
| alt            = 
| caption        = 
| film name      = 味園ユニバース 
| director       = Nobuhiro Yamashita
| producer       =  
| writer         =  
| screenplay     = 
| story          = 
| based on       =  
| starring       = 
| narrator       =  
| music          = 
| cinematography = 
| editing        = 
| studio         =  
| distributor    =  
| released       =   
| runtime        = 103 minutes
| country        = Japan
| language       = Japanese
| budget         = 
| gross          =   
}}
  is a 2015 Japanese music youth drama film directed by Nobuhiro Yamashita. It was released on February 14, 2015.   

==Cast==
*Subaru Shibutani 
*Fumi Nikaidō 

==Reception==
The film has grossed   at the Japanese box office. 

==References==
 

==External links==
*   
* 

 

 
 
 
 


 
 