In the Name of Love (2008 film)
{{Infobox film
| name           = In the Name of Love
| image          = 
| caption        = 
| director       = Rudy Soedjarwo
| producer       = 
| writer         = 
| starring       = Vino G. Bastian Acha Septriasa Christine Hakim
| music          = 
| cinematography = 
| editing        = 
| distributor    = 
| released       =  
| runtime        = 127 minutes
| country        = Indonesia
| language       = Indonesian
| budget         = 
}}

In the Name of Love is a 2008 Indonesian film directed by Rudy Soedjarwo.   

==Cast==
* Vino G. Bastian as Abimanyu
* Acha Septriasa as Saskia
* Christine Hakim as Citra Mustafa

==References==
 

==External links==
*  

 
 
 
 

 