The Butterfly (2007 film)
{{Infobox film
| name           = The Butterfly
| image          = 
| caption        = 
| director       = Nayato Fio Nuola
| producer       = 
| writer         = 
| starring       = Andhika Pratama Debby Kristy Poppy Sovia
| music          = 
| cinematography = 
| editing        = 
| distributor    = Maxima Pictures
| released       =  
| runtime        = 86 minutes
| country        = Indonesia
| language       = Indonesian
| budget         = 
}}
 film directed by Nayato Fio Nuola.   

==Cast==
* Andhika Pratama as Vano
* Debby Kristy as Desi
* Poppy Sovia as Tia

==References==
 

==External links==
*  

 
 
 
 

 