A Funny Mahometan
{{Infobox film
| name           = A Funny Mahometan
| image          = 
| alt            = 
| caption        = 
| film name      =  
| director       =  
| producer       =  
| writer         =  
| screenplay     = 
| story          = 
| based on       =  
| starring       = Georges Méliès
| narrator       =  
| music          = 
| cinematography = 
| editing        = 
| studio         = Star Film Company
| distributor    =  
| released       = 1897 
| runtime        = 20 meters
| country        = France
| language       = Silent
}}
 short silent silent comedy film directed by Georges Méliès. It was released by Mélièss Star Film Company and numbered 94 in its catalogues, where it was advertised as a scène comique.   
 Algerian Muslim, is the first known film on an Algerian topic in cinema history. 

The film is currently presumed lost film|lost. 

==References==
 

==External links==
* 
 
 
 
 
 