Seein' Things (1908 film)
{{Infobox film
| name           = Seein Things
| image          = 
| alt            = 
| caption        = 
| director       = Georges Méliès
| producer       =  
| writer         =  
| starring       = Georges Méliès
| cinematography = 
| editing        = 
| studio         =  
| distributor    =  
| released       = 1908 
| runtime        = 140 meters 
| country        = France
| language       = Silent
}}
 short silent silent comedy film directed by Georges Méliès.

==Plot== see two of everything.   

==Release and reception==
The film was released by Mélièss Star Film Company and is numbered 1460–1466 in its catalogues.    The New York Mirror gave the film a brief review after its American release as Seeing Things in December 1909, saying that "the subject possesses a fair amount of amusing interest." 

The film is currently presumed lost film|lost. 

==References==
 

==External links==
* 

 
 
 
 

 