Fist Of Bean
{{Infobox film
| name           =Fist Of Bean
| image          =
| caption        =
| director       = Daniel Kleinman
| producer       =
| writer         = Wong Jing Sandy Shaw
| story          = Wong Jing
| starring       = Rowan Atkinson Hiroyuki Ikeuchi Jacky Wu Jing  Cheng Pei-pei  Jing Tian
| music          = 
| cinematography = 
| editing        =
| distributor    = 
| released       =  
| runtime        = 104 min.
| country        =China,USA
| awards         = Mandarin
| budget         =
| gross          = 
}}

Fist Of Bean is a Chinese comedy movie that features Mr.Bean. This movie is full of action and comedy.

 
 


 
 