Omkaram
{{Infobox film
| name           = Omkaram
| image          =
| caption        =
| writer         = Upendra
| story          =
| screenplay     = 
| producer       = KKN Kumari
| director       = Upendra Prema
| music          = Hamsalekha
| cinematography = 
| editing        = 
| studio         = 
| released       = 1997 
| runtime        = 
| country        =   India
| language       = Telugu
| budget         =
| gross          = 
}}
 Telugu action Prema and Bhagyashree Patwardhan in lead roles.  The film was a remake of Kannada film Om (Kannada film)|Om but Telugu version did average  success when compared  to blockbuster in original version.  The film was dubbed in Tamil with the same name.

==Cast==
*Dr. Rajasekhar Prema
*Bhagyashree Patwardhan

==Soundtrack==
The soundtrack was composed by Hamsalekha. 
*College Kurrodu - Mano
*O Gulabi - SPB
*Bullemma - Mano
*Dilruba - SPB
*Om Brahmanda - SPB

==References==
 

==External links==
 

 
 
 
 
 
 
 
 