Chandi Veeran
{{Infobox film
| name           = Chandi Veeran
| image          = 
| alt            =  
| caption        = 
| director       = A. Sarkunam Bala 
| writer         =  Anandhi
| music          =
| cinematography = P. G. Muthiah
| editing        = 
| studio         = B Studios
| distributor    = Sri Green Productions
| released       = 
| runtime        = 
| country        = India
| language       = Tamil
| location       =mannarkudi,alathur pattukkotai, kasankadu pattukkotai.
| budget         =  
| gross          =
}} Anandhi in the leading roles, while Ashvin Raja essays a supporting role. The film is likely to release in late 2015.

==Cast==
*Atharvaa Anandhi

==Production== Bala opting Alathur ).  

==References==
 

 

 
 
 


 