Abar, the First Black Superman
 

{{Infobox film
| name           = Abar, the First Black Superman
| image          =
| caption        =
| director       = Frank Packard
| producer       = James Smalley
| writer         = James Smalley
| based on       =
| starring       = Tobar Mayo
| music          =
| cinematography =
| editing        =
| distributor    = Mirror Releasing 
| released       =  
| runtime        =
| country        = United States English
| budget         =
| gross          =
}}
Abar, The First Black Superman is a 1977 blaxploitation film from Mirror Releasing. 

==Cast==
*Tobar Mayo
*J. Walter Smith
*Roxie Young
*Gladys Lum
*Tony Rumford
*Rupert Williams

==References==
 

==External links==
*  
*  

 
 
 