Samayam
{{Infobox film
| name           =Samayam
| image          =
| caption        =
| director       =Satheesh Pothuval
| producer       = 
| writer         = 
| screenplay     =
| starring       =
| music          = 
| cinematography = 
| editing        = 
| studio         = 
| distributor    = 
| released       =2007
| country        = India Malayalam
}} 2007 Cinema Indian Malayalam Malayalam film directed by Satheesh Pothuval.   

==Cast==
* Sreenivasan
* Swetha Menon

==References==
 

==External links==
* 

 
 
 

 