Grey Dawn (film)
{{Infobox film
| name               = Grey Dawn
| image              = 
| alt                = 
| caption            = 
| director           = Shirley Frimpong-Manso
| producer           = Ken Attoh   Shirley Frimpong-Manso
| writer         = Shirley Frimpong-Manso
| starring       =  
| music          = Ivan Ayitey
| cinematography = Sadiq Al-Hassan
| editing        = Shirley Frimpong-Manso
| studio         = Sparrow Productions
| distributor   =  
| released       =  
| runtime        = 
| country        = Ghana   Nigeria
| language       = English
| budget         =
| gross          =
}}

Grey Dawn is a 2015 Ghanaian Nigerian drama film, co-produced and directed by Shirley Frimpong-Manso. It stars Bimbo Manuel, Funlola Aofiyebi-Raimi, Sika Osei and Marlon Mave.   

==Cast==
*Bimbo Manuel as Minister
*Funlola Aofiyebi-Raimi as
*Sika Osei as 
*Marlon Mave as Jacques
*Kofi Middleton Mends as Kweku Yanka

==References==
 

==External links==
 

 
 
 
 


 