Chhotto Jigyasa (1968 film)
{{Infobox film
| name           = Chhotto Jigyasa
| image          =
| caption        =
| director       = Jagannath Chattopadhyay
| producer       =
| story          =
| screenplay     =
| writer         = Anup Kumar Haradhan Bandopadhyay Gita Dey 
| distributor    =
| studio         = Trio Films
| editing        =
| cinematography =
| released       =  
| runtime        =
| country        = India Bengali
| music          = Nachiketa Ghosh
| lyrics         =
| awards         =
| budget         =
}}
 Bengali film Anup Kumar, Gita Dey, Haradhan Bandopadhyay & others. This film music composed by Nachiketa Ghosh.

==Cast==
* Biswajit Chatterjee
* Madhabi Mukherjee
* Prosenjit Chatterjee as  (Child artist)  Anup Kumar
* Haradhan Bandopadhyay
* Gita Dey

==See also==
 

==References==
 

==External links==
 

 
 
 


 