The Slave (1918 film)
{{Infobox film
| name           = The Slave
| image          =
| caption        =
| director       = Arrigo Bocchi 
| producer       = 
| writer         = Robert Hitchens (novel)   Kenelm Foss   Charles Vane 
| cinematography = 
| editing        = 
| studio         = Windsor Films
| distributor    = 
| released       = March 1918
| runtime        = 
| country        = United Kingdom 
| awards         =
| language       = Silent   English intertitles
| budget         =
| preceded_by    =
| followed_by    =
}} silent crime Charles Vane. It was based on a novel by Richard Hitchens. 

==Cast==
*   Jean-Marie de lIsle as Lady Carroll Knox  
* Hayford Hobbs as Aubrey Herrick  Charles Vane as Sir Reuben Allabruth  
* Hettie Grossman as Diamond Manners  Ernest Wallace 
* Paul Courtenay

==References==
 

==Bibliography==
* Goble, Alan. The Complete Index to Literary Sources in Film. Walter de Gruyter, 1999.

==External links==
* 

 

 
 
 
 
 
 
 
 

 