Amazing Azerbaijan
{{Infobox film
| name           = Amazing Azerbaijan
| image          = Amazing_Azerbaijan_poster.png
| alt            = 
| caption        = 
| film name      =  
| director       = Liz Mermin 
| producer       = Aisling Ahmed
| writer         =  
| screenplay     = 
| story          = 
| based on       =  
| starring       = 
| narrator       =  
| music          = 
| cinematography = 
| editing        = 
| studio         =  
| distributor    =  
| released       =  2012 2013
| runtime        = 
| country        = Azerbaijan Germany England
| language       = English
| budget         = 
| gross          =  
}} British and German English-language documentary film directed by Liz Mermin and produced by Aisling Ahmed.             

== Synopsis ==
The film shows two Azerbaijani politicians— one of them is tolerant, won in an Eurovision Song Contest, secular democratic republic and their government are proud on him. And the other one is comparatively unsuccessful and corrupt in nature.

== Production ==
James Burrell wrote the script of the documentary and it is directed by Liz Mermin and produced by Aisling Ahmed.    

== Soundtracks ==
The documentary has these songs/scores—
* And they shall rise
* My freedom

== References ==
 

== External links ==
*  
*  

 
 
 
 
 
 
 