Bad Beat (film)
 

 
{{Infobox film
| name           = Bad Beat
| image          = 
| image_size     = 215px
| alt            =
| caption        = Bad Beat Title Still
| director       = Nicholas Conde
| writer         = Nicholas Conde
| starring       = {{Plain list |
*Matthew Lazzara
*Matthew Bauld
*Peter Kirby
*Christine Goddard
*Aaron Honculada
}}
| music          = Willy Scruggs Jazz Fellowship
| cinematography = Nicholas Conde
| editing        = {{Plain list |
*Nicholas Conde
*Matthew Bauld
*Aaron Honculada
}}
| studio = the Kings Gambit
| distributor    = Campus MovieFest
| released       =   
| runtime        = 5 minutes  
| country        = United States
| language       = English
| budget         = $125
}}
 short drama 2012 Campus Moviefest at the University of South Florida where it was rewarded Best Drama  before proceeding to the national competition in Hollywood. 

== Plot ==

 

== Cast ==

 

== Motifs ==

 

== Production ==

 

== Reception ==

 

==References==
 