Raiders from Beneath the Sea
{{Infobox film
| name           = Raiders from Beneath the Sea
| image          = 
| image size     = 
| alt            = 
| caption        = 
| director       = Maury Dexter
| producer       = Maury Dexter
| writer         = F. Paul Hall
| based on       = 
| screenplay     = Harry Spalding 
| narrator       =  Ken Scott Merry Anders Russ Bender
| music          = Hank Levine
| cinematography = Floyd Crosby
| editing        = Carl Pierson
| studio         = Lippert Associated Producers Incorporated
| distributor    = Twentieth Century Fox Film Corporation
| released       =  
| runtime        = 73 min.
| country        =   English
| budget         = 
| gross          = 
}}
 1964 Drama Ken Scott and Merry Anders.

==Plot summary==
 


==Cast== Ken Scott as Bill Harper
* Merry Anders as Dottie Harper
* Russ Bender as Tucker
* Booth Colman as Purdy
* Garth Benton as Buddy
* Bruce Anson as Policeman #1
* Walter Maslow as Policeman #2
* Stacey Winters as Bank Teller
* Ray Dannis as Bowman
* Larry Barton as Bank Manager
* Roger Creed as Bank Guard

==References==
 	

== External links ==
*  }
*  
*  
*  

 

 
 
 
 
 


 