Map of Salvation
 
{{Infobox film
| name           = Map of Salvation
| image          = 
| alt            = 
| caption        = 
| film name      =  
| director       = Aram Shahbazyan
| producer       = Manvel Saribekyan
| writer         = 
| screenplay     = Anna Sargsyan
| story          = 
| based on       =  
| starring       = 
| narrator       = Svante Lundgren
| music          = Vig Zartman
| cinematography = Arthur Gharayan
| editing        = 
| studio         = Man Pictures
| distributor    =  
| released       =  
| runtime        = 90 min
| country        = Armenia English
| budget         = $ 380 000
| gross          =  
}} 100th anniversary of the Armenian Genocide.
 Bodil Biørn (Norway), Alma Johansson (Sweden), Anna Hedvig Büll (Estonia), who were witnesses to the Armenian Genocide and subsequently founded shelters for Armenian children and women.  

Film production was in 29 cities of 9 countries.

== References ==
 

== External links ==
* 
* 
* 
* 

 
 

 