Calendar Girls (2015 film)
{{Infobox film
| name           = Calendar Girls
| image          = 
| caption        = 
| alt            = 
| director       = Madhur Bhandarkar
| producer       = Mangal Murti Films PVT. LTD. Bhandarkar Entertainment
| story          = 
| screenplay     = 
| narrator       = 
| starring       = Akanksha Puri
| music          = Amaal Mallik
| cinematography = 
| editing        = 
| distributor    = UTV Motion Pictures Bhandarkar Entertainment
| released       =    
| runtime        = 
| country        = India
| language       = Hindi
| budget         =  
| gross          =  
}}

Calendar Girls is a 2015 Indian drama film directed and co-produced by Madhur Bhandarkar. Principal photography began 22 July 2014      

==References==
 

==External links==
*  

 
 
 
 

 