House of the Damned (1963 film)
{{Infobox film
| name           = House of the Damned
| image          = House of the Damned (1963 film).jpg
| alt            = 
| caption        = Theatrical poster
| director       = Maury Dexter
| producer       = Maury Dexter
| writer         = Harry Spaulding Ron Foster Richard Crane Erika Peters
|                = 
| music          = Henryk Wars (as Henry Vars)
| cinematography = John M. Nickolaus, Jr.
| editing        = Jodie Copelan
| studio         = Accociated Producers (API)
| distributor    = Twentieth Century-Fox

| released       = March 1963
| runtime        = 63 minutes.
| country        = USA
| language       = English
| budget         = 
| gross          =  
}}
 Ron Foster, Richard Crane, The Spy Who Loved Me).

==Plot== Ron Foster) Richard Crane) arrives, and his wife is kidnapped!

==Cast== Ron Foster	        ...	Scott Campbell (as Ronald Foster)
*Merry Anders	...	Nancy Campbell Richard Crane		...	Joseph Schiller
*Erika Peters	...	Loy Schiller
*Dal McKennon       	...     Mr. Quinby
*Georgia Schmidt	     ...	Priscilla Rochester
*Stacey Winters              ...	Nurse
*Richard Kiel	      ...	The Giant
*Ayllene Gibbons	             ...	The Fat Woman
*John Gilmore	             ...	The Legless Man
*Frieda Pushnik	             ...	The Legless Girl

==Production==
Filmed at Greystone Mansion, in Beverly Hills, California, a popular movie location, seen in many films, including the Ghostbusters films and The Witches of Eastwick.   

==References==
  at    

==Reviews==
The film has a score of 28% on Rottentomatoes.com. 

==External links==
*   at  
*   at  

 
 
 
 
 
 
 
 


 