A Man the Army Made
{{Infobox film
| name           = A Man the Army Made
| image          =
| caption        =
| director       = Bertram Phillips
| producer       = Cecil Shaw F. Martin Thornton
| starring       = Queenie Thomas Mickey Brantford
| cinematography =
| editing        =
| studio         = Holmfirth Films
| distributor    = Pathé Pictures International
| released       =  
| runtime        =
| country        = United Kingdom
| awards         =
| language       = Silent English intertitles
| budget         =
}} war drama Paul R. Hall and H. Agar Lyons. 

==Cast==
*  Queenie Thomas as Queenie Clarke   Paul R. Hall as Dick Clarke 
* H. Agar Lyons as Irwin Lockwood 
* Mickey Brantford as Derry Clarke  

==References==
 

==Bibliography==
* Low, Rachael. History of the British Film, 1914-1918. Routledge, 2005.

==External links==
* 

 

 
 
 
 
 
 
 
 
 
 
 

 