Won by Losing
{{Infobox film
| name           = Won by Losing
| image          =
| caption        =
| director       = Bertram Phillips
| producer       = 
| writer         = Bertram Phillips
| starring       = Queenie Thomas   Frank McClellan
| cinematography = 
| editing        = 
| studio         = Holmfirth Films
| distributor    = Initial Films
| released       = March 1916
| runtime        = 
| country        = United Kingdom 
| awards         =
| language       = Silent   English intertitles
| budget         =
| preceded_by    =
| followed_by    =
}}
Won by Losing is a 1916 British silent drama film directed by Bertram Phillips and starring Queenie Thomas and Frank McClellan. 

==Cast==
* Frank McClellan  
* Queenie Thomas as Polly / Daphne  


==References==
 

==Bibliography==
* Low, Rachael. History of the British Film, 1914-1918. Routledge, 2005.

==External links==
* 

 

 
 
 
 
 
 
 
 

 