Ohun Oko Somida
 
{{Infobox film
| name           = Ohun Oko Somida
| image          = 
| alt            = 
| caption        = 
| director       = Lasun Ray
| producer       =Sola Sobowale
| writer         =   Sola Sobowale Adebayo Salami  Sola Sobowale
| music          = 
| cinematography = 
| editing        = 
| studio         =  
| distributor    =  
| released       = 2010
| runtime        = 105 minutes
| country        = Nigeria
| language       =  Yoruba and subtitled in English
| budget         = 
| gross          = 
}}

Ohun Oko Somida is a 2010 Nigerian film written and  produced by Sola Sobowale.     Adebayo Salami, the father of Femi Adebayo.   

==Cast== Adebayo Salami
*Sola Sobowale
*Fathia Balogun
*Mistura Asunramu
*Mercy Aigbe
*Taiwo Sobowale
*Kehinde Sobowale

==References==
 

 

 
 
 