Solomon's Perjury
{{Infobox film
| name           = Solomons Perjury
| image          = 
| alt            = 
| caption        = 
| film name      = ソロモンの偽証 
| director       = Izuru Narushima
| producer       =  
| writer         =  
| screenplay     = 
| story          = 
| based on       =  
| starring       = 
| narrator       =  
| music          = 
| cinematography = 
| editing        = 
| studio         =  
| distributor    =  
| released       =  
| runtime        = 121 minutes  (Part 1)  146 minutes  (Part 2) 
| country        = Japan
| language       = Japanese
| budget         = 
| gross          =   (Part 1, Japan) 
}} suspense mystery films directed by Izuru Narushima. The first,  , was released on March 7 and the second,  , was released on April 11, 2015.  

==Cast==
*Ryōko Fujino
*Mizuki Itagaki
*Anna Ishii
*Hiroya Shimizu 
*Miu Tomita 
*Kōki Maeda

==Reception==
Part 1 earned   on its opening weekend in Japan. 

==References==
 

==External links==
*   
* 
* 

 

 
 
 
 
 

 
 

 