Nowhere to Run (2015 film)
{{Infobox film
| name           = Nowhere to Run
| image          = 
| alt            = 
| caption        = 
| film name      = 封门诡影 
| director       = Wang Mengyuan
| producer       =  
| writer         =  
| screenplay     = 
| story          = 
| based on       =  
| starring       = 
| narrator       =  
| music          = 
| cinematography = 
| editing        = 
| studio         =  
| distributor    =  
| released       =  
| runtime        = 92 minutes
| country        = China
| language       = Mandarin
| budget         = 
| gross          =   (China) 
}} suspense thriller film directed by Wang Mengyuan. It was released on March 13, 2015. 

==Cast==
*Zhang Duo 
*Liu Ying 
*Ge Tian 
*Sui Yongliang 
*Qian Sitong 
*Du Yuting 
*Tu Yuwei 
*Yuchi Shaonan 

==Reception==
By April 13, the film had earned   at the Chinese box office. 

==References==
 

 
 
 
 

 
 