Walk... Don't Walk
{{Infobox Film
| name           = Walk... Dont Walk
| image          = 
| image_size     = 
| caption        = 
| director       = Rich Allen
| producer       = 
| writer         = Rich Allen
| narrator       = 
| starring       = Chevy Chase
| music          = 
| cinematography = 
| editing        = 
| distributor    = 
| released       = 1968
| runtime        = 5 min.
| country        = 
| language       = 
| budget         = 
| gross          = 
| preceded_by    = 
| followed_by    = 
}} light starts changing just before he begins to cross, as if it were playing a practical joke on him. The film lasted for 5 minutes.

==External links==
*  

 
 
 


 