The Chosen Ones (2015 film)
 
{{Infobox film
| name           = The Chosen Ones
| image          = 
| caption        = 
| director       = David Pablos
| producer       = 
| writer         = 
| starring       = 
| music          = 
| cinematography = 
| editing        = 
| distributor    = 
| released       =  
| runtime        = 105 minutes
| country        = Mexico
| language       = Spanish
| budget         = 
}}

The Chosen Ones ( ) is an upcoming Mexican drama film directed by David Pablos. It has been selected to be screened in the Un Certain Regard section at the 2015 Cannes Film Festival.   

==References==
 

==External links==
* 

 
 
 
 
 
 
 
 