Boycott (1985 film)
 
{{Infobox film
| name           = Boycott
| image          =
| caption        =
| director       = Mohsen Makhmalbaf
| producer       =
| writer         =
| starring       = Majid Majidi
| music          =
| cinematography =
| editing        =
| distributor    =
| released       = 1985
| runtime        = 114 minutes
| country        = Iran
| language       = Persian
| budget         =
}} Iranian film directed by Mohsen Makhmalbaf, set in pre-revolutionary Iran. The film tells the story of a young man named Valeh (Majid Majidi) who is sentenced to death for his communist tendencies. It is widely believed that the film is based on Makhmalbafs own experiences. Ardalan Shoja Kaveh starred in the film.

==External links==
*  

 

 
 
 
 
 
 
 
 