The Green Orchard
{{Infobox film
| name           = The Green Orchard
| image          =
| caption        = Harold Weston  Walter West
| writer         = Andrew Soutar  (novel)   Harold Weston Ernie Collins 
| cinematography = 
| editing        = 
| studio         = Broadwest
| distributor    = Broadwest
| released       = June 1916
| runtime        = 
| country        = United Kingdom 
| awards         =
| language       = Silent   English intertitles
| budget         =
| preceded_by    =
| followed_by    =
}} Harold Weston Ernie Collins.  It is based on a novel by Andrew Soutar.

==Cast==
*    Gregory Scott as Martin Wilderspin 
* Dora Barton as Fauvette Hyne  
* E. Vassal-Vaughn as Tony Rye  Ernie Collins

==References==
 

==Bibliography==
* Low, Rachael. History of the British Film, 1914-1918. Routledge, 2005.

==External links==
* 

 
 
 
 
 
 
 
 
 

 