Minshū no Teki
{{Infobox film
| name           = Minshū no Teki
| image          = 
| alt            = 
| caption        = 
| film name      = 民衆の敵 
| director       = Tadashi Imai
| producer       =  
| writer         =  
| screenplay     = 
| story          = 
| based on       =  
| starring       = 
| narrator       =  
| music          = Fumio Hayasaka
| cinematography = 
| editing        = 
| studio         =  
| distributor    =  
| released       =   
| runtime        = 83 minutes
| country        = Japan
| language       = Japanese
| budget         = 
| gross          =  
}}
  is a 1946 Japanese drama film directed by Tadashi Imai. It was released on April 25, 1946. 

==Cast==
*Susumu Fujita
*Akitake Kōno
*Kogiku Hanayagi
*Ureo Egawa
*Takashi Shimura
*Ichiro Sugai

==Reception== Award for Award for Best Music. 

==References==
 

==External links==
* 

 

 
 
 
 
 


 
 

 