Mustang (film)
 
{{Infobox film
| name           = Mustang
| image          = 
| caption        = 
| director       = Deniz Gamze Ergüven
| producer       = 
| writer         = Deniz Gamze Ergüven Alice Winocour
| starring       = Erol Afsin
| music          = 
| cinematography = 
| editing        = 
| distributor    = 
| released       =  
| runtime        = 
| country        = France
| language       = Turkish
| budget         = 
}}

Mustang is an upcoming French drama film directed by Deniz Gamze Ergüven. It has been selected to be screened in the Directors Fortnight section at the 2015 Cannes Film Festival.      

==Cast==
* Erol Afsin as Osman 

==References==
 

==External links==
*  

 
 
 
 
 
 
 
 