Beyond My Grandfather Allende
 
{{Infobox film
| name           = Beyond My Grandfather Allende
| image          = 
| caption        = 
| director       = Marcia Tambutti
| producer       = 
| writer         = 
| starring       = 
| music          = 
| cinematography = 
| editing        = 
| distributor    = 
| released       =  
| runtime        = 90 minutes
| country        = Chile
| language       = Spanish
| budget         = 
}}

Beyond My Grandfather Allende ( ) is an upcoming Chilean documentary film directed by Marcia Tambutti. It has been selected to be screened in the Directors Fortnight section at the 2015 Cannes Film Festival.      

==References==
 

==External links==
*  

 
 
 
 
 
 
 
 