Mandragora (film)
{{Infobox film
| name           = Mandragora
| image          =
| image size     =
| caption        =
| director       = Wiktor Grodecki
| producer       =
| writer         = Wiktor Grodecki David Svec
| narrator       =
| starring       = Miroslav Caslavka David Svec Pavel Skripal
| music          =
| cinematography =
| editing        =
| distributor    =
| released       = 1997
| runtime        =
| country        =
| language       =
| budget         =
| preceded by    =
| followed by    =
}} Polish director Wiktor Grodecki about the mental and physical decline of a 15-year old boy who runs away from his seemingly distanced father to Prague, where he becomes a victim of the drug and sex scene.

== External links ==
*  

 
 
 
 
 
 

 
 