Jhinukmala
 
{{Infobox film
| name           = Jhinukmala
| image          =
| caption        =
| director       = Swapan Saha
| producer       = 
| starring       = Prosenjit Chatterjee Dulal Lahiri Anuradha Ray Bodhisattwa Majumdar Basanti Chattopadhyay
| genere         = Family,Romance
| released       =  
| runtime        = 
| country        = India
| music          = Anwar Jahan Jhantu
| studio         = Swapan Pictures Bengali
| awards         =
| budget         =
}}
 Bengali film directed by Swapan Saha.

==Cast==
* Prosenjit Chatterjee
* Dulal Lahiri
* Anuradha Ray
* Bodhisattwa Majumdar
* Basanti Chattopadhyay
* Mitali
* Mousumi Adhikari
* Sumit Gangopadhyay 

==References==
 

==External links==
*   at the Gomolo
*  
*  
*  
*  
*  
*  

 

 
 
 
 


 