Lovers & Movies
{{Infobox film
| name           = Lovers & Movies
| image          = Lovers and Movies poster.jpg
| alt            = 
| caption        = 
| film name      = 爱我就陪我看电影 
| director       = Niu Chaoyang
| producer       =  
| writer         =  
| screenplay     = 
| story          = 
| based on       =  
| starring       = 
| narrator       =  
| music          = 
| cinematography = 
| editing        = 
| studio         =  
| distributor    =  
| released       =  
| runtime        = 90 minutes
| country        = China 
| language       = Mandarin
| budget         = 
| gross          =   (China) 
}}
Lovers & Movies ( ) is a 2015 Chinese romantic comedy film directed by Niu Chaoyang. It was released on April 30, 2015. 

==Cast==
*Francis Ng
*Yu Nan
*Kim Bum
*Gulnazar
*Simon Yam
*Kara Hui
*Zhang Xueying
*Wang Zongze
*Jiang Wu
*Niu Ben
*Lu Yuan

==Reception==
By May 4, the film had earned $1.13 million at the Chinese box office. 

==References==
 

 
 
 
 


 
 
 