Curses!
 
{{Infobox film
| name           = Curses!
| image          = 
| caption        =  Fatty Arbuckle (unconfirmed)
| producer       = 
| writer         = Fatty Arbuckle (as William Goodrich) Al St. John
| music          = 
| cinematography = 
| editing        = 
| distributor    = 
| released       =  
| runtime        = 18 minutes
| country        = United States  Silent English intertitles
| budget         = 
}}
 Fatty Arbuckle.   

==Cast== Al St. John - Buttonshoe Bill
* Bartine Burkett - Nell

==See also==
* List of American films of 1925
* Fatty Arbuckle filmography

==References==
 

==External links==
* 

 
 
 
 
 
 
 
 
 
 
 