Kameleon 2
{{Infobox film
| name           = Kameleon 2
| image          = Film poster Kameleon 2.jpg
| caption        = Film poster
| director       =
| producer       =
| writer         =
| narrator       =
| starring       = Hielke Klinkhamer Sietse Klinkhamer
| music          =
| cinematography =
| editing        =
| distributor    =
| released       =  
| runtime        =
| country        = Netherlands Dutch
| budget         =
}} identical twins  
Koen van der Donk (Hielke Klinkhamer) and Jos van der Donk (Sietse Klinkhamer), also identical twins, born 6 March 1988.

It is a sequel of De Schippers van de Kameleon, with these same characters and actors.

==External links==
* 

 
 
 
 
 


 
 