Tiger Child
{{Infobox Film
| name           = Tiger Child
| image          = 
| image_size     = 
| caption        = 
| director       = Donald Brittain
| producer       = Roman Kroitor
| writer         = 
| narrator       = 
| starring       = 
| music          = 
| cinematography = 
| editing        =  IMAX Pictures
| released       = May 15, 1970
| runtime        = Short: 17 min.
| country        = Japan
| language       = 
| budget         = 
| preceded_by    = 
| followed_by    = 
}} Fuji Group Pavilion. 

==References==
 

==External links==
* 

 

 

 

 
 
 
 
 
 
 
 
 


 
 