Two Solitudes (film)
 
{{Infobox Film
| name           =  Two Solitudes
| image          =  U8rfm6ae.jpg
| image_size     = 
| caption        =  
| director       =   
| producer       =   
| writer         =   
| narrator       =   
| starring       =   
| music          =   
| cinematography =   
| editing        =   
| studio         =   
| distributor    =   
| released       =   
| runtime        =   
| country        =  
| language       =   
| budget         =   
| gross          = 
| preceded_by    = 
| followed_by    = 
}} novel by Hugh MacLennan.

==Cast==
*Jean-Pierre Aumont  :  Jean-Claude Tallard
*Stacy Keach  :  Huntley McQueen
*Gloria Carlin  :  Kathleen Tallard
*Chris Wiggins  :  Captain Yardley
*Claude Jutra  :  Father Beaubien
*Raymond Cloutier  :  Marius Tallard
*Jean-Louis Roux  :  Cardinal

==External links==
* 

 

 
 
 


 