War in the Kitchen
{{Infobox film
| name           = War in the Kitchen
| image          = 
| image_size     = 
| caption        = 
| director       = Marius Barna
| producer       = 
| writer         = 
| narrator       = 
| starring       = Gheorghe Dinică Ovidiu Niculescu
| music          = 
| cinematography = 
| editing        = 
| distributor    =  2001
| runtime        = 
| country        = Romania Romanian
| budget         = 
| preceded_by    = 
| followed_by    = 
}}
War in the Kitchen ( ) is a Romanian film drama by Marius Theodor Barna. The film was produced in 2001 by Ager Film in collaboration with Televiziunea Română (TVR). It stars Gheorghe Dinică as the main actor.

==External links==
* 

 
 
 
 
 
 