Dark Descent
 
{{Infobox film
| name           = Dark Descent
| image          = 
| caption        = 
| director       = Daniel Knauf
| producer       = Jeffery Beach Melanie J. Elin Phillip J. Roth Executive Producer James Hollensteiner
| writer         = Daniel Knauf
| starring       = Dean Cain Scott Wiper
| music          = Richard McHugh
| cinematography = 
| editing        = Ken Peters
| distributor    = Dark Descent Productions LLC
| released       =  
| runtime        = 96 minutes
| country        = United States
| language       = English
| budget         = 
}}
Dark Descent is a 2002 film written and directed by Daniel Knauf.

==External links==
* 

 
 
 
 
 


 