Crocodile (1996 film)
 
{{Infobox film
| name           = Crocodile
| image          = Crocodile film poster.jpg
| film name      = {{Film name
 | hangul         =  
 | hanja          =
 | rr             = Ageo
 | mr             = Ak ŏ}}
| director       = Kim Ki-duk 
| producer       = 
| writer         = Kim Ki-duk 
| starring       = Cho Jae-hyun Ahn Jae-hong
| music          = 
| cinematography = Lee Dong-sam
| editing        = Park Gok-ji
| distributor    = 
| released       =  
| runtime        = 102 minutes
| country        = South Korea
| language       = Korean
| budget         = 
}}
Crocodile is a 1996 South Korean film. It was the directorial debut of Kim Ki-duk|Ki-duk Kim and stars Cho Jae-hyun as "Crocodile".
 Han River in Seoul, who saves a woman trying to commit suicide. He then proceeds to rape and abuse her until an odd relationship develops between them.

== External links ==
*  
*  

 

 
 
 
 
 
 
 

 