Tiger and Crane Fist
 
{{Infobox film
| name           = Tiger and Crane Fist
| image          =
| image_size     =
| caption        =
| director       = Jimmy Wang Yu
| producer       =
| writer         = Ni Kuang
| narrator       =
| starring       = Jimmy Wang Yu & Lung Fei
| music          =
| cinematography =
| editing        =
| distributor    = Dai Yat (First Films)
| released       = 5 August 1976
| runtime        = 82 min
| country        = Hong Kong
| language       = Cantonese
| budget         =
| gross          =
| preceded_by    =
| followed_by    =
| website        =
}}
 kung fu star Jimmy Wang Yu. The footage was later used in the comedy movie Kung Pow! Enter the Fist.
 Japanese occupational forces. Defeating Fei is essential to repelling the Japanese invaders.

==Notes==
 

==External links==
*  

 

 

 
 
 
 
 
 


 