Konsento
 
{{Infobox film
| name           = Konsento
| image          = 
| image size     = 
| border         = 
| alt            = 
| caption        = 
| director       = Shun Nakahara
| producer       = 
| writer         = 
| screenplay     = 
| story          = 
| based on       =  
| narrator       = 
| starring       = Miwako Ichikawa   Miho Tsumiki   Houka Kinoshita
| music          = 
| cinematography = 
| editing        = 
| studio         = 
| distributor    = 
| released       = 2001
| runtime        = 
| country        = Japan
| language       = Japanese
| budget         = 
| gross          = 
}}

Konsento is a Japanese thriller film released in 2001 and directed by Shun Nakahara. It is based on the bestseller novel of the same title by Randy Taguchi.

==Main cast==
* Miwako Ichikawa - Yuki Asakura
* Miho Tsumiki - Ritsuko
* Houka Kinoshita - Takayuki Asakura
* Masahiko Akuta - Dr. Kunisada
* Mantarô Koichi - Yamagishi
* Jun Murakami - Jun Murakami

==External links==
* 

 
 
 
 
 

 