6-18-67
 
{{Infobox film
| name          = 6-18-67
| image         =
| caption       =
| director      = George Lucas
| writer        = George Lucas
| starring      =
| producer      =
| music         =
| cinematography= Charles Braverman George Lucas David MacDougall David Wyler
| release       =
| distributor   =
| runtime       = English
}}
 Columbia film, Mackennas Gold. This nonstory noncharacter visual tone poem is made up of nature imagery, time-lapse photography, and the subtle sounds of the Arizona desert. Shooting was completed on June 18, 1967.

== External links ==
*  

 

 
 
 
 
 
 
 
 
 


 