Les Mauvaises fréquentations
{{Infobox film
| name           = Les Mauvaises fréquentations
| image          = 
| image_size     = 
| caption        = 
| director       = Jean Eustache
| producer       = 
| writer         = 
| narrator       = 
| starring       = Aristide Daniel Bart
| music          = 
| cinematography = 
| editing        = 
| distributor    = 
| released       =  
| runtime        = 42 minutes
| country        = France
| language       = French
| budget         = 
| preceded_by    = 
| followed_by    = 
}}
Les Mauvaises fréquentations (En. Bad Company) is a 1963 short drama film written and directed by Jean Eustache. It stars Aristide and Daniel Bart.

==External links==
* 

 
 
 
 
 


 