Watching Fuckin' TV All Time Makes a Fool
{{Infobox animanga/Header
| image           =  
| caption         = Cover to Watching Fuckin TV All Time Makes a Fool.
| ja_kanji        = テレビばかり見てると馬鹿になる
| ja_romaji       = Terebi Bakari Miteruto Baka ni Naru
| genre           = Anthology, H manga
}}
{{Infobox animanga/Print
| type            = manga
| author          = Naoki Yamamoto
| publisher       = Ohta Publishing
| demographic     = Seinen manga|Seinen
| magazine        = Manga Erotics Manga F Weekly Manga Action
| published       = December 20, 2000
| volumes         = 1 
}}
{{Infobox animanga/Video
| type            = live film
| director        = Toru Kamei
| producer        = 
| writer          = 
| music           = 
| studio          = 
| released        = June 9, 2007
| runtime         = 85 minutes
}}
 
 erotic One-shot (comics)|one-shot manga by Naoki Yamamoto. The story has been included in a manga volume of the same title, as well as the anthology  , both of which are anthologies of short, erotic one-shot manga by Yamamoto. The story has also been adapted into a film which was released in 2007.  

==List of manga==
The short manga that are present in the anthology are:
*  	
* 
* 	
* 	
* 	
* 	
*  	
* 

==Cast==
* Honoka
* Akifumi Miura

==References==
 

==External links==
*   
*   

 
 
 
 
 
 
 
 
 

 