1:42.08
 
{{Infobox film
| name           = 1:42.08
| image          = 
| caption        = 
| director       = George Lucas
| producer       = 
| writer         = George Lucas
| narrator       = 
| starring       = Pete Brock
| music          = 
| cinematography = George Lucas
| editing        = George Lucas
| distributor    = 
| released       =  
| runtime        = 
| country        = United States
| language       = English
| budget         = 
}} Willow Springs Raceway, north of Los Angeles, CA.  The Lotus 23 was driven by Pete Brock.

==References==
 

==External links==
*  

 

 
 
 
 
 
 


 
 