Guns (film)
{{Infobox film
| name           = Guns
| image          = Gunsposter.jpg
| image_size     =
| caption        = Promotional film poster
| director       = Andy Sidaris
| producer       = Arlene Sidaris
| writer         = Andy Sidaris
| narrator       =
| starring       = Erik Estrada Dona Speir Devin DeVasquez Danny Trejo Cynthia Brimhall Richard Lyons
| cinematography = Howard Wexler
| editing        = Michael Haight
| distributor    = Malibu Bay Films
| released       =  
| runtime        = 96 minutes
| country        = United States
| language       = English
| budget         =
| gross          =
}} gun runner. The film was written and directed by Andy Sidaris, and stars Erik Estrada, Dona Speir, Devin DeVasquez, Cynthia Brimhall, and Danny Trejo.

==Plot==
An international crime lord stages a brutal murder in Las Vegas to lure federal agents away from Hawaii in an attempt to smuggle assault weapons to drug traffickers in South America.

==The Triple B Series by Andy Sidaris==

*1. Malibu Express (1985)
*2. Hard Ticket to Hawaii (1987)
*3. Picasso Trigger (1988)
*4. Savage Beach (1989)
*5. Guns (1990) Do or Die (1991)
*7. Hard Hunted (1992)
*8. Fit to Kill (1993)
*9. Enemy Gold (1993)
*10. The Dallas Connection (1994)
*11. Day of the Warrior (1996)
*12.   (1998)

==See also==
*Girls with guns

==External links==
* 
* 

 
 

 
 
 
 
 
 
 
 
 
 
 
 
 
 

 
 