Martial Angels
 
 
{{multiple issues|
 
 
}}

{{Infobox film
| name           = Martial Angels
| image          = 
| image_size     = 
| caption        = 
| director       = Clarence Fok Yiu-leung
| producer       = 
| writer         = 
| narrator       = 
| starring       = Julian Cheung   Shu Qi 
| music          = 
| cinematography = 
| editing        = 
| distributor    =  2001
| runtime        =  Hong Kong
| language       = Cantonese
| budget         =
| gross          =
| preceded_by    = 
| followed_by    = 
}}
 2001 Cinema Hong Kong film directed by Clarence Fok Yiu-leung.

==Cast==
* Julian Cheung - Zi-Yang
* Shu Qi - Cat
* Kelly Lin - Octopus
* Sandra Ng - Monkey
* Teresa Mak - Goldfish
* Rachel Ngan - Pigeon
* Terence Yin - Bone
* Rosemary Vandenbroucke - Peacock
* Amanda Strang - Spider
* Wong Jing - Fred
* Ron Smoorenburg - Paracov
* Max Ruddock - Barry, henchmen

==External links==
* 

 
 


 