Runaway (2001 film)
 
 
{{Infobox film
| name           = Runaway
| image          =
| image_size     =
| caption        =
| film name      = 走投有路 Chow tau yau liu
| director       = Dante Lam
| producer       =
| writer         = Lau Ho Leung Ng Wai Lun
| narrator       =
| starring       = Nick Cheung Ruby Wong Samuel Pang
| music          =
| cinematography =
| editing        =
| distributor    = 2001
| runtime        = 99 min.
| country        = Hong Kong Cantonese
| budget         =
| gross          = HK$ 0.86 million
}} triad bosses on the run following a series of mishaps.

==Cast==
* Nick Cheung as Dan
* Ruby Wong as Ching
* Samuel Pang as King
* Joe Lee Yiu-ming
* Ken Lo as Tai (as Low Houi Kang) Anthony Wong as Ray

==External links==
*  
*  

 

 
 
 
 
 


 