Benefit of the Doubt
  
{{Infobox film
| name           = Benefit of the Doubt
| image          = BenefitOfTheDoubt.jpg
| image size     =
| caption        = Screenshot Peter Whitehead
| producer       =
| writer         =
| narrator       = Michael Williams Glenda Jackson
| music          =
| cinematography =
| editing        =
| distributor    =
| released       = 1967
| runtime        = 60 min.
| country        = United Kingdom English
| budget         =
| preceded by    =
| followed by    =
}} Michael Williams Peter Whitehead.

==References==
 
 

==External links==
* 
* 

 
 
 
 
 
 
 
 


 
 