Summer (1930 film)
 
{{Infobox Hollywood cartoon
| cartoon name      = Summer
| series            = Silly Symphonies
| image             =
| image size        = 
| alt               = 
| caption           = 
| director          = Ub Iwerks
| producer          = Walt Disney
| story artist      = 
| narrator          = 
| voice actor       = 
| musician          = 
| animator          = 
| layout artist     = 
| background artist =  Walt Disney Productions
| distributor       = Columbia Pictures
| release date      = January 6, 1930
| color process     = 
| runtime           = 6 minutes
| country           = United States
| language          = English
| preceded by       = The Merry Dwarfs Autumn
}}

Summer is a Walt Disney short film released on January 6, 1930. Directed by Ub Iwerks, it is the sequel to the short Springtime (1929). Its 6 minutes long.

==External links==
* 

 

 
 
 
 
 
 
 
 
 
 

 