Dogora: Ouvrons les yeux
 
{{Infobox film
| name           = Dogora: Ouvrons les yeux
| image_size     =
| image	=	Dogora- Ouvrons les yeux FilmPoster.jpeg
| caption        =
| director       = Patrice Leconte
| producer       = Frédéric Brillion Gilles Legrand Epithète Films
| writer         =
| narrator       =
| starring       =
| music          = Étienne Perruchon
| cinematography = Jean-Marie Dreujou
| editing        = Joëlle Hache
| distributor    = Hollywood Classic Entertainment (Czech Republic) Warner Bros.(USA)
| released       = 2004
| runtime        = 80 min
| country        = France
| language       =
| budget         =
| gross          =
| preceded_by    =
| followed_by    =
| website        =
}}

Dogora: Ouvrons les yeux is a 2004 film directed by Patrice Leconte which has been compared in its conception with the likes of the Qatsi trilogy.

==External links==
*  

 

 
 
 
 
 

 