Goin' to Town
 
{{Infobox film
| name           = Goin To Town
| image          = Goin to Town 1935.jpg
| image size     = 
| caption        = VHS cover for Goin to Town
| director       = Alexander Hall James Dugan (assistant)
| producer       = William LeBaron
| writer         = Mae West
| starring       = Mae West
| music          = Sammy Fain
| cinematography = Karl Struss 
| editing        = LeRoy Stone
| distributor    = Paramount Pictures
| released       =  
| runtime        = 74 minutes
| country        = United States
| language       = English
| budget         = 
| gross          = 
}}
 musical comedy film released by Paramount Pictures. It starred Mae West and featured Paul Cavanagh, Marjorie Gateson and Monroe Owsley.

==External links==
*  
*  
*  
*  

 

 
 
 
 
 
 
 
 
 
 
 

 
 