Up New Generation
 
 
{{Infobox television
| name           = Up New Generation
| image          = 
| image size     = 
| alt            = 
| caption        = 
| genre          = Documentary
| director       = Julian Farino
| producer       =  Alun Armstrong
| starring       = Talan Gordon Orala Johnson Sanchez Payne Gemma Roberts Ryan Sheridan
| music          = 
| cinematography = 
| editing        = 
| studio         = 
| distributor    = British Broadcasting Corporation (BBC)
| channel        = BBC One
| first_aired    =  
| runtime        = 
| country        = United Kingdom
| language       = English
| budget         = 
| preceded by    = 
| followed by    = 
}}
Up New Generation  is a new version of the Up Series, following the lives of a group of individuals who were seven years old at the turn of the millennium.

The series is directed by Julian Farino and began with 7Up 2000, first broadcast in April 2000. The second instal ment, 14 Up 2000, aired in two parts on BBC One in September 2007. 

21 Up New Generation comprises two parts, scheduled for broadcast in September 2014. 

==References==
 

==External links==
*  
*  

 
 
 
 
 


 
 