Return of the Bastards
 
{{Infobox Film
| name           = Return Of The Bastards
| image          = 
| image_size     = 
| caption        = 
| director       = Fokionas Bogris
| producer       = 
| writer         = Fokionas Bogris
| narrator       = 
| starring       = Apostolos Souglakos
| music          = 
| cinematography = 
| editing        = 
| distributor    =  2003
| runtime        = 76 min.
| country        = Greece Greek
| budget         = 
| preceded_by    = 
| followed_by    = 
}} Greek exploitation film directed by Fokionas Bogris and starring Apostolos Souglakos, Christos Natsios, Nikos Tsachiridis and Fay Demani.

==External links==
* 

 
 
 
 
 

 
 