Air Guitar Nation
{{Infobox Film  |
  name     = Air Guitar Nation|
  image          = Airguitarnation.jpg|
  caption = Promotional movie poster for the film |
  producer         = Anna Barber, Dan Cutforth & Jane Lipsitz |
  director       = Alexandra Lipsitz |
  writer         =  |
  starring       = David S. Jung Dan Crane Zac Munro  |
  cinematography =  |
  editing         = Conor ONeill |
  distributor    = Shadow Distribution |
  released   = 2006 |
  runtime        = 81 min.|
  budget         = | English |
}} US Air Air Guitar World Championship in Oulu, Finland.
 Adelaide International Film Festival.

==See also==
*Air Guitar in Oulu

==External links==
*  (needs Flash)
* 
* 
* 
* 
*  

 
 
 
 
 


 