Savage Beach
{{Infobox film
| name           = Savage Beach
| image          = Savagebeach.jpg
| image_size     =
| caption        = Promotional film poster
| director       = Andy Sidaris
| producer       =
| writer         = Andy Sidaris
| starring       = Dona Speir Hope Marie Carlton John Aprea Bruce Penhall
| music          = Gary Stockdale
| cinematography = Howard Wexler
| editing        = Michael Haight
| distributor    = Malibu Bay Films
| released       =  
| runtime        = 92 minutes
| country        = United States English
}} action adventure film starring Dona Speir, Hope Marie Carlton, John Aprea and Bruce Penhall. It was written and directed by Andy Sidaris.

==The Triple B Series by Andy Sidaris==

*1. Malibu Express (1985)
*2. Hard Ticket to Hawaii (1987)
*3. Picasso Trigger (1988)
*4. Savage Beach (1989) Guns (1990)
*6. Do or Die (1991 film) | Do or Die (1991)
*7. Hard Hunted (1992)
*8. Fit to Kill (1993)
*9. Enemy Gold (1993)
*10. The Dallas Connection (1994)
*11. Day of the Warrior (1996)
*12.   (1998)

==See also==
*Girls with guns

==External links==
* 
*  

 
 

 
 
 
 
 
 
 

 