Let's Go Crazy (film)
{{Infobox Film
| name           = Lets Go Crazy
| image          = 
| caption        = 
| director       = Alan Cullimore
| producer       = 
| writer         = Spike Milligan Peter Sellers
| starring       = Spike Milligan Peter Sellers
| music          = 
| cinematography = 
| editing        = 
| distributor    = 
| released       =  
| runtime        = 32 minutes
| country        = United Kingdom
| language       = English
| budget         = 
}}
 1951 comedy film marking an early appearance of Spike Milligan and Peter Sellers playing multiple roles.

==Cast==
*Peter Sellers
*Spike Milligan
*Wallas Eaton
*Tommy Manley
*Florence Austin
*Freddie Mirfield
*Keith Warwick

==External links==
* 

 

 
 
 
 

 