The $1,000,000 Reward
{{Infobox film
| name           = The $1,000,000 Reward
| image          = 
| image_size     = 
| caption        = 
| director       = George Lessey
| producer       = Harry Grossman
| writer         = 
| narrator       = 
| starring       = Coit Albertson
| music          = 
| cinematography = 
| editing        = 
| distributor    = Grossman Pictures
| released       = January 1920
| runtime        = 15 episodes 
| country        = United States Silent English English intertitles
| budget         = 
| preceded_by    = 
| followed_by    = 
}} drama film serial, directed by George Lessey, and produced by Harry Grossman. This is now considered to be a lost film.   

==Cast==
* Coit Albertson
* Buck Connors
* Louise Hotaling
* George Lessey
* Joe Smith Marba
* Charles B. Middleton
* William Pike
* Bernard Randall
* Leora Spellman
* F.W. Stewart
* Lillian Walker

==See also==
* List of American films of 1920
* List of film serials
* List of film serials by studio
* List of lost films

==References==
 

==External links==
* 
* 

 
 
 
 
 
 
 
 
 


 