Aacharya
{{Infobox film
| name           = Aacharya
| image          = Aacharya.jpg
| image_size     =
| caption        = Ravi
| producer       = SN. Raja E. Chitra Uma Maheswari
| writer         =
| narrator       = Vignesh Divya Nassar
| music          = Srikanth Deva
| cinematography =
| editing        =
| distributor    = ITA Films
| released       = 23 June 2006
| runtime        =
| country        = India Tamil
| budget         =
| gross          =
| preceded_by    =
| followed_by    =
| website        =
}} Tamil language film released in 2006.

==References==
* " ." at IndiaGlitz (for infobox)

 
 
 
 


 