Twin Towers (film)
{{Infobox film
| name           = Twin Towers
| image          = 
| caption        = 
| director       =  {{plainlist|
*Bill Guttentag
*Robert David Port
}}
| producer       = {{plainlist|
*Kate Adler
*Edward Barbini
*Lisa Engel
*Bill Guttentag
*Peter Jankowski
*Dan Sturman
*Dick Wolf
}}
| writer         = 
| starring       = Tommy Buda
| music          = Philip Marshall
| cinematography = {{plainlist|
*Scott Hiller
*Jefferson Miller
}}
| editing        = Michael Schweitzer
| distributor    = 
| released       =  
| runtime        = 34 minutes
| country        = United States
| language       = English
| budget         = 
}}
 Oscar for Documentary Short Subject.

==See also==
* List of American films of 2003
* List of firefighting films

==References==
 

==External links==
*  

 

 
 
 
 
 
 
 
 
 
 
 