Hell on Wheels (2004 film)
{{Infobox film
| name           = Hell on Wheels| 
| image          = Rolf Aldag Gaillac.jpg
| caption        = Rolf Aldag, individual time trial Tour de France 2003
| director       = Pepe Danquart
| producer       = Mirjam Quinte Mark Christopher| 
| starring       = Erik Zabel Rolf Aldag
| music          = 
| cinematography = 
| editing        = 
| distributor    = 
| released       =  
| runtime        = 120 minutes
| country        = Germany German
}} 2003 from Team Telekom, 1993 for Black Rider (Schwarzfahrer). 

In 2004, Mona Bräuer won a German Film Critics Award for Best Editing (Bester Schnitt). 

== References ==
 

== External links ==
*  

 
 
 

 