Maxime, McDuff & McDo
 
{{Infobox Film
| name           = Maxime, McDuff & McDo
| image          = 
| caption        = 
| director       = Magnus Isacsson
| producer       = Monique Simard and Marcel Simard
| writer         = 
| narrator       = 
| starring       = 
| music          = Robert Marcel Lepage
| cinematography = 
| editing        = Louise Côté
| distributor    =
| released       = 
| runtime        = 52 minutes
| country        = Canada
| language       = French
| budget         = 
| preceded_by    = 
| followed_by    = 
}}

Maxime, McDuff & McDo is a 2002 documentary film by Magnus Isacsson  that shows the attempt to unionize a McDonalds restaurant in Montreal, Quebec, Canada. They were successful, but McDonalds quickly shut down the franchise after the union won.    

== See also ==
*McLibel case
*McJob
*Fast Food Nation (film)|Fast Food Nation (film)

== References ==
 

== External links ==
* 

 
 
 
 
 
 
 
 
 
 
 
 
 
 
 