Sri Anjaneyam
 
{{Infobox film
| name           = Sri Anjaneyam
| image          =
| imdb_id        =
| writer         = Krishna Vamsi
| starring       = Arjun Sarja Nitin Kumar Reddy Charmme Kaur Prakash Raj Ramya Krishna
| director       = Krishna Vamsi
| producer       = Krishna Vamsi
| distributor    =
| released       = July 24, 2004
| runtime        =
| country        = India
| cinematography =
| language       = Telugu
| music          = Mani Sharma
| awards         =
| budget         =
}} Tamil as Hanumaan.
It is also dubbed in Hindi as "My Boss Bajarangbali" and remade in Oriya as "Chhati Chiri dele tu" directed by S.K.Muralidharan starring Anubhav Mohanty & Sidhant Mohapatra.

==External links==
*  

 

 
 
 
 


 