On the Job (1924 film)
 
{{Infobox film
| name           = On the Job
| image          =
| caption        =
| director       =
| producer       =
| writer         =
| narrator       =
| starring       =
| cinematography =
| editing        =
| distributor    = Fox Film Corporation 
| released       =   
| runtime        =
| country        = United States English intertitles
| budget         =
}}
 1924 short comedy film directed by Philadelphian Film director|director, Benjamin Stoloff.

== External links ==
*  

 
 
 
 
 
 
 
 
 


 
 