A Business Buccaneer
{{Infobox film
| name           = A Business Buccaneer
| image          =
| caption        =
| director       =
| producer       =
| writer         = Tom Moore Alice Joyce Earle Foxe Cleo Madison Stuart Holmes
| music          =
| cinematography =
| editing        =
| distributor    =
| released       =  
| runtime        =
| country        = United States
| language       = Silent film English intertitles
| budget         =
}}
A Business Buccaneer is a 1912 American short silent comedy film. It was the fifth time Earle Foxe and Alice Joyce had worked together that year.

==Cast==
  Tom Moore
* Alice Joyce
* Earle Foxe
* Cleo Madison
* Stuart Holmes

==External links==
*  

 
 
 
 
 
 
 
 
 


 
 