The Young Millionaire
{{Infobox film
| name           = The Young Millionaire
| image          =
| caption        =
| director       =
| producer       = The Kalem Company
| writer         =
| narrator       =
| starring       = Earle Foxe Alice Joyce
| music          =
| cinematography =
| editing        =
| distributor    = General Film Company
| released       =  
| runtime        = Short
| country        = United States English intertitles
| budget         =
}} 1912 short The County Fair. It was the third film of Earle Foxe, aged seventeen.

==Cast== Tom Moore		
*Alice Joyce as Anna Newton
*Earle Foxe		
*Hazel Neason		
*Stuart Holmes

==External links==
* 

 

 
 
 
 
 
 
 
 


 
 