The Game Warden
{{Infobox film
| name           = The Game Warden
| image          =
| caption        =
| director       =
| producer       =
| writer         =
| starring       = Earle Foxe Irene Boyle Stuart Holmes
| cinematography =
| editing        =
| distributor    = Kalem Company
| released       =  
| runtime        =
| country        = United States English
| budget         =
}} 1913 United American Short short silent film romantic comedy. The film starred Earle Foxe, Irene Boyle, and Stuart Holmes.

==External links==
* 

 
 
 
 
 
 
 
 
 


 
 