The Face at the Window (1913 film)
{{Infobox film
| name           = The Face at the Window
| image          =
| caption        =
| director       =
| producer       =
| writer         =
| narrator       =
| starring       = Earle Foxe Irene Boyle Stuart Holmes
| cinematography =
| editing        =
| distributor    =
| released       =  
| runtime        = Short
| country        = United States English intertitles
| budget         =
}} 1913 United American Short short silent film drama. The film starred Earle Foxe, Irene Boyle and Stuart Holmes in the lead roles.

==External links==
* 

 
 
 
 
 
 
 
 
 


 