The Colonel and the King
{{Infobox film
| name           = The Colonel and the King
| image          =
| caption        =
| director       =
| producer       = Thanhouser Company
| writer         =
| narrator       = William Russell
| music          =
| cinematography =
| editing        =
| distributor    = Motion Picture Distributors and Sales Company
| released       =  
| runtime        =
| country        = United States English intertitles
}}
 1911 United American silent silent short short drama William Russell.

==External links==
* 

 
 
 
 
 
 
 
 
 


 