Courting Across the Court
{{Infobox film
| name           = Courting Across the Court
| image          =
| caption        =
| director       =
| producer       = Thanhouser Company
| writer         =
| narrator       =
| starring       = William Garwood
| distributor    = Motion Picture Distributors and Sales Company
| released       =  
| runtime        =
| country        = United States English
}}
 1911 United American silent silent short short romantic comedy film. The film stars William Garwood.

==External links==
* 

 
 
 
 
 
 
 
 


 
 