Frankfurters and Quail
{{Infobox film
| name           = Frankfurters and Quail
| image          =
| caption        =
| director       =
| producer       = Thanhouser Company
| writer         =
| narrator       =
| starring       = William Garwood
| music          =
| cinematography =
| editing        =
| distributor    = Film Supply Company
| released       =  
| runtime        =
| country        = United States English intertitles
}}
 1912 United American silent silent short short drama starring William Garwood.

==External links==
* 

 
 
 
 
 
 
 
 
 


 