Squash (film)
 

 
{{Infobox film
| name           = Squash
| image          =
| image_size     = 160px
| caption        = An action shot from the film
| director       = Lionel Bailliu
| producer       = 
| writer         = Lionel Bailliu
| narrator       = 
| starring       = Malcolme Conrath Eric Savin
| music          = 
| cinematography = 
| editing        = 
| distributor    =  2002
| runtime        = ~ 28 min.
| country        = France French
| budget         = 
| preceded_by    = 
| followed_by    = 
}} 2002 French French short Live Action Short Film category in 2004. The film stars Malcolme Conrath as Alexandre and Eric Savin as Charles.

==Synopsis== squash game between two businessmen, Alexandre and his boss, Charles. The game is presented as a metaphor for office politics.

==External links==
* 

 
 
 
 
 
 


 
 