The Caged Bird
{{Infobox film
| name           = The Caged Bird
| image          = 
| image_size     = 
| caption        = 
| director       = 
| producer       = 
| writer         = 
| narrator       = 
| starring       = William Garwood Marguerite Snow
| music          = 
| cinematography = 
| editing        = 
| distributor    = Mutual Film
| released       = June 6, 1913
| runtime        = 
| country        = United States
| language       = Silent film English intertitles
}}
 silent short short drama film, produced by the Thanhouser Company, and starring William Garwood and Marguerite Snow.

==Cast==
* William Garwood as The Prince
* Marguerite Snow as The Princess
* James Cruze as The King William Russell as The Farmer
* Emma C. Butler as The Guard of Honor

==External links==
* 

 
 
 
 
 
 
 
 
 
 


 