Rick's Redemption
{{Infobox film
| name           = Ricks Redemption
| image          = 
| image_size     = 
| caption        = 
| director       = 
| producer       = 
| writer         = 
| narrator       = 
| starring       = William Garwood Muriel Ostriche
| music          = 
| cinematography = 
| editing        = 
| distributor    = 
| released       = December 1, 1913
| runtime        = 
| country        = United States
| language       = Silent film English intertitles
}}
 silent short film starring William Garwood and Muriel Ostriche.

==External links==
* 

 
 
 


 