A Turn of the Cards
 
{{Infobox film
| name           = A Turn of the Cards
| image          =
| image size     =
| caption        =
| director       =
| producer       =
| writer         =
| narrator       = William E. Lowery
| music          =
| cinematography =
| editing        =
| distributor    = Mutual Film Corporation
| released       = February 8, 1914
| runtime        =
| country        = United States English intertitles
}}
 1914 American silent short short drama William E. Lowery.

==Cast==
* J.W. Cornwall
* Howard Davies
* William Garwood
* Daniel Gilfether
* Lee Hill
* William E. Lowery
* William Nigh
* Jessalyn Van Trump
* Florence Vincent		
* Edna Mae Wilson		

==External links==
* 

 
 
 
 
 
 
 
 


 