Imar the Servitor
{{Infobox film
| name           = Imar the Servitor
| image          =
| caption        =
| director       =
| producer       =
| writer         = Daniel Carson Goodman
| narrator       =
| starring       = William Garwood
| music          =
| cinematography =
| editing        =
| distributor    = Mutual Film Continental Feature Film Corporation
| released       =  
| runtime        = 4 reels (original release)
| country        = United States English intertitles
}}
 1914 American silent drama film written by Daniel Carson Goodman. The film stars William Garwood.

==External links==
* 

 
 
 
 
 


 