A Soul at Stake
{{Infobox film
| name           = A Soul at Stake
| image          =
| image size     =
| caption        =
| director       = William Garwood
| producer       =
| writer         = Calder Johnstone   John Fleming Wilson
| narrator       = Andrew Arbuckle Lois Wilson
| music          =
| cinematography =
| editing        =
| distributor    = Universal Film Manufacturing Company
| released       = October 13, 1916
| runtime        =
| country        = United States English intertitles
}}
 1916 United American silent silent short short drama Andrew Arbuckle Lois Wilson.

==External links==
* 

 
 
 
 
 
 
 
 


 