All Things Pass
{{Infobox film
| name           = All Things Pass
| image          =
| caption        =
| director       = Paul Verhoeven
| producer       =
| writer         = Gerard Soeteman
| starring       =
| music          =
| cinematography =
| editing        =
| distributor    =
| released       = 1979
| runtime        = 65 minutes
| country        = Netherlands Dutch
| budget         =
}}
 paralysed and would suffer more to stay alive than be killed. 

==References==
 

==External links==
* 

 

 
 
 
 

 
 