Calamity Anne's Vanity
{{Infobox film
| name           = Calamity Annes Vanity
| image          = 
| image_size     = 
| caption        = 
| director       = Allan Dwan
| producer       = 
| writer         = 
| narrator       = 
| starring       = 
| music          = 
| cinematography = 
| editing        = 
| distributor    = Mutual Film
| released       =  
| runtime        = 
| country        = United States
| language       = Silent film English intertitles
}}
 silent short short Western Western directed by Allan Dwan starring Charlotte Burton and Louise Lester as Calamity Anne.

==Cast==
*J. Warren Kerrigan
*Robert Lane
*Rose Lathan Jack Richardson
*Jessalyn Van Trump

==External links==
* 

 
 
 
 
 
 
 
 

 
 