Truth in the Wilderness
{{Infobox film
| name           = Truth in the Wilderness
| image          = 
| image_size     = 
| caption        = 
| director       = Lorimer Johnston
| producer       = Samuel S. Hutchinson
| writer         = 
| narrator       =  Jack Richardson
| music          = 
| cinematography = 
| editing        = 
| distributor    = Mutual Film
| released       = July 14, 1913
| runtime        = 
| country        = United States
| language       = Silent film English intertitles
}}
 silent short short drama Jack Richardson. Also starring Lillian Leighton and Vivian Rich.

==External links==
* 

 
 
 
 
 
 
 


 