Her Big Story
{{Infobox film
| name           = Her Big Story
| image          = 
| image_size     = 
| caption        = 
| director       = Allan Dwan
| producer       = 
| writer         = Richard Washburn Child (story)
| narrator       =  Jack Richardson
| music          = 
| cinematography = 
| editing        = 
| distributor    = 
| released       = May 31, 1913
| runtime        = 
| country        = United States
| language       = Silent film English intertitles
}}
 silent short short drama Jack Richardson.

==External links==
* 

 
 
 
 
 
 
 


 