Our Wives
 
{{Infobox film
| name           = Our Wives
| image          =
| caption        =
| director       = James Lackaye
| producer       =
| writer         = Anthony E. Wills
| starring       = Harry T. Morey Louise Beaudet
| cinematography =
| editing        =
| distributor    = Vitagraph Studios
| released       =  
| runtime        =
| country        = United States English intertitles
| budget         =
}}
 1913 comedy short silent film, written by Anthony E. Wills, and directed by James Lackaye.

==Cast==
* Harry T. Morey ... 	Rosweel Chandler
* Louise Beaudet ... 	Mrs. Rosweel Chandler
* Lillian Walker ... 	Belle
* Wally Van ... 	Walter Blair
* Ada Gifford ... 	Hilda Deveaux Charles Brown ... 	Oscar Simbel
* Frank ONeil ... 	Mallory
* Niles Welch	 ... 	Stanton
* Ethel Lloyd ... 	Julia

==External links==
* 

 
 
 
 
 
 
 
 


 