Trapped in a Forest Fire
{{Infobox film
| name           = Trapped in a Forest Fire
| image          = 
| image_size     = 
| caption        = 
| director       = Gilbert P. Hamilton
| producer       = 
| writer         = Jacques Jaccard
| narrator       =  Violt Neitz Jack Richardson Vivian Rich Harry von Meter
| music          = 
| cinematography = 
| editing        = 
| distributor    = Mutual Film
| released       = December 8, 1913
| runtime        = 
| country        = United States
| language       = Silent film English intertitles 
}}
 silent short Violt Neitz, Jack Richardson, Vivian Rich, and Harry von Meter.

==See also==
*List of firefighting films

==External links==
* 

 
 
 
 
 


 