A Time to Heal (film)
 
{{Infobox film
| name           = A Time to Heal
| image          =
| caption        =
| director       = Michael Toshiyuki Uno
| producer       =
| writer         = Cathleen Young
| starring       = Nicollette Sheridan Gary Cole Mara Wilson
| composer       = Jay Gruska
| released       = 1994
| music          =
| runtime        = 90 minutes
| language       = English
| country        = United States
}}

A Time to Heal is a 1994 TV movie starring Nicollette Sheridan, Gary Cole and Mara Wilson.

==External links==
*  
*  

 
 
 


 