Daku Mangal Singh
{{Infobox film
| name           = Daku Mangal Singh
| image          = 
| image_size     = 
| caption        = 
| director       = Chand
| producer       = 
| writer         = 
| narrator       =  Mumtaz
| music          = Laxmikant-Pyarelal
| cinematography = 
| editing        = 
| distributor    = 
| released       = 1966
| runtime        = 
| country        = India
| language       = Hindi
| budget         = 
| preceded_by    = 
| followed_by    = 
}}
 Mumtaz  and  Prithviraj Kapoor.

== Cast ==
* Dara Singh...Daku Mangal Singh / Kumar
* Mumtaz (actress)|Mumtaz...Princess Aruna 	
* Prithviraj Kapoor

== External links ==
*  

 
 
 
 


 