At the Potter's Wheel
{{Infobox film
| name           = At the Potters Wheel
| image          = 
| image_size     = 
| caption        = 
| director       = Lorimer Johnston
| producer       = 
| writer         = 
| narrator       =  Jack Richardson Vivian Rich
| music          = 
| cinematography = 
| editing        = 
| distributor    = Mutual Film
| released       = January 29, 1914
| runtime        = 
| country        = United States
| language       = Silent film English intertitles
}}
 silent short short drama Jack Richardson and Vivian Rich.

==External links==
* 

 
 
 
 
 
 
 
 


 