Her Younger Sister
{{Infobox film
| name           = Her Younger Sister
| image          = 
| image_size     = 
| caption        = 
| director       = Frank Cooley
| producer       = 
| writer         = Mrs. Frank Cooley (story)
| narrator       =  Fred Gamble Charlotte Burton
| music          = 
| cinematography = 
| editing        = 
| distributor    = 
| released       = December 15, 1914
| runtime        = 
| country        = United States
| language       = Silent film English intertitles
}}
 silent short Fred Gamble and Charlotte Burton.

==Cast==
* Fred Gamble as Billy Lyons
* Charlotte Burton as Elsie Lyons (age 20)
* Gladys Kingsbury as Emma Lyons
* Kathie Fisher as Elsie Lyons (age 10)
* Joseph Harris as John Wyman

==External links==
* 

 
 
 
 
 
 
 


 