David Gray's Estate
{{Infobox film
| name           = David Grays Estate
| image          =
| caption        =
| director       =
| producer       =
| writer         =
| narrator       =
| starring       = Sydney Ayres Charlotte Burton
| music          =
| cinematography =
| editing        =
| distributor    = Mutual Film Corporation
| released       =  
| runtime        =
| country        = United States Silent English English intertitles
}}
 silent short short drama Jack Richardson, Harry Van Meter.

==External links==
* 

 
 
 
 
 
 
 
 


 