A Touch of Love (1915 film)
{{Infobox film
| name           = A Touch of Love
| image          =
| image size     =
| caption        =
| director       = Tom Ricketts
| producer       =
| writer         =
| narrator       = Harry Van Meter Charlotte Burton
| music          =
| cinematography =
| editing        =
| distributor    = Mutual Film Corporation
| released       = April 7, 1915
| runtime        =
| country        = United States English intertitles
}}
 1915 American silent short short drama Harry Van Meter, and Charlotte Burton.

==Cast==
* Vivian Rich as Fannie
* Harry Van Meter as Jim
* Charlotte Burton as Martha Reaves Eason as Bill Jack Richardson as Steve
* Louise Lester

==References==
 

==External links==
* 

 
 
 
 
 
 
 
 
 


 