In the Twilight
{{Infobox film
| name           = In the Twilight
| image          =
| caption        =
| director       = Tom Ricketts
| producer       =
| writer         = Marc Edmund Jones Reaves Eason
| cinematography =
| editing        =
| distributor    = Mutual Film
| released       =  
| runtime        =
| country        = United States English intertitles
}}
 1915 American silent short short drama Reaves Eason, Harry Van Meter.

==External links==
* 

 
 
 
 
 
 
 


 