The Best Is Yet to Come (film)
 
{{Infobox film
| name           = The Best is Yet to Come
| image          =
| image_size     =
| caption        =
| director       =
| producer       =
| writer         =
| narrator       =
| starring       =
| music          =
| cinematography =
| editing        =
| distributor    = Kroger Babb
| released       = 1951
| runtime        =
| country        =  
| language       = English
| budget         =
| preceded_by    =
| followed_by    =
| website        =
}}

The Best is Yet to Come was a film distributed by exploitation film presenter Kroger Babb in 1951. Babb promoted the film as "all there is to know about cancer".

==References==
 

* New York Times: Specialist. 18 March 1951. John Waters, " " (URL accessed 16 October 2006).
* Mike Quarles: Down and Dirty: Hollywoods Exploitation Filmmakers and Their Movies.  McFarland & Company, 2001.

==External links==
 

 
 
 
 
 
 


 