A Forest Romance
{{Infobox film
| name           = A Forest Romance
| image          =
| caption        = 
| director       = Frank Montgomery
| producer       =
| writer         =
| narrator       =
| starring       = Harry von Meter Mona Darkfeather
| music          =
| cinematography =
| editing        =
| distributor    = Universal Film Manufacturing Company
| released       =  
| runtime        =
| country        = United States English
}}
 silent short short romantic western directed by Frank Montgomery starring Harry von Meter and Mona Darkfeather.

==Cast==
* Mona Darkfeather
* Harry von Meter		
* James Davis Arthur Ortego  
* Harry Schumm	
* Mrs. Messick

==External links==
* 

 
 
 
 
 
 
 
 
 
 
 