At Midnight
 
{{Infobox film
| name           = At Midnight
| image          =
| image size     =
| caption        =
| director       =
| producer       =
| writer         = Gordon V. May (Story)
| narrator       = Harry Van Violet Neitz Jack Richardson  Vivian Rich
| music          =
| cinematography =
| editing        =
| distributor    = Mutual Film
| released       = November 22, 1913
| runtime        = 1 reel
| country        = United States English intertitles
}}
 1913 American silent short Harry Van Violet Neitz, Jack Richardson and Vivian Rich.

==External links==
* 

 
 
 
 

 