American Born
{{Infobox film
| name           = American Born
| image          =
| image size     =
| caption        =
| director       =
| producer       =
| writer         =
| narrator       = Harry Van Charles Morrison Jack Richardson   Vivian Rich
| music          =
| cinematography =
| editing        =
| distributor    = Mutual Film
| released       = December 1, 1913
| runtime        =
| country        = United States English intertitles
}}
 silent short Harry Van Charles Morrison, Jack Richardson and Vivian Rich.

==External links==
* 

 
 
 

 