Calamity Anne's Dream
{{Infobox film
| name           = Calamity Annes Dream
| image          = 
| image_size     = 
| caption        = 
| director       = Allan Dwan
| producer       = 
| writer         = 
| narrator       =  Charles Morrison
| music          = 
| cinematography = 
| editing        = 
| distributor    = Mutual Film 
| released       = November 22, 1913
| runtime        = 
| country        = United States
| language       = Silent film English intertitles
}}
 silent short short Western Western directed Charles Morrison, Jack Richardson and Vivian Rich.

==External links==
* 

 
 
 
 
 
 
 
 


 
 