Feast and Famine
{{Infobox film
| name           = Feast and Famine
| image          =
| caption        =
| director       = Sydney Ayres
| producer       =
| writer         = George A. Posner
| starring       = B. Reeves Eason William Garwood
| distributor    = Mutual Film Corporation
| released       =  
| runtime        =
| country        = United States English intertitles
}}
 American silent silent short short drama Jack Richardson and Vivian Rich.

==External links==
* 

 
 
 
 
 
 
 
 


 