Antonia: A Portrait of the Woman
{{Infobox film
| name           = Antonia: A Portrait of the Woman
| image          = Antonia- A Portrait of the Woman DVD.jpg
| image_size     =
| caption        = DVD cover
| director       = Judy Collins  Jill Godmilow
| producer       = 
| writer         = 
| narrator       = 
| starring       = 
| music          = 
| cinematography = 
| editing        = 
| distributor    = 
| released       =  
| runtime        = 58 minutes
| country        = United States
| language       = English
| budget         = 
| preceded_by    = 
| followed_by    = 
}} documentary about Best Documentary Feature.   

In 2003, this film was deemed "culturally, historically, or aesthetically significant" by the United States Library of Congress and selected for preservation in the National Film Registry.

==See also==
* , a 1987 documentary film

==References==
 

==External links==
*  

 
 
 
 
 
 
 
 
 

 