The Broken Cross (1916 film)
{{Infobox film
| name           = The Broken Cross
| image          = 
| image_size     = 
| caption        =  Thomas Ricketts
| producer       = 
| writer         = Tom Ricketts
| narrator       = 
| starring       = Harold Lockwood May Allison
| music          = 
| cinematography = 
| editing        = 
| distributor    = Mutual Film
| released       = February 1, 1916
| runtime        = 
| country        = United States
| language       = Silent film English intertitles
}}
 silent short short Romance romantic film Thomas Ricketts starring Harold Lockwood and May Allison.

==Cast==
*Harold Lockwood
*May Allison
*Queenie Rosson
*Harry von Meter

==External links==
* 

 
 
 
 
 
 


 
 