The Hero's Journey (film)
{{Infobox film
| name           = The Heros Journey: A Biographical Portrait
| image          =
| alt            = 
| director       = William Free Janelle Balnicke
| producer       = 
| writer         = 
| starring       = 
| music          = 
| cinematography = 
| editing        = 
| studio         = 
| distributor    = 
| released       =  
| runtime        = 58 minutes
| country        = United States
| language       = English
| budget         = 
| gross          = 
}}
The Heros Journey is a 1987 biography of mythologist Joseph Campbell (1904–1987), directed by Janelle Balnicke and David Kennard. In the years just before his death, Campbell was filmed in conversation with his friends and colleagues, discussing his own life and career in terms of the myths that he studied throughout his life. 

The conversations in the film lead to the book,   (1990). 

==See also==
* The Heros Journey (book)

==References==
 
*   at Yahoo! Movies

==External links==
*  
*  
 
 

 
 
 
 


 