Les Contrebandières
{{Infobox film
| name           = Les Contrebandières
| image          = 
| caption        = 
| director       = Luc Moullet
| producer       = Luc Moullet
| writer         = Luc Moullet
| starring       = Françoise Vatel Monique Thiriet Albert Juross
| music          = Ahmed Zahar Derradji
| cinematography = Philippe Théaudière
| editing        = Cécile Decugis
| distributor    = 
| released       = April 20, 1969 (New York premiere)
| runtime        = 81 min. French
| budget         = 
| preceded_by    = 
| followed_by    = 
}}

Les Contrebandières, known in English as The Smugglers, is a 1967 film by French director Luc Moullet; it was his second feature film.

== External links ==
*  

 
 
 
 


 