Robert Frost: A Lover's Quarrel with the World
{{Infobox film
| name           = Robert Frost: A Lovers Quarrel with the World
| image          = File:DVD_Cover_for_Robert_Frost_A_Lovers_Quarrel_with_the_World.jpg
| image_size     = 
| caption        = DVD Cover
| director       = Shirley Clarke Robert Hughes
| writer         = 
| narrator       = Robert Frost
| starring       = 
| music          = 
| cinematography = 
| editing        = Terrence McCartney Filgate
| distributor    = WGBH-TV
| released       =  
| runtime        = 51 min.
| country        = United States 
| language       = English
| budget         = 
| preceded_by    = 
| followed_by    = 
}}
Robert Frost: A Lovers Quarrel With the World is a 1963 American documentary film directed by Shirley Clarke and starring Robert Frost. It won the Academy Award for Best Documentary Feature for 1963.     

==References==
 

==External links==
*  

 

 
 
 
 
 
 
 
 
 
 
 
 