Siberian Lady Macbeth
{{Infobox film
| name           = Siberian Lady Macbeth
| image          = 
| image_size     = 
| caption        = 
| director       = Andrzej Wajda
| producer       = 
| writer         = Nikolai Leskov
| narrator       = 
| starring       = Ljuba Tadić Olivera Markovic
| music          = 
| cinematography = Aleksandar Sekulović
| editing        = 
| distributor    =  1962
| runtime        = 93 min.
| country        = Poland / Yugoslavia Polish / Serbian
| budget         = 
| preceded_by    = 
| followed_by    = 
}} 1962 film Lady Macbeth of the Mtsensk District by Nikolai Leskov.

== External links ==
* 
* 

 

 
 
 
 
 
 


 
 