Forest of Bliss
{{Infobox film
| name           = Forest of Bliss
| image          =
| image_size     =
| caption        = Robert Gardner
| producer       =
| writer         =
| narrator       =
| starring       =
| music          =
| cinematography =
| editing        =
| distributor    = Documentary Educational Resources
| released       =  
| runtime        = 90 min.
| country        = United States English
| budget         =
}} ethnographic filmmaker Robert Gardner about everyday life in Benares, India.   

== References ==

 

==External links==
*Production detailed in   by Gardner and Akos Ostor.
* 
*  

 
 
 
 
 
 
 
 
 
 
 