A Hole in the Wall
{{Infobox film
| name           = El agujero en la pared
| image          = Agujero en la pared poster.jpg
| image size     =
| caption        =
| director       = David José Kohon
| producer       =
| writer         = David José Kohon
| narrator       =
| starring       = Alfredo Alcón
| music          =
| cinematography =
| editing        =
| distributor    =
| released       = 1982
| runtime        =
| country        = Argentina
| language       = Spanish
| budget         =
| preceded by    =
| followed by    =
}}
 1982 cinema Argentine film directed by David José Kohon.

==External links==
* 

 
 
 
 
 
 
 