My Kung-Fu Sweetheart
 
 
{{Infobox film
| name           = My Kung-Fu Sweetheart
| image          = My Kung-Fu Sweetheart poster.jpg
| caption        = 
| director       = Wong Jing
| producer       = Wong Jing
| writer         = Wong Jing
| narrator       = 
| starring       = Cecilia Cheung Leo Ku Yuen Wah
| music          = 
| cinematography = 
| editing        = 
| distributor    = 
| released       =  
| runtime        = 90 mins
| country        = Hong Kong Cantonese
| budget         = 
| preceded_by    = 
| followed_by    = 
}} 2006 Cinema Hong Kong film directed by Wong Jing.

==Cast==
* Cecilia Cheung
* Leo Ku
* Yuen Wah
* Yuen Qiu
* Wong Jing
* Sammy Leung
* Yat-fei Wong
* Chin Kar-lok
* Lam Suet
* Benz Hui
* Lam Chi Chung

==External links==
* 
*  
*  

 

 
 
 
 
 

 