Law and Order (1932 film)
{{Infobox film
| name           = Law and Order
| image_size     =
| image	         = Law and Order FilmPoster.jpeg
| caption        =
| director       = Edward L. Cahn
| producer       = Carl Laemmle Jr.
| writer         = Tom Reed John Huston Harry Carey Russell Simpson
| music          = David Broekman David Klatzkin
| cinematography = Jackson Rose
| editing        = Philip Cahn
| distributor    = Universal Pictures
| released       =  
| runtime        = 75 minutes
| country        = United States English
| budget         =
}} Harry Carey, Russell Simpson.
 Tom Reed, Lois Wilson were cut prior to the films release. 

==References==
 

==External links==
* 
* 

 

 
 
 
 
 
 
 


 