The Vulture's Eye
{{Infobox Film 
| name            = The Vultures Eye
| image           = Vultures eye.jpg
| caption         = DVD cover
| director        = Frank Sciurba 
| producer        = Frank Sciurba Tom Basham Diane Park
| writer          = Frank Sciurba  Jason King James Nalitz Brooke Paller Joseph Reo 
| music           = Christopher Sciurba 
| editing         = Frank Sciurba
| distributor     = 
| released =  
| runtime         = 100 minutes
| country         = United States
| language        = English
| budget          = 
}}
The Vultures Eye is a 2004 horror film inspired by Bram Stokers novel Dracula set in Virginia.

== External links ==
*  
*  
*  
*  

 

 
 
 
 
 


 