What Max Said
{{Infobox Film |
  name                = What Max Said |
  director            = Emilio Martínez Lázaro |
  writer              = |
  starring            = |
  producer            =  |
  distributor         =  |
  released            =   February 1978 (premiere at 28th Berlin International Film Festival|BIFF)   1 June 1978|
  runtime             = 97 minutes |
  country             = Spain |
  language            = Spanish |
  budget              = |
  music               = |
  awards              = |
|}} Spanish film directed by Emilio Martínez Lázaro. It tells the story of a man who feels disconnected from people around him. It was entered into the 28th Berlin International Film Festival where it won the Golden Bear.   

==Cast==
* Héctor Alterio
* Maria De la Riva - Jacoba
* Myriam De Maeztu
* Ignacio Fernández de Castro
* Gracia Querejeta
* Raúl Sender
* Cecilia Viuarrean

==References==
 

== External links ==
*  

 

 
 
 
 
 
 


 