Aiyoku no ki
{{Infobox film
| name           = Aiyoku no ki
| image          =
| caption        =
| director       = Heinosuke Gosho
| producer       =
| writer         = Akira Fushimi
| narrator       =
| starring       = Kinuyo Tanaka
| music          =
| cinematography = Mitsuo Miura
| editing        =
| distributor    =
| released       = 1930
| runtime        =
| country        = Japan Japanese intertitles
| budget         =
| preceded by    =
| followed by    =
}} 1930 Japanese silent film directed by Heinosuke Gosho and written by Akira Fushimi. The film starred Kinuyo Tanaka and Ichirô Yuki.

==Cast==
*Kinuyo Tanaka
*Ichirô Yuki
*Kikuko Hanaoka
*Jun Arai
*Kimiko Hikari
*Hikaru Yamanouchi

==External links==
* 
* 

 

 
 
 
 
 
 
 
 

 