Polleke
{{Infobox Film
| name           = Polleke
| image          = Film poster Polleke.jpg
| caption        = Film poster
| director       = Ineke Houtman
| producer       = 
| writer         = Guus Kuijer (book) Rob Arends Maarten Lebens
| narrator       = 
| starring       = Liv Stig Mamoun Elyounoussi Halina Reijn Daan Schuurmans
| music          = 
| cinematography = 
| editing        = 
| distributor    = 
| released       = 2003
| runtime        = 94 minutes
| country        = Netherlands Dutch
| budget         = 
| preceded_by    = 
| followed_by    = 
}}
 Dutch family film, based on the childrens literature|childrens book by Guus Kuijer.

It received a Golden Film for 100,000 visitors.

==External links==
* 

 
 
 
 
 


 
 