Father's Affair
{{Infobox Film
| name           = Fathers Affair
| image          = Film poster De Passievrucht.jpg
| caption        = Film poster
| director       = Maarten Treurniet
| producer       = 
| writer         = Karel Glastra van Loon (novel) Kees van Beijnum
| narrator       = 
| starring       = Peter Paul Muller Carice van Houten Halina Reijn Dai Carter
| music          = 
| cinematography = 
| editing        = 
| distributor    = 
| released       = 2003
| runtime        = 
| country        = Netherlands Dutch
| budget         = 
| preceded_by    = 
| followed_by    = 
}}
 Dutch drama drama film.
 Golden Calf award for Best Sound.

==External links==
* 

 
 
 
 
 
 