Apocalipsis 13
 

{{Infobox film
| name           = Apocalipsis 13
| image          =
| image size     =
| caption        =
| director       = Óscar Aizpeolea
| producer       =
| writer         = Óscar Aizpeolea
| narrator       =
| starring       = Leonardo Aguinaga Fabio Aste
| music          =
| cinematography =
| editing        =
| distributor    =
| released       = 2003
| runtime        =
| country        = Argentina
| language       = Spanish
| budget         =
| preceded by    =
| followed by    =
}}
 Argentine black black and white drama film directed and written by Óscar Aizpeolea.

==Cast==
*Leonardo Aguinaga
*Fabio Aste
*Emiliano Biasol ....  Copito
*Ivonne Fournery ....  Mater Dolorosa
*Alejandro Laurnagaray ....  Alfa
*Maria Marchione
*Juan Manuel Morales
*Pablo Ortolani
*Gaston Santamarina
*Leonardo Trento ....  Juglar
*Daniela Zuppi

==External links==
* 

 
 
 
 
 


 
 