El Ayudante
{{Infobox film
| name           = El Ayudante
| image          = ElAyudante.jpg
| image_size     =
| caption        = 
| director       = Mario David
| producer       = 
| writer         = Mario David
| narrator       = 
| starring       = 
| music          = 
| cinematography = 
| editing        = 
| distributor    = 
| released       = 25 March 1971
| runtime        = 
| country        = Argentina
| language       = Spanish
| budget         = 
| preceded_by    = 
| followed_by    = 
}}
 1971  Argentine drama film directed and written by Mario David with Bernardo Kordon. The film premiered on 25 March 1971 in Buenos Aires.

==Main cast==
*Hugo Astar   
*Enrique Fava   
*Lydia Lamaison   
*Carlos Olivieri  (as Carlitos Olivieri) 
*Silvana Roth   
*José Slavin   

==External links==
*  

 
 
 
 
 

 
 