Thoth (film)
{{Infobox film
| name           = Thoth
| image          = 
| image_size     = 
| caption        = 
| director       = Sarah Kernochan
| producer       = Lynn Appelle Curt Johnson
| writer         = 
| narrator       = 
| starring       = S. K. Thoth
| music          = 
| cinematography = 
| editing        = 
| distributor    = 
| released       = 2001
| runtime        = 40 minutes
| country        = United States English 
| budget         = 
| preceded_by    = 
| followed_by    = 
}}
 Best Documentary Short Subject in 74th Academy Awards nominees and winners|2002.   

==See also==
* List of American films of 2001

==References==
 

==External links==
* 

 

 
 
 
 
 
 
 
 
 


 
 