Tristar (film)
 
 
{{Infobox film
| name           = Tristar
| image          = 
| caption        =  film name = {{Film name| traditional    = 大三元
| simplified     = 大三元
| pinyin         = Dà Sān Yuán
| jyutping       = Daai6 Saam1 Jyun4}}
| director       = Tsui Hark
| producer       =  
| writer         =  
| starring       =  
| music          = Lowell Lo
| cinematography =  
| editing        =  
| distributor    = Mandarin Films Distribution Co. Ltd.
| released       =  
| runtime        = 107 minutes
| country        = Hong Kong
| language       = Cantonese
| budget         = 
| gross          = Hong Kong dollar|HK$25,218,130
}}
 Hong Kong film directed by Tsui Hark.

==Cast and roles include== Kwok Wing Cheung as Kwok Keung Chung Ching Wan Lau as Ching Fat Lau Wing Yee Yuen as Suet Fa Pak Kam Hung Chan as Hung Yan Yin Kong as Tung Tung Yan Hung as Mary King Fai Chung as Dinosaur Yan Yan Hung as Lee Tai Ko Pak Ming Wong as Supt. Wong
*Moses Chan as Chun Nam Chan
*Michael Tse as Pedestrian
*Jason Chu as Pedestrian

==External links==
* 
* 
* 

 

 
 
 
 
 


 
 