Tezaab – The Acid of Love
 
{{Infobox film
| name           = Tezaab - The Acid of Love
| image          = 
| image_size     = 
| border         = 
| alt            = 
| caption        = 
| director       = Shakeel Norrani 
| producer       = Shakeel Norrani 
| writer         = 
| screenplay     = 
| story          = 
| based on       =  
| narrator       = 
| starring       = 
| music          = Roop Kumar Rathod
| cinematography = Dinesh Telkar
| editing        = 
| studio         = 
| distributor    = 
| released       =  
| runtime        = 
| country        = India
| language       = Hindi
| budget         = 
| gross          = 
}}
Tezaab – The Acid of Love is a 2005 Indian film directed by Shakeel Noorani. It is an adaptation of the United States film Unfaithful (2002 film)|Unfaithful. The film stars Shruti Sharma, Parvin Dabas, Sharat Saxena, and Irrfan Khan. Murder (film)|Murder (starring Mallika Sherawat) was also adaption of this movie. 

==Cast==
*Irfan Khan as Rahul
*Shruti Sharma as Neha
*Sharat Saxena
*Yasmeen Khan
*Parvin Dabas
*Ali Sagar

==References==
 

 
 
 
 

 