Black Rose Mansion
{{Infobox film
| name           = Black Rose Mansion
| image          = BlackRoseMansionDVDCover.jpg
| caption        =
| director       = Kinji Fukasaku
| producer       = Akira Oda
| writer         =
| narrator       =
| starring       =
| music          = Hajime Kaburagi
| cinematography = Takashi Kawamata
| editing        =
| distributor    =
| released       = 1969
| runtime        =
| country        = Japan
| language       = Japanese
| budget         =
| preceded_by    =
| followed_by    =
| based on       = A play by Yukio Mishima
}}

  is a 1969 film directed by Kinji Fukasaku.

==Cast==
*Akihiro Miwa as Ryuko
*Eitaro Ozawa as Kyohei
*Masakazu Tamura as Wataru
*Ayako Hosho as Kyoheis Wife
*Ko Nishimura
*Kikko Matsuoka Ryohei Uchida

==Other credits==
*Art direction: Kumagai Masao
*Written by:
**Kinji Fukasaku
**Hirô Matsuda
**Yukio Mishima - play

== External links ==
*  

 

 
 
 
 

 