Cease Fire (1953 film)
 
{{Infobox film
| name           = Cease Fire 
| image size     = 
| image	=	Cease Fire FilmPoster.jpeg
| border         = 
| alt            = 
| caption        = 
| director       = Owen Crump
| producer       = Hal Wallis
| writer         = Walter Doniger
| screenplay     = 
| story          = Owen Crump
| narrator       = 
| starring       = 
| music          = 
| cinematography = Ellis W. Carter
| editing        = 
| studio         = 
| distributor    = Paramount Pictures
| released       =  
| runtime        = 75 minutes
| country        = United States
| language       = 
| budget         = 
| gross          = 
}} 3D war movies.

==External links==
*  

 
 
 
 
 
 
 
 

 