A King's Story
 
{{Infobox film
| name           = A Kings Story
| image          =
| caption        =
| director       = Harry Booth
| producer       = Jack Levin Glyn Jones
| narrator       = Orson Welles
| starring       =
| music          =
| cinematography = Dick Bayley
| editing        = Alan Streeter
| distributor    =
| released       =  
| runtime        = 102 minutes
| country        = United Kingdom
| language       = English
| budget         =
}}
 Best Documentary Feature.   

==See also==
* Orson Welles filmography

==References==
 

==External links==
* 

 
 
 
 
 
 
 
 
 
 
 
 