La Maleva
{{Infobox film
| name           = La Maleva
| image          =
| caption        =
| director       = José A. Ferreyra
| producer       = Juan Glize
| writer         = José A. Ferreyra
| starring       = Álvaro Escobar Gloria Grat
| cinematography = Luis Scaglione Vicente Scaglione
| editing        =
| distributor    =
| released       =  
| runtime        =
| country        = Argentina Spanish intertitles
| budget         =
}} 1923 silent Argentine film directed and written by José A. Ferreyra.

==Cast==
*Álvaro Escobar
*Gloria Grat
*Elena Guido
*Yolanda Labardén
*Jorge Lafuente
*José Plá
*César Robles

==External links==
*  

 
 
 
 
 
 
 


 
 