My Hero 2
 
 
{{Infobox Film
| name           = My Hero 2
| image          = My Hero 2 DVD cover.jpg
| image_size     = 185px
| caption        = DVD cover
| director       = Joe Chu
| producer       = 
| writer         = 
| narrator       = 
| starring       = Dicky Cheung Ng Man Tat
| music          = 
| cinematography = 
| editing        = 
| distributor    = 
| released       =  
| runtime        = 93 min
| country        = Hong Kong Cantonese  Mandarin
| budget         = 
| gross          =
}}

My Hero 2 (一本漫畫闖天涯2之妙想天開) is a 1993 Hong Kong comedy film directed by Joe Chu, starring Dicky Cheung and Ng Man Tat.

==Cast==
* Dicky Cheung
* Ng Man-tat
* Vivian Lai
* Meg Lam
* Joe Chu

==External links==
*  
*  

 
 
 
 


 
 