Brazdat
{{Infobox film
| name           =  Brazdat
| image          = Brazdatposter.jpg
| image size     =
| caption        =
| director       = Kristaq Dhamo
| producer       =
| writer         = Dhimitër Xhuvani
| narrator       =
| starring       = Astrit Çerma Besa Imami		
| music          = Shpëtim Kushta
| cinematography = Saim Kokona
| editing        =
| distributor    = Albafilm-Tirana 1973
| runtime        = 95 minutes
| country        = Albania
| language       = Albanian
| budget         =
| preceded by    =
| followed by    =
}} 1973 Albanian drama film directed by Kristaq Dhamo and written by Dhimitër Xhuvani.

==Cast==
*Astrit Çerma
*Besa Imami
*Muhamet Sherri
*Pandi Siku
*Elida Topçiu
*Suzana Zekthi

==External links==
*  

 
 
 
 
 

 
 