10 on Ten
{{Infobox film
| name           = 10 on Ten
| image          = Tenontenposter.jpg
| alt            =  
| caption        = 
| director       = Abbas Kiarostami
| producer       = Marin Karmitz Abbas Kiarostami
| writer         = Abbas Kiarostami
| screenplay     = 
| story          = 
| based on       =  
| starring       = 
| music          = 
| cinematography = Abbas Kiarostami
| editing        = Abbas Kiarostami
| studio         = 
| distributor    = 
| released       =    
| runtime        = 88 minutes
| country        = Iran
| language       = Persian
| budget         = 
| gross          = 
}}

10 on Ten is a 2004 Iranian documentary film directed by Abbas Kiarostami.    It was screened in the Un Certain Regard section at the 2004 Cannes Film Festival.   

Looking to his own art for inspiration, Abbas Kiarostami reflects on his techniques of filming and how he taped certain sequences in Ten (2002 film)|Ten in 2001. 
==References==
 

==External links==
* 
*  
*  

 

 
 
 
 
 
 
 