5 de chocolate y 1 de fresa
{{Infobox Film
| name           = 5 de chocolate y 1 de fresa
| image          = 5 de chocolate y 1 de fresa.jpg
| image_size     =
| caption        = Poster
| director       = Carlos Velo
| producer       = Angélica Ortiz
| writer         = José Agustín Fernando Galiana 
| narrator       = 
| starring       = Angélica María    Fernando Luján
| music          = Sergio Guerrero	 	 
| cinematography = Rosalío Solano
| editing        = Jorge Bustos
| distributor    = 
| released       = 
| runtime        =  Mexico
| language       = Spanish
| budget         = 
}} Mexican comedy film.  The story involves a student at a convent who undergoes a radical transformation after consuming strange "mushrooms".

==External links==
*  

 
 
 
 
 


 