Odio serrano
{{Infobox film
| name           = Odio serrano
| image          =
| caption        = Director
| director       = José A. Ferreyra
| producer       = Marcelo Corbicier
| writer         = José A. Ferreyra
| starring       =
| music          =
| cinematography = Roque Funes
| editing        =
| distributor    =
| released       = 1924
| runtime        =
| country        = Argentina Spanish intertitles
| budget         =
| followed_by    =
}} 1924 silent silent Argentina|Argentine film directed and written by José A. Ferreyra. The film premiered in 1924 in Buenos Aires.

==Cast==
*Nelo Cosimi
*Yolanda Labardén
*Héctor Míguez
*Antonio Prieto

==External links==
*  

 
 
 
 
 
 
 


 
 