Animals (film)
{{Infobox album  
| Name        = Animals
| Type        = video
| Artist      = Ricky Gervais
| Cover       = Animals (comedy).jpg
| Cover size  = 
| Released    = 17 November 2003
| Recorded    = Bloomsbury Theatre, London, United Kingdom
| Genre       = Stand-up comedy
| Length      = 73 minutes
| Label       = Universal Pictures
| Director    = 
| Producer    = 
| Reviews     = 
| Chronology  = 
| Last album  = 
| This album  = Animals (2003) 
| Next album  = Politics (comedy)|Politics (2004) 
| Misc        = 
}} British comedian Ricky Gervais. It was filmed at the Bloomsbury Theatre, London, United Kingdom in 2003.

==External links==
* 

 
 
 
 


 