Monte Criollo
{{Infobox film
| name           = Monte Criollo
| image          = MonteCriollo2.jpg
| image_size     =
| caption        = 
| director       = Arturo S. Mom
| producer       = Arturo S. Mom
| writer         = Arturo S. Mom
| narrator       = 
| starring       = Francisco Petrone Nedda Francy Florindo Ferrario
| music          = Francisco Pracanico
| cinematography = Francis Boeniger
| editing        = 
| distributor    = Argentina Sono Film S.A.C.I
| released       = May 3, 1935 (U.S.)
| runtime        = 
| country        = Argentina
| language       =  Spanish
| budget         = 
| preceded_by    = 
| followed_by    = 
}} Argentine musical film directed and written by Arturo S. Mom. It is a tango film and starred Nedda Francy and Francisco Petrone.   
 

==Other cast==
*Carlos Fioriti   
*Agustín Magaldi   
*Azucena Maizani   
*Miguel Mileo   
*Olga Mom   
*Pedro Noda   
*Marcelo Ruggero   
*Domingo Sapelli   
*Marino Seré   
*Juan Siches de Alarcón   
*Oscar Villa   
 

==External links==
* 

 
 
 
 
 
 
 
 


 
 