The Newsie and the Lady
{{Infobox film
| name           = El Canillita y la dama
| image          =
| image_size     =
| caption        =
| director       = Luis César Amadori
| producer       =
| writer         =
| narrator       =
| starring       = Luis Sandrini
| music          =
| cinematography =
| editing        =
| distributor    =
| released       = 1938
| runtime        =
| country        = Argentina
| language       = Spanish
| budget         =
| preceded_by    =
| followed_by    =
}} Argentine film directed and written by Luis César Amadori.

==Cast==
*Luis Sandrini

==External links==
* 

 
 
 
 
 
 

 