The Free Voice of Labor
{{Infobox film
| name           = The Free Voice of Labor: The Jewish Anarchists 
| image          = Anarchism in America.jpg
| producer       = Pacific Street Films
| director       = Steven Fischler, Joel Sucher
| writer         =
| consultants    = Paul Avrich and Ahrne Thorne
| sound          = Steven Fischler
| researcher     = Erika Gottfried
| music          = Zalmen Mlotek
| cinematography = Judy Irola
| editing        = Kristina Boden
| distributor    = Pacific Street Films, AK Press
| released       = 1980
| runtime        = 60 min. English
| budget         =
}}
 Jewish anarchist Anarchism in America, named after the latter.

==References==
 
 

==External links==
*  
*  , AK Press re-release DVD
*  

 

 
 
 
 
 
 
 
 
 
 


 
 