From the Hills to the Valley
{{Infobox film
| name           =  De la sierra al valle
| image          =
| image_size     =
| caption        =
| director       =
| producer       =
| writer         =
| narrator       =
| starring       =
| music          =
| cinematography =
| editing        =
| distributor    = 1938
| runtime        =
| country        = Argentina
| language       = Spanish
| budget         =
| preceded_by    =
| followed_by    =
}} Argentine drama film directed by Antonio Ber Ciani. The film premiered in Buenos Aires.

==External links==
* 

 
 
 
 
 

 