Dos amigos y un amor
{{Infobox film
| name           =  Dos amigos y un amor
| image          =
| image_size     =
| caption        =
| director       = Lucas Demare
| producer       =
| writer         =
| narrator       =
| starring       =
| music          =
| cinematography =
| editing        =
| distributor    = 1938
| runtime        =
| country        = Argentina
| language       = Spanish
| budget         =
| preceded_by    =
| followed_by    =
}} Argentine musical film comedy directed by Lucas Demare. The film was premièred in Buenos Aires.

==External links==
* 

 
 
 
 
 
 
 
 


 
 