El Gran camarada
{{Infobox film
| name           =  El Gran camarada
| image          =
| image_size     =
| caption        =
| director       =
| producer       =
| writer         =
| narrator       =
| starring       =
| music          =
| cinematography =
| editing        =
| distributor    = 1938
| runtime        =
| country        = Argentina
| language       = Spanish
| budget         =
| preceded_by    =
| followed_by    =
}} Argentine film directed by Yago Blass. The film premiered in Buenos Aires.

==External links==
* 

 
 
 
 
 
 