Villa Discordia
{{Infobox film
| name           =  Villa Discordia
| image          =
| image size     =
| caption        =
| director       =
| producer       =
| writer         =
| narrator       =
| starring       =
| music          =
| cinematography =
| editing        =
| distributor    = 1938
| runtime        =
| country        = Argentina
| language       = Spanish
| budget         =
| preceded by    =
| followed by    =
}} Argentine film directed by Arturo S. Mom. The film premiered in Buenos Aires.

==External links==
* 

 
 
 
 
 

 