La Hija del viejito guardafaro
{{Infobox film
| name           = La Hija del viejito guardafaro
| image          =
| image_size     =
| caption        =
| director       = Julio Irigoyen
| producer       = Julio Irigoyen
| writer         = Julio Irigoyen
| narrator       =
| starring       = Enrique del Cerro
| music          =
| cinematography = Roberto Irigoyen
| editing        =
| distributor    = 1939
| runtime        = 68 minutes
| country        = Argentina
| language       = Spanish
| budget         =
| preceded_by    =
| followed_by    =
}} Argentine film directed by Julio Irigoyen. The film premiered in Buenos Aires and starred Enrique del Cerro.

==Cast==
*Enrique del Cerro
*Laura Nelson
*Yaya Palau
*Arturo Sanchez
*Warly Ceriani

==External links==
* 

 
 
 
 
 
 
 