Carnaval de antaño
{{Infobox film
| name           = Carnaval de antaño
| image          =
| caption        =
| director       =  Manuel Romero
| producer       =
| writer         =  Manuel Romero
| starring       =  Florencio Parravicini
| music          =  Alberto Soifer
| cinematography =  Jose Maria Beltran
| editor         =  Juan Soffici
| distributor    =
| released       =  
| runtime        =
| country        = Argentina
| language       = Spanish
| budget         =
}}
Carnaval de antaño is a 1940 Argentine film.

==Cast==

*Florencio Parravicini
*Sofía Bozán
*Charlo
*Enrique Roldán
*El Cachafaz Fernando Campos
*Warly Ceriani
*José Fajardo
*Carlos Bertoldi
*Arnoldo Chamot 

===References===
 

==External links==
*  

 
 
 
 
 


 