Galleguita
{{Infobox film
| name           =Galleguita
| image          =
| image_size     =
| caption        =
| director       =
| producer       =
| writer         =
| narrator       =
| starring       =
| music          =
| cinematography =
| editor       =
| distributor    =
| released       = 1923
| runtime        = Argentina
| Spanish
| budget         =
}}
 Argentine film directed by Julio Irigoyen.

==Cast==
 

==External links==
*  

 
 
 
 
 


 
 