Aadhi Lakshmi
 
{{Infobox film
| name           = Aadhi Lakshmi
| image          =
| caption        =
| director       = Y.Suresh
| producer       =
| writer         =
| starring       = Srikanth Vadde Naveen Sridevi Chakri
| cinematography =
| editing        =
| distributor    =
| released       = 8 December 2006
| runtime        =
| country        = India
| language       = Telugu
| budget         =
}} Telugu movie Srikanth and Vadde Naveen plays the lead role. The film released on 8 December 2006.

==Cast== Srikanth
* Vadde Naveen Sridevi
* Ali
* Mallikarjuna Rao
* Nutan Prasad
* Sivaji Raja
* Uttej
* Abhinayasri

==Music==
Music composed by Chakri (music director)|Chakri.

==External links==
*  

 
 
 


 