Gran pensión La Alegría
{{Infobox film
| name           =Gran pensión La Alegría
| image          =
| image size     =
| caption        =
| director       =
| producer       =
| writer         =
| narrator       =
| starring       =
| music          =
| cinematography =
| editor       =
| distributor    =
| released       = 1942
| runtime        =
| country        = Argentina
| language       = Spanish
| budget         =
}}
 Argentine comedy-drama film.

==Cast==
 

==External links==
*  

 
 
 
 
 
 
 

 
 