The Journey (1942 film)
{{Infobox film
| name           =El Viaje
| image          =
| image_size     =
| caption        =
| director       =
| producer       =
| writer         =
| narrator       =
| starring       =
| music          =
| cinematography =
| editor       =
| distributor    =
| released       = 1942
| runtime        =
| country        = Argentina
| language       = Spanish
| budget         =
}}
 1942 Argentina|Argentine film.

==Cast==
 

==External links==
*  
 
 
 
 
 
 
 
 