The Road of the Llamas
{{Infobox film
| name           =El Camino de las llamas  
| image          =The Road of the Llamas1.jpg
| image_size     =250px
| caption        =
| director       =Mario Soffici
| producer       = Gustavo Martínez Zuviria
| narrator       =
| starring       =
| music          =
| cinematography =
| editor       =
| distributor    =
| released       = 1942
| runtime        =
| country        = Argentina Spanish
| budget         =
}}
 1942 Argentina|Argentine film directed by Mario Soffici.

==Cast==
*Pepita Serrador
*Elisa Galvé
*Roberto Airaldi
*José Olarra
*César Blasco
*Rafael Falcón
*María Herrero
*Vicente Padula
*Pepito Petray
*Froilán Varela
*Jorge Villoldo

==External links==
*  
* 

 

 
 
 
 
 
 
 

 