Casi un sueño
 

{{Infobox film
| name           = Casi un sueño
| image          =
| caption        =
| director       =
| producer       =
| writer         =
| starring       =
| music          =
| cinematography =
| editor         =
| distributor    =
| released       =  
| runtime        =
| country        = Argentina
| language       = Spanish
| budget         =
}}
Casi un sueño is a 1943 Argentine film.

==External links==
*  

 
 
 
 
 
 


 