The Song of Buenos Aires
{{Infobox film
| name           =The Song of Buenos Aires
| image          =
| image_size     =
| caption        =
| director       =  Julio Irigoyen 
| producer       =
| writer         =Julio Irigoyen 
| narrator       =
| starring       =
| music          =
| cinematography = Roberto Irigoyen 
| editor       =
| studio         =  Buenos Aires Film
| distributor    =
| released       = 1945
| runtime        =
| country        = Argentina Spanish
| budget         =
}}
The Song of Buenos Aires (Spanish:La Canción de Buenos Aires) is a 1945 Argentine musical film directed by  Julio Irigoyen.  It is a tango film, a genre that was popular during the Golden Age of Argentine Cinema.

==References==
 

==Bibliography==
* Plazaola, Luis Trelles. South American Cinema. La Editorial UPR, 1989.

==External links==
*  

 
 
 
 
 
 
 
 
 
 
 

 