Los Verdes paraísos
{{Infobox film
| name           =Los Verdes paraísos
| image          =
| image_size     =
| caption        =
| director       = Carlos Hugo Christensen
| producer       =
| writer         = Horacio Quiroga (story), César Tiempo
| narrator       =
| starring       =  María Armand, Guillermo Battaglia, Beba Bidart
| music          =
| cinematography =
| editor       =
| distributor    =
| released       = 1947
| runtime        =
| country        = Argentina Spanish
| budget         =
}}
 1947 Argentina|Argentine film.

==Cast==
 

==External links==
*  

 
 
 
 
 


 