La Casta Susana
 
 

{{Infobox film
| name           =La Casta Susana
| image          =
| image_size     =
| caption        =
| director       =
| producer       =
| writer         =
| narrator       =
| starring       =
| music          =
| cinematography =
| editor       =
| distributor    =
| released       = 1944
| runtime        =
| country        = Argentina Spanish
| budget         =
}}
 1944 Argentina|Argentine film released on October 11, 1944.

==Cast==
 

==External links==
*  

 
 
 
 
 


 