Con el diablo en el cuerpo
{{Infobox film
| name           =Con el diablo en el cuerpo
| image          =Con el diablo en el cuerpo.jpg
| image_size     =
| caption        =
| director       =Carlos Hugo Christensen
| producer       =
| writer         = César Tiempo
| narrator       =
| starring       =
| music          =George Andreani 	
| cinematography =Alfredo Traverso 	
| editor       =A. Rampoldi 
| distributor    =
| released       = 21 May 1947
| runtime        =78 minutes
| country        = Argentina Spanish
| budget         =
}}
 1947 Argentina|Argentine Tito Gómez.  

==Cast==
*Susana Freyre
*Juan Carlos Thorry Tito Gómez
*Miguel Gómez Bao
*Diego Martínez
*Amelita Vargas
*Horacio Peterson
*Gloria Ferrandiz
*Ángel Walk
*Agustín Orrequia

==References==
 

==External links==
*  
 
 
 
 
 
 
 
 