Cuidado con las imitaciones
{{Infobox film
| name           =Cuidado con las imitaciones
| image          =
| image_size     =
| caption        =
| director       =
| producer       =
| writer         =
| narrator       =
| starring       =
| music          =
| cinematography =
| editor       =
| distributor    =
| released       = 1948
| runtime        =
| country        = Argentina Spanish
| budget         =
}}
 1948 Argentina|Argentine film directed by Luis Bayón Herrera. 

==Cast==
* Rafael Carret
* Jorge Luz
* Zelmar Gueñol
* Guillermo Rico
* Juan Carlos Cambón
* Tito Martínez del Box
* Silvia Randall
* Francisco Pablo Donadío
* Ermete Meliante
* Julio Vial
* Marino Seré
* Arístides Soler
* Ana María Roig
* Blanquita Amaro
* Tato Cifuentes

==References==
 

==External links==
*  
 

 
 
 
 
 
 
 