Fúlmine (film)
{{Infobox film
| name           =Fúlmine
| image          =
| image_size     =
| caption        =
| director       =
| producer       =
| writer         =
| narrator       =
| starring       =
| music          =
| cinematography =
| editor       =
| distributor    =
| released       = 1949
| runtime        =
| country        = Argentina Spanish
| budget         =
}}
 1949 Argentina|Argentine film directed by Luis Bayón Herrera.  It is based in the Guillermo Divitos comic strip Fúlmine character.

==Cast==
* Pepe Arias
* Pierina Dealessi
* Julio Renato
* Homero Cárpena
* Marga Landova Eduardo Otero
* Adolfo Stray
* Domingo Mania
* Ana Palmero
* Fanny Stein
* Coca Villalba
* Ángel Boffa
* Susana Campos
* Arturo Arcari
* Agustín Andrades
* Pablo Cumo
* María Esther Corán

==References==
 

==External links==
*  
 

 
 
 
 
 
 


 