Fascinación
{{Infobox film
| name           =Fascinación
| image          =Fascination 1949.jpg
| image_size     =
| caption        =
| director       =Carlos Schlieper
| producer       =
| writer         =Carlos A. Olivari, Sixto Pondal Ríos
| narrator       =
| starring       =
| music          =Julián Bautista 
| cinematography =Adolfo W. Slazy 
| editor       =Antonio Ripoll 
| distributor    =
| released       = 27 September 1949
| runtime        =83 minutes
| country        = Argentina Spanish
| budget         =
}} 1949 Argentina|Argentine drama film directed by Carlos Schlieper and starring Alicia Barrié, Héctor Calcaño, and Susana Campos. 

==Cast==
*Alicia Barrié 		
*Héctor Calcaño 		
*Susana Campos 		
*Homero Cárpena 		
*Arturo de Córdova 		
*Ricardo Duggan 		
*Rafael Frontaura 			
*Elisa Galvé 			
*Bernardo Perrone 	

==References==
 

==External links==
*  
 
 

 
 
 
 
 
 

 