Fantasmas asustados
{{Infobox film
| name           =Fantasmas asustados
| image          =
| image_size     =
| caption        =
| director       =
| producer       =
| writer         =
| narrator       =
| starring       =
| music          =
| cinematography =
| editor       =
| distributor    =
| released       = 1951
| runtime        =
| country        = Argentina Spanish
| budget         =
}}
 1951 Argentina|Argentine film.

==Cast==
 
*  Rafael Carret - Pato
*  Jorge Luz - Jorge
*  Zelmar Gueñol - Zelmar
*  Guillermo Rico - Guille
*  Juan Carlos Cambón - Cambón
*  Susana Campos - Liliana Elizalde
*  Marcelino Ornat - Julio César Andreotti
*  Susana Vargas - Sra. Andreotti
*  Alberto Barcel - Bruno Jorge Villoldo - Antonio
*  Eduardo de Labar - Laucha
*  Rafael Salvatore - Nene
*  Diego Marcote - Police
*  José Dorado - Raúl
*  César Mariño - Comisario
*  Alfonso Pisano
*  Carlos Campagnale - Boy camping
*  María V. de Blasco - Paralytic Carlos Enríquez - Butler
 

==External links==
*  

 
 
 
 
 

 