El Negro que tenía el alma blanca
{{Infobox film
| name           =El Negro que tenía el alma blanca
| image          =
| image_size     =
| caption        =
| director       =
| producer       =
| writer         =
| narrator       =
| starring       =
| music          =
| cinematography =
| editor       =
| distributor    =
| released       = 1951
| runtime        =
| country        = Argentina Spanish
| budget         =
}}
 1951 Argentina|Argentine film.

==Cast==
*Hugo del Carril 	
*María Rosa Salgado	
*Antonio Casal	  
*Félix Fernández	
*Carlos Díaz de Mendoza
*Manuel Arbó	  
*María Asquerino
*Antonio Riquelme
*Helga Liné	      
*Porfiria Sanchíz	
*Manuel Aguilera
*Margarita Alexandre	
*Elisa Méndez		
*Juana Mansó		
*Mónica Pastrana 

==External links==
*  

 
 
 
 
 

 