De turno con la muerte
{{Infobox film
| name           =De turno con la muerte
| image          =
| image_size     =
| caption        =
| director       =Julio Porter
| producer       =
| writer         =
| narrator       =
| starring       =
| music          =
| cinematography =
| editor       =
| distributor    =
| released       = 1951
| runtime        =
| country        = Argentina Spanish
| budget         =
}}
 1951 Argentina|Argentine film directed by Julio Porter.

==Cast==
 

==External links==
*  

 

 
 
 
 
 
 

 