La Vida de una mujer
 

{{Infobox film
| name           =La Vida de una mujer
| image          =
| image_size     =
| caption        =
| director       =
| producer       =
| writer         =
| narrator       =
| starring       =
| music          =
| cinematography =
| editor       =
| distributor    =
| released       = 1951
| runtime        =
| country        = Argentina Spanish
| budget         =
}}
 1951 Argentina|Argentine film.

==Cast==
*Myriam de Urquijo (her first major role)

==External links==
*  

 
 
 
 
 


 