Llévame contigo (film)
{{Infobox film
| name           =Llévame contigo
| image          =
| image_size     =
| caption        =
| director       = Juan Sires 
| producer       =
| writer         =Eduardo Borrás
| narrator       =
| starring       =
| music          =
| cinematography =
| editor       =
| distributor    =
| released       = 1951
| runtime        =74 minutes
| country        = Argentina Spanish
| budget         =
}}
 1951 Argentina|Argentine film directed by Juan Sires.   

==Plot==
In an abandoned mansion, two homeless squatters witness a woman who hits her husband and leaves him for dead.

==Cast==
* Jorge Salcedo
* Aída Alberti
* Enrique García Satur
* Guillermo Pedemonte
* Joaquín Franco
* Manuel Alcón

==References==
 

==External links==
*  

 
 
 
 
 

 