La Fuerza ciega
{{Infobox film
| name           =La Fuerza ciega
| image          =
| image_size     =
| caption        =
| director       =
| producer       =
| writer         =
| narrator       =
| starring       =
| music          =
| cinematography =
| editor       =
| distributor    =
| released       = 1950
| runtime        =
| country        = Argentina Spanish
| budget         =
}}
 1950 Argentina|Argentine film.

==Cast==
 

==External links==
*  

 
 
 
 
 


 