Once Upon a Time in Triad Society
 
 
{{Infobox Film
| name           = Once Upon a Time in Triad Society
| image          = 
| image_size     = 
| caption        = 
| director       = Cha Chuen-Yee
| producer       = 
| writer         = 
| narrator       = 
| starring       = Francis Ng Loletta Lee
| music          = 
| cinematography = 
| editing        = 
| distributor    = 
| released       =  
| runtime        =  Hong Kong
| language       = Cantonese
| budget         = 
| gross          = HK $4,416,130.00
}} 1996 spin-off film of the Young and Dangerous (series)|Young and Dangerous film series. This first spin-off movie focuses on Ugly Kwan, played by Francis Ng.

==Cast and roles==
* Francis Ng - Kwan
* Loletta Lee - Restaurant / Cart Noodle
* Airi Ando	 Pauline Chan - Nurse
* Ringo Chan		
* Chan Wai-Man - Lone
* Farini Cheung - Tailors Daughter
* Richard Da Silva		
* Ho Pak-Kwong 		
* Danny Ko		
* Lam Kee-To 
* Lam Sheung Yee - Sheung-Yee

== External links ==
*  

 
 
 
 
 


 
 