Un Guapo del 900
 
{{Infobox film
| name           =Un Guapo del 900
| image          =
| image_size     =
| caption        =
| director       =
| producer       =
| writer         =
| narrator       =
| starring       =
| music          =
| cinematography =
| editor       =
| distributor    =
| released       = 1952
| runtime        =
| country        = Argentina Spanish
| budget         =
}}
 1952 Argentina|Argentine black-and-white film directed by Lucas Demare from a script by Ulyses Petit de Murat based on the book of the same name by Samuel Eichelbaum.

==Cast==
* Pedro Maratea
* Milagros de la Vega
* Guillermo Battaglia
* Nélida Bilbao
* Santiago Gómez Cou
* Lydia Quintana
* Gregorio Cicarelli
* Federico Mansilla
* Elisardo Santalla
* Ángel Prío
* Luis Otero
* Roberto Durán
* Néstor Deval
* César Fiaschi
* Jorge Villalba

==External links==
* 

 
 
 
 
 

 