La de los ojos color del tiempo
{{Infobox film
| name           =La De los ojos color del tiempo
| image          =
| image_size     =
| caption        =
| director       =Luis César Amadori
| producer       =
| writer         =
| narrator       =
| starring       =
| music          =
| cinematography =
| editor       =
| distributor    =
| released       = 1952
| runtime        =110m
| country        = Argentina Spanish
| budget         =
}}
 1952 Argentina|Argentine film.

==Cast==
 

==External links==
*  

 
 
 
 
 


 