Requiebro
{{Infobox film
| name           =Requiebro
| image          =Requiebro1955.jpg
| image_size     =
| caption        =
| director       =Carlos Schlieper
| producer       =José Huberman
| writer         = Antonio Quintero, Manuel Tamayo
| narrator       =
| starring       =
| music          =Ramón Zarzoso 	
| cinematography =Ricardo Younis 	
| editor       =Gerardo Rinaldi, Antonio Ripoll
| distributor    =
| released       = 25 August 1955
| runtime        =83 minutes
| country        = Argentina Spanish
| budget         =
}}
 1955 Argentina|Argentine film directed by Carlos Schlieper, starring  Carmen Sevilla and Ángel Magaña. 

==Cast==
*Carmen Sevilla	
*Ángel Magaña 	
*Ricardo Castro Ríos 			 Luis Dávila 	
*Manuel Perales 	 		
*Irma Roy 			
*Amalia Sánchez Ariño 

==References==
 

==External links==
*  

 

 
 
 
 
 
 
 
 