Romeo and Juliet (1953 film)
{{Infobox film
| name           =Romeo y Julita
| image          =
| image_size     =
| caption        =
| director       = Enrique Carrerras
| producer       =
| writer         = Miguel de Calasanz
| narrator       =
| starring       =
| music          = Vlady
| cinematography = Roque Funes
| editor       = José Gallego
| distributor    =
| released       = 1953
| runtime        = 
| country        = Argentina Spanish
| budget         =
}}
 1953 Argentina|Argentine film.

==Cast==
 
*  
*  
*  
*  
*  
*  
*  
*  

==External links==
*  

 

 
 
 
 
 

 