El Muerto es un vivo
 

{{Infobox film
| name           =El Muerto es un vivo
| image          =
| image_size     =
| caption        =
| director       =
| producer       =
| writer         =
| narrator       =
| starring       =
| music          =
| cinematography =
| editor       =
| distributor    =
| released       = 1953
| runtime        =
| country        = Argentina Spanish
| budget         =
}}
 1953 Argentina|Argentine film.

==Cast==
 

==External links==
*  

 
 
 
 
 


 