La Calle del pecado
{{Infobox film
| name           =La Calle del pecado
| image          =
| image_size     =
| caption        =
| director       =
| producer       =
| writer         =
| narrator       =
| starring       =
| music          =
| cinematography =
| editor       =
| distributor    =
| released       = 1954
| runtime        =
| country        = Argentina Spanish
| budget         =
}}
 1954 Argentina|Argentine film.

==Cast and Crew==
* Director: Ernesto Arancibia
* Writers: Ernesto Arancibia, Alexis de Arancibia
* Stars: Juan Alighieri, Héctor Armendáriz and Cayetano Biondo

==External links==
*  

 
 
 
 
 

 