The Virgin Man
{{Infobox film
| name           =The Virgin Man
| image          =The Virgin Man.jpg
| image_size     =
| caption        =
| director       =Román Viñoly Barreto
| producer       =
| writer         =
| narrator       =
| starring       =
| music          =
| cinematography =
| editor       =
| distributor    =
| released       = 1956
| runtime        =
| country        = Argentina Spanish
| budget         =
}}
 1956 Argentina|Argentine comedy film directed by Román Viñoly Barreto and starring Luis Sandrini.

==Cast==
*Luis Sandrini 
*Eduardo Sandrini 	
*Aída Luz 	
*Julie Bardot 		
*Antonia Herrero 		
*Bertha Moss 	
	
==External links==
*  

 
 
 
 
 
 
 
 
 


 