Oro bajo
{{Infobox film
| name           =Oro bajo
| image          =
| image_size     =
| caption        =
| director       =
| producer       =
| writer         =
| narrator       =
| starring       =
| music          =
| cinematography =
| editor       =
| distributor    =
| released       = 1956
| runtime        =
| country        = Argentina Spanish
| budget         =
}}
 1956 Argentina|Argentine film directed by Mario Soffici.

==Cast==
 
*Ariel Absalón
*Ana Arneodo
*Carmen Caballero
*Gregorio Cicarelli
*Eduardo Comellas
*José De Angelis
*Zulema Esperanza
*Carlos Estrada
*Josefa Goldar
*Tito Grassi
*Mónica Grey
*María del Pilar Lebrón
*José Maurer
*Elida Gay Palmer
*Manuel Perales
*Julián Pérez Ávila
*Bernardo Perrone
*Alita Román
*Mario Soffici
*Blanca Tapia
 

==External links==
*  

 

 
 
 
 
 
 

 