Dagli Appennini alle Ande
{{Infobox film
| name           =Dagli Appennini alle Ande
| image          =
| image_size     =
| caption        =
| director       =Folco Quilici
| producer       =
| writer         =
| narrator       =
| starring       =
| music          =
| cinematography =
| editor       =
| distributor    =
| released       = 1959
| runtime        =
| country        = Argentina Spanish
| budget         =
}}
 1959 Italy Italian - Argentine film directed by Folco Quilici.

==Cast==
* Marco Paoletti	as	Marco Valesini
* Eleonora Rossi Drago	as	Marcos mother
* Fausto Tozzi	as 	Marcos father

==External links==
*  

 
 
 
 
 
 

 