Campo arado
 
{{Infobox film
| name           = Campo arado
| image          =
| caption        =
| director       = Leo Fleider
| producer       =
| writer         = Ernesto L. Castro, Osvaldo Falabella
| starring       = Alfredo Almanza, Tito Alonso, Julio Di Palm
| music          =
| cinematography = Ricardo Younis
| editor         = José Serra
| distributor    =
| released       =  
| runtime        =
| country        = Argentina Spanish
| budget         =
}} Argentine film.

==Cast==
* Alfredo Almanza		
* Tito Alonso		
* Julio Di Palma		
* Luis Dávila		
* Ricardo Galache		
* Josefa Goldar		
* Santiago Gómez Cou		
* Chela Jordán		
* Silvia Legrand		
* René Lester		
* Claudio Martino		
* Fernanda Mistral		
* Luis Otero		
* Nelly Panizza 

==External links==
*  

==References==
 

 
 
 
 
 


 