La Bestia humana
{{Infobox film
| name           =La Bestia humana
| image          =
| image_size     =
| caption        =
| director       =
| producer       =
| writer         =
| narrator       =
| starring       =
| music          =
| cinematography =
| editor       =
| distributor    =
| released       = 1957
| runtime        =
| country        = Argentina Spanish
| budget         =
}}
 1957 Argentina|Argentine film whose story is based on the novel La Bête Humaine by the French writer Émile Zola.

==Cast==
 

==External links==
*  

 
 
 
 
 

 