Don Frutos Gómez
{{Infobox film
| name           =Don Frutos Gómez
| image          =
| image_size     =
| caption        =
| director       =Rubén W. Cavallotti
| producer       =
| writer         =
| narrator       =
| starring       =
| music          =
| cinematography =
| editor       =
| distributor    =
| released       = 1961
| runtime        =
| country        = Argentina Spanish
| budget         =
}}
 1961 Argentina|Argentine film directed by Rubén W. Cavallotti.

==Cast==
 

==External links==
*  

 
 
 
 
 

 