Delito
 

{{Infobox film
| name           =Delito
| image          =
| image_size     =
| caption        =
| director       =Ralph Pappier
| producer       =
| writer         =Manuel Martinez & Antonio Garcia Smith
| narrator       =
| starring       =Antonio Aleman, Enrique Alippi, Adolfo Almeida 
| music          =
| cinematography =
| editor       =
| distributor    =
| released       = 1962
| runtime        =
| country        = Argentina Spanish
| budget         =
}}
 1962 Argentina|Argentine film.

==Cast==
 

==External links==
*  

 
 
 
 
 


 