La Chacota
 

{{Infobox film
| name           =La Chacota
| image          =
| image_size     =
| caption        =
| director       = Enrique Dawi
| producer       =
| writer         =
| narrator       =
| starring       =
| music          =
| cinematography =Humberto Peruzzi
| editor    
| genre          = Black-and-white
| distributor    =
| released       = 1962
| runtime        = 82 minutes 
| country        = Argentina Spanish
| budget         =
}}
 1962 Argentina|Argentine film directed by Enrique Dawi

==Cast==
  
* Luis Aguilé			
* Héctor Calcaño			
* Oscar Casco			
* Augusto Codecá		
* Julio De Grazia		
* Evangelina Elizondo		
* Cacho Espíndola			
* Mariquita Gallegos			
* Bettina Hudson			
* Marcelo Jaime	
* Alberto Locatti
* Gladys Mancini	
* Jorge Marchesini			
* José Marrone			
* Osvaldo Pacheco		
* Fidel Pintos		
* Raúl Ricutti		
* Chela Ruíz	
==External links==
*  

 
 
 
 
 


 