The Venerable Ones
{{Infobox film
| name           = The Venerable Ones
| image          =
| image size     =
| caption        =
| director       = Manuel Antín
| producer       = Jorge Alberto Garber
| writer         = Manuel Antín
| narrator       =
| starring       = Lautaro Murúa
| music          =
| cinematography = Ricardo Aronovich
| editing        = José Serra
| distributor    =
| released       = 1962
| runtime        = 85 minutes
| country        = Argentina
| language       = Spanish
| budget         =
| preceded by    =
| followed by    =
}} 1962 cinema Argentine film written and directed by Manuel Antín. It was entered into the 1963 Cannes Film Festival.    

== Cast ==
* Lautaro Murúa	
* Fernanda Mistral		
* Walter Vidarte		
* Leonardo Favio		
* Maurice Jouvet		
* Raúl Parini		
* Beto Gianola

==References==
 

== External links ==
* 

 
 
 
 
 
 
 
 

 