Largo viaje
{{Infobox film
| name           =Largo Viaje De Patricio Kaulen-(1967)CHILE
| image          =
| image_size     =
| caption        =
| director       = Patricio Kaulen
| producer       =
| writer         =
| narrator       =
| starring       =
| music          =
| cinematography =
| editor       =
| distributor    =
| released       = 1967
| runtime        =
| country        = Chile Spanish
| budget         =
}}
 1967 Chile|Chilean film.

==Cast==
 

==External links==
*  

 
 
 
 
 

 