La Mujer de tu prójimo
{{Infobox film
| name           =La Mujer de tu prójimo
| image          =
| image_size     =
| caption        =
| director       =
| producer       =
| writer         =
| narrator       =
| starring       =
| music          =
| cinematography =
| editor       =
| distributor    =
| released       = 1966
| runtime        =
| country        = Argentina Spanish
| budget         =
}}
 1966 Argentina|Argentine film.

==Cast==
 

==External links==
*  

 
 
 
 

 