El Club del clan
 

{{Infobox film
| name           =El Club del clan
| image          =
| image_size     =
| caption        =
| director       =
| producer       =
| writer         =
| narrator       =
| starring       =Palito Ortega - Violeta Rivas - Johny Tedesco
| music          =
| cinematography =
| editor       =
| distributor    =
| released       = 1964
| runtime        =
| country        = Argentina Spanish
| budget         =
}}
 1964 Argentina|Argentine film.

==Cast==
 

==External links==
*  
Palito Ortega - Violeta Rivas - Johny Tedesco - Jolly Land

 
 
 
 
 


 