Cuando los hombres hablan de mujeres
{{Infobox film
| name           =Cuando los hombres hablan de mujeres
| image          =
| image_size     =
| caption        =
| director       =
| producer       =
| writer         =
| narrator       =
| starring       =
| music          =
| cinematography =
| editor       =
| distributor    =
| released       = 1967
| runtime        =
| country        = Argentina Spanish
| budget         =
}}
 1967 Argentina|Argentine film.

==External links==
*  

 
 
 
 

 