La Casa de Madame Lulù
{{Infobox film
| name           =La Casa de Madame Lulù
| image          =
| image_size     =
| caption        =
| director       =Julio Porter
| producer       =
| writer         =Julio Porter, Diego Santillian
| narrator       =
| starring       =Libertad Leblanc, Juan Carlos Altavista, and Alberto Anchart
| music          =
| cinematography =
| editor       =
| distributor    =
| released       = 1968
| runtime        =
| country        = Argentina Spanish
| budget         =
}}
 1968 Argentina|Argentine comedy.

==Cast==
 

==External links==
*  

 
 
 
 

 