Embrujada
{{Infobox film
| name           =Embrujada
| image          =
| image_size     =
| caption        =
| director       = Armando Bó
| producer       = Armando Bó
| writer         =
| narrator       =
| starring       = Isabel Sarli
| music          =
| cinematography =
| editor       =
| distributor    =
| released       = 1969
| runtime        =
| country        = Argentina Spanish
| budget         =
}}
 1969 Argentina|Argentine film directed by Armando Bó.

==Cast==
 

==External links==
*  

 
 
 

 