El Día que me quieras (1969 film)
 

{{Infobox film
| name           =El Día que me quieras
| image          =
| image_size     =
| caption        =
| director       =
| producer       =
| writer         =
| narrator       =
| starring       =
| music          =
| cinematography =
| editor       =
| distributor    =
| released       = 1969
| runtime        =
| country        = Argentina Spanish
| budget         =
}}
 1969 Argentina|Argentine film.

==Cast==
 

==External links==
*  

 
 
 
 


 