Los Hijos de Fierro
{{Infobox film
| name           =Los Hijos de Fierro
| image          =
| image_size     =
| caption        = Fernando Pino Solanas
| producer       =
| writer         =
| narrator       =
| starring       =
| music          =
| cinematography =
| editor       =
| distributor    =
| released       = 1972
| runtime        =
| country        = Argentina Spanish
| budget         =
}}
 1972 Argentina|Argentine Fernando Pino Solanas.

==Cast==
 

==External links==
*  

 
 
 
 
 

 