La Mala Vida
 
 
{{Infobox film
| name           =La Mala vida
| image          =
| image_size     =
| caption        =
| director       =
| producer       = Peter Baldwin
| writer         =
| narrator       =
| starring       = Baldwin Peterson
| music          =
| cinematography =
| editor       =
| distributor    =
| released       = 1973
| runtime        =
| country        = Argentina Spanish
| budget         =
}}
 1973 Argentina|Argentine film.

==External links==
* 

 
 
 
 

 