Furia infernal
{{Infobox film
| name           =Furia infernal
| image          =
| image_size     =
| caption        =
| director       = Armando Bó
| producer       =
| writer         = Armando Bó
| narrator       =
| starring       = Isabel Sarli
| music          =
| cinematography =
| editor         =
| distributor    =
| released       = 1973
| runtime        =
| country        = Argentina Spanish
| budget         =
}}
 Argentine drama film directed by Armando Bó and starring Isabel Sarli.

==Cast==
 

==References==
 

==External links==
*  

 
 
 
 
 

 