Los Padrinos
{{Infobox film
| name           =Los Padrinos
| image          =
| image_size     =
| caption        =
| director       =Enrique Carreras
| producer       =
| writer         =Enrique Carreras Abel Santacruz
| narrator       =
| starring       =
| music          =
| cinematography =
| editor       =
| distributor    =
| released       = 1973
| runtime        =90 Minutes
| country        = Argentina Spanish
| budget         =
}}
 1973 Argentina|Argentine film.

==Cast==
* Gabriel Aragon
* Mercedes Carreras Emilio Aragon

==External links==
*  

 
 
 
 
 

 