Los Golpes bajos
 

{{Infobox film
| name           =Los Golpes bajos
| image          =
| image_size     =
| caption        =
| director       =
| producer       =
| writer         =
| narrator       =
| starring       =
| music          =
| cinematography =
| editor       =
| distributor    =
| released       = 1974
| runtime        =
| country        = Argentina Spanish
| budget         =
}}
 1974 Argentina|Argentine film written by Mario Mactas and Mario Sábato, directed by Mario Sábato and starring Adrian Ghio.

==Cast==
 

==External links==
*  

 
 
 
 


 