Yo maté a Facundo
{{Infobox film
| name           =Yo maté a Facundo
| image          =
| image_size     =
| caption        =
| director       =
| producer       =
| writer         =
| narrator       =
| starring       =
| music          =
| cinematography =
| editor       =
| distributor    =
| released       = 1975
| runtime        =
| country        = Argentina Spanish
| budget         =
}}
 1975 Argentina|Argentine film. The plot is a fictional account about Argentine outlaw Santos Pérez, leader of the gang which murdered La Rioja Province, Argentina|Riojas caudillo Facundo Quiroga in 1835.

==Cast==
 

==External links==
*  

 
 
 
 
 

 