La Vuelta de Martín Fierro
 
{{Infobox film
| name           =La Vuelta de Martín Fierro
| image          =
| image_size     =
| caption        =
| director       = Enrique Dawi
| producer       =
| writer         = Enrique Dawi (adapted from José Hernández (writer)|José Hernández)
| narrator       =
| starring       = Enrique Alonso Hugo Arana   Enzo Bai
| music          =
| cinematography = Aníbal González Paz
| editor       = Jorge Gárate
| distributor    =
| released       = 1974
| runtime        =
| country        = Argentina Spanish
| budget         =
}}
 1974 Argentina|Argentine film directed by Enrique Dawi and based on the second part of the poem Martín Fierro by José Hernández (writer)|José Hernández.

==Cast==
 

==External links==
*  

 
 
 
 

 